{
    "Fill": "8999",
    "Date": "28Jun2023",
    "Run": [
        369802,
        369802
    ],
    "InputDIPFile": "../output/out_arcBPM/dipfiles/dip_8999_29Jun23_013650_29Jun23_022406.csv",
    "ScanNames": [
        "X1",
        "Y1"
    ],
    "ScanTypes": [
        "NormalX",
        "NormalY"
    ],
    "ScanTimeWindows": [
        [
            1687995531,
            1687996609
        ],
        [
            1687997065,
            1687998133
        ]
    ],
    "BetaStar": 19.2,
    "Angle": 0.0,
    "Offset": [
        0.0,
        0.0
    ],
    "ParticleTypeB1": "proton",
    "ParticleTypeB2": "proton",
    "EnergyB1": 6799,
    "EnergyB2": 6799,
    "Scans": [
        {
            "NumPoints": 19,
            "ScanNumber": 1,
            "ScanName": "X1",
            "ScanType": "NormalX",
            "StartTimes": [
                1687995531,
                1687995588,
                1687995646,
                1687995703,
                1687995761,
                1687995818,
                1687995877,
                1687995933,
                1687995990,
                1687996049,
                1687996105,
                1687996164,
                1687996220,
                1687996277,
                1687996336,
                1687996392,
                1687996449,
                1687996507,
                1687996564
            ],
            "StopTimes": [
                1687995576,
                1687995633,
                1687995692,
                1687995748,
                1687995805,
                1687995863,
                1687995920,
                1687995979,
                1687996035,
                1687996092,
                1687996151,
                1687996207,
                1687996266,
                1687996322,
                1687996379,
                1687996437,
                1687996494,
                1687996553,
                1687996609
            ],
            "XDisplacements": [
                0.433318,
                0.385172,
                0.337025,
                0.288879,
                0.240732,
                0.192586,
                0.144439,
                0.096293,
                0.048146,
                0.0,
                -0.048146,
                -0.096293,
                -0.144439,
                -0.192586,
                -0.240732,
                -0.288879,
                -0.337025,
                -0.385172,
                -0.433318
            ],
            "YDisplacements": [
                0.0,
                0.0,
                0.0,
                0.0,
                0.0,
                0.0,
                0.0,
                0.0,
                0.0,
                0.0,
                0.0,
                0.0,
                0.0,
                0.0,
                0.0,
                0.0,
                0.0,
                0.0,
                0.0
            ],
            "RelativeDisplacements": [
                0.433318,
                0.385172,
                0.337025,
                0.288879,
                0.240732,
                0.192586,
                0.144439,
                0.096293,
                0.048146,
                0.0,
                -0.048146,
                -0.096293,
                -0.144439,
                -0.192586,
                -0.240732,
                -0.288879,
                -0.337025,
                -0.385172,
                -0.433318
            ]
        },
        {
            "NumPoints": 19,
            "ScanNumber": 2,
            "ScanName": "Y1",
            "ScanType": "NormalY",
            "StartTimes": [
                1687997065,
                1687997124,
                1687997181,
                1687997236,
                1687997293,
                1687997350,
                1687997406,
                1687997465,
                1687997522,
                1687997577,
                1687997634,
                1687997690,
                1687997747,
                1687997804,
                1687997861,
                1687997918,
                1687997975,
                1687998031,
                1687998088
            ],
            "StopTimes": [
                1687997111,
                1687997167,
                1687997224,
                1687997281,
                1687997338,
                1687997395,
                1687997452,
                1687997508,
                1687997565,
                1687997622,
                1687997679,
                1687997736,
                1687997792,
                1687997849,
                1687997906,
                1687997963,
                1687998020,
                1687998077,
                1687998133
            ],
            "XDisplacements": [
                0.0,
                0.0,
                0.0,
                0.0,
                0.0,
                0.0,
                0.0,
                0.0,
                0.0,
                0.0,
                0.0,
                0.0,
                0.0,
                0.0,
                0.0,
                0.0,
                0.0,
                0.0,
                0.0
            ],
            "YDisplacements": [
                0.433318,
                0.385172,
                0.337025,
                0.288879,
                0.240732,
                0.192586,
                0.144439,
                0.096293,
                0.048146,
                0.0,
                -0.048146,
                -0.096293,
                -0.144439,
                -0.192586,
                -0.240732,
                -0.288879,
                -0.337025,
                -0.385172,
                -0.433318
            ],
            "RelativeDisplacements": [
                0.433318,
                0.385172,
                0.337025,
                0.288879,
                0.240732,
                0.192586,
                0.144439,
                0.096293,
                0.048146,
                0.0,
                -0.048146,
                -0.096293,
                -0.144439,
                -0.192586,
                -0.240732,
                -0.288879,
                -0.337025,
                -0.385172,
                -0.433318
            ]
        }
    ],
    "Scan_1": [
        [
            1,
            "X1",
            1,
            1687995531,
            1687995576,
            0.433318,
            0.433318,
            0.0
        ],
        [
            1,
            "X1",
            2,
            1687995588,
            1687995633,
            0.385172,
            0.385172,
            0.0
        ],
        [
            1,
            "X1",
            3,
            1687995646,
            1687995692,
            0.337025,
            0.337025,
            0.0
        ],
        [
            1,
            "X1",
            4,
            1687995703,
            1687995748,
            0.288879,
            0.288879,
            0.0
        ],
        [
            1,
            "X1",
            5,
            1687995761,
            1687995805,
            0.240732,
            0.240732,
            0.0
        ],
        [
            1,
            "X1",
            6,
            1687995818,
            1687995863,
            0.192586,
            0.192586,
            0.0
        ],
        [
            1,
            "X1",
            7,
            1687995877,
            1687995920,
            0.144439,
            0.144439,
            0.0
        ],
        [
            1,
            "X1",
            8,
            1687995933,
            1687995979,
            0.096293,
            0.096293,
            0.0
        ],
        [
            1,
            "X1",
            9,
            1687995990,
            1687996035,
            0.048146,
            0.048146,
            0.0
        ],
        [
            1,
            "X1",
            10,
            1687996049,
            1687996092,
            0.0,
            0.0,
            0.0
        ],
        [
            1,
            "X1",
            11,
            1687996105,
            1687996151,
            -0.048146,
            -0.048146,
            0.0
        ],
        [
            1,
            "X1",
            12,
            1687996164,
            1687996207,
            -0.096293,
            -0.096293,
            0.0
        ],
        [
            1,
            "X1",
            13,
            1687996220,
            1687996266,
            -0.144439,
            -0.144439,
            0.0
        ],
        [
            1,
            "X1",
            14,
            1687996277,
            1687996322,
            -0.192586,
            -0.192586,
            0.0
        ],
        [
            1,
            "X1",
            15,
            1687996336,
            1687996379,
            -0.240732,
            -0.240732,
            0.0
        ],
        [
            1,
            "X1",
            16,
            1687996392,
            1687996437,
            -0.288879,
            -0.288879,
            0.0
        ],
        [
            1,
            "X1",
            17,
            1687996449,
            1687996494,
            -0.337025,
            -0.337025,
            0.0
        ],
        [
            1,
            "X1",
            18,
            1687996507,
            1687996553,
            -0.385172,
            -0.385172,
            0.0
        ],
        [
            1,
            "X1",
            19,
            1687996564,
            1687996609,
            -0.433318,
            -0.433318,
            0.0
        ]
    ],
    "Scan_2": [
        [
            2,
            "Y1",
            1,
            1687997065,
            1687997111,
            0.433318,
            0.0,
            0.433318
        ],
        [
            2,
            "Y1",
            2,
            1687997124,
            1687997167,
            0.385172,
            0.0,
            0.385172
        ],
        [
            2,
            "Y1",
            3,
            1687997181,
            1687997224,
            0.337025,
            0.0,
            0.337025
        ],
        [
            2,
            "Y1",
            4,
            1687997236,
            1687997281,
            0.288879,
            0.0,
            0.288879
        ],
        [
            2,
            "Y1",
            5,
            1687997293,
            1687997338,
            0.240732,
            0.0,
            0.240732
        ],
        [
            2,
            "Y1",
            6,
            1687997350,
            1687997395,
            0.192586,
            0.0,
            0.192586
        ],
        [
            2,
            "Y1",
            7,
            1687997406,
            1687997452,
            0.144439,
            0.0,
            0.144439
        ],
        [
            2,
            "Y1",
            8,
            1687997465,
            1687997508,
            0.096293,
            0.0,
            0.096293
        ],
        [
            2,
            "Y1",
            9,
            1687997522,
            1687997565,
            0.048146,
            0.0,
            0.048146
        ],
        [
            2,
            "Y1",
            10,
            1687997577,
            1687997622,
            0.0,
            0.0,
            0.0
        ],
        [
            2,
            "Y1",
            11,
            1687997634,
            1687997679,
            -0.048146,
            0.0,
            -0.048146
        ],
        [
            2,
            "Y1",
            12,
            1687997690,
            1687997736,
            -0.096293,
            0.0,
            -0.096293
        ],
        [
            2,
            "Y1",
            13,
            1687997747,
            1687997792,
            -0.144439,
            0.0,
            -0.144439
        ],
        [
            2,
            "Y1",
            14,
            1687997804,
            1687997849,
            -0.192586,
            0.0,
            -0.192586
        ],
        [
            2,
            "Y1",
            15,
            1687997861,
            1687997906,
            -0.240732,
            0.0,
            -0.240732
        ],
        [
            2,
            "Y1",
            16,
            1687997918,
            1687997963,
            -0.288879,
            0.0,
            -0.288879
        ],
        [
            2,
            "Y1",
            17,
            1687997975,
            1687998020,
            -0.337025,
            0.0,
            -0.337025
        ],
        [
            2,
            "Y1",
            18,
            1687998031,
            1687998077,
            -0.385172,
            0.0,
            -0.385172
        ],
        [
            2,
            "Y1",
            19,
            1687998088,
            1687998133,
            -0.433318,
            0.0,
            -0.433318
        ]
    ]
}