1.7976960869954919,1.796670902255215,1.7961475904661035,1.795601279959719,1.7955231302460004,1.7953147598389945,1.7954060680779707,1.7953988469218742,1.7955145737387739,1.795729421587345,1.7960698947524039,1.7963629358731636,1.7968420870338935,1.797463111810985,1.798015907143932,1.7988935467435039,1.7995334900023334,1.800645431722776,1.800884090184774
1.7995825669290348,1.799455001234473,1.7999055021471224,1.7999018180155832,1.8002014620150641,1.8005163781974407,1.8009680570305688,1.8013539590130625,1.801784927073998,1.802070295848563,1.8021307798693533,1.8022726488082315,1.8023534621149317,1.8024968172069822,1.8025815036397475,1.8026227627196458,1.8026767181656187,1.802759267553085,1.801722500218594
136
