{
    "Fill": "8999",
    "Date": "29Jun2023",
    "Run": [
        369802,
        369802
    ],
    "InputDIPFile": "../output/out_arcBPM/dipfiles/dip_8999_29Jun23_123126_29Jun23_131240.csv",
    "ScanNames": [
        "X1",
        "Y1"
    ],
    "ScanTypes": [
        "NormalX",
        "NormalY"
    ],
    "ScanTimeWindows": [
        [
            1688034777,
            1688035725
        ],
        [
            1688036114,
            1688037069
        ]
    ],
    "BetaStar": 19.2,
    "Angle": 0.0,
    "Offset": [
        0.0,
        0.0
    ],
    "ParticleTypeB1": "proton",
    "ParticleTypeB2": "proton",
    "EnergyB1": 6799,
    "EnergyB2": 6799,
    "Scans": [
        {
            "NumPoints": 25,
            "ScanNumber": 1,
            "ScanName": "X1",
            "ScanType": "NormalX",
            "StartTimes": [
                1688034777,
                1688034816,
                1688034854,
                1688034892,
                1688034931,
                1688034969,
                1688035007,
                1688035046,
                1688035084,
                1688035122,
                1688035161,
                1688035199,
                1688035237,
                1688035277,
                1688035314,
                1688035352,
                1688035390,
                1688035430,
                1688035467,
                1688035505,
                1688035545,
                1688035583,
                1688035620,
                1688035658,
                1688035698
            ],
            "StopTimes": [
                1688034806,
                1688034844,
                1688034883,
                1688034921,
                1688034959,
                1688034998,
                1688035036,
                1688035074,
                1688035112,
                1688035151,
                1688035189,
                1688035228,
                1688035266,
                1688035304,
                1688035342,
                1688035381,
                1688035419,
                1688035457,
                1688035497,
                1688035534,
                1688035572,
                1688035610,
                1688035650,
                1688035687,
                1688035725
            ],
            "XDisplacements": [
                -0.577758,
                -0.529611,
                -0.481465,
                -0.433318,
                -0.385172,
                -0.337025,
                -0.288879,
                -0.240732,
                -0.192586,
                -0.144439,
                -0.096293,
                -0.048146,
                -0.0,
                0.048146,
                0.096293,
                0.144439,
                0.192586,
                0.240732,
                0.288879,
                0.337025,
                0.385172,
                0.433318,
                0.481465,
                0.529611,
                0.577758
            ],
            "YDisplacements": [
                0.0,
                0.0,
                0.0,
                0.0,
                0.0,
                0.0,
                0.0,
                0.0,
                0.0,
                0.0,
                0.0,
                0.0,
                0.0,
                0.0,
                0.0,
                0.0,
                0.0,
                0.0,
                0.0,
                0.0,
                0.0,
                0.0,
                0.0,
                0.0,
                0.0
            ],
            "RelativeDisplacements": [
                -0.577758,
                -0.529611,
                -0.481465,
                -0.433318,
                -0.385172,
                -0.337025,
                -0.288879,
                -0.240732,
                -0.192586,
                -0.144439,
                -0.096293,
                -0.048146,
                -0.0,
                0.048146,
                0.096293,
                0.144439,
                0.192586,
                0.240732,
                0.288879,
                0.337025,
                0.385172,
                0.433318,
                0.481465,
                0.529611,
                0.577758
            ]
        },
        {
            "NumPoints": 25,
            "ScanNumber": 2,
            "ScanName": "Y1",
            "ScanType": "NormalY",
            "StartTimes": [
                1688036114,
                1688036154,
                1688036192,
                1688036229,
                1688036269,
                1688036307,
                1688036346,
                1688036384,
                1688036422,
                1688036461,
                1688036499,
                1688036538,
                1688036576,
                1688036615,
                1688036653,
                1688036693,
                1688036731,
                1688036770,
                1688036808,
                1688036847,
                1688036885,
                1688036923,
                1688036962,
                1688037000,
                1688037039
            ],
            "StopTimes": [
                1688036143,
                1688036181,
                1688036219,
                1688036259,
                1688036296,
                1688036336,
                1688036374,
                1688036413,
                1688036451,
                1688036489,
                1688036528,
                1688036566,
                1688036605,
                1688036645,
                1688036682,
                1688036720,
                1688036760,
                1688036798,
                1688036837,
                1688036875,
                1688036914,
                1688036952,
                1688036990,
                1688037029,
                1688037069
            ],
            "XDisplacements": [
                0.0,
                0.0,
                0.0,
                0.0,
                0.0,
                0.0,
                0.0,
                0.0,
                0.0,
                0.0,
                0.0,
                0.0,
                0.0,
                0.0,
                0.0,
                0.0,
                0.0,
                0.0,
                0.0,
                0.0,
                0.0,
                0.0,
                0.0,
                0.0,
                0.0
            ],
            "YDisplacements": [
                -0.577758,
                -0.529611,
                -0.481465,
                -0.433318,
                -0.385172,
                -0.337025,
                -0.288879,
                -0.240732,
                -0.192586,
                -0.144439,
                -0.096293,
                -0.048146,
                -0.0,
                0.048146,
                0.096293,
                0.144439,
                0.192586,
                0.240732,
                0.288879,
                0.337025,
                0.385172,
                0.433318,
                0.481465,
                0.529611,
                0.577758
            ],
            "RelativeDisplacements": [
                -0.577758,
                -0.529611,
                -0.481465,
                -0.433318,
                -0.385172,
                -0.337025,
                -0.288879,
                -0.240732,
                -0.192586,
                -0.144439,
                -0.096293,
                -0.048146,
                -0.0,
                0.048146,
                0.096293,
                0.144439,
                0.192586,
                0.240732,
                0.288879,
                0.337025,
                0.385172,
                0.433318,
                0.481465,
                0.529611,
                0.577758
            ]
        }
    ],
    "Scan_1": [
        [
            1,
            "X1",
            1,
            1688034777,
            1688034806,
            -0.577758,
            -0.577758,
            0.0
        ],
        [
            1,
            "X1",
            2,
            1688034816,
            1688034844,
            -0.529611,
            -0.529611,
            0.0
        ],
        [
            1,
            "X1",
            3,
            1688034854,
            1688034883,
            -0.481465,
            -0.481465,
            0.0
        ],
        [
            1,
            "X1",
            4,
            1688034892,
            1688034921,
            -0.433318,
            -0.433318,
            0.0
        ],
        [
            1,
            "X1",
            5,
            1688034931,
            1688034959,
            -0.385172,
            -0.385172,
            0.0
        ],
        [
            1,
            "X1",
            6,
            1688034969,
            1688034998,
            -0.337025,
            -0.337025,
            0.0
        ],
        [
            1,
            "X1",
            7,
            1688035007,
            1688035036,
            -0.288879,
            -0.288879,
            0.0
        ],
        [
            1,
            "X1",
            8,
            1688035046,
            1688035074,
            -0.240732,
            -0.240732,
            0.0
        ],
        [
            1,
            "X1",
            9,
            1688035084,
            1688035112,
            -0.192586,
            -0.192586,
            0.0
        ],
        [
            1,
            "X1",
            10,
            1688035122,
            1688035151,
            -0.144439,
            -0.144439,
            0.0
        ],
        [
            1,
            "X1",
            11,
            1688035161,
            1688035189,
            -0.096293,
            -0.096293,
            0.0
        ],
        [
            1,
            "X1",
            12,
            1688035199,
            1688035228,
            -0.048146,
            -0.048146,
            0.0
        ],
        [
            1,
            "X1",
            13,
            1688035237,
            1688035266,
            -0.0,
            -0.0,
            0.0
        ],
        [
            1,
            "X1",
            14,
            1688035277,
            1688035304,
            0.048146,
            0.048146,
            0.0
        ],
        [
            1,
            "X1",
            15,
            1688035314,
            1688035342,
            0.096293,
            0.096293,
            0.0
        ],
        [
            1,
            "X1",
            16,
            1688035352,
            1688035381,
            0.144439,
            0.144439,
            0.0
        ],
        [
            1,
            "X1",
            17,
            1688035390,
            1688035419,
            0.192586,
            0.192586,
            0.0
        ],
        [
            1,
            "X1",
            18,
            1688035430,
            1688035457,
            0.240732,
            0.240732,
            0.0
        ],
        [
            1,
            "X1",
            19,
            1688035467,
            1688035497,
            0.288879,
            0.288879,
            0.0
        ],
        [
            1,
            "X1",
            20,
            1688035505,
            1688035534,
            0.337025,
            0.337025,
            0.0
        ],
        [
            1,
            "X1",
            21,
            1688035545,
            1688035572,
            0.385172,
            0.385172,
            0.0
        ],
        [
            1,
            "X1",
            22,
            1688035583,
            1688035610,
            0.433318,
            0.433318,
            0.0
        ],
        [
            1,
            "X1",
            23,
            1688035620,
            1688035650,
            0.481465,
            0.481465,
            0.0
        ],
        [
            1,
            "X1",
            24,
            1688035658,
            1688035687,
            0.529611,
            0.529611,
            0.0
        ],
        [
            1,
            "X1",
            25,
            1688035698,
            1688035725,
            0.577758,
            0.577758,
            0.0
        ]
    ],
    "Scan_2": [
        [
            2,
            "Y1",
            1,
            1688036114,
            1688036143,
            -0.577758,
            0.0,
            -0.577758
        ],
        [
            2,
            "Y1",
            2,
            1688036154,
            1688036181,
            -0.529611,
            0.0,
            -0.529611
        ],
        [
            2,
            "Y1",
            3,
            1688036192,
            1688036219,
            -0.481465,
            0.0,
            -0.481465
        ],
        [
            2,
            "Y1",
            4,
            1688036229,
            1688036259,
            -0.433318,
            0.0,
            -0.433318
        ],
        [
            2,
            "Y1",
            5,
            1688036269,
            1688036296,
            -0.385172,
            0.0,
            -0.385172
        ],
        [
            2,
            "Y1",
            6,
            1688036307,
            1688036336,
            -0.337025,
            0.0,
            -0.337025
        ],
        [
            2,
            "Y1",
            7,
            1688036346,
            1688036374,
            -0.288879,
            0.0,
            -0.288879
        ],
        [
            2,
            "Y1",
            8,
            1688036384,
            1688036413,
            -0.240732,
            0.0,
            -0.240732
        ],
        [
            2,
            "Y1",
            9,
            1688036422,
            1688036451,
            -0.192586,
            0.0,
            -0.192586
        ],
        [
            2,
            "Y1",
            10,
            1688036461,
            1688036489,
            -0.144439,
            0.0,
            -0.144439
        ],
        [
            2,
            "Y1",
            11,
            1688036499,
            1688036528,
            -0.096293,
            0.0,
            -0.096293
        ],
        [
            2,
            "Y1",
            12,
            1688036538,
            1688036566,
            -0.048146,
            0.0,
            -0.048146
        ],
        [
            2,
            "Y1",
            13,
            1688036576,
            1688036605,
            -0.0,
            0.0,
            -0.0
        ],
        [
            2,
            "Y1",
            14,
            1688036615,
            1688036645,
            0.048146,
            0.0,
            0.048146
        ],
        [
            2,
            "Y1",
            15,
            1688036653,
            1688036682,
            0.096293,
            0.0,
            0.096293
        ],
        [
            2,
            "Y1",
            16,
            1688036693,
            1688036720,
            0.144439,
            0.0,
            0.144439
        ],
        [
            2,
            "Y1",
            17,
            1688036731,
            1688036760,
            0.192586,
            0.0,
            0.192586
        ],
        [
            2,
            "Y1",
            18,
            1688036770,
            1688036798,
            0.240732,
            0.0,
            0.240732
        ],
        [
            2,
            "Y1",
            19,
            1688036808,
            1688036837,
            0.288879,
            0.0,
            0.288879
        ],
        [
            2,
            "Y1",
            20,
            1688036847,
            1688036875,
            0.337025,
            0.0,
            0.337025
        ],
        [
            2,
            "Y1",
            21,
            1688036885,
            1688036914,
            0.385172,
            0.0,
            0.385172
        ],
        [
            2,
            "Y1",
            22,
            1688036923,
            1688036952,
            0.433318,
            0.0,
            0.433318
        ],
        [
            2,
            "Y1",
            23,
            1688036962,
            1688036990,
            0.481465,
            0.0,
            0.481465
        ],
        [
            2,
            "Y1",
            24,
            1688037000,
            1688037029,
            0.529611,
            0.0,
            0.529611
        ],
        [
            2,
            "Y1",
            25,
            1688037039,
            1688037069,
            0.577758,
            0.0,
            0.577758
        ]
    ]
}