XscanNumber_YscanNumber,Type,BCID,xsec,xsecErr,SBIL,SBILErr
1_2,XY,103,138.80603829408395,1.0475578571714586,0.0667600797336493,0.0005806476020756185
1_2,XY,124,135.18034962363328,0.9645324029717867,0.08033056709538454,0.0006578574216096537
1_2,XY,145,134.70643446035228,1.150569327923261,0.06522618371207342,0.0006397129240196622
1_2,XY,166,135.9826863994458,0.985395000804775,0.0748666012704976,0.0006169352108882318
1_2,XY,187,135.38237252882402,1.0479966127130484,0.06542112725385409,0.0005748604076723898
1_2,XY,208,135.22827804079276,1.1852161916979245,0.06892438664721896,0.0006862932270367065
1_2,XY,229,133.8063684655585,1.0848665223684808,0.07110011071618046,0.0006709084974625165
1_2,XY,250,135.25960073310378,1.0224384036541971,0.07698780729289964,0.0006626960727243532
1_2,XY,282,136.02324920344242,1.1093872543255745,0.07505403479403877,0.0007076921395640358
1_2,XY,303,134.6002662955716,1.0514562210705478,0.0789462387637193,0.0007089976173077993
1_2,XY,324,135.52426639972424,1.0969433668390165,0.0717694114552771,0.0006647294815617686
1_2,XY,345,134.49634047054488,0.9770961500468619,0.0809867768508905,0.0006682666263308812
1_2,XY,366,135.46861578349535,0.9966779496079624,0.07215738058320079,0.0006108070447707042
1_2,XY,387,135.30116138028066,0.9691136310221793,0.07999319382861184,0.000653542543902716
1_2,XY,408,134.5186089049496,1.1534193977541878,0.06907752204611338,0.0006757481819883851
1_2,XY,429,134.83395348325996,1.0051795818205795,0.07735782947621625,0.0006595792476062059
1_2,XY,464,135.40134790918432,1.0045114044230559,0.07503174282600222,0.0006415311231803504
1_2,XY,485,135.55301054489283,1.0612955350499857,0.0775606900792255,0.0006894837912744173
1_2,XY,506,136.50948404445356,1.0278732457542499,0.06579481799288049,0.0005743930517004352
1_2,XY,527,135.18591049531145,1.0972888172774689,0.07414573136768933,0.0006895019536807444
1_2,XY,548,136.31920468742518,0.9706345729365382,0.07165072387164617,0.000596211243784634
1_2,XY,569,134.89491534948527,0.9447392033255164,0.08093122421970106,0.0006503856791538911
1_2,XY,590,135.2957834871083,1.0399528247258485,0.0700293726267188,0.0006175232503805562
1_2,XY,611,135.11497295487032,1.0616318645237355,0.07860124870808781,0.0007058750946196429
1_2,XY,643,135.4724669425178,1.0712726186688302,0.07367150334460706,0.0006591939875462202
1_2,XY,664,136.4185052525533,1.0321501475193104,0.07623290982869252,0.0006639477297388052
1_2,XY,685,133.7741274147603,1.04629557674,0.06762237257354275,0.000603964005344073
1_2,XY,706,135.87068702125347,0.9414078002932103,0.07384951775671304,0.0005824614760601464
1_2,XY,727,134.853849771079,1.1017664410656978,0.07011758154435208,0.0006627412815950916
1_2,XY,748,135.53848650250723,1.03474108945394,0.0795289585494825,0.0006968891538146283
1_2,XY,769,134.6136803031963,1.0899732966687217,0.06439237295713165,0.0005984805695394607
1_2,XY,790,135.32860633327635,1.0046362172617769,0.0728763909097854,0.0006185681456071419
1_2,XY,822,138.88690421833653,1.0383975560288161,0.0698213971193797,0.0005988519467384572
1_2,XY,843,136.1452302065576,0.9200980107222171,0.0767100252826781,0.0005964980890593239
1_2,XY,864,135.64783894372925,1.1201117073540157,0.06997881505743345,0.0006571501872967002
1_2,XY,885,135.04876457441608,1.0273764134746277,0.08142627721932114,0.0007081931659116892
1_2,XY,906,134.51169382561727,1.0667532145374883,0.06861379180860525,0.0006207455741006864
1_2,XY,927,134.9877593336922,0.909180022493446,0.0780450751102375,0.0005920308526857872
1_2,XY,948,135.71446834137637,1.0493183311067937,0.06870290493094683,0.0006036169575576717
1_2,XY,969,134.6032857551333,1.1821657059913475,0.07685092329135831,0.0007715944874168446
1_2,XY,1018,135.03915953115091,1.0304714587769266,0.0749884656618975,0.0006587172901916387
1_2,XY,1039,135.62820100829603,1.0506639625397414,0.07869899590637702,0.0007013560654738788
1_2,XY,1060,136.08115290899772,0.9816633970162655,0.06955755036900621,0.000561308849533834
1_2,XY,1081,136.53877012719028,1.032026410653919,0.07689957236045396,0.0006661437042844658
1_2,XY,1102,135.13034369702285,1.171080411562262,0.06806445118200902,0.0006642144780726694
1_2,XY,1123,135.13265777980573,1.3369487537985478,0.07547390769505866,0.0008371155370610313
1_2,XY,1144,134.6552544473867,1.1574471354806715,0.06993228050895024,0.0006841216404028136
1_2,XY,1165,135.1835132638045,1.0275641561097266,0.0802892843341526,0.0006914844954489795
1_2,XY,1197,136.21736851535314,1.02893283421759,0.07197099567646309,0.0006291393647294033
1_2,XY,1218,134.5772335171115,1.0433280561023373,0.07931756492647621,0.0007037083395708447
1_2,XY,1239,134.40779910151394,1.120738368476837,0.06995162151495904,0.0006723448743989049
1_2,XY,1260,136.62358480081153,0.6813244595241637,0.07755536282792597,0.0004449575290310037
1_2,XY,1281,135.87176209473563,0.9705648949880683,0.07058241078145007,0.0005723507222234852
1_2,XY,1302,135.59734306399554,1.110971756761624,0.0793015046011439,0.0007579685904598922
1_2,XY,1323,134.7275905679725,1.051387156642827,0.06560809650967175,0.0005813650266978641
1_2,XY,1344,136.09664598630573,1.007776366544546,0.07618238161380068,0.0006433346039817878
1_2,XY,1376,136.46987612645384,1.1669600239040339,0.07193067541760342,0.000709476366957113
1_2,XY,1397,136.44901947456398,0.9270848987269931,0.07510398866994192,0.0005849239522119884
1_2,XY,1418,135.54869481618567,1.0272113618282004,0.07261379749132242,0.0006308355427918293
1_2,XY,1439,137.28379102111538,1.1014171603067058,0.0656279110407905,0.0006010703714624275
1_2,XY,1460,135.24322713920105,1.2012268813488594,0.07011582884579255,0.0007128612410607712
1_2,XY,1481,134.7593715378991,1.1521290587293649,0.07824118228674752,0.0007675818028768377
1_2,XY,1502,133.91035692419857,1.2012704504776797,0.07042064741001826,0.0007259415775483618
1_2,XY,1523,138.22662451265907,1.018620591634044,0.06404089725323195,0.0005370120814147182
1_2,XY,1555,137.1989602757899,1.1544242838151735,0.06557445875943087,0.0006220532504845248
1_2,XY,1576,137.72862643629276,1.1519601830856265,0.06840888461491394,0.0006588146596360849
1_2,XY,1597,137.2594977651214,1.2164715486848954,0.0609719840355296,0.0006199517535318867
1_2,XY,1618,138.47595952992316,0.9878863319458954,0.0671830357215104,0.0005557244995777309
1_2,XY,1639,136.82215445940147,0.9111052203239194,0.0785639329647244,0.0005996008682793879
1_2,XY,1660,135.52505706043218,0.8613677982907568,0.08363829956526725,0.0006175608698995414
1_2,XY,1681,135.6962863496319,1.0037205838283492,0.07553933003226722,0.00064935142367186
1_2,XY,1702,135.64639024820679,1.0016217197035597,0.08159270523138522,0.0007000600782053114
1_2,XY,1734,136.19848582648743,1.0130608218012713,0.07316644737040666,0.0006213234566213793
1_2,XY,1755,137.67812969994876,1.0495919434387195,0.0618485533767879,0.0005395065324133411
1_2,XY,1776,135.4450498450017,1.0328965626508777,0.07381186133881465,0.0006525110569778605
1_2,XY,1797,135.66597102414337,0.8953600591715036,0.08012645908986134,0.0006135650173615538
1_2,XY,1818,137.47454379643753,1.1520605570977247,0.06850461662671178,0.0006543675244992874
1_2,XY,1839,138.91131983201137,1.0796159339647566,0.06228099735565864,0.000550600150414372
1_2,XY,1860,135.459703818753,1.0781757272224688,0.07689910093323907,0.0007039991985487357
1_2,XY,1881,135.25785589770078,1.0861518778566732,0.08003040244419432,0.0007316710603985268
1_2,XY,1916,135.20456861399038,1.0739348715894497,0.07560418566536055,0.0006833591945688136
1_2,XY,1937,138.3664490485103,1.234641628122913,0.06437411410661624,0.0006602604805020721
1_2,XY,1958,135.1781337269594,1.0287836155804935,0.07248080298816914,0.0006323022808239456
1_2,XY,1979,135.54970644285012,0.8923609733455782,0.07782437058686122,0.0005869936652742513
1_2,XY,2000,135.52192558762096,0.9502803936746994,0.07579816157369407,0.0006054478156298594
1_2,XY,2021,136.62354477728647,0.9337738535170222,0.07918077193689275,0.0006161631044866303
1_2,XY,2042,135.29380146288887,0.9557590155347772,0.07549318226613513,0.0006127037536333332
1_2,XY,2063,134.1343178875069,0.9656055672227963,0.08001632136023054,0.0006713133314606372
1_2,XY,2095,135.45895835824703,0.9289426953698738,0.0745191195393504,0.0005799269957535937
1_2,XY,2116,134.9515323894009,1.1163829294164611,0.07769620743645844,0.0007302969926719196
1_2,XY,2137,135.20110883881833,1.086726016643983,0.0735651277981137,0.0006841358613155448
1_2,XY,2158,134.70828201211347,1.0221706519268898,0.07915392028412202,0.000694271547331523
1_2,XY,2179,135.0611862060896,0.9879036753041056,0.07536635820524595,0.0006257276515936303
1_2,XY,2200,135.80036196843866,1.0284469782745498,0.08059212093956483,0.0006999583442843831
1_2,XY,2221,135.83008987225233,1.091769335883239,0.07651643035451344,0.0007084396593219046
1_2,XY,2242,135.32167804167767,1.0011267609819845,0.07932993360216908,0.0006770902460086488
1_2,XY,2274,136.42343844270198,1.0390230053129004,0.07547626034398457,0.0006581257714515755
1_2,XY,2295,135.9991861734118,1.033635305180496,0.0804926522230881,0.0007113920027667089
1_2,XY,2316,134.96441622113983,1.0924876734831794,0.0750024734718423,0.000695790329901469
1_2,XY,2337,136.98108773906284,0.8846431408392431,0.07536714667701436,0.0005510448401273655
1_2,XY,2358,137.96963009578496,2.034887909338214,0.06721050916400063,0.0011119807858593904
1_2,XY,2379,135.7993920742456,0.9552064490985573,0.07984098730730908,0.0006479787481253173
1_2,XY,2400,134.17564679049426,1.089085477428426,0.0726993520351069,0.000677262268144906
1_2,XY,2421,136.59494021964485,1.0752480124767847,0.07846568033067401,0.0007028648323563751
1_2,XY,2453,136.10465490612248,1.0264057923995138,0.07788859583331662,0.0006743911593369491
1_2,XY,2474,135.90252238269457,1.0344139885864971,0.0822530173810168,0.0007206520751169999
1_2,XY,2495,134.48236526268633,1.089099216466114,0.07490027589666075,0.0006961808782993724
1_2,XY,2516,134.60553000088007,0.9598547284538227,0.08024578844973067,0.0006500066428611681
1_2,XY,2537,136.3735557161814,1.0212722606788047,0.0755658396730137,0.0006421180930655472
1_2,XY,2558,135.77837761042372,0.9061375170223674,0.08230044169689191,0.0006330380106389548
1_2,XY,2579,134.36016897879645,1.414302461203537,0.07962999320419352,0.0009430528321426547
1_2,XY,2600,133.97914431230294,1.0557111864381654,0.08301362732403324,0.0007595029277079394
1_2,XY,2632,134.64387089029458,0.9043743119518082,0.07742472598220287,0.0005887666975942675
1_2,XY,2653,135.30050717468038,0.9589840946444339,0.07802437489806795,0.0006335552330798458
1_2,XY,2674,136.99455212548148,1.0469517627405147,0.06795918807534163,0.0005987749275209759
1_2,XY,2695,134.87018430396614,0.9766518457510459,0.08144260179641573,0.0006824965665803269
1_2,XY,2716,136.07573397058056,1.0017554636311068,0.06742542008186388,0.0005694224282558164
1_2,XY,2737,136.16963935142195,0.9850165395212215,0.0782286632472051,0.0006498122294977327
1_2,XY,2758,134.61266108358328,1.1010551419825845,0.07323407842583254,0.0006914198885574203
1_2,XY,2779,135.5260645119469,0.9266939315376722,0.07774579092592258,0.0006081262062638565
1_2,XY,2818,134.26615340999427,1.0249854835095145,0.07744994536930858,0.0006773788508098885
1_2,XY,2839,134.82984447869978,0.9764210143916151,0.08116376925967639,0.0006726910294207765
1_2,XY,2860,135.71014760654643,1.0586898602875063,0.0759181537687317,0.0006762372759442499
1_2,XY,2881,135.6900688376062,0.987695462586449,0.0805309046653634,0.0006731681888851511
1_2,XY,2902,135.11121785510468,1.0458749111563714,0.07676582553589077,0.0006769755459383538
1_2,XY,2923,135.66084844985576,0.9499508404236205,0.08052990494983782,0.0006489132179450979
1_2,XY,2944,134.98192977087038,1.1262485661747081,0.07392689000496488,0.0006984141808132462
1_2,XY,2965,135.05422754888122,0.9628884991327884,0.07809379015538191,0.0006321729820780252
1_2,XY,2997,135.2440745745573,1.0224914116913408,0.07478653347633038,0.0006499487515517135
1_2,XY,3018,135.14389336790552,1.0521003945640404,0.07942582342305077,0.0007089542181824314
1_2,XY,3039,135.96961869576717,0.9554588585777501,0.07131837884692445,0.0005851737678237391
1_2,XY,3060,135.29016929470058,0.9683379128434307,0.07634984096625418,0.0006176111165827994
1_2,XY,3081,134.992993700307,1.0912618763333046,0.07467803930598699,0.0006933595593624604
1_2,XY,3102,134.446679128713,1.0049188580357546,0.07979192839897586,0.0006825721880764579
1_2,XY,3123,135.51418975145677,0.9474498557205957,0.07708531787117252,0.0006067326689050728
1_2,XY,3144,135.64233352782776,0.9802666315335108,0.08055343045521465,0.0006663766193721553
