[
    [
        "XscanNumber_YscanNumber",
        "Type",
        "BCID",
        "xsec",
        "xsecErr",
        "SBIL",
        "SBILErr"
    ],
    [
        "1_2",
        "XY",
        "103",
        3276.410571696786,
        21.97089124287535,
        0.07091984146546569,
        0.0005427505759605494
    ],
    [
        "1_2",
        "XY",
        "124",
        3249.1141834726423,
        19.89373222462053,
        0.07994615685643117,
        0.0005546252534395884
    ],
    [
        "1_2",
        "XY",
        "145",
        3243.8096979874636,
        23.379691413140687,
        0.06421699583957399,
        0.0005299258965048059
    ],
    [
        "1_2",
        "XY",
        "166",
        3249.310619495567,
        22.428465579666607,
        0.07602794075282676,
        0.0005981204207709333
    ],
    [
        "1_2",
        "XY",
        "187",
        3218.832998148175,
        23.84879585280169,
        0.06547404293141658,
        0.0005431550984221092
    ],
    [
        "1_2",
        "XY",
        "208",
        3230.643818684313,
        24.499318133000067,
        0.07472876169293473,
        0.0006464750075058427
    ],
    [
        "1_2",
        "XY",
        "229",
        3233.5750476433223,
        22.553860875576188,
        0.0708346899246574,
        0.0005616642779609353
    ],
    [
        "1_2",
        "XY",
        "250",
        3229.590926437638,
        22.157651782048006,
        0.07896329575550494,
        0.0006184250761835923
    ],
    [
        "1_2",
        "XY",
        "282",
        3222.322108213671,
        24.639761015865073,
        0.0738549613937389,
        0.000635354776401839
    ],
    [
        "1_2",
        "XY",
        "303",
        3243.015961648731,
        20.42964321709937,
        0.07938302912658259,
        0.0005625938055266326
    ],
    [
        "1_2",
        "XY",
        "324",
        3254.1161887598087,
        20.0291933857499,
        0.07122218894553131,
        0.000491319401038557
    ],
    [
        "1_2",
        "XY",
        "345",
        3238.33396043336,
        21.828027252302487,
        0.08262341389527807,
        0.0006280423732790418
    ],
    [
        "1_2",
        "XY",
        "366",
        3238.768551529674,
        21.797188089219944,
        0.07269052915926066,
        0.0005600259042228918
    ],
    [
        "1_2",
        "XY",
        "387",
        3238.8033266526313,
        19.894926193795413,
        0.08190494664457881,
        0.0005718597035572472
    ],
    [
        "1_2",
        "XY",
        "408",
        3247.581853165602,
        24.27112182378617,
        0.06860114047793887,
        0.0005809256482205769
    ],
    [
        "1_2",
        "XY",
        "429",
        3268.634357088505,
        22.224772059830947,
        0.0779551752303214,
        0.0006007924366303819
    ],
    [
        "1_2",
        "XY",
        "464",
        3244.1832005779233,
        22.076571777657254,
        0.07208262965922635,
        0.0005522229092160602
    ],
    [
        "1_2",
        "XY",
        "485",
        3245.7263987832366,
        19.794276765796344,
        0.07712864321603605,
        0.0005308895663728506
    ],
    [
        "1_2",
        "XY",
        "506",
        3233.5500660291023,
        25.379390863354057,
        0.06660100184706574,
        0.0005956406502277248
    ],
    [
        "1_2",
        "XY",
        "527",
        3218.485735292924,
        22.051041875796546,
        0.07469318116321687,
        0.0005875613139025769
    ],
    [
        "1_2",
        "XY",
        "548",
        3217.583820326654,
        22.145773280948806,
        0.07248947780007199,
        0.0005663772042593058
    ],
    [
        "1_2",
        "XY",
        "569",
        3254.045004170839,
        21.73171359250969,
        0.0803991475199208,
        0.0006111983741771652
    ],
    [
        "1_2",
        "XY",
        "590",
        3245.830878843492,
        23.09898884881243,
        0.06928117461665542,
        0.0005615476673570747
    ],
    [
        "1_2",
        "XY",
        "611",
        3239.5257333331574,
        21.744209965585775,
        0.07825900357085634,
        0.0005932330055746565
    ],
    [
        "1_2",
        "XY",
        "643",
        3236.049082821323,
        20.944755675526885,
        0.07297825753373838,
        0.0005303652356277485
    ],
    [
        "1_2",
        "XY",
        "664",
        3262.9260672923024,
        22.176807584724475,
        0.07568273828024287,
        0.0005841121078104073
    ],
    [
        "1_2",
        "XY",
        "685",
        3249.1954653051093,
        22.029163252164373,
        0.06434567695463045,
        0.000494802391155613
    ],
    [
        "1_2",
        "XY",
        "706",
        3267.2603331571427,
        23.096942118691672,
        0.07137046334508923,
        0.0005731038896302481
    ],
    [
        "1_2",
        "XY",
        "727",
        3209.648019379193,
        19.66159083726574,
        0.06998044240570031,
        0.00048263155085589434
    ],
    [
        "1_2",
        "XY",
        "748",
        3235.509568461448,
        20.526749969913546,
        0.07930927654720203,
        0.0005703778776699723
    ],
    [
        "1_2",
        "XY",
        "769",
        3227.802072329143,
        25.874837668668057,
        0.06345444155529262,
        0.0005777995407976449
    ],
    [
        "1_2",
        "XY",
        "790",
        3209.922116834344,
        22.810186839940854,
        0.07251431191266705,
        0.0005862731416919061
    ],
    [
        "1_2",
        "XY",
        "822",
        3235.0000192592734,
        20.5316573845347,
        0.07328663565567517,
        0.0005260057453051685
    ],
    [
        "1_2",
        "XY",
        "843",
        3253.112662863466,
        21.700773791023007,
        0.07416374567427753,
        0.0005561688731546454
    ],
    [
        "1_2",
        "XY",
        "864",
        3232.7778676832227,
        23.781678291939343,
        0.06991599579692462,
        0.0005827478920551977
    ],
    [
        "1_2",
        "XY",
        "885",
        3233.3290087079336,
        20.824582052136314,
        0.08135388720287312,
        0.0005917123632770112
    ],
    [
        "1_2",
        "XY",
        "906",
        3220.488798643459,
        22.517163973823294,
        0.06836132768634574,
        0.0005416526336919571
    ],
    [
        "1_2",
        "XY",
        "927",
        3249.2107802504242,
        21.059184791329557,
        0.07825741072137442,
        0.0005797495261895719
    ],
    [
        "1_2",
        "XY",
        "948",
        3227.0190767403947,
        24.283845508467113,
        0.06872652546800498,
        0.0005853851406395611
    ],
    [
        "1_2",
        "XY",
        "969",
        3244.0552520701353,
        20.73020012241412,
        0.07720316053711711,
        0.0005652651976965808
    ],
    [
        "1_2",
        "XY",
        "1018",
        3236.4570178522313,
        19.511803605223456,
        0.07534741752758425,
        0.0005117492599183217
    ],
    [
        "1_2",
        "XY",
        "1039",
        3253.090685502812,
        20.574628630839868,
        0.07951235898797246,
        0.0005729371145573584
    ],
    [
        "1_2",
        "XY",
        "1060",
        3239.131124509232,
        21.651025702994254,
        0.0708587001081743,
        0.0005328472802193474
    ],
    [
        "1_2",
        "XY",
        "1081",
        3248.0090669046513,
        19.653002146876332,
        0.07722850609647666,
        0.0005338424916714469
    ],
    [
        "1_2",
        "XY",
        "1102",
        3216.74137089744,
        21.626738646383853,
        0.06978818558359605,
        0.0005299942799101472
    ],
    [
        "1_2",
        "XY",
        "1123",
        3230.485167977856,
        22.191750683066907,
        0.07653616364735127,
        0.0006007849627955239
    ],
    [
        "1_2",
        "XY",
        "1144",
        3214.5810651865154,
        24.621312931072097,
        0.07093821179897912,
        0.0006133741043078345
    ],
    [
        "1_2",
        "XY",
        "1165",
        3247.71683355954,
        20.550953495987574,
        0.07972233695490519,
        0.0005685454488976629
    ],
    [
        "1_2",
        "XY",
        "1197",
        3248.961520808824,
        19.470443389113,
        0.07281328889601639,
        0.0004960284515443558
    ],
    [
        "1_2",
        "XY",
        "1218",
        3267.534613633291,
        19.14257344108487,
        0.08002113820598675,
        0.0005286468510716157
    ],
    [
        "1_2",
        "XY",
        "1239",
        3232.144143454608,
        22.504503375028186,
        0.0706895929730312,
        0.0005557440246483872
    ],
    [
        "1_2",
        "XY",
        "1260",
        3245.2354041247486,
        21.947020732404265,
        0.07948830623015926,
        0.0006091187258535074
    ],
    [
        "1_2",
        "XY",
        "1281",
        3222.5227234412405,
        21.898834491430605,
        0.07273352942641846,
        0.0005613420268179202
    ],
    [
        "1_2",
        "XY",
        "1302",
        3245.3831218975706,
        24.405823038810514,
        0.08099816110738572,
        0.0006920093258717657
    ],
    [
        "1_2",
        "XY",
        "1323",
        3225.4053251932373,
        24.057239332474484,
        0.06589744907424,
        0.000553685598424178
    ],
    [
        "1_2",
        "XY",
        "1344",
        3235.584739404147,
        20.421746297649932,
        0.07586293173223438,
        0.0005413851241189017
    ],
    [
        "1_2",
        "XY",
        "1376",
        3242.3314438676584,
        24.13006867338071,
        0.07120778673590449,
        0.0006056044970253689
    ],
    [
        "1_2",
        "XY",
        "1397",
        3246.4602044122644,
        21.072908432200265,
        0.07853885555609323,
        0.0005819159441865294
    ],
    [
        "1_2",
        "XY",
        "1418",
        3256.793044837007,
        21.30520961976755,
        0.07204135332795963,
        0.0005328284039845474
    ],
    [
        "1_2",
        "XY",
        "1439",
        3260.128791050982,
        21.020411897336835,
        0.07519025036821282,
        0.0005421682186281485
    ],
    [
        "1_2",
        "XY",
        "1460",
        3221.194408020061,
        21.24347859525687,
        0.06994901811300598,
        0.0005147252588871234
    ],
    [
        "1_2",
        "XY",
        "1481",
        3252.7883252458814,
        20.55875690978998,
        0.07638341853839815,
        0.0005515259898933654
    ],
    [
        "1_2",
        "XY",
        "1502",
        3226.410983996764,
        22.884511267470078,
        0.06907722450243844,
        0.0005506099098581431
    ],
    [
        "1_2",
        "XY",
        "1523",
        3228.334624376101,
        19.75642676492393,
        0.07242567796589601,
        0.0004930898717651694
    ],
    [
        "1_2",
        "XY",
        "1555",
        3256.684975192187,
        21.7011410499835,
        0.07148643863181112,
        0.0005351248360108183
    ],
    [
        "1_2",
        "XY",
        "1576",
        3255.7934273804067,
        21.8944324683641,
        0.06821788752861381,
        0.0005153574861070087
    ],
    [
        "1_2",
        "XY",
        "1597",
        3272.592540006578,
        22.583244286556752,
        0.06951480658207675,
        0.0005409260816790341
    ],
    [
        "1_2",
        "XY",
        "1618",
        3257.1681180810583,
        21.39425907086324,
        0.07453503371247024,
        0.0005582358135005156
    ],
    [
        "1_2",
        "XY",
        "1639",
        3235.1176024142255,
        21.929058347887818,
        0.07886592932250362,
        0.000603512524782194
    ],
    [
        "1_2",
        "XY",
        "1660",
        3247.396467010026,
        22.102564840158674,
        0.08271446790521247,
        0.0006339506789321116
    ],
    [
        "1_2",
        "XY",
        "1681",
        3239.0069207957,
        22.47971902194264,
        0.07474065695777335,
        0.0005850529046067623
    ],
    [
        "1_2",
        "XY",
        "1702",
        3236.6861232219812,
        19.643513832932683,
        0.08111616447516806,
        0.0005528508504234173
    ],
    [
        "1_2",
        "XY",
        "1734",
        3233.1717758467266,
        22.397032142176492,
        0.07300975502114175,
        0.0005724344667019944
    ],
    [
        "1_2",
        "XY",
        "1755",
        3228.9150245220208,
        21.395669650534874,
        0.07429792803391368,
        0.0005565265961275839
    ],
    [
        "1_2",
        "XY",
        "1776",
        3244.4922586873786,
        20.598428482138708,
        0.0734086337507367,
        0.0005301069143886518
    ],
    [
        "1_2",
        "XY",
        "1797",
        3241.253782105659,
        23.96659127360339,
        0.08146368595403577,
        0.0006753005093894687
    ],
    [
        "1_2",
        "XY",
        "1818",
        3259.872734989616,
        20.204120069198805,
        0.07383963583347765,
        0.0005129308974753579
    ],
    [
        "1_2",
        "XY",
        "1839",
        3379.773440145338,
        21.88466496405121,
        0.07083199475327726,
        0.0005187367025100573
    ],
    [
        "1_2",
        "XY",
        "1860",
        3221.7520294126407,
        23.30713077581104,
        0.07681233080602487,
        0.0006284044877595782
    ],
    [
        "1_2",
        "XY",
        "1881",
        3227.8270812852156,
        21.823118333260833,
        0.08036096578071042,
        0.0006165732217552332
    ],
    [
        "1_2",
        "XY",
        "1916",
        3251.8564200025985,
        20.53472204971224,
        0.07384497827477832,
        0.0005284114908640071
    ],
    [
        "1_2",
        "XY",
        "1937",
        3240.235226151726,
        21.520387364513542,
        0.07240807491985635,
        0.0005433153817832735
    ],
    [
        "1_2",
        "XY",
        "1958",
        3245.853376361079,
        22.755933889560648,
        0.07158345767080772,
        0.0005735276951959938
    ],
    [
        "1_2",
        "XY",
        "1979",
        3205.0903785728847,
        21.256337283687845,
        0.07875384439903806,
        0.0005893637957760206
    ],
    [
        "1_2",
        "XY",
        "2000",
        3256.134598433906,
        21.769473862087086,
        0.07541065271179775,
        0.000565523281936256
    ],
    [
        "1_2",
        "XY",
        "2021",
        3233.790968290413,
        20.52912169189374,
        0.08066708047378648,
        0.0005840060408566181
    ],
    [
        "1_2",
        "XY",
        "2042",
        3199.6471744252663,
        21.105577379819646,
        0.07555707149672554,
        0.0005613554382837405
    ],
    [
        "1_2",
        "XY",
        "2063",
        3246.7319732731353,
        22.333647208614394,
        0.08001152192530596,
        0.0006250555806043369
    ],
    [
        "1_2",
        "XY",
        "2095",
        3231.159970837571,
        22.18720323594216,
        0.07320407135514888,
        0.0005724964987989043
    ],
    [
        "1_2",
        "XY",
        "2116",
        3235.728438295533,
        20.223971146799748,
        0.07667752664209654,
        0.0005373933849076685
    ],
    [
        "1_2",
        "XY",
        "2137",
        3219.2931881856694,
        22.253996594961887,
        0.07347419070349173,
        0.000572641454589527
    ],
    [
        "1_2",
        "XY",
        "2158",
        3231.95087944879,
        20.01837902257432,
        0.07994748235845865,
        0.0005566775692776376
    ],
    [
        "1_2",
        "XY",
        "2179",
        3237.779023312667,
        20.65433366469266,
        0.07466159868710363,
        0.0005371750647249824
    ],
    [
        "1_2",
        "XY",
        "2200",
        3247.9724876237283,
        20.522636287717905,
        0.08087747514685198,
        0.0005812246980265025
    ],
    [
        "1_2",
        "XY",
        "2221",
        3228.5796669196557,
        20.829337612664396,
        0.07558466678820833,
        0.0005522806440186379
    ],
    [
        "1_2",
        "XY",
        "2242",
        3230.1276269872233,
        20.368956799453226,
        0.08052324129627494,
        0.0005800233124043147
    ],
    [
        "1_2",
        "XY",
        "2274",
        3238.689454339292,
        22.907388516554427,
        0.07546746204762193,
        0.0005981929599570766
    ],
    [
        "1_2",
        "XY",
        "2295",
        3223.6099033260425,
        23.259721000853006,
        0.08111034468547357,
        0.0006769171602319486
    ],
    [
        "1_2",
        "XY",
        "2316",
        3243.510176894249,
        20.284181032791626,
        0.0739998467208399,
        0.000527853983118117
    ],
    [
        "1_2",
        "XY",
        "2337",
        3244.8648006107455,
        19.69516053137473,
        0.07852492744606704,
        0.0005377443196219633
    ],
    [
        "1_2",
        "XY",
        "2358",
        3252.6569589868523,
        21.879107751664986,
        0.07257507814022002,
        0.0005492663567884075
    ],
    [
        "1_2",
        "XY",
        "2379",
        3223.959872234738,
        19.311069935752034,
        0.08032792014569896,
        0.0005447568436686298
    ],
    [
        "1_2",
        "XY",
        "2400",
        3212.7592165610445,
        22.063686368247676,
        0.07206405744108105,
        0.0005598364010621976
    ],
    [
        "1_2",
        "XY",
        "2421",
        3234.0925033709254,
        21.01086976285613,
        0.07939029206852237,
        0.0005832541488830926
    ],
    [
        "1_2",
        "XY",
        "2453",
        3225.223466577898,
        23.375268710682235,
        0.07802559586217213,
        0.0006456784583663391
    ],
    [
        "1_2",
        "XY",
        "2474",
        3236.5758891238947,
        21.846601645206032,
        0.08243960161420967,
        0.0006316324487827604
    ],
    [
        "1_2",
        "XY",
        "2495",
        3222.9783331610347,
        22.27082171947637,
        0.07445385610056413,
        0.0005855651761903649
    ],
    [
        "1_2",
        "XY",
        "2516",
        3250.087834932147,
        21.642195554585143,
        0.07992753437006145,
        0.0005948836232441211
    ],
    [
        "1_2",
        "XY",
        "2537",
        3222.1345140220346,
        21.65523074175834,
        0.07647817972215414,
        0.0005797201283637917
    ],
    [
        "1_2",
        "XY",
        "2558",
        3229.7256233809003,
        21.662877521456807,
        0.08419823368290938,
        0.0006454349407277285
    ],
    [
        "1_2",
        "XY",
        "2579",
        3239.9615031280714,
        23.488725739903856,
        0.077449099800252,
        0.0006359107839959087
    ],
    [
        "1_2",
        "XY",
        "2600",
        3231.1026956275878,
        19.184407655472477,
        0.08251728725368676,
        0.0005540226904271287
    ],
    [
        "1_2",
        "XY",
        "2632",
        3217.211171394536,
        22.60003087092278,
        0.07676488948076729,
        0.0006104809911952707
    ],
    [
        "1_2",
        "XY",
        "2653",
        3237.8427668314193,
        21.010918251918735,
        0.07897247017581029,
        0.0005832283701881559
    ],
    [
        "1_2",
        "XY",
        "2674",
        3209.3988759663007,
        20.90058487175816,
        0.07683060088979528,
        0.0005676668162475637
    ],
    [
        "1_2",
        "XY",
        "2695",
        3263.8662756813105,
        19.76100492363152,
        0.08248501288612431,
        0.0005683613413613595
    ],
    [
        "1_2",
        "XY",
        "2716",
        3238.256948538392,
        21.944885677180316,
        0.07420169043972683,
        0.0005695144258266236
    ],
    [
        "1_2",
        "XY",
        "2737",
        3227.7410343539473,
        19.6247456751811,
        0.08013857193729247,
        0.0005520951296901436
    ],
    [
        "1_2",
        "XY",
        "2758",
        3240.257320242153,
        22.131518189764588,
        0.07236498070589754,
        0.0005595987157081832
    ],
    [
        "1_2",
        "XY",
        "2779",
        3200.5008120357857,
        21.488539534333416,
        0.0798371294908249,
        0.0006141339565531523
    ],
    [
        "1_2",
        "XY",
        "2818",
        3238.3730358804246,
        22.606780812728772,
        0.07677657352525971,
        0.0006083866560809719
    ],
    [
        "1_2",
        "XY",
        "2839",
        3230.5040881839113,
        20.947300587561266,
        0.08139959049207604,
        0.0005960067221061629
    ],
    [
        "1_2",
        "XY",
        "2860",
        3236.7823532175944,
        21.749652619056846,
        0.07573408195801938,
        0.0005838569125968493
    ],
    [
        "1_2",
        "XY",
        "2881",
        3243.703929619521,
        21.641855863350102,
        0.08170819424776508,
        0.0006185488057607585
    ],
    [
        "1_2",
        "XY",
        "2902",
        3247.525080974723,
        20.83176475002914,
        0.0762854923633662,
        0.0005527559538503943
    ],
    [
        "1_2",
        "XY",
        "2923",
        3227.7179820434103,
        23.581601385001655,
        0.08266462174190932,
        0.0006822797426119464
    ],
    [
        "1_2",
        "XY",
        "2944",
        3249.54311909385,
        20.588085337501454,
        0.07261232801481794,
        0.0005233525876972376
    ],
    [
        "1_2",
        "XY",
        "2965",
        3229.546735342675,
        22.273189864118372,
        0.07822051056391063,
        0.0006142455970499683
    ],
    [
        "1_2",
        "XY",
        "2997",
        3192.041595984594,
        22.938712998941583,
        0.0748613004078518,
        0.0006057504844457089
    ],
    [
        "1_2",
        "XY",
        "3018",
        3227.389093820163,
        22.99069224209822,
        0.07853108663174409,
        0.0006347965538819745
    ],
    [
        "1_2",
        "XY",
        "3039",
        3230.9094068531444,
        23.5411661423159,
        0.07128954059961602,
        0.0005840084120510195
    ],
    [
        "1_2",
        "XY",
        "3060",
        3232.5577382178785,
        25.53367786199983,
        0.07745704909437269,
        0.0006907213134239054
    ],
    [
        "1_2",
        "XY",
        "3081",
        3220.8306395971827,
        23.256777532773583,
        0.07497778378698607,
        0.0006159040070893738
    ],
    [
        "1_2",
        "XY",
        "3102",
        3239.5436585654284,
        20.133653503256905,
        0.08097021644732606,
        0.000574927669851376
    ],
    [
        "1_2",
        "XY",
        "3123",
        3235.379363343267,
        20.515158774087066,
        0.07661202391567415,
        0.0005499324491693853
    ],
    [
        "1_2",
        "XY",
        "3144",
        3217.193264394324,
        20.494865264151247,
        0.08312932134655779,
        0.0006044071167291581
    ]
]