XscanNumber_YscanNumber,Type,BCID,xsec,xsecErr,SBIL,SBILErr
1_2,XY,103,138.35774576437316,0.8677084866777864,0.06752039606193352,0.0005037070335164256
1_2,XY,124,137.73045583593827,0.8171560396753141,0.07483634579474008,0.0005285360082768319
1_2,XY,145,137.67092050493176,0.8985247621378245,0.06070317097817684,0.0004629482434535555
1_2,XY,166,137.620272319965,0.8052518434881288,0.07121899563970628,0.0004832172724044376
1_2,XY,187,137.01148821138628,0.6560284091330603,0.06125617886714798,0.00036098129143401865
1_2,XY,208,136.09574873026432,0.7934853291694669,0.07144746681925587,0.0004906570975097062
1_2,XY,229,137.0914110672051,0.8216186455449073,0.06719158225625246,0.0004627895353659486
1_2,XY,250,138.32430948754964,0.8084944691714917,0.0730183973941615,0.0005049503609797706
1_2,XY,282,138.43484768927678,0.8709505728475142,0.06859655075917953,0.0005106768829719347
1_2,XY,303,137.67058939180654,0.7763389732608601,0.07505580102378602,0.0004966073281096856
1_2,XY,324,138.8545378940378,0.8249524995261578,0.06764447859538605,0.0004654208578142452
1_2,XY,345,136.29591713126982,0.7851995634974444,0.07870205418492178,0.0005316268370950303
1_2,XY,366,137.3441431093483,0.7997739597892745,0.06900148495535072,0.0004632995872068494
1_2,XY,387,137.9083786337309,0.7811003927523534,0.07669505638268037,0.000518254942586527
1_2,XY,408,134.91705784996782,0.8304789472957728,0.06567276943724029,0.00047819661922834385
1_2,XY,429,137.97936007125458,0.7822565828333807,0.07488602254821651,0.0004938147542821262
1_2,XY,464,138.42890464145736,0.8313124966857272,0.06840985325031079,0.000478561614258635
1_2,XY,485,137.89740213472396,0.7917952173463387,0.07257968442214587,0.0004992458219142681
1_2,XY,506,137.41399309287243,0.8525907450935568,0.06297645173614616,0.00045384397568843786
1_2,XY,527,136.47465936671503,0.89419275460617,0.0700645119913375,0.0005381479773261675
1_2,XY,548,137.1748229923657,0.851000768069986,0.0676104282397295,0.0004957802807836838
1_2,XY,569,136.91829625453244,0.7968294223368783,0.07622334466526944,0.000525862888644279
1_2,XY,590,137.59098435090954,0.8640559082681823,0.06555758793667751,0.00048690567413470177
1_2,XY,611,136.21334713320633,0.8391836807751388,0.07449476824714686,0.0005396276821611197
1_2,XY,643,136.30666458423994,0.8087611037882536,0.06891118814209271,0.0004810718156526407
1_2,XY,664,136.03812490980377,0.8548776811663964,0.07323155572052319,0.0005458844172569378
1_2,XY,685,137.16232536729447,0.8287385173059054,0.06213434975092299,0.00044600067942331725
1_2,XY,706,136.2679927152451,0.7819755096224806,0.06972357479734805,0.00046700528466855933
1_2,XY,727,138.0502618339193,0.8073222907936676,0.06484753329629318,0.0004445736884167889
1_2,XY,748,136.6169094901327,0.8144567588126105,0.07489261765586894,0.0005267920472746343
1_2,XY,769,137.12510775232292,0.8078634523487535,0.05973863974518269,0.0004146806414543373
1_2,XY,790,137.14674163372732,0.8272829629577524,0.06871681325695513,0.0004901521883229706
1_2,XY,822,139.1107013145049,0.7306088734328944,0.06949326173994434,0.0004228655121102907
1_2,XY,843,138.10940232529072,0.7998091111828879,0.07067106704755909,0.0004820574373756815
1_2,XY,864,137.85664593553764,0.8606023598952922,0.06545311508982529,0.00048155026847075845
1_2,XY,885,135.40808416710559,0.7952720867658776,0.07814645697553971,0.0005519417943569147
1_2,XY,906,138.32184509045763,0.798569997763941,0.06335512824343253,0.00043287871196464185
1_2,XY,927,138.05082528468694,0.8263711245351716,0.07489979174918514,0.0005295235891233985
1_2,XY,948,137.3977205444945,0.8333616624320834,0.06390017755345138,0.00045468595952524043
1_2,XY,969,137.64651460156622,0.8078059918847315,0.07270018668411231,0.0005094087105519613
1_2,XY,1018,137.9961752723741,0.8036626178792584,0.07066980759170134,0.00048407068386151453
1_2,XY,1039,137.95399621716405,0.7833726769415772,0.07513290550554684,0.0005004504089879683
1_2,XY,1060,137.6695105789519,0.8313544821515121,0.06768759671535036,0.00047782655066378984
1_2,XY,1081,137.03159196041943,0.8017016152687193,0.07317831947742334,0.0005101459035795021
1_2,XY,1102,137.10795738936102,0.8268939273319211,0.06551074689464188,0.000468387700360576
1_2,XY,1123,138.97831707871674,0.8378360516972596,0.07121104161304434,0.0005096152649035633
1_2,XY,1144,135.8977777435391,0.8514804715844598,0.06660509663780184,0.0004946242142564688
1_2,XY,1165,138.25243045132345,0.829081141468229,0.07480299850012709,0.0005251181310874497
1_2,XY,1197,138.26038043025753,0.8030374820447223,0.06882962730551508,0.0004672625375691727
1_2,XY,1218,136.2432466357369,0.7743119847938046,0.0773410994010001,0.0005200686583524066
1_2,XY,1239,136.43869786432882,0.826263270046349,0.0675830432630367,0.0004771088106566425
1_2,XY,1260,138.37378191163978,0.7484327333476208,0.07556262750331545,0.0004781144526818228
1_2,XY,1281,137.47856515083168,0.8208900752723968,0.06799053719887478,0.0004748399854118192
1_2,XY,1302,136.64370143203683,0.7858433548280267,0.07732051621066188,0.0005238644785352048
1_2,XY,1323,137.78198539019377,0.8680773662837113,0.061823244856832264,0.0004570030656951412
1_2,XY,1344,135.31677360781737,0.8324669128399463,0.07228788501165526,0.0005211027055265589
1_2,XY,1376,137.55462057198355,0.8191779058417865,0.06699631671444703,0.0004710459005737465
1_2,XY,1397,137.48262512470865,0.7748113360055905,0.07451496428736161,0.0004853396260478324
1_2,XY,1418,136.87549518640944,0.8466614689049459,0.06805645881922068,0.0005021039271882295
1_2,XY,1439,137.11988627971112,0.7866051685917921,0.07216868920581758,0.00048694115228799305
1_2,XY,1460,138.18305559648434,0.8765472738974772,0.06552386825610824,0.0004915916388982531
1_2,XY,1481,138.39614512928443,0.76466567413063,0.07328469251629093,0.00047456363703468054
1_2,XY,1502,136.9172037542608,0.8429047095614995,0.0647312891261109,0.0004691269733117897
1_2,XY,1523,137.09743622198604,0.8444902156903143,0.06907694484688993,0.0004991984215701069
1_2,XY,1555,137.87224893431934,0.8187058728944545,0.06777306822693058,0.0004722482841667716
1_2,XY,1576,137.86638076585754,0.8063451839282922,0.06502387662422032,0.0004464845639464057
1_2,XY,1597,138.36658750494541,0.7821945278483535,0.06540729853473318,0.00043398201082479974
1_2,XY,1618,137.8705223015255,0.7012406278823021,0.07115927470135078,0.0004263238190259907
1_2,XY,1639,138.46304000034704,0.7044328191344841,0.07415334766731309,0.00044476727748824456
1_2,XY,1660,138.2012989302211,0.8167655887620485,0.07817551713391378,0.0005399638053573048
1_2,XY,1681,137.60313026207234,0.7902382368244836,0.07072369422630047,0.00047898601405982284
1_2,XY,1702,138.37504456919098,0.7797271747026686,0.07664350637455343,0.000500467364640307
1_2,XY,1734,138.69631792469832,0.8141061726505693,0.06786284729571737,0.00046994282630347795
1_2,XY,1755,137.28419845612808,0.8074274718027253,0.07015547195907941,0.000490350084063108
1_2,XY,1776,137.80897002893033,0.769993919996299,0.07005278973754879,0.00045826594335537837
1_2,XY,1797,137.30150421176995,0.7896186322249936,0.07653220605607583,0.0005214861482551877
1_2,XY,1818,137.82043257238635,0.7721553146339374,0.07082784949676509,0.0004636776680194466
1_2,XY,1839,142.57641087783043,0.8110982895200046,0.067361136955763,0.0004513495258737484
1_2,XY,1860,138.01977127957514,0.7953494016046267,0.07136021018627477,0.00048701435828718423
1_2,XY,1881,137.34490646573414,0.7790766290283723,0.07628636836676637,0.0005127709059521334
1_2,XY,1916,137.48091422246057,0.7868481979882823,0.0694571400500005,0.00046542938141943933
1_2,XY,1937,137.39345521545462,0.7494712784222547,0.06904009075661457,0.00044094788814709506
1_2,XY,1958,137.40571029433275,0.8468853358018181,0.06662418075996224,0.0004831927886063693
1_2,XY,1979,138.00788389721455,0.8543284302829975,0.07250110054051193,0.0005369233648730233
1_2,XY,2000,137.50654025099075,0.7735537066994317,0.07077039929360711,0.00047521167594184694
1_2,XY,2021,138.32556867969504,0.7540440373515971,0.07641089947364872,0.000490826431012677
1_2,XY,2042,137.11975185701561,0.8189728210133462,0.07043977226606422,0.0004977240169247135
1_2,XY,2063,136.57626314652165,0.7827524369214525,0.07626506555060666,0.0005141529393233124
1_2,XY,2095,137.69961662052972,0.7797342386945227,0.06910805256527229,0.00045245020235028406
1_2,XY,2116,139.06191743882255,0.8118662416311624,0.07167239883927319,0.0004951500371954729
1_2,XY,2137,137.40430932136977,0.8230650187641021,0.06879351010838428,0.00048580037018154193
1_2,XY,2158,136.27052495977009,0.791568054768203,0.07570521695935421,0.0005215210736272466
1_2,XY,2179,138.75033566425236,0.7744397258758624,0.0701408354437698,0.00045799409456099107
1_2,XY,2200,138.34508350420467,0.7820747236985257,0.076760912313949,0.0005144863183214469
1_2,XY,2221,137.8695704816075,0.7971251961415868,0.07068641661084349,0.0004848721513823504
1_2,XY,2242,136.69847964309494,0.8145314950116234,0.07588325272199824,0.0005270895481271193
1_2,XY,2274,137.35334100126073,0.8019484867255139,0.07076457161228081,0.00048768809079678454
1_2,XY,2295,138.16500989636742,0.803475650918514,0.07623137704419475,0.0005236894107572157
1_2,XY,2316,137.90552475330654,0.813500833279526,0.06979511890323481,0.0004886486277722485
1_2,XY,2337,136.9402037117831,0.7520070779007744,0.07520013029210029,0.0004930782970174155
1_2,XY,2358,136.50764032525134,0.8353512899043317,0.06939074055909618,0.0004995685123967694
1_2,XY,2379,137.43594114632174,0.852715795615667,0.07531005342863205,0.0005535973311286018
1_2,XY,2400,137.04914527430012,0.8376223838817646,0.06674192592482646,0.00047598450260818363
1_2,XY,2421,136.12620137242521,0.7746063082219856,0.07451014067325601,0.0004955987390102169
1_2,XY,2453,137.29469288251892,0.7794895484510719,0.07312421740744172,0.0004910009908394889
1_2,XY,2474,138.04135939650166,0.698837309166569,0.07765426883334724,0.00045423534156159475
1_2,XY,2495,136.68715427670085,0.7610226914574032,0.0704394241733335,0.00045421116099397097
1_2,XY,2516,135.1900795747171,0.8113874924488162,0.07675415691487308,0.0005409979524721587
1_2,XY,2537,137.12810900582517,0.7973933695403809,0.0713761658396904,0.0004907676778937876
1_2,XY,2558,137.79656418620223,0.802778222070858,0.07836392862057441,0.0005400404392578396
1_2,XY,2579,136.70178387834736,0.7800707058731462,0.07374199295204703,0.0004958696296851525
1_2,XY,2600,136.7504942128114,0.819181814957222,0.07777315518593203,0.0005474066704726551
1_2,XY,2632,138.36327357500014,0.76588039934332,0.07098107216492153,0.00047000132835905403
1_2,XY,2653,136.94554675015132,0.7753629692488806,0.0744318880567876,0.0004944307436988791
1_2,XY,2674,136.88133711178773,0.8216110254142699,0.07177040075339,0.0004999470827780879
1_2,XY,2695,136.94533641651347,0.7099198828363368,0.07965781946204621,0.0004799288711766919
1_2,XY,2716,138.1358935265165,0.8615849265529179,0.06933329622302555,0.0005130569036555744
1_2,XY,2737,136.44358539878846,0.756836988444233,0.07621508613403133,0.0004947158874588461
1_2,XY,2758,136.27028497293256,0.8006989834149549,0.06887256795150093,0.00047482026947015787
1_2,XY,2779,136.28332102062822,0.8155581451578343,0.07409531472471284,0.0005231959865375049
1_2,XY,2818,137.77028907843874,0.7971428901958847,0.07216434914595136,0.0004909388846963364
1_2,XY,2839,136.39954138949332,0.7177361299877797,0.07838284150668938,0.0004885745418543857
1_2,XY,2860,136.900825424407,0.8184947833440378,0.07172995609302137,0.000501946896785168
1_2,XY,2881,137.022931711112,0.8086675977553625,0.07782850046983457,0.0005431783408610128
1_2,XY,2902,138.6482881732402,0.8186689369701264,0.0718664865888892,0.000500738258149152
1_2,XY,2923,137.7413994584326,0.7894382684621992,0.07787954157936296,0.000519336312740894
1_2,XY,2944,137.77727398528646,0.8127585122822872,0.06878778648196901,0.0004807478704119689
1_2,XY,2965,138.85218577522554,0.7684477921960092,0.0723915958614151,0.0004720999756906055
1_2,XY,2997,136.41505171889276,0.818721949246091,0.07017562491506073,0.0004942957328468657
1_2,XY,3018,137.48428963264894,0.7949786313080763,0.07459300170418313,0.0005085196886390675
1_2,XY,3039,138.08033350903415,0.804423947364963,0.06739848448008412,0.00046567121058726856
1_2,XY,3060,136.81389475631966,0.7372593690818839,0.0735985518188231,0.0004552487972375116
1_2,XY,3081,138.09716982086596,0.8009246537169474,0.0700350735005878,0.0004780697409077093
1_2,XY,3102,136.86913616322002,0.742406109029017,0.07723839352331938,0.0004917993444100693
1_2,XY,3123,136.96525503456823,0.7867676567784742,0.0725230795638146,0.0004906107751501779
1_2,XY,3144,135.98778440215324,0.7483073988549899,0.07899765641838949,0.0005121607516327259
