[
    [
        "XscanNumber_YscanNumber",
        "Type",
        "BCID",
        "xsec",
        "xsecErr",
        "SBIL",
        "SBILErr"
    ],
    [
        "1_2",
        "XY",
        "103",
        3250.3059467446833,
        17.841345937042473,
        0.07215988934972654,
        0.0004502066065576924
    ],
    [
        "1_2",
        "XY",
        "124",
        3260.7720721240044,
        16.396476654391332,
        0.07954566170002263,
        0.0004553690855466674
    ],
    [
        "1_2",
        "XY",
        "145",
        3253.189688997662,
        18.541661901605814,
        0.06418653743413145,
        0.00041781163283364153
    ],
    [
        "1_2",
        "XY",
        "166",
        3226.2893990263065,
        17.355137253321885,
        0.07617696546881228,
        0.0004646758409823354
    ],
    [
        "1_2",
        "XY",
        "187",
        3225.3633325340256,
        18.502585068751024,
        0.06521360417505838,
        0.00042475995963874225
    ],
    [
        "1_2",
        "XY",
        "208",
        3228.3498841588435,
        15.919981303797643,
        0.07510266305285897,
        0.000420540366946461
    ],
    [
        "1_2",
        "XY",
        "229",
        3225.440852576419,
        18.138271833976276,
        0.0706890344268133,
        0.0004510475669251029
    ],
    [
        "1_2",
        "XY",
        "250",
        3234.4190119961013,
        16.7215707926917,
        0.07900147750460391,
        0.0004599939215464621
    ],
    [
        "1_2",
        "XY",
        "282",
        3234.857511550927,
        17.558049222416674,
        0.07360257611570324,
        0.000451377669740543
    ],
    [
        "1_2",
        "XY",
        "303",
        3235.691811388681,
        17.31351528790962,
        0.07917338893799114,
        0.00048245852354916947
    ],
    [
        "1_2",
        "XY",
        "324",
        3211.2714480911486,
        16.914467785131304,
        0.07218380536805682,
        0.0004329328879471769
    ],
    [
        "1_2",
        "XY",
        "345",
        3220.6539985070153,
        17.032086559317808,
        0.08271041110242858,
        0.0004998772460819649
    ],
    [
        "1_2",
        "XY",
        "366",
        3221.2630551928924,
        16.853082592374598,
        0.07355367034744985,
        0.00043465499030385317
    ],
    [
        "1_2",
        "XY",
        "387",
        3251.218710585817,
        14.922496829807598,
        0.08101411648143929,
        0.00042272263800337376
    ],
    [
        "1_2",
        "XY",
        "408",
        3226.9537761950774,
        17.40056380716531,
        0.0688279791932564,
        0.00041902706237063094
    ],
    [
        "1_2",
        "XY",
        "429",
        3215.806139890468,
        17.42080518515197,
        0.07911991548172106,
        0.00048361753791908296
    ],
    [
        "1_2",
        "XY",
        "464",
        3261.9213225738454,
        16.50143797277145,
        0.0731803432421955,
        0.00041965699529613487
    ],
    [
        "1_2",
        "XY",
        "485",
        3234.982505481697,
        16.87965107150697,
        0.07755091617012415,
        0.0004569953620089956
    ],
    [
        "1_2",
        "XY",
        "506",
        3238.215518539891,
        16.913779313682284,
        0.06644568724360668,
        0.00038648756971549855
    ],
    [
        "1_2",
        "XY",
        "527",
        3244.744076809567,
        16.737241356389877,
        0.07384963760003191,
        0.00042975728474910885
    ],
    [
        "1_2",
        "XY",
        "548",
        3246.8815395138304,
        17.038764131006058,
        0.0715486060108155,
        0.00042504257447337115
    ],
    [
        "1_2",
        "XY",
        "569",
        3227.1398643360317,
        16.575358496936296,
        0.08136293609361844,
        0.00047364883356845717
    ],
    [
        "1_2",
        "XY",
        "590",
        3259.4013575091453,
        18.023790736362248,
        0.06899998878410746,
        0.0004310847542386367
    ],
    [
        "1_2",
        "XY",
        "611",
        3221.6989728630174,
        16.767461197802085,
        0.0784737273504397,
        0.00047063200265951244
    ],
    [
        "1_2",
        "XY",
        "643",
        3237.5960144672936,
        17.259783174379777,
        0.0731973519073496,
        0.0004410043081519908
    ],
    [
        "1_2",
        "XY",
        "664",
        3262.0489210679275,
        16.52156834756123,
        0.07582322015476846,
        0.00043258602756020547
    ],
    [
        "1_2",
        "XY",
        "685",
        3234.7167210064204,
        18.35244242489019,
        0.06571903704112074,
        0.00042397747399627823
    ],
    [
        "1_2",
        "XY",
        "706",
        3255.4671312969817,
        16.16476020247113,
        0.07266160298552882,
        0.00041417720803073007
    ],
    [
        "1_2",
        "XY",
        "727",
        3240.474799624164,
        19.470732076886236,
        0.06902874956728769,
        0.00046808148845472986
    ],
    [
        "1_2",
        "XY",
        "748",
        3239.3591019283003,
        16.513749591852537,
        0.07923315772267907,
        0.00045775397867180964
    ],
    [
        "1_2",
        "XY",
        "769",
        3232.907596241608,
        19.306078823280725,
        0.06354691355241142,
        0.00043071028389603483
    ],
    [
        "1_2",
        "XY",
        "790",
        3211.4556563376073,
        18.349136385542355,
        0.07301848884604344,
        0.00047053288342668956
    ],
    [
        "1_2",
        "XY",
        "822",
        3260.200441917843,
        17.49202195218954,
        0.07415409033237928,
        0.00044878717190040035
    ],
    [
        "1_2",
        "XY",
        "843",
        3255.841408204161,
        17.47824512797092,
        0.07503239111515346,
        0.0004597866992081278
    ],
    [
        "1_2",
        "XY",
        "864",
        3242.554859539878,
        16.978182586939102,
        0.06988936201948272,
        0.000409540112632646
    ],
    [
        "1_2",
        "XY",
        "885",
        3235.999665792964,
        16.424394503506964,
        0.0812160402866773,
        0.00046542566469200694
    ],
    [
        "1_2",
        "XY",
        "906",
        3241.936981838816,
        16.679592562998966,
        0.06755652339604146,
        0.0003922562625431436
    ],
    [
        "1_2",
        "XY",
        "927",
        3238.5313608124125,
        15.615355094087258,
        0.0784178366332434,
        0.0004245619197897429
    ],
    [
        "1_2",
        "XY",
        "948",
        3235.6489488535894,
        18.3538679957583,
        0.06854645577720667,
        0.00043687533407051456
    ],
    [
        "1_2",
        "XY",
        "969",
        3215.1867480297315,
        17.088275276838278,
        0.07718866751232532,
        0.0004643876906581231
    ],
    [
        "1_2",
        "XY",
        "1018",
        3257.3665050346663,
        16.828912810360002,
        0.07449017327238903,
        0.00043821143060197973
    ],
    [
        "1_2",
        "XY",
        "1039",
        3243.9036054047365,
        16.566753279332094,
        0.0792533990725623,
        0.000461090286261415
    ],
    [
        "1_2",
        "XY",
        "1060",
        3229.590544995,
        19.424985356534677,
        0.07098046821046809,
        0.0004849909555927309
    ],
    [
        "1_2",
        "XY",
        "1081",
        3260.0007521297453,
        16.647929653318236,
        0.07681933434964619,
        0.0004484500935917561
    ],
    [
        "1_2",
        "XY",
        "1102",
        3248.0568871241453,
        17.815303975087126,
        0.06878969467482061,
        0.00043135298025021555
    ],
    [
        "1_2",
        "XY",
        "1123",
        3242.23853679023,
        17.614500710305737,
        0.0761218445048072,
        0.0004729965983999962
    ],
    [
        "1_2",
        "XY",
        "1144",
        3228.8223800173405,
        17.515096878670196,
        0.07020879765008332,
        0.0004264084727381386
    ],
    [
        "1_2",
        "XY",
        "1165",
        3242.418484458916,
        16.944286159950405,
        0.0799123880737895,
        0.0004750228936034633
    ],
    [
        "1_2",
        "XY",
        "1197",
        3243.3878680085145,
        17.93225372666319,
        0.07278725555621932,
        0.0004594902439354951
    ],
    [
        "1_2",
        "XY",
        "1218",
        3254.0757600567454,
        15.858179675999853,
        0.07955211393235043,
        0.0004416766854256162
    ],
    [
        "1_2",
        "XY",
        "1239",
        3256.945831809781,
        17.918955666583887,
        0.06995535210504716,
        0.00044273829742220446
    ],
    [
        "1_2",
        "XY",
        "1260",
        3247.3112268056234,
        16.943763080308113,
        0.07883037765676897,
        0.00046662019312073365
    ],
    [
        "1_2",
        "XY",
        "1281",
        3222.920268499467,
        17.48195979399045,
        0.07174786942451153,
        0.00043952799270618136
    ],
    [
        "1_2",
        "XY",
        "1302",
        3222.7798060761756,
        17.317090384388376,
        0.08129795783472425,
        0.0004977011647127549
    ],
    [
        "1_2",
        "XY",
        "1323",
        3261.6465966372157,
        19.491193032310665,
        0.06515253221282803,
        0.0004428767102950884
    ],
    [
        "1_2",
        "XY",
        "1344",
        3251.5688712437695,
        16.967290994609872,
        0.07546929348252045,
        0.0004484635228874459
    ],
    [
        "1_2",
        "XY",
        "1376",
        3258.0222861633356,
        17.016587417297796,
        0.07120591115480285,
        0.0004214700377066628
    ],
    [
        "1_2",
        "XY",
        "1397",
        3241.9933273773745,
        16.50181480441304,
        0.07837882191950211,
        0.0004568549764863971
    ],
    [
        "1_2",
        "XY",
        "1418",
        3253.1331478051843,
        17.41946917119809,
        0.07224987548691297,
        0.00044006520593584033
    ],
    [
        "1_2",
        "XY",
        "1439",
        3265.3844756042145,
        16.217708370170374,
        0.07570967482999236,
        0.000425669095477966
    ],
    [
        "1_2",
        "XY",
        "1460",
        3220.062628835152,
        16.60877382432522,
        0.07047568366070044,
        0.00041485041226416706
    ],
    [
        "1_2",
        "XY",
        "1481",
        3234.596711589891,
        17.279959788678564,
        0.07744845165009277,
        0.0004708070310616865
    ],
    [
        "1_2",
        "XY",
        "1502",
        3246.919865083698,
        16.693915441648013,
        0.06861327254223436,
        0.0003961384127052955
    ],
    [
        "1_2",
        "XY",
        "1523",
        3244.2881116357253,
        17.828416168812158,
        0.07271010159027583,
        0.000456750486550439
    ],
    [
        "1_2",
        "XY",
        "1555",
        3261.454890594071,
        17.016997085461583,
        0.07214275881654021,
        0.00042841290919115225
    ],
    [
        "1_2",
        "XY",
        "1576",
        3268.8985128629565,
        18.066862799147245,
        0.06893549280476906,
        0.0004318477223888578
    ],
    [
        "1_2",
        "XY",
        "1597",
        3235.9701762287564,
        16.76958876564443,
        0.07059007593572574,
        0.00041595463550454234
    ],
    [
        "1_2",
        "XY",
        "1618",
        3263.4946811466893,
        15.469814710633504,
        0.07500667766210387,
        0.00039971294924720003
    ],
    [
        "1_2",
        "XY",
        "1639",
        3246.572379354484,
        15.930043082757432,
        0.07898387796942995,
        0.00043782608715713095
    ],
    [
        "1_2",
        "XY",
        "1660",
        3247.297159096593,
        15.565951811514402,
        0.08290938305878702,
        0.00044688759123482643
    ],
    [
        "1_2",
        "XY",
        "1681",
        3233.985291015851,
        19.15936920295767,
        0.07517150718918596,
        0.0005036614612841884
    ],
    [
        "1_2",
        "XY",
        "1702",
        3241.559415682092,
        16.958977376626287,
        0.08161557128514076,
        0.0004870933418560118
    ],
    [
        "1_2",
        "XY",
        "1734",
        3242.536139688015,
        18.967895117973907,
        0.07344179197320998,
        0.00048709338182056146
    ],
    [
        "1_2",
        "XY",
        "1755",
        3256.3589071977876,
        16.15134874898146,
        0.07384033078091812,
        0.0004148408168983286
    ],
    [
        "1_2",
        "XY",
        "1776",
        3237.097264806957,
        18.47080485044439,
        0.07403212927042693,
        0.00047873696726919384
    ],
    [
        "1_2",
        "XY",
        "1797",
        3237.94269924868,
        16.20559742091329,
        0.0807284586604839,
        0.00045454725540012897
    ],
    [
        "1_2",
        "XY",
        "1818",
        3263.4589198533117,
        15.540850926861808,
        0.07503036793168101,
        0.000407018055175688
    ],
    [
        "1_2",
        "XY",
        "1839",
        3307.8537830298387,
        17.25110516756086,
        0.06525613968117475,
        0.00038643030854707054
    ],
    [
        "1_2",
        "XY",
        "1860",
        3246.7479855996207,
        17.730406997973155,
        0.07657859638988267,
        0.0004767756364508422
    ],
    [
        "1_2",
        "XY",
        "1881",
        3231.238888360794,
        15.981481396800627,
        0.08054167821418176,
        0.00045301416665163407
    ],
    [
        "1_2",
        "XY",
        "1916",
        3237.071185959755,
        17.223768453542252,
        0.07498170712593123,
        0.0004511588936705201
    ],
    [
        "1_2",
        "XY",
        "1937",
        3264.2456685356724,
        17.301602816149913,
        0.07224881344034315,
        0.0004358562102823055
    ],
    [
        "1_2",
        "XY",
        "1958",
        3249.8705276968262,
        18.77185641851581,
        0.07121443315111417,
        0.0004661541775588894
    ],
    [
        "1_2",
        "XY",
        "1979",
        3229.108670515386,
        17.941123036429108,
        0.07792755716744701,
        0.0004917036927788
    ],
    [
        "1_2",
        "XY",
        "2000",
        3248.8265137074904,
        17.284269380958936,
        0.07568954879033093,
        0.00045856259232951717
    ],
    [
        "1_2",
        "XY",
        "2021",
        3244.2027870586794,
        16.281629517113874,
        0.08002096066949399,
        0.0004546575121238163
    ],
    [
        "1_2",
        "XY",
        "2042",
        3258.2199178308656,
        17.126279545179553,
        0.0744046957991462,
        0.000447741435378829
    ],
    [
        "1_2",
        "XY",
        "2063",
        3220.588211385048,
        15.450165540561446,
        0.08016786092482277,
        0.00043332599538928914
    ],
    [
        "1_2",
        "XY",
        "2095",
        3241.172048429679,
        17.895869533874894,
        0.07336344215655946,
        0.00046165059748118093
    ],
    [
        "1_2",
        "XY",
        "2116",
        3247.743208628208,
        16.547709099562994,
        0.0756700225978279,
        0.0004394780105038663
    ],
    [
        "1_2",
        "XY",
        "2137",
        3215.6678342326977,
        16.506333080589375,
        0.0735115750662997,
        0.00043101589238654924
    ],
    [
        "1_2",
        "XY",
        "2158",
        3251.1264650890944,
        16.36762744264379,
        0.0787554982415284,
        0.00045358261254785473
    ],
    [
        "1_2",
        "XY",
        "2179",
        3244.927712446996,
        17.031799410417875,
        0.07465643862606484,
        0.00044640843934677296
    ],
    [
        "1_2",
        "XY",
        "2200",
        3234.6922957953434,
        16.6005218155124,
        0.08141368878906957,
        0.00047585727845269015
    ],
    [
        "1_2",
        "XY",
        "2221",
        3233.958271506127,
        17.614477045783712,
        0.07596598987254892,
        0.0004705264979377393
    ],
    [
        "1_2",
        "XY",
        "2242",
        3236.474584471164,
        15.452774654927973,
        0.07983466952756407,
        0.0004325334291594949
    ],
    [
        "1_2",
        "XY",
        "2274",
        3225.1453164742425,
        17.12236726000298,
        0.0758929351675205,
        0.0004556876728032248
    ],
    [
        "1_2",
        "XY",
        "2295",
        3236.4713149341624,
        15.81243519018969,
        0.08113570985931257,
        0.00045484200631552764
    ],
    [
        "1_2",
        "XY",
        "2316",
        3246.6083128115515,
        17.538996631818332,
        0.07417893356538884,
        0.0004559962217596226
    ],
    [
        "1_2",
        "XY",
        "2337",
        3235.2956452732756,
        17.62186821739449,
        0.07880267715841018,
        0.0004854878546031441
    ],
    [
        "1_2",
        "XY",
        "2358",
        3256.104681136762,
        17.947847159002237,
        0.07395365040090805,
        0.00046818196724054365
    ],
    [
        "1_2",
        "XY",
        "2379",
        3253.952333649371,
        14.214257502636844,
        0.07950413128026318,
        0.0003936104201797642
    ],
    [
        "1_2",
        "XY",
        "2400",
        3237.611291592936,
        17.840312576514187,
        0.07185730297075742,
        0.0004487955278145848
    ],
    [
        "1_2",
        "XY",
        "2421",
        3244.0131697932243,
        16.454376542136558,
        0.0784129921176699,
        0.00045050807303813204
    ],
    [
        "1_2",
        "XY",
        "2453",
        3240.965351619532,
        17.23534154266771,
        0.0776532432475784,
        0.0004711565638847895
    ],
    [
        "1_2",
        "XY",
        "2474",
        3242.5786168463796,
        16.048825698429138,
        0.08179668467135257,
        0.0004630168874955487
    ],
    [
        "1_2",
        "XY",
        "2495",
        3252.8341080156347,
        17.29207983639837,
        0.07397075704026801,
        0.00044724872658257424
    ],
    [
        "1_2",
        "XY",
        "2516",
        3245.006071272048,
        17.836312785486765,
        0.07999590264145665,
        0.0005030003576327812
    ],
    [
        "1_2",
        "XY",
        "2537",
        3237.859171892081,
        17.026188479502355,
        0.07581951001804625,
        0.000448150722637964
    ],
    [
        "1_2",
        "XY",
        "2558",
        3234.814037597398,
        17.190552370337993,
        0.08368890621535971,
        0.0005013225261711324
    ],
    [
        "1_2",
        "XY",
        "2579",
        3229.4800470595856,
        17.28467201981157,
        0.07797439741427527,
        0.00047239133448404144
    ],
    [
        "1_2",
        "XY",
        "2600",
        3232.671510903218,
        17.55329169546756,
        0.0821091977399483,
        0.0005080448832842475
    ],
    [
        "1_2",
        "XY",
        "2632",
        3247.8939952720416,
        16.95117358257189,
        0.07582063605882097,
        0.0004475668175977944
    ],
    [
        "1_2",
        "XY",
        "2653",
        3221.3383572991834,
        15.90706303011734,
        0.07882945994681502,
        0.00044665760454671357
    ],
    [
        "1_2",
        "XY",
        "2674",
        3258.0612139368154,
        16.987186596519756,
        0.07237333306059775,
        0.0004277477432410972
    ],
    [
        "1_2",
        "XY",
        "2695",
        3238.465167048932,
        15.318731343127865,
        0.08320480953795079,
        0.0004478738604212639
    ],
    [
        "1_2",
        "XY",
        "2716",
        3249.96450123424,
        17.641725559952405,
        0.0700066352494072,
        0.0004324971692107496
    ],
    [
        "1_2",
        "XY",
        "2737",
        3224.494391570107,
        16.611008765074658,
        0.07921151762735416,
        0.00046400634921629216
    ],
    [
        "1_2",
        "XY",
        "2758",
        3259.6379917190034,
        17.612890889017088,
        0.07206844655398154,
        0.0004431763864344091
    ],
    [
        "1_2",
        "XY",
        "2779",
        3246.5196716822857,
        16.07287614735871,
        0.07787720008182351,
        0.00043506723561125005
    ],
    [
        "1_2",
        "XY",
        "2818",
        3242.227073695376,
        16.381333828214782,
        0.07706217986664173,
        0.00044240844926187703
    ],
    [
        "1_2",
        "XY",
        "2839",
        3252.092098772271,
        15.91749980311211,
        0.08123842762880487,
        0.00045320073955820543
    ],
    [
        "1_2",
        "XY",
        "2860",
        3249.9286113189933,
        17.543968608811188,
        0.07569612295858397,
        0.00046070485002085756
    ],
    [
        "1_2",
        "XY",
        "2881",
        3216.6262106963245,
        16.713975747543955,
        0.08243607918798228,
        0.00048518476911028186
    ],
    [
        "1_2",
        "XY",
        "2902",
        3245.9733001393865,
        18.43884768724543,
        0.07635313199600813,
        0.0004905239432913789
    ],
    [
        "1_2",
        "XY",
        "2923",
        3236.686335573406,
        16.154434836218286,
        0.08141279335753156,
        0.0004597022557701854
    ],
    [
        "1_2",
        "XY",
        "2944",
        3235.379337221351,
        17.59054638012409,
        0.0732655525082149,
        0.0004542532316246326
    ],
    [
        "1_2",
        "XY",
        "2965",
        3239.469045680389,
        16.971729678388616,
        0.07731268970704869,
        0.0004649106105100251
    ],
    [
        "1_2",
        "XY",
        "2997",
        3231.427974707158,
        16.95910961375805,
        0.07398602864866176,
        0.00043794556031376524
    ],
    [
        "1_2",
        "XY",
        "3018",
        3251.336779298614,
        15.896387547785562,
        0.0783652194411812,
        0.0004351098611972433
    ],
    [
        "1_2",
        "XY",
        "3039",
        3249.1462233447855,
        17.987605668193904,
        0.07120032609862581,
        0.0004460041325547936
    ],
    [
        "1_2",
        "XY",
        "3060",
        3229.9044305289317,
        16.932368191717806,
        0.07678047086603973,
        0.0004610714331120693
    ],
    [
        "1_2",
        "XY",
        "3081",
        3242.9302566718193,
        18.153356440049002,
        0.07428098252738094,
        0.0004751737719181987
    ],
    [
        "1_2",
        "XY",
        "3102",
        3230.6610687412767,
        17.46251753894517,
        0.08098472674387515,
        0.0004964943303223452
    ],
    [
        "1_2",
        "XY",
        "3123",
        3239.2172870015747,
        17.70227991557934,
        0.07680829024408406,
        0.00047765832354662704
    ],
    [
        "1_2",
        "XY",
        "3144",
        3233.347322717825,
        16.939471622469796,
        0.08240443581689025,
        0.0004883643809765153
    ]
]