Scan,Type,BCID,sigma,sigmaErr,Mean,MeanErr,CapSigma,CapSigmaErr,peak,peakErr,rate0sep,rate0sepErr,peakRateRatio,peakRateRatioErr,area,areaErr,fitStatus,chi2,ndof,covStatus
1,X,103,0.08909058378482308,0.00018777599796316623,-0.0007493828736533468,0.0003382056514562902,0.12599311186823337,0.00026555536300765237,0.035759511526448864,0.00011493122107868731,0.03683446346953305,0.00020423209428353816,0.9708166797658581,0.006221740627106468,0.011293493714358064,4.340613101743365e-05,0,145.77212409319338,16,3
1,X,124,0.08696818634226877,0.0001742779269150306,-0.0006377501384986603,0.00027842310534164115,0.12299158862022708,0.00024646620786550333,0.03802734360626823,0.00011184777290049674,0.03949836063699795,0.00026851498611136116,0.9627575168435769,0.0071312651020465296,0.011723609230979289,4.172460844528696e-05,0,216.83451899194176,16,3
1,X,145,0.08825337981317782,0.00020871914202480834,-0.002539417585943526,0.0003352519348127314,0.12480912665706001,0.0002951734413783602,0.03663094149184044,0.0001366754787085436,0.0379170554709292,0.00028098981475676703,0.9660808582545442,0.008015509409923995,0.01145999318904492,5.062501501976431e-05,0,201.9934494870382,16,3
1,X,166,0.08610401781976881,0.0001743786711269229,-0.0012248466661254162,0.0003021757388562474,0.12176946977553171,0.000246608681696292,0.03863451117002302,0.00012366927284337758,0.03949928119968761,0.00024703279379113927,0.9781066894535937,0.006871873609567255,0.01179244259464474,4.4668159795079295e-05,0,287.7612452233771,16,3
1,X,187,0.08813051888843561,0.00019723565497005576,-0.0030983215708263326,0.0003354794714330045,0.12463537507100386,0.00027893333824219324,0.036760588952129844,0.00013112241972222804,0.03797142136033323,0.00027013107473017556,0.9681120072721777,0.0077044244734082706,0.011484543045348397,4.836016241737297e-05,0,240.3804139669823,16,3
1,X,208,0.08604223297906796,0.0001785613303760487,-0.0018601014266359025,0.00032197193517222096,0.12168209281586351,0.000252523855133191,0.03791898463283263,0.00011960119471393704,0.038815667393709695,0.00024822662976238785,0.9768989477423651,0.006965821747404687,0.011565736785112817,4.3667769510018105e-05,0,296.3824008934013,16,3
1,X,229,0.08722333661492829,0.0001895486937608316,-0.002265396669047502,0.00030763524082560393,0.12335242559626536,0.0002680623334466725,0.03733299244609267,0.00013035334593663878,0.03830740949454901,0.00025496711572371353,0.9745632225902668,0.007324894479620954,0.011543311900555438,4.7473884393733585e-05,0,261.44074305936084,16,3
1,X,250,0.08610358447501641,0.00017484165991047608,-0.0021753998678525855,0.00030489821836388514,0.1217688569335057,0.00024726344671321954,0.038980968612516084,0.00012219915914088303,0.04004144821920856,0.000301213428890949,0.9735154532651557,0.007933753874090257,0.011898132194287975,4.444004873915223e-05,0,281.6526582914242,16,3
1,X,282,0.08812457178182499,0.00017359793562665994,-0.0019658869860364856,0.0003166647313312668,0.12462696459217826,0.000245504554963194,0.03678036156301993,0.00010941393169646064,0.03761746173416235,0.00028676028780691854,0.9777470320284208,0.008000843733671362,0.011489944895260434,4.099504532833844e-05,0,111.99599815351397,16,3
1,X,303,0.08649901397729447,0.00018553890087122984,-0.0009060958745178367,0.0003226579885832364,0.12232807869858975,0.0002623916299598905,0.038841123838220575,0.0001376734737392291,0.04017687719564978,0.0002752518189854974,0.9667531811662595,0.007457164276496625,0.011909893453364972,4.934295490081739e-05,0,287.28556894793036,16,3
1,X,324,0.08619026757848401,0.00018396611972263107,-0.0013077140058496955,0.00030776899464350887,0.12189144535405816,0.0002601673815288974,0.037896959102722776,0.00011951204045775206,0.03891436101422592,0.00022578184741544132,0.973855361234604,0.006431033242974431,0.011578905888105813,4.409263150744064e-05,0,333.69410582882836,16,3
1,X,345,0.08526736144988545,0.0001754852383471893,-0.0020575920844240793,0.0003020688420652552,0.12058625899019682,0.0002481736040668703,0.03922871573586566,0.00013663535348644475,0.040378610848045726,0.0003139587279478561,0.97152217255548,0.00827723265081379,0.011857464871404282,4.797103438013283e-05,0,307.01697914640596,16,3
1,X,366,0.08629364739647093,0.00017953935123421984,-0.001976340865121844,0.00029931987077802346,0.12203764649473092,0.0002539069854951004,0.0380840373667648,0.00010826253447575668,0.0393735564319259,0.00019119761644047873,0.9672491087415335,0.005442591577612487,0.011650021864267347,4.1040234732553666e-05,0,326.2755201614099,16,3
1,X,387,0.08526840286910545,0.00017195122278689887,-0.0019264403695911148,0.0002736099708022321,0.12058773177938187,0.00024317575133186997,0.0391336108474797,0.00011594054980962563,0.040260697822466565,0.0002848801938714335,0.9720052796909565,0.007456344519818552,0.011828862470245314,4.239311004559594e-05,0,280.14360001920505,16,3
1,X,408,0.08734968685201913,0.000183415037981704,-0.0015869486326172354,0.00032942074858113835,0.12353111181516829,0.00025938803425690216,0.03747745869384018,0.00012346268757550417,0.03832586491539249,0.00023862572343910556,0.9778633509400182,0.0068881084977410155,0.011604766824410261,4.533530539215941e-05,0,216.9596649781922,16,3
1,X,429,0.08552601027687623,0.00017721412030244956,-0.0015919257436680966,0.000305440700142135,0.12095204366921908,0.00025061861237574146,0.03920692109020036,0.00012539676122489044,0.04028182633250385,0.0002414816996895948,0.973315379659533,0.006613319398643496,0.011886825400069854,4.529912762002261e-05,0,219.09579927969477,16,3
1,X,464,0.08841708424688068,0.0001781084646297725,-0.0004440970360080047,0.00030402807470856526,0.12504063968742318,0.000251883406252873,0.03684652824325386,0.00011286286384706593,0.03760454696136969,0.00025446688040800807,0.9798423653688868,0.00727815605063155,0.011548822193428815,4.2338917582348896e-05,0,190.29320728060537,16,3
1,X,485,0.08609227462700274,0.0001721809851673899,0.00020238414730134767,0.00031592980465374457,0.12175286239305638,0.00024350068440648354,0.03868121465935722,0.00012822210847674876,0.03961097097237141,0.00023297229365669848,0.9765278080746193,0.006592852164425547,0.011805087695588561,4.570263246038195e-05,0,144.63038733364354,16,3
1,X,506,0.08699870540753338,0.00018944240664662586,-0.0008608425859806296,0.0003450039489288113,0.12303474909623524,0.00026791202076825726,0.03794596722577797,0.00012125855157589052,0.03876945672293213,0.00023704034653471398,0.9787593232724598,0.006752291344388149,0.01170262663596283,4.5253371315783536e-05,0,167.88104219970728,16,3
1,X,527,0.0859294900486832,0.00018177104795722872,0.0003122375118311363,0.0003292465176202118,0.1215226502346517,0.00025706308126788313,0.038860796363933185,0.00012227836314341293,0.0395104192958838,0.00021921832104068942,0.9835581868396346,0.006273629346482397,0.01183746921891139,4.488202203103589e-05,0,143.99628603786965,16,3
1,X,548,0.08688116272448852,0.00019162731841614858,0.0002560332460884101,0.000328019563134427,0.12286851863971548,0.0002710019526253049,0.03792770996948775,0.00011816946653877376,0.03895509172995706,0.00022294649307327133,0.9736265090173248,0.006344423634893345,0.011681192413745958,4.4591043460800504e-05,0,167.78249706098117,16,3
1,X,569,0.08506475445008138,0.00016137926149292688,-0.0005631229715022824,0.00031684652156492745,0.12029972942324219,0.00022822474028905138,0.03947960072649916,0.00011974755192977686,0.04053604192125159,0.00019511389056103625,0.9739382252267068,0.00554103868003604,0.011904943442837022,4.259095226060851e-05,0,189.39376877760802,16,3
1,X,590,0.08753828999550857,0.00018069098547227134,-0.00025863870084929467,0.00033398701595588256,0.12379783693859725,0.00025553564225344605,0.03752030025420252,0.0001285081139028544,0.03841219013230409,0.0002416276565787949,0.9767810719714338,0.006996086913130905,0.011643117916915309,4.656007439786416e-05,0,197.70596067531872,16,3
1,X,611,0.08638279450348911,0.0001626865694563977,-0.0003861463356706548,0.00029101219209247647,0.12216371954252236,0.00023007355294119014,0.03844333143766167,0.0001251841285978364,0.03913398612829236,0.00023805198215853785,0.9823515373985536,0.0067779799607145304,0.011772079798874752,4.428333026467723e-05,0,148.59890518447642,16,3
1,X,643,0.08807485634413378,0.00018187757188062952,-0.0010057485184899728,0.00032982520111688856,0.12455665634593605,0.00025721372884507376,0.036791814146281736,0.00011666961933557968,0.03775305536499284,0.00021059350038376038,0.9745387172132713,0.006253157096095793,0.011487038541893051,4.346912280160302e-05,0,188.38690315692648,16,3
1,X,664,0.08637353847965565,0.00017260941496554505,0.0002546167500148995,0.00032469518621118136,0.12215062954808342,0.00024410657563755933,0.03808146816752144,9.789652245235999e-05,0.03874062364792466,0.00023701531064979043,0.9829854189650215,0.006523242943087771,0.011660020858399187,3.796620302022022e-05,0,143.9903220844375,16,3
1,X,685,0.08885686750285074,0.0001800409173935949,0.0002540586865650018,0.0003253546417390672,0.12566258713252065,0.00025461630716011596,0.03617857877573811,0.00011265754882678295,0.03688708833688718,0.00028258655824948357,0.9807924779890919,0.008110698678940625,0.011395868603253279,4.233684769801336e-05,0,147.50710372874255,16,3
1,X,706,0.08641293394717514,0.00017508286406204968,0.00024125819239067333,0.0003161793378776312,0.12220634315254553,0.0002476045608956756,0.036494911699107326,0.00011738611480951812,0.036901072326120686,0.00022530392263945753,0.9889932567968802,0.006825093108313028,0.011179335762394518,4.249775656610665e-05,0,130.83628709587862,16,3
1,X,727,0.08805746225915126,0.0001770209479815125,0.00045410120382809453,0.00034927898952954485,0.12453205739504869,0.00025034542545959715,0.037500911089577094,0.00011946937739761734,0.038317962262479584,0.0002008092768835787,0.9786770714135147,0.006002177939134568,0.01170611850785686,4.409713539398324e-05,0,170.90597517379987,16,3
1,X,748,0.08578511424979361,0.00016814649244697525,-0.0004979600405790345,0.00031542191707527886,0.12131847202178359,0.0002377950500839776,0.03915563198277964,0.00012718100875115713,0.039926797604337,0.00024782006909750224,0.9806855127927017,0.006870064708008357,0.011907239910540818,4.5172304693075336e-05,0,244.7331068505377,16,3
1,X,769,0.08799320383438994,0.0002012935772258114,-0.0004555070087124734,0.00036192513486611115,0.12444118225925449,0.0002846721069313385,0.03710328264557802,0.00013255520478315866,0.037752703961431516,0.00023757142753491286,0.9827980184805585,0.007111765092742796,0.011573544808208871,4.9097760822917824e-05,0,144.47548819374134,16,3
1,X,790,0.08656067938640932,0.00018842874965545252,-0.0006557268349628047,0.00034525560236630065,0.12241528675648927,0.0002664784933037456,0.03840777587479915,0.00013714155334310587,0.03958402796185971,0.0002758850989442729,0.9702846792601826,0.007598333356077878,0.011785411395005458,4.928546862338841e-05,0,155.5211091911961,16,3
1,X,822,0.08827517380114015,0.00016303893525771956,-0.0011957249957335442,0.00030526653882818563,0.12483994801041454,0.000230571873436336,0.03665866945294298,0.00010533106333474722,0.03730998987030542,0.00019202664028939562,0.9825430020317207,0.00579160910281894,0.011471500047654355,3.918318164829195e-05,0,165.0896019669816,16,3
1,X,843,0.0862668516518252,0.0001722698359222348,-0.0006168304279457824,0.0003277235160200741,0.12199975158923904,0.00024362633834901226,0.036467073165390634,0.00012909506332389894,0.03715986871571746,0.0002420075469694265,0.981356350970266,0.0072743557865977545,0.01115192368902969,4.5326348403812656e-05,0,104.77340832292171,16,3
1,X,864,0.08756899600625953,0.0001896651813164987,5.346653634506936e-05,0.0003498557842666588,0.12384126179544763,0.0002682270717277446,0.03775081239494437,0.00011835778335137174,0.03869792349474465,0.0002811631614172326,0.9755255317529143,0.007719513208103721,0.011718758503332467,4.465572100449302e-05,0,139.13472907481454,16,3
1,X,885,0.08585764957104133,0.00017746872483380313,0.0002730845933047216,0.00031138641548508934,0.1214210524568432,0.0002509786775570233,0.03925507481480853,0.00012335736841998012,0.03999346626148239,0.00023936226475867686,0.9815371980551482,0.00663505121056695,0.011947574204193206,4.493871434161904e-05,0,197.31589060447598,16,3
1,X,906,0.08715973927519954,0.00017989062779547792,-0.000438965594443871,0.00033640816838121745,0.12326248537589013,0.00025440376557217537,0.03771726253463596,0.0001217340609413509,0.03812388068720135,0.00020024964513146656,0.9893342926995914,0.006099218019713468,0.011653624471480004,4.4645384231271884e-05,0,137.36415634811584,16,3
1,X,927,0.08560423023207364,0.0001691902259442125,-0.0007003856349525425,0.0003046184749241069,0.12106266339070748,0.0002392711121512736,0.03925800709012409,0.00011190138821594005,0.039811166024658645,0.00022845858191248314,0.9861054324761066,0.006318454784314085,0.011913199305321443,4.132194735369931e-05,0,160.29679274461614,16,3
1,X,948,0.0873147575713411,0.00020560443087156487,-0.00044045520353484964,0.0003474124049957154,0.12348171435270949,0.00029076857462256855,0.037421197660237604,0.00012264685183688151,0.03790092656895846,0.0002917105812274673,0.9873425545982889,0.00825954384845302,0.01158271225493588,4.6744040184079756e-05,0,137.21125805625684,16,3
1,X,969,0.08549535532871695,0.00017268128751145716,-0.0006182251969440964,0.000309729572329905,0.12090869102577839,0.0002442082187667505,0.03906041794949963,0.00012035437808704078,0.03984974265417846,0.00027256616470838925,0.9801924767362064,0.007353242448027353,0.011838163657262882,4.361444238430231e-05,0,217.6735000631773,16,3
1,X,1018,0.08643292862231208,0.00016888384542375486,-0.0011531462202625416,0.0003130361303403597,0.12223461989329942,0.0002388378246639955,0.03807936455409552,0.00012579505703389244,0.03862763646536471,0.000297036198696645,0.9858062267992814,0.008250501991477704,0.011667393707592415,4.478050142441702e-05,0,129.79573184824983,16,3
1,X,1039,0.08486215186427824,0.00017677585038766914,-0.0011521814021828774,0.0003087903246413448,0.12001320609862753,0.0002499988051182789,0.03947289775744604,0.00012530016146070926,0.04001502416656883,0.0002174502346534612,0.9864519284840089,0.006208152457894992,0.01187457245471095,4.5085356776792916e-05,0,174.2971424654504,16,3
1,X,1060,0.08615468707502302,0.00018766993088525035,-0.0012943795164156002,0.00035383424698720556,0.12184112692350757,0.00026540536150754246,0.03870915602855526,0.00013351737286444002,0.039479908637251905,0.00024660065464231234,0.9804773456854105,0.00699601350623466,0.011822179358957014,4.822846741771021e-05,0,129.1322327614931,16,3
1,X,1081,0.08536180249381624,0.0001656025732890585,-0.0011563001440353328,0.0002953996123066478,0.12071981879536842,0.000234197405109271,0.03806428639117808,0.00011749498781096333,0.038505784823522904,0.00032044773639035626,0.9885342310416922,0.008774311340861013,0.01151824206522865,4.1992902156359715e-05,0,125.32255300083126,16,3
1,X,1102,0.08615442655252567,0.00018626460190533168,-0.00120423163894276,0.00032971535118795096,0.12184075848905851,0.0002634179262045455,0.03876628442400501,0.00013359467097672818,0.0392986965763777,0.000293782358738611,0.9864521676606263,0.008120183820975796,0.011839591164091572,4.816571066414754e-05,0,104.60004769976679,16,3
1,X,1123,0.08490659891764785,0.00017940779141329476,-0.0011010964702670213,0.00031438479491217316,0.12007606372431034,0.00025372093181208477,0.0399447818376061,0.00013718743280028122,0.04095127389737751,0.0002504744936042194,0.9754222039027738,0.006842270310087082,0.012022822360567325,4.848055257651588e-05,0,155.4214273763431,16,3
1,X,1144,0.08625757414177022,0.000173328830566264,-0.0018937388089346105,0.00033218284172296735,0.12198663120869424,0.0002451239829370788,0.03849402432373112,0.00011834815354291632,0.039461062568622855,0.0002000455152177489,0.9754938620010535,0.005783576621779063,0.011770515634974622,4.323176996484544e-05,0,139.33674320411282,16,3
1,X,1165,0.0864115094159048,0.00017462330879515242,-0.0008124688567505366,0.00030278899947796823,0.12220432856110297,0.00024695465160456953,0.03887396888938482,0.00011703852399185013,0.0398057946732036,0.00023113950744605688,0.9765907001362777,0.0063876758167502575,0.011907906231077474,4.3178579211065746e-05,0,202.4454150956448,16,3
1,X,1197,0.08654206414087537,0.00019083338364296834,-0.0015665201109752067,0.0003275724146639445,0.12238896082378825,0.0002698791593014338,0.038037000380214556,0.00012787089735294746,0.03819782951551676,0.00026493962282515143,0.9957895739799334,0.007675288121481235,0.011669129039679945,4.691483967824703e-05,0,97.28892460051951,16,3
1,X,1218,0.08447560403990785,0.00016397986321597453,-0.0007398950601802784,0.0002883078088727417,0.1194665449228971,0.0002319025465161162,0.04005257427899851,0.00012057214004652173,0.04066978922453536,0.00023449055716392598,0.9848237486029435,0.0064055724276631185,0.01199407257502222,4.2961980081781754e-05,0,108.0819757779556,16,3
1,X,1239,0.0856443967758903,0.00018737510410348626,-0.00027490208740047937,0.0003243989656600763,0.12111946746172664,0.00026498841347422086,0.03909442689767778,0.00013119795997471972,0.03948548076837143,0.000244038316226994,0.9900962616363306,0.0069631493245750015,0.011869125934216546,4.754887664604286e-05,0,98.95453147371174,16,3
1,X,1260,0.08437481135583422,0.0001641611649902608,-0.001124887322946456,0.0003103646302481514,0.11932400254209219,0.00023215894594419417,0.039596312171594004,0.00013073029609849912,0.04015283955496816,0.00024209263564839128,0.9861397751804756,0.0067787773703058786,0.0118432933442564,4.5386004148581214e-05,0,106.91775388845218,16,3
1,X,1281,0.08599691147051078,0.00017216733461575048,-0.0010612630930298046,0.00033735208792505,0.12161799852379473,0.00024348137961122118,0.0386820134889364,0.00012086318419610832,0.03918792996690004,0.0002569823741782792,0.9870899922912243,0.0071702439619334936,0.011792254896274916,4.3759871241065877e-05,0,134.42304713875396,16,3
1,X,1302,0.08371246994685809,0.00016788460469181773,-0.0010152893131161267,0.0003075813748327029,0.11838731033859684,0.0002374246848688144,0.040918379861654905,0.0001318862298977866,0.04160893256170625,0.0002920210414495065,0.9834037391123347,0.007594797640489522,0.012142651138304702,4.609526029785087e-05,0,137.59474117559432,16,3
1,X,1323,0.08633153037532723,0.00019406449983272583,-0.000494328531819063,0.00034842804099555105,0.1220912211172126,0.0002744486476385921,0.03829590850650778,0.00013993996719791825,0.03866367751554994,0.00025628487578006193,0.9904879971933801,0.007497080290374154,0.011719976706023242,5.028135635195879e-05,0,105.39446209854228,16,3
1,X,1344,0.08663335870548076,0.00018059032579690468,-0.0010668110542583168,0.0002940682693946371,0.12251807083522415,0.00025539328797535843,0.03860323484518645,0.0001229218830557611,0.03967563572725171,0.0002540939974604911,0.9729707952397428,0.0069588984689812425,0.0118553337000837,4.5119879754717426e-05,0,195.56152911932696,16,3
1,X,1376,0.08769950779854499,0.0001854717725296442,-0.00227225172697844,0.0003473942545706293,0.12402583334214734,0.00026229669614880047,0.03764222815747446,0.00012093313996526762,0.038446702865530646,0.0002329067585644641,0.9790755865107632,0.006713613190861698,0.011702466610929932,4.50112319947076e-05,0,147.4342189899456,16,3
1,X,1397,0.08611069844962319,0.00016833297554364623,-0.0018876583105279941,0.0003076589042567275,0.12177891761287696,0.00023805877700844302,0.03876268016356453,0.0001215122306961584,0.03955689254488739,0.00025091088669395217,0.9799222757343332,0.006933318293138303,0.011832481704729515,4.3713327266029956e-05,0,258.20884655471525,16,3
1,X,1418,0.08684226723373067,0.0001850278659383857,-0.0012937981829047806,0.0003319380747014273,0.12281351210917058,0.0002616689174270159,0.03811064746434735,0.0001348264902652765,0.038991086241176656,0.00033701317201563334,0.9774194857926395,0.009128443071167301,0.011732279815368863,4.8452068512207256e-05,0,217.14270301291336,16,3
1,X,1439,0.08588827594134367,0.0001733187363168285,-0.0015414422145626297,0.00031539400916983035,0.12146436468509103,0.0002451097075126252,0.03690720629987654,0.00010584830258520728,0.03721998242800769,0.00021029147419357762,0.9915965535788166,0.006282939781263971,0.01123698987483903,3.940536298427477e-05,0,101.34153169385425,16,3
1,X,1460,0.08634442269262609,0.0001789283209136797,-0.002155778050735686,0.0003091670751703206,0.12210945360718706,0.00025304285812877136,0.0381495998060913,0.00012442774383629272,0.03872847603051611,0.00025088155676103034,0.9850529562803172,0.007144306232300424,0.011676944301233628,4.512219309224782e-05,0,178.55293512513353,16,3
1,X,1481,0.08565398221579312,0.0001695197134596463,-0.0019898866358363187,0.0003266460517459541,0.12113302332083853,0.0002397370778642327,0.03949056993769481,0.00012899275925859334,0.04017048351745275,0.0002316868482151977,0.9830742993306879,0.0065161276647529255,0.011990737417960601,4.5795231122380116e-05,0,165.32803255339556,16,3
1,X,1502,0.08722578321218188,0.00019054190100839367,-0.002148910195463023,0.0003256487765947044,0.12335588560728306,0.00026946694060642207,0.037636748088209826,0.00011941560486048946,0.03861143233130103,0.0002167236169650723,0.974756589324943,0.006284877686678609,0.011637559165520495,4.4829307640134274e-05,0,208.31344441053855,16,3
1,X,1523,0.08738617408248665,0.00018072280731627118,-0.000885204985961255,0.000321123291028599,0.1235827125513489,0.00025558064513681034,0.036035583901423786,0.00012324187259385967,0.03708143708573465,0.0002561709970020984,0.9717957752852786,0.007491122799229254,0.011162956211180464,4.4614756012107704e-05,0,193.13604109070351,16,3
1,X,1555,0.08748614706573535,0.00017891545058357176,-0.0022638587736073224,0.0003326426372137798,0.1237240957001301,0.0002530246567333805,0.03519797040678177,0.0001098904106553716,0.035446787025064874,0.00022705496650455157,0.9929805593351193,0.007075844397704907,0.010915957703648237,4.074097914753606e-05,0,144.34728486659898,16,3
1,X,1576,0.08954726244465512,0.0002000598024471584,-0.0020330911133516114,0.0003503837637337569,0.1266389530226142,0.00028292728590645355,0.033672653299275455,0.0001145974687570302,0.03418592429172218,0.00021872743633740487,0.9849858968835601,0.007138187067112119,0.010688938648024043,4.351544347279646e-05,0,139.74619674332945,16,3
1,X,1597,0.08775159023937891,0.0001688556563648916,-0.0016647503311826622,0.00030352311227892584,0.12409948903633616,0.00023879795931464054,0.03512964116907329,0.00011182390449685554,0.03615292369393976,0.00023266287559558677,0.9716957186221152,0.006976514386216535,0.010927822728453473,4.064701450310725e-05,0,168.5275359330575,16,3
1,X,1618,0.08508507349613116,0.00016505845640134363,-0.002306382163358394,0.0003062014579305684,0.12032846489374027,0.00023342790762714838,0.037594607086391944,0.00011122827001513026,0.038064429210740706,0.00023960620075318316,0.9876571871931238,0.006869535409253233,0.011339237732428188,4.011711071317149e-05,0,204.48923172814963,16,3
1,X,1639,0.08637917384796838,0.00017938277645491605,-0.0019050835091650713,0.0003076377718113366,0.12215859916238025,0.0002536855553186834,0.03788183744578547,0.00011642557677375663,0.038604220082024014,0.0002420530204309464,0.9812874697454407,0.006852176169854035,0.011599653442141238,4.302573119537866e-05,0,199.95866668849078,16,3
1,X,1660,0.08496096824456684,0.00015562727886468393,-0.0017471876310524196,0.00029764736103790113,0.12015295356381628,0.00022009020844565574,0.03872404742772416,0.00010438686057155751,0.039021161939128704,0.00023054251936528784,0.9923858107590945,0.006444604951634836,0.011662861774651978,3.8010716347855204e-05,0,162.76593875411714,16,3
1,X,1681,0.08739881397641305,0.00017916861440927213,-0.002213077299320871,0.00033587415601019186,0.12360058806076657,0.0002533826844491882,0.037686414203798736,0.0001186369776798421,0.03845646673576341,0.00023403026715394763,0.9799759937059286,0.006714396681606999,0.011676032314258615,4.386285721982725e-05,0,168.2523062114128,16,3
1,X,1702,0.08602044892114086,0.00016354089924947693,-0.0011222521967108761,0.00031367104660236613,0.12165128550569948,0.00023128175772130222,0.03941386440880939,0.00012323531387607297,0.040378218898956084,0.0002565962371644358,0.9761169631439185,0.00691322142003183,0.012018649081903076,4.398030769511087e-05,0,227.63023174940867,16,3
1,X,1734,0.08771321300556646,0.00018554683469503095,-0.0013886209130177438,0.0003367044859605014,0.12404521543179226,0.00026240285008111153,0.03737529552153026,0.00012888288590543964,0.03825851869402713,0.00026667387939001495,0.9769143395341451,0.007597125099684261,0.01162129664504337,4.701373044632889e-05,0,171.79306639461663,16,3
1,X,1755,0.08664884316515478,0.00018924386276756536,-0.0018109714834734479,0.00033497255949200926,0.12253996916810117,0.00026763123732176375,0.03723396010031081,0.0001250163148318468,0.03798030955791315,0.00020555180085158117,0.9803490422724362,0.006243816685502941,0.011436863292873507,4.580945169947339e-05,0,184.78272684862827,16,3
1,X,1776,0.08705910574141267,0.0001792189782636955,-0.00217400927117186,0.0003235870488962059,0.1231201680675792,0.0002534539096951671,0.03780290341746241,0.00013284911557962434,0.03905990476267517,0.00027024173033417454,0.9678186274940965,0.0075102782483837645,0.01166659953293765,4.751586053416755e-05,0,246.96477130392475,16,3
1,X,1797,0.08474597027048784,0.0001577592010627441,-0.002070640472291016,0.00028721278831856913,0.11984890051299102,0.0002231052017320767,0.03994436730515261,0.00011845129161642119,0.0407206888739634,0.00021812105273713965,0.9809354509887194,0.006005849565306032,0.01199995272096112,4.201529416964273e-05,0,203.4864831272658,16,3
1,X,1818,0.08703780410624141,0.00017077182404102228,-0.0019681247537141114,0.00030763041866510967,0.12309004300621929,0.0002415078296300055,0.0355872378185173,0.00010964559627606318,0.03613982274303812,0.00021146146004507327,0.9847098053454824,0.0065117074957540865,0.010980121307638962,4.010736015488437e-05,0,186.69545120196352,16,3
1,X,1839,0.09007008039001368,0.00018923488319192512,-0.0022276082561165297,0.00034909782193356893,0.12737832925159231,0.000267618538284109,0.03159855221269262,0.00010596605020169315,0.03175612479648049,0.00021829481532427308,0.9950380411716567,0.007610531676501314,0.010089105580817092,3.992548350692101e-05,0,59.479646440785736,16,3
1,X,1860,0.08681167772692734,0.00018315954447656107,-0.002370197128567535,0.0003179631164960609,0.122770252013783,0.0002590267118768308,0.03747678492160864,0.0001259515043898904,0.038470914013209526,0.00027714326622944044,0.9741589427467324,0.00774392385654158,0.011533082742853125,4.576520656757756e-05,0,169.23612012754526,16,3
1,X,1881,0.0852467969128316,0.00017642694715305012,-0.0006318758391596882,0.00031443331750006566,0.12055717634299135,0.0002495053814319248,0.038472133373676526,0.00011474621743686296,0.03898244594772399,0.00022222316138509918,0.9869091699702015,0.006349483563184347,0.01162597196455176,4.2205699373239666e-05,0,185.3499092067015,16,3
1,X,1916,0.08825695659210879,0.00017802026944505243,-0.0013893099815445024,0.0003361954550523497,0.12481418498633379,0.00025175867942650587,0.03706419535175907,0.00012430055331855337,0.03801942803151845,0.0002111211760673765,0.9748751433354682,0.006324123286370918,0.011596006646247303,4.538110179877963e-05,0,232.28092391662713,16,3
1,X,1937,0.08683211425611684,0.00019206410149635191,-0.0013549887226214595,0.0003365205089183034,0.12279915363053062,0.00027161965718114356,0.036241047867322476,0.0001267504900970072,0.03710667376673768,0.000310446178137855,0.9766719618994482,0.008856387979963258,0.011155423286578186,4.616312893712705e-05,0,136.20685996059458,16,3
1,X,1958,0.08844760058248655,0.0001936788519403802,-0.002244307813141808,0.0003385665148378215,0.12508379630311095,0.0002739032591589363,0.037103644137947325,0.00012924278961091713,0.03801948549933597,0.00026380674435127365,0.9759112636754478,0.007576944952269043,0.01163342391481816,4.7864657550537336e-05,0,184.07380908090076,16,3
1,X,1979,0.08571182592831773,0.00017732910011344075,-0.0015061540567048838,0.000315161730142907,0.12121482668358885,0.00025078121838384426,0.03935037045163791,0.0001223792641150079,0.040314247760138,0.0002506357614656754,0.9760909018013936,0.006785325244887805,0.01195623670028326,4.4659995118249285e-05,0,218.5523366378448,16,3
1,X,2000,0.0873121521692788,0.0001850393948246745,-0.0011550391520130873,0.0003138536151602715,0.12347802975777755,0.0002616852217343646,0.03771510168889008,0.00011803643002529984,0.03888815668008215,0.0002729807632183703,0.9698351608474954,0.00745387858909705,0.011673333906780492,4.412197028546045e-05,0,207.934395469549,16,3
1,X,2021,0.08590011901388779,0.0001616724031953335,-0.0014257124014387702,0.0002868584909499747,0.1214811133189031,0.00022863930526029197,0.03888649778194492,0.00011356508714610216,0.039821181945541274,0.0002125245662956216,0.9765279653207026,0.005940963661112214,0.011841249412998441,4.114075303510496e-05,0,225.53099663663457,16,3
1,X,2042,0.08804721335023574,0.00018743401155321986,-0.0012711720010770793,0.00031245179909052606,0.12451756324906083,0.00026507172118855893,0.03703038164284963,0.00012109834630884159,0.038176844052128324,0.0002450375272547692,0.969969691373303,0.006987246393160727,0.011557894750365071,4.5099840383748745e-05,0,246.12465460721194,16,3
1,X,2063,0.08572918941672521,0.00016566691381784832,-0.0009415152585985066,0.0003134056916672635,0.1212393823643848,0.00023428839635769583,0.03939675912061487,0.00012622530760909194,0.04025006717810604,0.0002470299114917093,0.97879983519741,0.006776570278693376,0.011972756405100845,4.479738911049193e-05,0,239.79543845292295,16,3
1,X,2095,0.08805353997079471,0.00018291496509879914,-0.0009254738632568623,0.00032670769111456345,0.1245265104416593,0.0002586808244037231,0.037332196891690955,0.0001174651065568627,0.03800720607569796,0.0002620497929670838,0.9822399683190971,0.007444172973246974,0.011652934357735572,4.393572175171814e-05,0,245.9507177695654,16,3
1,X,2116,0.08708313992508837,0.00017993661195568868,-0.0003254215995069938,0.0003294873098606106,0.12315415753609393,0.00025446879699519975,0.03848469771074109,0.0001284140974277332,0.039231894955262775,0.00024293611976653837,0.9809543422418485,0.006900138619467841,0.011880291353998438,4.662676029101362e-05,0,225.06882377662032,16,3
1,X,2137,0.08696885051427977,0.0001780076675263718,-0.0009863472943385078,0.00030206680069565656,0.12299252790129278,0.0002517408576221958,0.03768848171628073,0.0001241441110728202,0.038609558419530746,0.0003116421877155031,0.9761438166880436,0.008509902354070752,0.011619228812706144,4.5060310835674134e-05,0,197.46534973319604,16,3
1,X,2158,0.08578969334528726,0.00017826352631293644,-0.0005133920462791579,0.00029348694488199836,0.12132494784073411,0.00025210269658820783,0.039189969967916086,0.00012240070687356846,0.039959991026807,0.00030009068977316413,0.9807301994043405,0.007976633151253723,0.011918318252587698,4.470960438364e-05,0,270.0155193352041,16,3
1,X,2179,0.08748854666797927,0.00018020600579691018,-0.0006713893727835433,0.00031300122392893934,0.12372748925016774,0.000254849777419075,0.03770095974874095,0.00011465356268162287,0.03896648961242096,0.0002092322097850123,0.9675226104207085,0.005970520951822551,0.011692531278809527,4.2946968169983276e-05,0,242.03534049811478,16,3
1,X,2200,0.08519887905112755,0.00017517266009655464,-0.001054247909771538,0.000312958977104402,0.12048941025308957,0.00024773155166551986,0.03940143362508517,0.00012935196866228538,0.040263310909004674,0.00025067122767994684,0.9785939788740338,0.006887672016540231,0.011900106190388428,4.6096466633631895e-05,0,225.24606237175945,16,3
1,X,2221,0.087869010312668,0.00017756449441263717,-0.002080040942076972,0.00032647355972931403,0.12426554609647644,0.00025111411619427315,0.037455654923094106,0.00012141418739692603,0.03883395853417337,0.0002848837947277887,0.9645077745585382,0.00773555117350126,0.011666969489260357,4.4565976768622654e-05,0,213.18893939382693,16,3
1,X,2242,0.08573403877962577,0.00016638355538980937,-0.0017491006775806881,0.00028679407971987127,0.12124624039916765,0.0002353018805881235,0.039414206040065215,0.00011994576014628768,0.04047541421758465,0.0002032759540156178,0.973781412790128,0.0057183202232172214,0.01197873611156836,4.3235488004774125e-05,0,261.7541147691694,16,3
1,X,2274,0.08674107005037913,0.00018123634752769844,-0.001108305027893227,0.0003180113884286061,0.12267039768000088,0.0002563069006686347,0.03779095453395621,0.00010900322294972736,0.038936234024066235,0.00017857637096168282,0.9705857662196571,0.005258612959707763,0.011620306117272074,4.1387185932517106e-05,0,216.58434972048465,16,3
1,X,2295,0.08532704116382067,0.00017451323005976166,-0.0011857587224108597,0.00030686985018052085,0.12067065885104256,0.00024679897676405105,0.038811343197099966,0.00012383846350266117,0.039827802387274666,0.0002715935126633605,0.9744786523672351,0.0073366326079568585,0.011739518683693677,4.4492674225276975e-05,0,239.74640960834103,16,3
1,X,2316,0.08713980189337625,0.0001710393952358991,-0.0022877660526819045,0.00032980671997388626,0.1232342896601174,0.0002418862324427007,0.03814278934008885,0.00011924072357993303,0.03903764326999493,0.0001907883179644942,0.9770771528466247,0.005668608179717249,0.011782405076873538,4.3492184436665115e-05,0,234.48613772373776,16,3
1,X,2337,0.08531464321590314,0.000163929315469771,-0.0010712995265294498,0.00030403297170670325,0.120653125504952,0.00023183106120788777,0.03829739718358325,0.0001168407645437852,0.03892273215915031,0.0002555901088923168,0.983933939349115,0.0071243976815627335,0.011582378945280804,4.176071085813156e-05,0,180.32776430010824,16,3
1,X,2358,0.08670144180881395,0.00018062237244458387,-0.0016558207567548204,0.00031673561261117214,0.12261435488332639,0.00025543860877913493,0.036373289884722465,0.00013294984343379664,0.036796422447670736,0.0002677379771103443,0.9885007146129485,0.008049039711986299,0.011179280044501019,4.703293480907408e-05,0,221.61276493954827,16,3
1,X,2379,0.08571851780033321,0.00017749552796479144,-0.0007174256197339255,0.0003155889414267551,0.1212242904197508,0.000251016582908381,0.03869692300992727,0.00011942214565215097,0.039440050251296814,0.0002000076959583482,0.9811580554123378,0.0058245460781576,0.01175861086617811,4.369974430563458e-05,0,276.2962472999663,16,3
1,X,2400,0.08737726921997516,0.00019143535183319178,-0.001174192451303033,0.0003171184106920497,0.12357011917401406,0.000270730470880165,0.03753726319308062,0.00012101264563305517,0.03874648696129283,0.0002390716440154803,0.9687913959936496,0.00674432204865386,0.011626955361983353,4.531971359663614e-05,0,242.53295331290536,16,3
1,X,2421,0.0850202275124804,0.00018553987326285396,-0.0008269272834794158,0.0003174402799257277,0.12023675882419593,0.0002623930051293133,0.03993647958175494,0.00012545155787197903,0.0407508518085388,0.00024812238511153634,0.9800158232124802,0.006714409460520504,0.012036410026350391,4.603839257657014e-05,0,209.89272134427904,16,3
1,X,2453,0.08736447339263652,0.000168407360930688,-0.0005529337368120799,0.0002915765099841161,0.12355202314144997,0.0002381639738316399,0.03702002955565946,0.00012117539015376058,0.03797838206569189,0.0002249351902827202,0.9747658415681124,0.006596267300577296,0.011465065933236124,4.355199891808148e-05,0,217.47610960041703,16,3
1,X,2474,0.08553330354690658,0.00016471351794594894,-0.0012045667120372877,0.00029475771032784785,0.12096235791061005,0.00023294009098534518,0.039443392510248525,0.00011248113807699216,0.03989635047644495,0.00021618951243018895,0.9886466315643619,0.006053829781679969,0.011959539002064177,4.115309368448664e-05,0,186.71273185614123,16,3
1,X,2495,0.08781948367696873,0.00017410210274094976,-0.0008931608532074477,0.00030982879483675945,0.12419550485657183,0.00024621755493392516,0.037410434449207046,0.00011228411196194792,0.03855740932373716,0.00024482420165576195,0.9702528023887745,0.006814319431604173,0.011646315824554228,4.189239341657174e-05,0,257.95649222457763,16,3
1,X,2516,0.08533438137039202,0.0001748046399786443,-0.0014398709906358743,0.0003133325643718761,0.12068103947072639,0.0002472110926235449,0.039793248226013524,0.00013297217202112987,0.0409665008416473,0.00028317257423803277,0.9713606827156439,0.007457745597015282,0.012037557300268304,4.718100202812309e-05,0,194.38800075371853,16,3
1,X,2537,0.08739433035095973,0.0001833030253842356,-0.0011408418497460219,0.00032315800740492974,0.12359424725684187,0.0002592296245224057,0.03781039221117883,0.0001126324010136938,0.03848917079292553,0.0001987740402504928,0.9823644269865263,0.005856809488535581,0.011713842311033779,4.267583078656128e-05,0,209.9526773662988,16,3
1,X,2558,0.08488518966914886,0.00017678055704225312,-0.0001802899104841627,0.0003173511234946817,0.12004578647472286,0.0002500054613330249,0.04010814090831322,0.00013264202020676322,0.04111496547177057,0.00027101725348309137,0.9755119686492589,0.0071941873700834755,0.012068947203421495,4.716802022176057e-05,0,198.436439273761,16,3
1,X,2579,0.0869965095822973,0.00017037070664590516,-0.0003748717199528304,0.0002990054049166833,0.12303164373040576,0.00024094056396972707,0.03749846561489148,0.00011291707371458521,0.03829096905558307,0.0002135142751461166,0.9793031239418049,0.0062060695539038055,0.011564324185759155,4.1539563408876177e-05,0,249.4274947515773,16,3
1,X,2600,0.08494127870307615,0.00017941459326873218,-0.001078705739176745,0.0003034919219955394,0.12012510834720325,0.0002537305510882937,0.03981840358036123,0.00012089873892466844,0.04024917307708763,0.00025156443958804236,0.9892974323745394,0.006874267484474264,0.011989679407984805,4.434609583674891e-05,0,233.58849277866966,16,3
1,X,2632,0.08787344082079714,0.0001876586749416757,-0.000619721438946577,0.0003150106306321127,0.12427181178116087,0.0002653894431994819,0.03696537925712136,0.0001263007702628597,0.037895393404833166,0.00024174198111170185,0.9754583851979963,0.007058986042651301,0.011514835301081104,4.639586153953764e-05,0,212.68361394953345,16,3
1,X,2653,0.08596841092789577,0.00017536732977325837,-0.0011115040052884799,0.0002930504443313135,0.1215776926698936,0.00024800685616249707,0.038963557280752195,0.00011586294338931874,0.03971770154947572,0.00023362489487197455,0.9810123889524649,0.006465902563865234,0.011874147276739919,4.2818848906528896e-05,0,186.070456964324,16,3
1,X,2674,0.08835601180252244,0.0001849669269542628,-0.0015309710317215604,0.0003265843462902701,0.1249542702083245,0.0002615827366891921,0.03679838912125641,0.00012006819724296728,0.037903450920127944,0.0002637656378620653,0.9708453512267213,0.007461774181289058,0.011525767218409947,4.46818356994386e-05,0,226.70251026300917,16,3
1,X,2695,0.08396382566286849,0.00016804184069181284,-0.000370240222238025,0.0003100238563932148,0.11874278100115876,0.00023764705015250076,0.040793992312985625,0.00012065862828305495,0.041516354096587126,0.0002051186226924921,0.9826005486435312,0.005658153022762859,0.012142087548378113,4.336230932807726e-05,0,160.66104720400057,16,3
1,X,2716,0.08922004636680242,0.00018990245458459275,-0.001084526010161865,0.0003137509594722148,0.12617619960748838,0.0002685626268014718,0.03559225871570366,0.00011911327947039162,0.0369040557568233,0.00021442208456971638,0.9644538516372392,0.006466795909224032,0.011257006742115832,4.464672949100807e-05,0,180.514320854939,16,3
1,X,2737,0.08449814784527912,0.00015883033943282966,-9.170316658656354e-05,0.0002859848105271956,0.11949842667820065,0.00022462002014222993,0.03984464885827898,0.00011358175674646304,0.04077823138033897,0.0003055073139901539,0.977105860395159,0.007832397695937411,0.01193499181214537,4.075278325824897e-05,0,160.0492818394018,16,3
1,X,2758,0.08722834825809059,0.00018236922640959305,-0.0006299462169162475,0.00030478418285249546,0.12335951312999527,0.00025790903334793613,0.0379224157396773,0.00012326301762384818,0.03866605929535032,0.0002875925215536574,0.9807675369762222,0.00796095593033383,0.011726234526088753,4.531877934449459e-05,0,184.7243290322215,16,3
1,X,2779,0.08545141686062097,0.00017091529193204156,-0.0006091911253162624,0.0003013120670469656,0.12084655264828714,0.00024171072386725,0.03966034105362817,0.00012184900586626855,0.04039199072953291,0.00023769908671870604,0.9818862684732748,0.006518280618565089,0.012013806830310303,4.40428422090096e-05,0,192.01474916949607,16,3
1,X,2818,0.08664642682560594,0.0001726288656183062,-0.0010791218514155777,0.0003015314086955377,0.12253655194793989,0.00024413408301449113,0.03810273347898588,0.00010176309332694285,0.03876043834044127,0.00016758638074782558,0.983031542221514,0.0049957778436601355,0.011703391216413906,3.8995906891842623e-05,0,219.92994143474002,16,3
1,X,2839,0.08497643322253363,0.00017104322858052488,-0.00013396761388578511,0.00030437913235791415,0.12017482434539872,0.00024189165361065967,0.03927336754982248,0.0001306007945559661,0.039954744390036344,0.0002907644350570322,0.9829462845873248,0.007864689484613871,0.011830458386118077,4.598681623689106e-05,0,227.51583262477345,16,3
1,X,2860,0.08725068424927844,0.0001751845658892297,-0.0006518365501316935,0.00032925741434946864,0.12339110099166217,0.00024774838899899176,0.03811728847187271,0.00011245822307270974,0.03899679350946548,0.00021933600356421234,0.9774467345019201,0.006208054280072711,0.01178951046910463,4.2073481461096904e-05,0,229.52008340729992,16,3
1,X,2881,0.08494122073686329,0.00017611430232342977,6.781757796313942e-05,0.0003157720791446835,0.12012502637059885,0.0002490632348736699,0.039566555418887234,0.00012401535215531226,0.040179625757826715,0.0002496096590127289,0.9847417608457923,0.006852087328747432,0.011913837531346604,4.477287159154436e-05,0,219.56401336572733,16,3
1,X,2902,0.08693531157228641,0.00016661391782077833,-0.0006301465231935041,0.0003094340963847341,0.12294509667465814,0.00023562766226226106,0.038150127805320976,0.00012731069019970875,0.03911466093926018,0.0002535495305573862,0.9753408795889349,0.007110983744470933,0.011757016946050691,4.524435045221836e-05,0,241.8692028770574,16,3
1,X,2923,0.08454883333881304,0.00016984694552313236,-4.733059442726409e-05,0.0003064039957838334,0.1195701067905719,0.00024019985388645804,0.04019456610129055,0.00011767040303719744,0.04115206548512997,0.00021705447085003778,0.9767326530867472,0.005892069330834333,0.01204702734514863,4.277271776335902e-05,0,239.49586613609094,16,3
1,X,2944,0.08786240304218666,0.00016484527358331014,-0.000694156299037433,0.0002962283283992763,0.12425620200495147,0.0002331264215946205,0.03731682984232905,0.00012072077117063788,0.03798010200411667,0.00023730435271069364,0.982536324896765,0.006913063761735888,0.011622853166646177,4.346605566429767e-05,0,178.1321692868572,16,3
1,X,2965,0.08686254708571668,0.0001674460190869859,-0.00031063216697337564,0.00030478977522515975,0.1228421921508921,0.0002368044311581996,0.03850803421736814,0.00011411755276503695,0.03977987010472466,0.00022957226907988857,0.9680281538373987,0.006280062330905385,0.01185738281217805,4.19192490970964e-05,0,304.2180854662597,16,3
1,X,2997,0.08700151019709877,0.00018706574664082044,-0.0009102103977477162,0.0003343868999462989,0.12303871566767821,0.00026455091595489755,0.03640727168533154,0.00012384797782746332,0.037225471477647376,0.00021487472383849353,0.978020431714152,0.0065527869765320875,0.011228451255204013,4.518657921025299e-05,0,176.6115531445665,16,3
1,X,3018,0.08525493512045576,0.00016337925561174497,-0.0005776252306252779,0.0002895563379389805,0.12056868550658684,0.00023105315909655033,0.038114939371340285,0.00011840187076548861,0.03890713278477477,0.0002210703496779529,0.9796388642201749,0.006343879557246012,0.011519130370292154,4.204470914777564e-05,0,201.05602909082688,16,3
1,X,3039,0.08671978532648691,0.00018742111741678127,-5.151182813206233e-05,0.00033670762880353105,0.12264029653480113,0.0002650534861259324,0.03805758266911386,0.00013315865614577454,0.03871017881244695,0.00025383343844924004,0.9831414846597596,0.0073070644204929645,0.011699419823943711,4.8114373793515e-05,0,206.138816184334,16,3
1,X,3060,0.08491506467353307,0.0001831711457906262,0.0002844464322088769,0.0003086952401778147,0.12008803611109897,0.00025904311861252305,0.039632664239384593,0.00012891579930417827,0.04027886802702053,0.0002740236772465075,0.9839567540179521,0.007419810800797922,0.011930068704598465,4.656337063963051e-05,0,220.27050146694108,16,3
1,X,3081,0.08613256338614006,0.0001771567007480868,-0.0006951896657703049,0.00029313685383629403,0.12180983930263956,0.0002505374088632162,0.03821384587584877,0.00013024456075006567,0.03962210622042701,0.0002900766866681761,0.9644577111387326,0.007788544220931274,0.011667909504575684,4.6447886264169554e-05,0,207.27756096795972,16,3
1,X,3102,0.08414878168814797,0.00016871267051149077,0.0001716099850118745,0.00031799338450309145,0.11900434832055162,0.0002385957467815336,0.04098863903451382,0.00013058834523431808,0.04182375700570727,0.00023820207462048023,0.9800324497132219,0.006395617834153576,0.012226897264286867,4.602598729962635e-05,0,196.58654532963047,16,3
1,X,3123,0.08708476086844082,0.00016762170577121031,-0.0005036740163163643,0.0003023274316904881,0.12315644989616681,0.00023705288964975813,0.03778203525512763,0.00011486695762789835,0.03851672631903141,0.00022970064989662873,0.9809254021793447,0.00656622244075812,0.011663595363196866,4.196956035555054e-05,0,264.7342734549216,16,3
1,X,3144,0.08517742432627394,0.00016520411087632642,-0.0010668977204374081,0.0002902421985122104,0.1204590686902246,0.00023363389416108937,0.039736859158391855,0.00012339357398894482,0.040935961334945405,0.00027710855218959454,0.970707853499707,0.0072294184077314715,0.011998389947733688,4.392862690370059e-05,0,220.7493313946166,16,3
2,Y,103,0.08317723182681735,0.0001825855861034458,-0.0011252349925168514,0.0003204614808815003,0.11763036933013615,0.0002582150121613336,0.03539574000634046,0.00012816541117167103,0.036266209991127764,0.00024357126249081106,0.9759977680325499,0.007446966064340055,0.01043663250099663,4.419239410894043e-05,0,221.2624856113456,16,3
2,Y,124,0.07940621445050161,0.0001710542790443331,-0.0007422254094217722,0.00030036414894309496,0.11229734541260583,0.0002419072813264478,0.038574642340431994,0.00012558560333136832,0.039886470143711064,0.000222259784668019,0.967110957711912,0.006241418955575327,0.010858287396142493,4.238865374295895e-05,0,382.89949323071534,16,3
2,Y,145,0.08100698927401577,0.00020385289905414032,-0.0010692854455144453,0.0003419740326682533,0.11456118287832495,0.00028829153457143875,0.03698871872782296,0.0001295136975964665,0.037681943598833006,0.00023797960014560715,0.9816032612757396,0.007088328857010457,0.010621765550518046,4.580033986468394e-05,0,192.3559288112283,16,3
2,Y,166,0.07850203496995914,0.00017656750124882102,-0.0013670278354796957,0.00029226299770123023,0.11101864252840321,0.0002497041549404111,0.03886577376608752,0.00012483164765887526,0.040210449513182166,0.00031052762833210174,0.9665590471289354,0.008084156918187485,0.010815663458847482,4.240929596559959e-05,0,264.0984999018939,16,3
2,Y,187,0.081112264237075,0.00019711468561392327,-0.000803563982132727,0.0003533908610762297,0.11471006415886165,0.00027876226173811913,0.03677367934351961,0.00013191734810549298,0.03751812514882198,0.00023756918283140825,0.9801577023811985,0.007133249803094442,0.01057373791669285,4.581512086268382e-05,0,268.1290080534823,16,3
2,Y,208,0.08000545487339512,0.00015233003114991197,-0.00047027912244510396,0.0002706628073234991,0.11314479934578403,0.00021542719600892157,0.038338855615565944,0.00011880268988712709,0.03885599069974295,0.00029284144510886357,0.9866909818829963,0.008040313410646042,0.010873357723341012,3.9545965103950216e-05,0,330.3096216843418,16,3
2,Y,229,0.08064915980107146,0.00017594511465226543,-0.0014279289614931437,0.0003315766715706311,0.11405513558467029,0.00024882396737452295,0.03735321496022686,0.0001265827719147722,0.0384682912989795,0.00023981163473931705,0.9710131045310498,0.006889873869278075,0.010679053602754483,4.303993648707072e-05,0,248.8855030556597,16,3
2,Y,250,0.07809577984802137,0.00016525041177148513,-0.0009608368804456424,0.0003121218486905188,0.11044411102517526,0.00023369937351497283,0.03954901419694025,0.00011719092142186332,0.040148633749773885,0.00017433230107563946,0.9850650072784354,0.005178380067278906,0.010948841297312177,3.9866246304882e-05,0,335.45886089560764,16,3
2,Y,282,0.08092914258730945,0.00018715036174526758,-0.0010063254507911372,0.0003129037317264311,0.11445109103819906,0.0002646705797831883,0.03665880450304172,0.0001253927014457101,0.037430909950869694,0.0002699511390834963,0.9793725172900845,0.007817379080335286,0.010516910284132677,4.342326426444157e-05,0,222.2387381361027,16,3
2,Y,303,0.07883988767165015,0.00017374825260385292,-0.00034957332279276826,0.0003165474713368683,0.11149643840121903,0.00024571713527099526,0.03861476487655173,0.00012985740596803232,0.03971604031410235,0.00024105606278659395,0.9722712680105832,0.006746452833544712,0.010792059315206503,4.3391392106854125e-05,0,353.9882672069654,16,3
2,Y,324,0.0797443998469793,0.00019818800255225785,-0.0007735722136596023,0.0003296350633760855,0.1127756117869011,0.00028028016110903664,0.03771729129381319,0.00013769258739777544,0.03839436677268271,0.0002691815495860977,0.9823652390758726,0.007765090053593387,0.01066217046818,4.7087585659546214e-05,0,269.4471578669781,16,3
2,Y,345,0.07792093206328775,0.0001635390064804479,-0.0006814209438060412,0.00028902144382222657,0.1101968389166541,0.00023127908094167093,0.0395651236847346,0.00012954518031421317,0.040469971420842334,0.00024196289288272847,0.9776415029628183,0.006664253984782365,0.010928777859837334,4.250359410023628e-05,0,314.1480026443611,16,3
2,Y,366,0.08024285707122623,0.00017746006687413578,-0.000994577297137923,0.00031993021902544243,0.11348053675369396,0.00025096643335303925,0.037763847533449434,0.00013114702223509159,0.039106229032802683,0.0002786600802814814,0.96567346091521,0.007654835438398702,0.010742059436939823,4.422725368943655e-05,0,290.6719818323449,16,3
2,Y,387,0.07812163756279472,0.00016077328044489285,-0.0016105207259934197,0.0002971854435674811,0.11048067935609973,0.0002273677536723806,0.0397407191027713,0.00011910885087953291,0.04037598833827808,0.00016900225545559805,0.9842661625968293,0.005067115152597175,0.011005556092365323,4.0012742096150036e-05,0,281.2154301120176,16,3
2,Y,408,0.08026721690213548,0.00017710034046798442,-0.001783793352281848,0.0003217501385437061,0.11351498675694294,0.00025045770339071627,0.037538480069033216,0.00012378276663843783,0.038851518252330984,0.00023304254980008958,0.9662036841193719,0.0066135838124692925,0.010681194441522445,4.2378335085697565e-05,0,255.55371643695926,16,3
2,Y,429,0.07806903713224238,0.0001788140864081114,-0.0010799027215861862,0.00031990657496852424,0.11040629111382594,0.0002528813061417057,0.039411883970754284,0.00012711274229977706,0.040571085149196995,0.0002434323286819695,0.97142789811562,0.006617405553073326,0.010907141581085224,4.3146503985569224e-05,0,332.9699739577965,16,3
2,Y,464,0.08143805203963528,0.0001674291891442391,-0.0011522612336269653,0.0002979052882338372,0.11517079768769811,0.00023678063002491312,0.036749508784985216,0.00011481751789115009,0.03782773955095523,0.00019131689095425725,0.9714962940220733,0.005775344049524078,0.010609229578622063,3.96793487233271e-05,0,296.54371646945964,16,3
2,Y,485,0.07907791147637795,0.00016979717249587502,-0.0013905945679354107,0.0003150647216773663,0.11183305489403272,0.00024012946419627035,0.0384860899062277,0.00012595637943254038,0.03906451247405807,0.00022592082530302544,0.9851931451028733,0.006546705877587246,0.010788570719576165,4.2229495061218824e-05,0,264.03132930587475,16,3
2,Y,506,0.08003456754710994,0.00018754911482470255,-0.001187722281598996,0.0003436600871810504,0.11318597088378846,0.00026523450179616326,0.037647260787265796,0.00011371027389007691,0.038204354889849176,0.00018628651092339105,0.9854180471260516,0.005652109188555991,0.010681098426153564,4.083224824767136e-05,0,208.97165669233453,16,3
2,Y,527,0.07898530843849372,0.00016015541806308408,-0.001263021570030979,0.0002999545892943878,0.1117020944219399,0.00022649396431234647,0.03868536433534748,0.00012665308676175317,0.039847786689594884,0.00023132911594729013,0.9708284336266301,0.006470433657763743,0.01083173288974515,4.1712736541063515e-05,0,323.1051736172742,16,3
2,Y,548,0.07958708099282166,0.00018024685467710883,-0.000717281710153087,0.00031204091479247476,0.11255312932973438,0.0002549075464594597,0.037957669225350536,0.00012704004542651856,0.03905213195584945,0.0002438520472847708,0.9719743154679426,0.006886118055704693,0.010708953809250885,4.3276447840766855e-05,0,185.8954808507387,16,3
2,Y,569,0.07872161438268362,0.00017030122872434755,-0.0018166978343971973,0.0002855136575879815,0.11132917471189607,0.00024084230735077483,0.03880255667209482,0.0001345182053651661,0.039970109620156104,0.00024350616663704514,0.9707893483616439,0.006804758128812563,0.010828274723524088,4.4248144448211016e-05,0,286.1884579284937,16,3
2,Y,590,0.080605641319141,0.00018877201717331252,-0.001733133278387103,0.0003391718621464268,0.11399359115731034,0.0002669639468830254,0.03754803490662512,0.00012865157955703168,0.03913291266524223,0.00031564756494793415,0.9595001329910005,0.008408672845495886,0.010728958925083815,4.452745521634193e-05,0,260.7979103738261,16,3
2,Y,611,0.0783023060599595,0.00016794321385518978,-0.000425662886357564,0.00027459660257552176,0.11073618319508371,0.00023750757074253448,0.038555222732435626,0.00014045635110547614,0.039938792527462456,0.0002823001798568156,0.9653577460040769,0.007676417725537307,0.010701944660591345,4.5242245433571624e-05,0,352.9841194482764,16,3
2,Y,643,0.08134037480872724,0.00018260535582961134,-0.0010780863019228338,0.0003219480105536776,0.11503266122301292,0.0002582429707762013,0.03664394058403969,0.00012318392313767122,0.03754509961446513,0.00022493408480482835,0.9759979587301921,0.0067048419623853255,0.01056606484235887,4.271157572456012e-05,0,238.19784660950248,16,3
2,Y,664,0.08040662900192033,0.00017052193418899526,-0.0011267574480967647,0.0003075557667792452,0.11371214523921758,0.00024115443201216946,0.03800555018103909,0.00012834178903456197,0.03892339185365358,0.0002520001005653773,0.9764192782564931,0.007129841864040904,0.010832876970909221,4.3197463395361634e-05,0,294.70556214142977,16,3
2,Y,685,0.08157663813462138,0.0001784126840826242,-0.0010650312074094476,0.00030930262214273193,0.11536678802278377,0.0002523136375290336,0.03612134394115225,0.00012674451222286284,0.037312004838645635,0.00028545535868859087,0.9680890667054114,0.008148190627720224,0.01044562994266679,4.3188945807975945e-05,0,245.7516013793356,16,3
2,Y,706,0.08338167137647029,0.0001785710103997665,-0.0009489805467714948,0.000294021803269788,0.1179194905139408,0.0002525375447540168,0.03628751108966375,0.00012393706050573477,0.03694382268831171,0.00024093177733698466,0.9822348757954709,0.007231008853838532,0.010725874468372741,4.323948534871403e-05,0,206.96676202565757,16,3
2,Y,727,0.08049670251165997,0.000191971050123601,-0.0019674469088310923,0.00033991887054109525,0.11383952841830192,0.0002714880626678018,0.037305359419152945,0.00014650031560898256,0.03868811313609037,0.0003004090136079336,0.9642589517851797,0.008390456525525069,0.010645210428632165,4.890915915990186e-05,0,279.7086451974471,16,3
2,Y,748,0.07862764797034405,0.00016233249995501055,-0.0004683122436767081,0.0002988723662435285,0.11119628613715793,0.0002295728230503058,0.03913139792703676,0.0001226444446999632,0.040178095091348995,0.0002077690785774568,0.9739485617241816,0.005889317949659566,0.010907006688945927,4.0934681757261544e-05,0,363.22157163513043,16,3
2,Y,769,0.08031602026999728,0.00020085497233258997,-0.001143718868423789,0.0003611849512772008,0.11358400514166256,0.0002840518259428215,0.03703404570022673,0.00015121498845718662,0.03829910385635581,0.00027316460416065803,0.9669689880767501,0.007946999497346336,0.010544069766178667,5.0486201118289886e-05,0,212.08574724203586,16,3
2,Y,790,0.07853346201244978,0.00017871224110077967,-0.0006647036567238957,0.000320228843966278,0.11106308707811874,0.0002527372751268131,0.03867824195164156,0.0001250096625653511,0.0393058793904707,0.00025217946609977683,0.9840319705712702,0.007069216181140634,0.010767785629492994,4.256277088503569e-05,0,311.7440054872769,16,3
2,Y,822,0.0823308974545167,0.00018353625947250778,-0.0015122954027376237,0.0003303709702610311,0.11643347178252605,0.000259559467333248,0.03625635484442572,0.00012498620727578537,0.03710605175067852,0.00024294517066810261,0.9771008537377663,0.007229965725699317,0.010581614123396216,4.344055709647892e-05,0,223.86043580785943,16,3
2,Y,843,0.08342385554886546,0.0001772307547139283,-0.0008053828657162865,0.00032102071177701633,0.11797914794265951,0.00025064213698605675,0.03656826077262759,0.00012802644843697527,0.03694462589384829,0.00026912276502802075,0.9898127234444843,0.00799980479953199,0.010814326933105106,4.42866456589597e-05,0,140.7398330353577,16,3
2,Y,864,0.07926114893490875,0.00017251414349245945,-0.0005503729375421222,0.0003088577528032362,0.11209219179302177,0.00024397184142821438,0.03811058264548963,0.00011440855292535374,0.03882098120710382,0.0002339415907673899,0.9817006541430696,0.006609313477508451,0.010708062166144595,3.970565038598615e-05,0,279.2184766139062,16,3
2,Y,885,0.07779988320520174,0.0001674061508449295,-0.0017520911906668732,0.00028822533165083014,0.1100256499798391,0.00023674804894957546,0.039459984611666436,0.0001150129362236232,0.04054531957678844,0.00025878724582099736,0.9732315597348666,0.006828850784872521,0.0108828035241698,3.942723980882422e-05,0,285.899293828696,16,3
2,Y,906,0.07991516687053545,0.00019096997173543158,-0.0013579798707175187,0.00034950598500545183,0.11301711282762028,0.00027007232403425396,0.03759796242080116,0.00013020370646089864,0.03829876914462073,0.00023790082919805425,0.981701586252727,0.006981690640370444,0.010651197854297552,4.4815095804685064e-05,0,236.68321026141743,16,3
2,Y,927,0.07831524531636842,0.00016603738918295307,-0.0013727724480494476,0.0003013520634917701,0.11075448206698424,0.0002348123276435521,0.03916923274290069,0.00011785780273042646,0.03989909188771451,0.00022199513745101813,0.9817073745220113,0.006209704960441707,0.010874174782968295,4.002612309174658e-05,0,352.2455397951593,16,3
2,Y,948,0.08037291661704658,0.00017793468363781187,-0.0019060798588864426,0.0003174007538004013,0.11366446872730918,0.0002516376428171596,0.03743738107018943,0.00012195583439293164,0.038291536041307896,0.00024864199729707974,0.9776933740606011,0.00710266352738905,0.010666455371947638,4.201164496854528e-05,0,296.23219362142265,16,3
2,Y,969,0.07838427717260757,0.0001794783360274071,-0.0012471845140209531,0.00030713628284469705,0.11085210785431343,0.00025382069696211484,0.03873264401573972,0.00013250942696563727,0.040162906155361666,0.0002619400190221753,0.9643884799050825,0.007102498228639513,0.010762447208140256,4.4305438407665074e-05,0,299.9905609746146,16,3
2,Y,1018,0.08030449955040819,0.00016665893225400812,-0.00025893046706657616,0.00029903271101362793,0.11356771238377139,0.00023569132228423717,0.0378126171416821,0.0001273638131177329,0.038898752883039525,0.00022796724929983835,0.9720778775447324,0.006570783639139396,0.010764194819619313,4.258649935316047e-05,0,272.07570458261426,16,3
2,Y,1039,0.07862242121826633,0.0001857595425339929,-0.0018887780845504535,0.0003106393768750827,0.11118889439348245,0.0002627036643917946,0.039078541473589266,0.00013406503831669378,0.04000897883207545,0.0002906965852385171,0.9767442862665556,0.007848127513613664,0.010891550067308024,4.53690960420987e-05,0,263.5410652947195,16,3
2,Y,1060,0.07911070926620804,0.0001996410004161188,-0.00082047703735086,0.00033730583970141895,0.1118794379732263,0.00028233501039420794,0.03837337352749014,0.00015280603440399925,0.03952253730779839,0.00030776998407542694,0.9709238359025724,0.008491977440951393,0.010761435110543522,5.073349589782484e-05,0,217.348321588183,16,3
2,Y,1081,0.08081930014475315,0.0001800315490267535,-0.0010790672135601131,0.00031614558143616895,0.11429575036621176,0.0002546030582886716,0.03816869273838911,0.00013582437377489517,0.03904264705350743,0.0002614029285912298,0.9776153928825426,0.007412517139235528,0.010935214419092927,4.59086837639758e-05,0,216.878239847303,16,3
2,Y,1102,0.07883011658507483,0.00018848852860404267,-0.00133885448528747,0.00031089751619619844,0.11148261999806508,0.00026656303350358623,0.038438326249758445,0.00014239164525223666,0.039583575411760163,0.0002843635879376335,0.9710675665326213,0.007848894919511648,0.010741416814361002,4.735971445937226e-05,0,224.48031279955416,16,3
2,Y,1123,0.07736323107454873,0.00018733552966066343,-0.001579098165081283,0.00030533332833476847,0.1094081306146305,0.00026493244676045746,0.039795228496450216,0.0001439554519466344,0.04066788975170882,0.00027061111149463587,0.9785417620489656,0.007411355125949765,0.01091366288074954,4.750805218454298e-05,0,276.19798472240325,16,3
2,Y,1144,0.07972321302357047,0.00017478859023407385,-0.000614238401587347,0.0003214508451105785,0.11274564909389273,0.00024718839485710076,0.038099242928312314,0.00012624380478455432,0.03919465972012454,0.00021754364055319762,0.9720518866694029,0.006283538023811653,0.01076728159676667,4.2780714009734875e-05,0,300.73338144056356,16,3
2,Y,1165,0.07855815286612715,0.00016464044545962296,-0.0011097976928711286,0.00029536004001676935,0.11109800521825586,0.00023283675088414668,0.038717627631942364,0.00013581532284414707,0.040072166023285206,0.0002777403596588195,0.9661975249714292,0.007505543904014632,0.010782139191573569,4.405825524344644e-05,0,330.1706258906071,16,3
2,Y,1197,0.07994870837322242,0.00019340458466974629,-0.0020661433183367887,0.0003227478676983561,0.11306454767562257,0.0002735153866650908,0.03783247778437574,0.00013910152163580303,0.03926072229905653,0.0002740727490538674,0.9636215425737313,0.007602893277632571,0.010722132494540985,4.7190493786642116e-05,0,308.37274187889966,16,3
2,Y,1218,0.07789080906060038,0.00016543503809624433,-0.0017758974571487564,0.0002874421049654983,0.11015423855771422,0.00023396047456741842,0.039817579301418306,0.0001291410468560934,0.04103615537083897,0.00022756867324642564,0.9703048188016511,0.006233587395223011,0.010994259933406107,4.2623440895633304e-05,0,260.624036122999,16,3
2,Y,1239,0.07921027003847032,0.00019116392861253287,-0.0004225523924329596,0.00031115086083029366,0.11202023816763995,0.0002703466204803662,0.03822194780404924,0.00015137411663842572,0.03938045936947525,0.00031379434089190937,0.9705815629381918,0.008636439669732557,0.010732459071353227,4.977491878175762e-05,0,249.86293056389388,16,3
2,Y,1260,0.07883211702089166,0.00017114036367995713,-0.0009216475784844588,0.000300585809060874,0.1114854490415279,0.00024202902338565924,0.03937824683797353,0.00012641770274191458,0.04021898867204601,0.00024682907090529656,0.9790958981856042,0.006781300668917604,0.01100435262660578,4.264710954139665e-05,0,181.30612436750195,16,3
2,Y,1281,0.07882139902499175,0.00018312577674514546,-0.0004539605133109272,0.0003030615637494765,0.11147029150636478,0.00025897895709309227,0.03845671769575031,0.00013392912861591823,0.03920790916067474,0.00028345436702549836,0.9808408180643851,0.00787086840081558,0.010745367795084847,4.498471455080053e-05,0,281.0144135054753,16,3
2,Y,1302,0.07651777605597342,0.00017192445176979665,-0.000739354410589508,0.0002995160131384477,0.10821247666098488,0.00024313789139640551,0.0405562425184339,0.00014692791652635677,0.04169531318886489,0.0002776070358406259,0.9726810861146095,0.007372747153500758,0.011000818069639505,4.689650074927807e-05,0,286.35915171537374,16,3
2,Y,1323,0.07996499897276137,0.00020817653838808365,-0.0006802866065364463,0.0003539456979095039,0.11308758606242975,0.0002944060839563112,0.038049956980514485,0.00014744696236027803,0.039630145129256354,0.00031426940077929614,0.9601266121133804,0.008474288390977646,0.010785965780252324,5.035292963479408e-05,0,207.2943227670887,16,3
2,Y,1344,0.07895359431333263,0.00019165441109279374,-0.0001446414457616375,0.0003309481633701882,0.11165724387601828,0.00027104026745605747,0.038535173694841066,0.00013324376862690972,0.039037495622991074,0.0002712098700460508,0.9871323218835235,0.007660455705796224,0.010785347902257946,4.556504609641658e-05,0,316.62726379584,16,3
2,Y,1376,0.08041828955897357,0.00017528023184510167,-0.0016554459635508031,0.0002995400487743341,0.11372863575714709,0.00024788368109124326,0.037244177760349544,0.000127180664957568,0.03827450370124978,0.00021174891381344136,0.9730806191781765,0.006326363433347884,0.010617399395017895,4.301213945500416e-05,0,260.4854353440108,16,3
2,Y,1397,0.07850858181307119,0.00017490982114778755,-0.0016013035710037312,0.0002899037448441097,0.11102790116272299,0.00024735984125945354,0.0389196795210672,0.00013883668993736555,0.039770168536340106,0.000261813441950465,0.9786149003996358,0.007327425884423099,0.010831567731556949,4.555563104512967e-05,0,205.71701543439292,16,3
2,Y,1418,0.07954994892221214,0.000168575642820812,-0.0016388213425165706,0.00031492003463841535,0.11250061665187938,0.00023840196036295502,0.03827579077171615,0.00012919952220056773,0.038957725878491875,0.00024479466038908017,0.9824955104180706,0.007007991288600628,0.010793666844044331,4.301866603547169e-05,0,187.96735211364174,16,3
2,Y,1439,0.08268615437701748,0.00017847162283411358,-0.0007326350638385909,0.0003060296288969258,0.1169358809404536,0.0002523969895107392,0.037179545339960145,0.00012191914074456472,0.03780370838948483,0.0002606303797223184,0.983489369796898,0.0075083871247234495,0.010897874456723446,4.2782915324635285e-05,0,170.24345532419704,16,3
2,Y,1460,0.07922516745007192,0.00018052384732934466,-0.0011100757076852414,0.00031745201483603325,0.1120413062891712,0.0002552992732249293,0.038044576869184527,0.00013485387390001525,0.03887537425073117,0.00019797563263226385,0.9786292119996499,0.006072130076146606,0.010684663669523942,4.5023511047756954e-05,0,284.5037075041989,16,3
2,Y,1481,0.07805869526662734,0.00017505742546348264,-0.00121680732212829,0.00029836813309290635,0.11039166550721291,0.00024756858528457437,0.03901866391010502,0.00013705614560988877,0.03992188483039087,0.00029454798400013033,0.9773752936735526,0.007986698762358857,0.0107968884385191,4.499549235358639e-05,0,273.0746306728552,16,3
2,Y,1502,0.08030216800064442,0.0001803602989637782,-0.0006512657376759989,0.00033142553465043514,0.11356441507447412,0.00025506798090824123,0.037710792294679364,0.00011772021116913707,0.03863592830253271,0.00018658548856923145,0.9760550335271044,0.005612710211204047,0.010734896448255394,4.128312117244891e-05,0,258.9678817278451,16,3
2,Y,1523,0.08276463292939816,0.0001896425067120324,-0.0011699366221976629,0.00033730152817313704,0.11704686637358575,0.00026819500499458693,0.036523226287193615,0.0001352831292212187,0.03731639469255239,0.00025987842010837404,0.9787447739286271,0.007720290469708129,0.010715658371601449,4.667171849792128e-05,0,155.40750132513827,16,3
2,Y,1555,0.08574965397950458,0.0001870682245338509,-0.000649439842359129,0.0003322991635463281,0.12126832362661544,0.00026455442022482734,0.03512218562151063,0.00012761990534617207,0.03577975011511063,0.00021702787132100174,0.9816218813299566,0.006940787992483915,0.010676252635187258,4.524798090137557e-05,0,166.956838649313,16,3
2,Y,1576,0.08757787531233369,0.00019874741130523113,-0.0004337799111065289,0.0003408771753737557,0.12385381903052217,0.00028107128455440167,0.0338112584214575,0.00011088499540536601,0.034678044702508036,0.00026532524029191756,0.9750047533392836,0.008116272650133798,0.01049689062164988,4.186324112295437e-05,0,179.44919426963955,16,3
2,Y,1597,0.08488125793251913,0.00016181529859237134,-0.0005852958064586158,0.00029565585760898977,0.12004022615945742,0.00022884138986878355,0.035408614056422136,0.00011197186910813747,0.03595341440324049,0.00019002179662558474,0.984847048441406,0.006065696669544837,0.010654318301506836,3.934063746250652e-05,0,256.0299987853287,16,3
2,Y,1618,0.08257588880251454,0.00015878465360549446,-0.001445098759074772,0.0003051761609492712,0.11677994186952867,0.00022455541062560425,0.03745976450937472,0.00010873768494229704,0.0378547679914334,0.00019260314999438176,0.9895652911636371,0.005796639848302036,0.010965368517593962,3.818041076344793e-05,0,133.92130491670346,16,3
2,Y,1639,0.08020053738158309,0.00017674080093639638,-0.0010628578675684977,0.00031718418672102507,0.1134206876746452,0.0002499492377089352,0.038010579966736305,0.00011835245038575352,0.038685467384330756,0.00018481033998482216,0.9825544975096305,0.005602897027342124,0.01080654102242867,4.122295338937788e-05,0,308.3726935872626,16,3
2,Y,1660,0.08026101951769947,0.00015408999107096327,-0.001765416858936848,0.0002753486346186212,0.11350622233182228,0.00021791615519850538,0.038575470701521654,0.000114769062983013,0.039168304681906345,0.00024685934407342263,0.9848644462608425,0.006863987447194121,0.010975412156354359,3.886222241209947e-05,0,340.6724319494272,16,3
2,Y,1681,0.0802197099693518,0.00020535479991326094,-0.0016014925066498201,0.00033640012687154673,0.1134478018082935,0.0002904155431357469,0.037445208539902325,0.0001428822933443466,0.03874794902016084,0.00028417210167868215,0.9663791113284295,0.007989192763066854,0.010648348911101783,4.892821880177366e-05,0,240.80200073414358,16,3
2,Y,1702,0.07782238178371982,0.00017853918434850764,-0.0007977590947571997,0.00029298468517749074,0.11005746777471348,0.00025249253592068976,0.039169848945317665,0.00014272745047421922,0.04058501791278899,0.00032079026112283635,0.9651307541489249,0.008400131627653832,0.010805910027139383,4.652900338617307e-05,0,364.7708313697968,16,3
2,Y,1734,0.08082656789615517,0.0001773119596851065,-0.0008530137102608058,0.0003141550452458634,0.11430602851881244,0.0002507569781576291,0.037365065278845006,0.0001299695234007862,0.038696196741922886,0.0002784067042675301,0.9656004575344803,0.007716498674763216,0.010705940250487442,4.4026707183397286e-05,0,283.24193105073425,16,3
2,Y,1755,0.08119363330184771,0.00017795504246109783,-0.0018590285532968686,0.000321135198982854,0.11482513739382083,0.00025166643454116455,0.037697333895368085,0.00011574929011039487,0.038401949975639935,0.0001780939643519455,0.9816515546549376,0.005459915967549226,0.010850195019592198,4.093216173040333e-05,0,160.02703330373618,16,3
2,Y,1776,0.08018135934643589,0.00016884318191397096,-0.0017378429257095403,0.0003012369160516322,0.11339356583724036,0.0002387803177769654,0.03769577920456537,0.0001200535667654999,0.03869731873216977,0.00027983328864422013,0.9741186324939923,0.007697088860274113,0.010714479339512015,4.090800261389981e-05,0,202.1957444559777,16,3
2,Y,1797,0.07811400775700675,0.00015990894877288009,-0.00045789270777061187,0.0003077537358737907,0.11046988918127609,0.0002261454040994315,0.039653024436005685,0.00012385036379048507,0.04045213768408703,0.00021346530513200287,0.9802454630624948,0.006010902842857063,0.010980197964327497,4.100488771445885e-05,0,241.14046879456265,16,3
2,Y,1818,0.084696126141011,0.00018100409061237445,-0.00030225239774369495,0.00030332190164507686,0.1197784102690802,0.00025597843978902857,0.03593595694915586,0.00011294017799004668,0.03677972998309139,0.00018588169308692468,0.9770587485464567,0.005814885366381517,0.01078940991297481,4.100614897333567e-05,0,238.10524007044484,16,3
2,Y,1839,0.09361577975538944,0.00020324452142894933,-0.0012534505189184604,0.00036034699366366984,0.13239270538220438,0.0002874311586828493,0.03159265398330392,0.00010266253707646193,0.031842857527968636,0.00020574999839511766,0.9921425536497486,0.007175709767447948,0.01048431599389449,4.097364286738395e-05,0,133.27695751913618,16,3
2,Y,1860,0.08091715386177448,0.00017745661601777126,-0.0012803021178269315,0.00030107325926358126,0.11443413641995193,0.00025096155310516677,0.03738157724640809,0.00012563232532185662,0.038580384618037686,0.0002549233169752228,0.9689270238361203,0.0071828321465865815,0.010722675234883605,4.303063201456389e-05,0,243.8453161769056,16,3
2,Y,1881,0.0800245684402555,0.0001746112707267017,-0.0012529859496164277,0.00031251448860063045,0.1131718300112633,0.00024693762720490176,0.03832010017155045,0.00013453388394579348,0.039331294020105136,0.00021495349175950404,0.974290348849499,0.006328696220397648,0.01087063486543833,4.4934862701089345e-05,0,279.3720328909809,16,3
2,Y,1916,0.08026082299833884,0.0001767133776540177,-0.001219050077658051,0.00030133533819841785,0.11350594441147721,0.0002499104553310705,0.03735165814455598,0.00011975489291343365,0.038446615914177515,0.00022537903369530354,0.971520048160656,0.006491319811905353,0.010627189549240983,4.133284199781376e-05,0,293.25235487293645,16,3
2,Y,1937,0.0829574838348349,0.00016864908977418938,-0.001734583428418701,0.00030996842539470583,0.11731959873957032,0.00023850583004053627,0.03679699092282528,0.00011492392021488679,0.03691534716432317,0.00020470952111807287,0.9967938472589452,0.0063439887435912945,0.010821134840723114,4.032556831307471e-05,0,112.5045845576184,16,3
2,Y,1958,0.08017611728005589,0.00017906907062628874,-0.001048562035476441,0.0003176719767411597,0.11338615243587091,0.00025324190828124316,0.037557317150466,0.0001254897368705222,0.038791800529121345,0.0002450204036476641,0.9681766929656022,0.006918214090844117,0.010674425591642037,4.29006682686053e-05,0,222.01595335906057,16,3
2,Y,1979,0.07834089336899919,0.00017939581940236275,-0.0005983641115697355,0.00031039848322557244,0.11079075389086313,0.00025370400083185585,0.03879341250064803,0.00014565841369998622,0.040334362407957826,0.0003055728766866641,0.96179560515364,0.008132356118456568,0.010773366544707287,4.738045575754684e-05,0,291.73622457992144,16,3
2,Y,2000,0.08001102848861646,0.00017810357373268897,-0.001059831581651686,0.00030531041697378145,0.1131526816280215,0.0002518764894798853,0.037689242262726005,0.00013203505965852898,0.0392819785661558,0.00024016918394610874,0.9594537657835278,0.00676081657384948,0.01068986427375997,4.43697925155002e-05,0,294.8219046231387,16,3
2,Y,2021,0.07910092475520834,0.00017577237562233324,-0.0014100555786714247,0.0003110209217407222,0.11186560058506934,0.0002485796774956417,0.03859754226340836,0.00012786390914848653,0.03947318576973268,0.000257483929532341,0.9778167510615334,0.007153712732446458,0.010822962264263096,4.317283335690257e-05,0,285.0149537415247,16,3
2,Y,2042,0.08062278035182868,0.0001730191297665737,-0.0011923506587796678,0.0003018152131469614,0.11401782940978322,0.000244685999865879,0.03728719650017417,0.0001300210731705086,0.03862485008911985,0.0002602494001425998,0.9653680574588822,0.007323972050329933,0.010656692505612539,4.3633581808719075e-05,0,284.3438234619866,16,3
2,Y,2063,0.07791691427418378,0.00016256811450069298,-0.0013828353424207443,0.00030096411483297714,0.11019115690481252,0.00022990603233630225,0.03926195404852029,0.00011040334096533282,0.04009319667335309,0.00018427441834447988,0.9792672399857487,0.005276403570283276,0.010844476385397683,3.7971694848582805e-05,0,371.39982060269693,16,3
2,Y,2095,0.08010068953112628,0.00019459835913919327,-0.0011283226779434516,0.0003056439840631153,0.11327948149035538,0.0002752036387101975,0.0371678577375798,0.0001352858919970535,0.038128917439396205,0.00026389901968128677,0.9747944666054589,0.007622869563494306,0.010553796525110586,4.618499717696979e-05,0,242.08714968162707,16,3
2,Y,2116,0.07828846924016808,0.00016152316584060295,-0.00136642782657596,0.0002944762235528709,0.11071661497687457,0.00022842825176921933,0.03869610833895607,0.00013140299537355634,0.03949609144034641,0.00023034931194933689,0.9797452590315524,0.0066120725057346565,0.010739152851276072,4.2671004688519286e-05,0,284.6834508475728,16,3
2,Y,2137,0.07947846083057651,0.00016652995716737263,-0.0005159425922148995,0.00029173026206112744,0.11239951722314012,0.000235508923967509,0.037565021535049294,0.00012592665234060073,0.03871071489493407,0.0002139932448105281,0.9704037147597419,0.006273670045348017,0.0105837122121219,4.183937320820536e-05,0,301.45835193231767,16,3
2,Y,2158,0.07838542116670309,0.00016568752341100272,-0.0012123144214341848,0.00029618648078516693,0.1108537257062786,0.00023431754272384975,0.03889109321785222,0.00013337044898005242,0.03993941824716727,0.00026845828966582123,0.973752120703726,0.007347843706030383,0.010806632417228292,4.35337934493919e-05,0,189.83902337543515,16,3
2,Y,2179,0.08078372043892858,0.0001806022800944461,-0.001191251416803318,0.0003010581419378312,0.1142454330636894,0.00025541019390507014,0.03696133981072336,0.00013056209321813048,0.038268294093898564,0.0002510246969007889,0.9658475948792402,0.00719580265343316,0.010584649661703565,4.424820490255128e-05,0,357.33808303766466,16,3
2,Y,2200,0.07858013920589443,0.00016814762378592813,-0.0010512022465002787,0.00028768997569802144,0.11112909859814168,0.0002377966500388684,0.03912726516400378,0.00012914392801346996,0.040038117042327875,0.00023784249209268427,0.9772503817459459,0.006641163169586252,0.010899265186710439,4.28729008919556e-05,0,391.43099084524476,16,3
2,Y,2221,0.0796652787047618,0.00018314520017682112,-0.0017235669947957544,0.00030719046679383985,0.11266371759450666,0.0002590064259735958,0.03760574694288303,0.0001330646262144316,0.038592276162506066,0.0002621995046431097,0.9744371330815287,0.0074644718673091874,0.010620090829280377,4.481307868766566e-05,0,298.8945130643399,16,3
2,Y,2242,0.0776391887198889,3.5893931686275686e-05,-0.0006596878518126028,0.0002940824982510971,0.1097983936593111,5.076168499762446e-05,0.03938630286301244,9.659957146579697e-05,0.04015657699976284,0.0001999572277963859,0.9808182321726537,0.0054442171472834575,0.01084004628987016,2.7054710458819717e-05,0,373.09879852068593,16,3
2,Y,2274,0.08042595129299952,0.00017702246224815624,-0.0010970046796793117,0.00031941296829316536,0.1137394710853179,0.0002503475669560218,0.03749377627189027,0.00013361317467901462,0.03822252498233298,0.0002639706988205487,0.9809340510398109,0.007623207984928499,0.010689572130246254,4.4773848998621344e-05,0,231.79652631568578,16,3
2,Y,2295,0.07847428950245261,0.0001612483555105109,-0.00074161889253764,0.00025721208752759877,0.11097940451196109,0.00022803961127332295,0.03905178437182687,0.00012726834414331006,0.03956004523176036,0.0003118337375057284,0.9871521668654352,0.00842008509490873,0.010863586006361258,4.1853739337970295e-05,0,185.3239668902237,16,3
2,Y,2316,0.07972405436683758,0.0001860068272666312,-0.0014680910942109669,0.0003138812462302447,0.11274683893295168,0.0002630533778144595,0.03783810092978098,0.0001432244242206624,0.03918277174142159,0.0002673652422106709,0.9656820905750497,0.007535314389390052,0.010693592734182066,4.754883832731831e-05,0,213.93217468409472,16,3
2,Y,2337,0.08014522954008847,0.00017871739679788158,-0.0007565424306320122,0.0003156853190851422,0.11334247057509794,0.0002527445663835781,0.03851396531665529,0.00013294022358094609,0.0392533221334773,0.0002940969200692045,0.9811644778929056,0.00809379158205488,0.010942104146596913,4.496533112082005e-05,0,202.77164428541116,16,3
2,Y,2358,0.08279817691678706,0.0001835995034449955,-0.0012304387776328116,0.0003143061840354519,0.11709430473548721,0.00025964890781687844,0.03679332307873789,0.00013251724365210486,0.03771509721351665,0.000296601396338164,0.9755595450394753,0.00843837055899125,0.010799277981962166,4.5675978372154673e-05,0,157.07509114240167,16,3
2,Y,2379,0.07978755115593014,0.0001516879013601833,-0.0008984604100710167,0.0002786426582845542,0.11283663695325352,0.0002145190873514835,0.038780067172062525,0.00011176574770052134,0.03964657412818393,0.00019790369650552085,0.9781442161100768,0.005637981408844544,0.010968534987351241,3.787008445737233e-05,0,414.5267583143931,16,3
2,Y,2400,0.0796332650206266,0.00018535086223175448,-0.0015756448124338539,0.0003329711710414441,0.11261844340822114,0.0002621257031656943,0.038059532393797245,0.00013599926493051336,0.03936199439207177,0.0002565439695760056,0.9669106706001446,0.0071868988988084154,0.01074392338340587,4.581776607304679e-05,0,279.15348592839234,16,3
2,Y,2421,0.07743169958532109,0.00017083124826058587,-0.0011354586778443128,0.0002897037988542742,0.10950495971116025,0.00024159186816724576,0.039677613990164846,0.000126932186777025,0.040601744477633664,0.0002513330123398264,0.9772391433087834,0.006809384533891237,0.010891037964328953,4.2323371430234207e-05,0,266.2112848211578,16,3
2,Y,2453,0.08101603833605096,0.00017263631620670458,-0.001599544629376653,0.00029018034505493,0.11457398018458187,0.0002441446197376518,0.03712034548956259,0.00012371669018287188,0.038240113180223655,0.00025104067055594157,0.9707174587746732,0.007146827296016124,0.010660754543956588,4.21721586762656e-05,0,275.2438020226291,16,3
2,Y,2474,0.0778114219209849,0.00016624046167772953,-0.0012798525955273008,0.0002817259385313619,0.11004196818819201,0.0002350995155198099,0.0393006939243479,0.00014129431833563854,0.040122930724787405,0.0002872254139789958,0.97950706028731,0.007846554792973035,0.010840479746205991,4.533599592015303e-05,0,291.2351518120414,16,3
2,Y,2495,0.08038075154763487,0.00016903289729894926,-0.0016283251161346851,0.0002955438658394875,0.1136755489924074,0.00023904861584739256,0.03744375246925446,0.00013160899291499314,0.03838211365820944,0.0002707595290785324,0.9755521231240406,0.007688780502882668,0.010669310643121857,4.370035064895486e-05,0,247.8583276498883,16,3
2,Y,2516,0.0774659665606153,0.00017165294921570224,-0.001153829565242451,0.00028239354611561885,0.10955342053236283,0.00024275392880218627,0.0397547570623362,0.0001446723250677745,0.04081983448807865,0.0002943150901847675,0.9739078455584256,0.007865699397444302,0.010917041969654309,4.65137528545648e-05,0,326.18836042066255,16,3
2,Y,2537,0.07949235606400339,0.00018177887956251544,-0.0010730669136231775,0.0003364413228163591,0.11241916805070473,0.0002570741568302948,0.0380464687263448,0.0001297634797770059,0.038804337816386515,0.00025101458583715465,0.9804694749945796,0.00716997338807944,0.010721231044197635,4.4024716650533436e-05,0,249.45725525528087,16,3
2,Y,2558,0.07709397123400251,0.00017115562364662835,-0.001060100572070673,0.0003025840398119891,0.10902733969632761,0.00024205060423748703,0.04032683859802024,0.000129145076315785,0.04160262489366488,0.000243836933616827,0.9693339951768545,0.006474119418397151,0.011020962546965826,4.294578207809759e-05,0,301.0744051887095,16,3
2,Y,2579,0.08055751360524055,0.0001831061977757931,-0.001880737807826132,0.000317869153048577,0.11392552829158631,0.00025895126824909687,0.0374969549334399,0.00012813999731478237,0.03889571799383849,0.0002309236292747798,0.9640381221238759,0.006603916832377453,0.010707966064212138,4.394796543712444e-05,0,311.07446310705393,16,3
2,Y,2600,0.07821145835528338,0.00017592354989925165,-0.0010752984180289107,0.0003012811814303232,0.1106077051390203,0.00024879347020834164,0.03923293963998244,0.0001422881391035004,0.041068028748876655,0.00033077997509047496,0.9553158706468372,0.008438599517463558,0.01087742671714215,4.6421035089094955e-05,0,372.4254663148716,16,3
2,Y,2632,0.08090364596406088,0.0001727465532690413,-0.0010638517543666364,0.00032515166180952464,0.11441503336780623,0.00024430051848628453,0.03721942652401834,0.00011228071824682313,0.037961600104741554,0.0002287652891601359,0.980449359914349,0.006607388891931054,0.010674381074352724,3.9451560958389e-05,0,218.95634235806332,16,3
2,Y,2653,0.07749860258417697,0.00015389630946443443,-0.0019983278664976113,0.0002581240517072327,0.10959957483950566,0.00021764224804377008,0.039021869178462384,0.00013050878522835176,0.04060725761117107,0.0002715846374576258,0.9609580029291969,0.007185764535371666,0.010720298352681016,4.169780625198838e-05,0,342.4642990616091,16,3
2,Y,2674,0.08160274643900008,0.00018209949008508484,-0.0010988210756110572,0.00034017998473999606,0.1154037107409267,0.00025752756857955195,0.03655677113243592,0.00012165015702319093,0.03707447556509169,0.00023599607689964573,0.9860360955950183,0.0070825057013973215,0.010574930882594771,4.237022078525275e-05,0,153.8201893338201,16,3
2,Y,2695,0.07667712120935165,0.00016101188556844767,-0.001565044546053476,0.00027968677437701414,0.1084378247379908,0.00022770519227416353,0.04048432723085599,0.000135075577229438,0.04136891442895444,0.00022220090907206343,0.9786171039218925,0.006187926018435057,0.01100417929249713,4.33816207131945e-05,0,311.73161715201735,16,3
2,Y,2716,0.08258828979606916,0.00019910934924980675,-0.0006779898498773311,0.00032921202566239366,0.1167974795228005,0.000281583142104358,0.035659572265776485,0.00011894654857737639,0.036233085423744725,0.000283556575274602,0.9841715616746125,0.008372463740670522,0.010439976823997962,4.296731580899292e-05,0,183.77247034128231,16,3
2,Y,2737,0.07773532520681382,0.00016132632107477884,-0.001105951486730938,0.00028130877889038136,0.10993435118295924,0.0002281498712317087,0.03957128927693518,0.0001394789341352774,0.04099515261366162,0.0002515352447994494,0.965267519549325,0.006830321092761809,0.010904444642356936,4.460285222388116e-05,0,302.39802772996023,16,3
2,Y,2758,0.08003143405498526,0.00017905860533397723,-0.001823078965779033,0.00031384350723301726,0.11318153945672815,0.00025322710812292204,0.03760440305239312,0.00012668269899679383,0.03830893203194906,0.00027238750676635335,0.9816092764223139,0.007723286149005861,0.010668521329798503,4.314456152444258e-05,0,183.6376253945549,16,3
2,Y,2779,0.07792898765206777,0.00017001868802637166,-0.0010559952664052563,0.00030324221647525353,0.1102082312395597,0.00024044273446377495,0.03939929522370045,0.00011797219096403189,0.04049461488698853,0.00023625654093459078,0.9729514735145679,0.006380394095920066,0.010884097404566962,4.032339108901861e-05,0,232.12004897644698,16,3
2,Y,2818,0.08037762936153757,0.0001682573604809945,-0.0009356329326128394,0.0002976702000613216,0.11367113355448433,0.0002379518411613213,0.037513872985030186,0.0001321825506969813,0.03863020462582595,0.0002774811139691849,0.9711021038690164,0.007769492167225433,0.010688875748984198,4.380817311026123e-05,0,274.3908921341207,16,3
2,Y,2839,0.07871610916865956,0.0001700358117169315,-0.000488709395059313,0.000305723990433778,0.11132138916355949,0.00024046695101920257,0.03934508089640693,0.00013123813124858255,0.0402489373354698,0.00025424216091828343,0.9775433465105093,0.0069829196373562144,0.010978904160605275,4.362936707104172e-05,0,277.17591834479236,16,3
2,Y,2860,0.07967598511953453,0.00017070194291697363,-0.0009247650557956716,0.00030701808239635,0.11267885875148265,0.00024140900279662203,0.0381021193764172,0.00013329919942340875,0.039511590562436895,0.0002701212465268134,0.9643276525708976,0.007405705381829919,0.010761715511896456,4.414849418750173e-05,0,259.94149621579203,16,3
2,Y,2881,0.07735396935644642,0.00016361050367024374,-0.0006812980249941069,0.00028394979151985576,0.10939503256727934,0.00023138019323715175,0.040134334261779425,0.00012738140627875148,0.041328248088802595,0.00023509517625408422,0.9711114338924363,0.0063258326324454345,0.011005343427664599,4.197509235459127e-05,0,287.28705644356654,16,3
2,Y,2902,0.07931834706683301,0.00018248945250632942,-0.001125134078345477,0.0003086794706795309,0.11217308216693145,0.0002580790587244919,0.03833969506511056,0.0001271006562138105,0.03948559378284951,0.00024945086329908876,0.9709793216219363,0.0069274472507352665,0.010780210511821946,4.3500968904369544e-05,0,231.3350496066798,16,3
2,Y,2923,0.07726337600022136,0.00017169547461786194,-0.0007727142288240632,0.0003003538163067353,0.10926691421424495,0.00024281406880266587,0.040183251403871995,0.000135886466851291,0.04088153667250604,0.0002240123867853434,0.9829192998729996,0.006329049754683077,0.011005852474644225,4.45348335653492e-05,0,233.8055087851428,16,3
2,Y,2944,0.0801464732458876,0.00018253308540009267,-0.0019251174260784857,0.0003259449159366535,0.11334422944070666,0.00025814076495461746,0.037326671590597,0.0001394151750227557,0.038510508522445454,0.00022974327622851052,0.969259379393589,0.006822110272956036,0.010604949730485723,4.639252046545053e-05,0,364.2098349205668,16,3
2,Y,2965,0.07842039572269875,0.00018558307700501184,-0.000647256730448386,0.00029532826591478756,0.11090318719770564,0.00026245410444741823,0.0386087566329546,0.0001505808202517182,0.03989662140450452,0.0002844478028092112,0.9677199540659722,0.007864345624564404,0.01073296658360367,4.896367443057039e-05,0,270.32036835903364,16,3
2,Y,2997,0.08219319714687229,0.00017759892993401096,-0.0008892341210252666,0.00031607987753182995,0.11623873413991237,0.00025116281537562735,0.03687720902304767,0.00010972518561772486,0.03747511096662922,0.00020161003041639506,0.9840453589553352,0.006049741073212068,0.010744812736164983,3.951106479457211e-05,0,189.93318122700322,16,3
2,Y,3018,0.08020864342781328,0.00016832612583139814,-0.00211389768953506,0.0003087827376387809,0.11343215135516116,0.00023804909005248343,0.038565859931066225,0.00012120754737039068,0.03944134094769761,0.0002203444217449254,0.9778029601530955,0.006267720465966265,0.010965517258388185,4.1440049215861675e-05,0,169.88778309322086,16,3
2,Y,3039,0.07965072766939538,0.00019054058328160615,-0.001163399198018325,0.0003139971795369121,0.1126431393229449,0.00026946507705932765,0.03829302747797112,0.00012126954355352217,0.03917792791945816,0.0003016396647311021,0.9774132913995296,0.008137058559057508,0.010812207783436953,4.2912039273324656e-05,0,169.37491225139033,16,3
2,Y,3060,0.07791569269845712,0.00017346523629229187,-0.0015988168733667082,0.00027775958913330446,0.1101894293358524,0.0002453168897648128,0.039284379003935575,0.00013353632951039484,0.04051080698739864,0.0002683420819015712,0.9697259058837174,0.007219841879411159,0.010850500227504735,4.4089909895197054e-05,0,225.0869077973088,16,3
2,Y,3081,0.07991669100527544,0.0001865854697648775,-0.0014505708164523096,0.00033196357175749704,0.11301926827964048,0.0002638717018832448,0.038081287775000076,0.000139161442599083,0.039299475937292105,0.00027922477771204115,0.9690024323928436,0.007742071571618936,0.010788325757666348,4.678347872470766e-05,0,227.50817632942213,16,3
2,Y,3102,0.07679017198925361,0.00015397186596342248,-0.0006635363086893178,0.0002838407198002826,0.10859770268416502,0.0002177491010693644,0.04046718101719626,0.0001426764366583874,0.04186955490255426,0.0003127023790177023,0.9665061190972335,0.007982260400028142,0.011015736131426555,4.467992187801782e-05,0,292.2111394905471,16,3
2,Y,3123,0.08032840665257292,0.00017696124897849762,-0.0016289281116931135,0.00029650467115690073,0.11360152213188979,0.00025026099831987336,0.03748720593390387,0.00013263999299329283,0.03858155378873443,0.000286944125900109,0.971635464428856,0.008002490426519366,0.01067473633097475,4.4492612284839434e-05,0,252.12335588334278,16,3
2,Y,3144,0.07781017826924172,0.000162047725461961,-0.0017995180713012509,0.0002890131013463374,0.11004020939902992,0.00022917009110001718,0.04001043359552967,0.00011989631324182703,0.040931646596664366,0.00024502391909041047,0.9774938689808349,0.006543665215872675,0.011036073906650921,4.027336097185602e-05,0,385.91804246889546,16,3
