[
    [
        "XscanNumber_YscanNumber",
        "Type",
        "BCID",
        "xsec",
        "xsecErr",
        "SBIL",
        "SBILErr"
    ],
    [
        "1_2",
        "XY",
        "103",
        949.8333416424208,
        2.4235064134554265,
        0.0644922446153717,
        0.0001887016052860047
    ],
    [
        "1_2",
        "XY",
        "124",
        934.4409343102088,
        2.3394376189223216,
        0.08082803245520741,
        0.00023489597702357895
    ],
    [
        "1_2",
        "XY",
        "145",
        937.0554706190013,
        2.9705422889381814,
        0.06548855483855051,
        0.00023886552668205785
    ],
    [
        "1_2",
        "XY",
        "166",
        941.5097729975627,
        2.719957208137231,
        0.07475009461861158,
        0.0002506533918446551
    ],
    [
        "1_2",
        "XY",
        "187",
        943.5598513564776,
        2.8583210518059876,
        0.06519688272822367,
        0.00022702107161017612
    ],
    [
        "1_2",
        "XY",
        "208",
        942.3519064669241,
        2.7069629613235264,
        0.06874291767113665,
        0.00022793457462578747
    ],
    [
        "1_2",
        "XY",
        "229",
        937.4597301878626,
        2.7418551011050583,
        0.06987874941024123,
        0.00023458813025239834
    ],
    [
        "1_2",
        "XY",
        "250",
        936.1725469793438,
        2.4809518219474502,
        0.07747090782382778,
        0.00023571846631274934
    ],
    [
        "1_2",
        "XY",
        "282",
        944.1896924935259,
        2.397753908990798,
        0.07554179980096218,
        0.00022359466730995442
    ],
    [
        "1_2",
        "XY",
        "303",
        937.2436500896591,
        2.4410026302574965,
        0.07940997639335984,
        0.00023785441436415132
    ],
    [
        "1_2",
        "XY",
        "324",
        942.0202874697541,
        2.532564571749526,
        0.07078927890474539,
        0.0002182776725964752
    ],
    [
        "1_2",
        "XY",
        "345",
        936.989397333597,
        2.235111987734067,
        0.08028315898519889,
        0.00022258861740713469
    ],
    [
        "1_2",
        "XY",
        "366",
        940.5480988177634,
        2.7985811734609483,
        0.07307159289613004,
        0.00025115679509740024
    ],
    [
        "1_2",
        "XY",
        "387",
        938.7040898473716,
        2.604085023410571,
        0.08010233539835399,
        0.00025604827250169594
    ],
    [
        "1_2",
        "XY",
        "408",
        936.4593798727511,
        2.6438761064610286,
        0.06921937154399427,
        0.00022355204527561615
    ],
    [
        "1_2",
        "XY",
        "429",
        940.0988952146988,
        2.623204545014116,
        0.07698285269938153,
        0.0002477128024031747
    ],
    [
        "1_2",
        "XY",
        "464",
        944.8064312225479,
        2.3822350136020827,
        0.07470321896050525,
        0.00022144220995471407
    ],
    [
        "1_2",
        "XY",
        "485",
        939.3038958768858,
        2.158608378446547,
        0.07808334280651472,
        0.00020949190699186222
    ],
    [
        "1_2",
        "XY",
        "506",
        942.7244072035928,
        2.4820308628760817,
        0.06712442678391463,
        0.0002036795994114842
    ],
    [
        "1_2",
        "XY",
        "527",
        940.0454673738896,
        2.2181824861437476,
        0.07463925203000951,
        0.0002043568909012782
    ],
    [
        "1_2",
        "XY",
        "548",
        942.7366867171328,
        2.5326017000441583,
        0.07296983999824717,
        0.00022652254207226335
    ],
    [
        "1_2",
        "XY",
        "569",
        938.9895416492789,
        2.19595923404691,
        0.08165069918881085,
        0.00022178097798328708
    ],
    [
        "1_2",
        "XY",
        "590",
        942.9766000105639,
        2.614226014711501,
        0.07040209546898181,
        0.00022715514029445416
    ],
    [
        "1_2",
        "XY",
        "611",
        941.4781187748185,
        2.3948283478745234,
        0.07871752134810231,
        0.00023430686029280796
    ],
    [
        "1_2",
        "XY",
        "643",
        945.3551283077896,
        2.578071365578473,
        0.06916194237683682,
        0.00021873111705916716
    ],
    [
        "1_2",
        "XY",
        "664",
        943.709440028872,
        2.1741813137293255,
        0.0777801694185686,
        0.00020759503426656816
    ],
    [
        "1_2",
        "XY",
        "685",
        942.3264881844713,
        2.621564852736205,
        0.06749022443782168,
        0.0002203670927042904
    ],
    [
        "1_2",
        "XY",
        "706",
        946.6484712968876,
        2.2998405505579598,
        0.0708311092870759,
        0.00019875333074531829
    ],
    [
        "1_2",
        "XY",
        "727",
        942.6726897680294,
        2.4231037297059226,
        0.07010311587885859,
        0.00021266301769415412
    ],
    [
        "1_2",
        "XY",
        "748",
        940.135638316583,
        2.288315885598008,
        0.07951473562618758,
        0.000226494038052784
    ],
    [
        "1_2",
        "XY",
        "769",
        938.5094532184448,
        2.6501879319913915,
        0.06469611374668488,
        0.00021240628812461908
    ],
    [
        "1_2",
        "XY",
        "790",
        940.9636597995035,
        2.3412266737963354,
        0.0729615648240771,
        0.00021116720488320565
    ],
    [
        "1_2",
        "XY",
        "822",
        949.2367778902562,
        2.5800691734296715,
        0.06693674461517507,
        0.00021287606318379625
    ],
    [
        "1_2",
        "XY",
        "843",
        948.7699535239861,
        2.4248133314558618,
        0.07784885722479853,
        0.00023367717536535427
    ],
    [
        "1_2",
        "XY",
        "864",
        943.3606052968211,
        2.5344681254698043,
        0.07078521556370085,
        0.0002239350486437356
    ],
    [
        "1_2",
        "XY",
        "885",
        941.3034998765697,
        2.3663612162931047,
        0.08104442772556805,
        0.0002386905428015264
    ],
    [
        "1_2",
        "XY",
        "906",
        942.8438430529185,
        2.625363381396734,
        0.06938660029679652,
        0.00022525197204422415
    ],
    [
        "1_2",
        "XY",
        "927",
        942.2465080544505,
        2.320416021470737,
        0.07863417856525594,
        0.00022329640064273597
    ],
    [
        "1_2",
        "XY",
        "948",
        942.0485679430623,
        2.5392558042710407,
        0.06956666499579436,
        0.00022211707940430662
    ],
    [
        "1_2",
        "XY",
        "969",
        942.6622674536322,
        2.3090637018946136,
        0.07691787624537298,
        0.00022030549321080766
    ],
    [
        "1_2",
        "XY",
        "1018",
        939.6846405592867,
        2.300912357506126,
        0.07535018240842446,
        0.00021225047575936434
    ],
    [
        "1_2",
        "XY",
        "1039",
        941.7981446466556,
        2.27996622516049,
        0.07876929745268851,
        0.00022051782699312067
    ],
    [
        "1_2",
        "XY",
        "1060",
        939.630841978908,
        2.647781655066006,
        0.07080896059254375,
        0.0002331380719579286
    ],
    [
        "1_2",
        "XY",
        "1081",
        941.9351953586201,
        2.2847231465097724,
        0.07804277560840923,
        0.00021973746582079954
    ],
    [
        "1_2",
        "XY",
        "1102",
        938.7854100679525,
        2.6789058036623286,
        0.06884475487254495,
        0.0002292687938093912
    ],
    [
        "1_2",
        "XY",
        "1123",
        941.2926411495258,
        2.588755959249868,
        0.0751883129289219,
        0.00024075808866646785
    ],
    [
        "1_2",
        "XY",
        "1144",
        943.0077927911708,
        2.7699999082436855,
        0.0700670375584292,
        0.00023905886029322037
    ],
    [
        "1_2",
        "XY",
        "1165",
        939.8985791729101,
        2.3001993010114625,
        0.0812113984858075,
        0.0002337810059016589
    ],
    [
        "1_2",
        "XY",
        "1197",
        940.3433335692554,
        2.676414985969197,
        0.07268503549485318,
        0.00024109116942544847
    ],
    [
        "1_2",
        "XY",
        "1218",
        942.5886590015838,
        2.312021602572512,
        0.07870648010506724,
        0.00022379167455726601
    ],
    [
        "1_2",
        "XY",
        "1239",
        944.0998359849286,
        2.5612440244453336,
        0.06961263192343796,
        0.00021818087362367343
    ],
    [
        "1_2",
        "XY",
        "1260",
        941.6996787929963,
        2.3870396117571246,
        0.07853088421828944,
        0.0002329613195301196
    ],
    [
        "1_2",
        "XY",
        "1281",
        939.298748598963,
        2.428869590272817,
        0.07152307405848245,
        0.00021400573562573632
    ],
    [
        "1_2",
        "XY",
        "1302",
        942.8361259598792,
        2.4475859320600377,
        0.07943570321646894,
        0.00023668676491702607
    ],
    [
        "1_2",
        "XY",
        "1323",
        942.2691013013346,
        2.8243491487968733,
        0.06548889671047298,
        0.00022746011947986293
    ],
    [
        "1_2",
        "XY",
        "1344",
        941.0469870414526,
        2.5284234777516263,
        0.07749220840405231,
        0.0002435282644182359
    ],
    [
        "1_2",
        "XY",
        "1376",
        940.9143085861333,
        2.5916194830946515,
        0.07300594704967815,
        0.00023233269323955154
    ],
    [
        "1_2",
        "XY",
        "1397",
        947.8306848275687,
        2.458565717303002,
        0.06912072709142535,
        0.00020746579107073596
    ],
    [
        "1_2",
        "XY",
        "1418",
        943.1694804006166,
        2.3471418610312473,
        0.0737272850559042,
        0.00021156533452185757
    ],
    [
        "1_2",
        "XY",
        "1439",
        952.1009043666323,
        2.3289556145939123,
        0.06643884333280703,
        0.00019043877944998147
    ],
    [
        "1_2",
        "XY",
        "1460",
        942.4847551886324,
        2.5581498400111604,
        0.07096955174804774,
        0.0002242240713464188
    ],
    [
        "1_2",
        "XY",
        "1481",
        943.1785249464823,
        2.483837549447225,
        0.07778087838450447,
        0.00023549896432515743
    ],
    [
        "1_2",
        "XY",
        "1502",
        943.5281085262512,
        2.4427675120061796,
        0.0700318356496232,
        0.0002110344092285644
    ],
    [
        "1_2",
        "XY",
        "1523",
        955.0450054971708,
        2.5428864092837573,
        0.06271246030691205,
        0.0001922695180600506
    ],
    [
        "1_2",
        "XY",
        "1555",
        950.8268452591826,
        2.530058007751662,
        0.06548592116248501,
        0.0002016659155388499
    ],
    [
        "1_2",
        "XY",
        "1576",
        951.862745503546,
        2.593378337105334,
        0.06855929649749255,
        0.00021616062391657164
    ],
    [
        "1_2",
        "XY",
        "1597",
        955.9964676868663,
        2.784753536890948,
        0.06049109224656278,
        0.00020118191105384804
    ],
    [
        "1_2",
        "XY",
        "1618",
        953.1027629498412,
        2.931641042858075,
        0.06662204826374772,
        0.0002390808700499535
    ],
    [
        "1_2",
        "XY",
        "1639",
        942.7490227548581,
        2.262495392803444,
        0.07899785180595993,
        0.00021984961435125107
    ],
    [
        "1_2",
        "XY",
        "1660",
        945.9813237187699,
        2.34452179962022,
        0.07568763034536975,
        0.00021618257592121654
    ],
    [
        "1_2",
        "XY",
        "1681",
        939.5102065334746,
        2.413550351415248,
        0.07640330731423156,
        0.0002262393094178526
    ],
    [
        "1_2",
        "XY",
        "1702",
        940.5174694006007,
        2.280409957425697,
        0.08239649914687831,
        0.00023588224522629438
    ],
    [
        "1_2",
        "XY",
        "1734",
        947.65501774648,
        2.351547600284582,
        0.07400539059497663,
        0.00021134336239011286
    ],
    [
        "1_2",
        "XY",
        "1755",
        956.0290161570866,
        2.561578197173086,
        0.06132464630966878,
        0.00018801521272645132
    ],
    [
        "1_2",
        "XY",
        "1776",
        938.3393419155533,
        2.6561881430701666,
        0.07532367603656626,
        0.0002489595863071336
    ],
    [
        "1_2",
        "XY",
        "1797",
        940.9017377593541,
        2.343566505631671,
        0.08092561012407985,
        0.0002359096406383654
    ],
    [
        "1_2",
        "XY",
        "1818",
        953.4945942318225,
        2.516197399637608,
        0.06847031881924896,
        0.00021201502064417462
    ],
    [
        "1_2",
        "XY",
        "1839",
        956.4698552855893,
        2.155004412340453,
        0.06221076134156717,
        0.00016224370215194158
    ],
    [
        "1_2",
        "XY",
        "1860",
        943.6527756971295,
        2.488434943945787,
        0.07311399673166014,
        0.00022249132885801318
    ],
    [
        "1_2",
        "XY",
        "1881",
        943.8344565638295,
        1.895853121154484,
        0.07476015310460828,
        0.00017512231131495807
    ],
    [
        "1_2",
        "XY",
        "1916",
        945.3392084857707,
        2.3971302831942145,
        0.0690961225511411,
        0.000203416682659677
    ],
    [
        "1_2",
        "XY",
        "1937",
        953.475041352111,
        2.613950977803641,
        0.06263277966181381,
        0.00019955079198259813
    ],
    [
        "1_2",
        "XY",
        "1958",
        945.946148202996,
        2.358378558429925,
        0.0729740971672598,
        0.0002117944400032254
    ],
    [
        "1_2",
        "XY",
        "1979",
        941.0968020042993,
        2.251708218767559,
        0.07517515524233583,
        0.00020737217547327796
    ],
    [
        "1_2",
        "XY",
        "2000",
        943.3147226672387,
        2.471190239128329,
        0.07764372213964793,
        0.00023892453574955743
    ],
    [
        "1_2",
        "XY",
        "2021",
        938.8142757572618,
        2.088268921891978,
        0.08089757536324693,
        0.00020686870846300606
    ],
    [
        "1_2",
        "XY",
        "2042",
        945.1660184084717,
        2.30514513076229,
        0.07148202227704821,
        0.00020151353720070144
    ],
    [
        "1_2",
        "XY",
        "2063",
        941.0624270441951,
        2.1067771995389624,
        0.08033265238717847,
        0.00020791377753526615
    ],
    [
        "1_2",
        "XY",
        "2095",
        943.9267059073778,
        2.516635309899484,
        0.07513286621904086,
        0.00023535786875943787
    ],
    [
        "1_2",
        "XY",
        "2116",
        942.1225219584568,
        2.5594275176908066,
        0.07676556604851699,
        0.00024805162931550764
    ],
    [
        "1_2",
        "XY",
        "2137",
        941.5714613107114,
        2.465796976183291,
        0.07453302552015419,
        0.0002228800529338936
    ],
    [
        "1_2",
        "XY",
        "2158",
        944.1663240353198,
        2.344426842477325,
        0.07804239354687384,
        0.0002244027728884834
    ],
    [
        "1_2",
        "XY",
        "2179",
        945.1875887162669,
        2.338400903664589,
        0.07640712132272755,
        0.00021909028821229742
    ],
    [
        "1_2",
        "XY",
        "2200",
        942.3834985552334,
        2.24155690905967,
        0.07908412469533506,
        0.0002165079710849902
    ],
    [
        "1_2",
        "XY",
        "2221",
        939.6295345289976,
        2.1542626395323174,
        0.07755372740704293,
        0.000202167721064409
    ],
    [
        "1_2",
        "XY",
        "2242",
        941.5955656514425,
        2.1876572658330176,
        0.08021813487318571,
        0.0002158980316767743
    ],
    [
        "1_2",
        "XY",
        "2274",
        941.8327580475452,
        2.4314831131706307,
        0.07726910134043917,
        0.00023056408505690588
    ],
    [
        "1_2",
        "XY",
        "2295",
        946.2851239422914,
        1.8520250601642807,
        0.07176719596837394,
        0.00016175675791664645
    ],
    [
        "1_2",
        "XY",
        "2316",
        943.6169411467744,
        2.2379676469915353,
        0.07566875119905073,
        0.00021271338431265853
    ],
    [
        "1_2",
        "XY",
        "2337",
        952.5440444198548,
        2.360867981834888,
        0.06827275805310523,
        0.00019553339818071256
    ],
    [
        "1_2",
        "XY",
        "2358",
        951.8260288414115,
        2.48093092824956,
        0.06477629833616146,
        0.0001958694952988953
    ],
    [
        "1_2",
        "XY",
        "2379",
        947.6992701751243,
        2.173073971963286,
        0.07107231537163147,
        0.00018967379386350164
    ],
    [
        "1_2",
        "XY",
        "2400",
        941.8548827841391,
        2.5853362134582043,
        0.07340350630106579,
        0.00023442107072454223
    ],
    [
        "1_2",
        "XY",
        "2421",
        939.7502867083073,
        2.5397953396399617,
        0.07896444329206655,
        0.00024620749852276996
    ],
    [
        "1_2",
        "XY",
        "2453",
        945.354442040306,
        2.4413735442614617,
        0.0719574568347825,
        0.00021737330841215514
    ],
    [
        "1_2",
        "XY",
        "2474",
        941.5119269667978,
        2.305071086046325,
        0.08119590619004119,
        0.0002294026218770635
    ],
    [
        "1_2",
        "XY",
        "2495",
        944.9541412027884,
        2.5267000265674207,
        0.07061756345599336,
        0.0002208182378841179
    ],
    [
        "1_2",
        "XY",
        "2516",
        940.4372720542991,
        2.5025082802402925,
        0.07765383397765033,
        0.00024079614590778514
    ],
    [
        "1_2",
        "XY",
        "2537",
        941.8389178861801,
        2.611368273271784,
        0.07759711413662092,
        0.0002502765482618429
    ],
    [
        "1_2",
        "XY",
        "2558",
        940.8040311373711,
        2.2756511208033907,
        0.08363435899390384,
        0.00023300737324745855
    ],
    [
        "1_2",
        "XY",
        "2579",
        941.3172333670464,
        2.5482609717754925,
        0.07975748557709293,
        0.0002525787380543148
    ],
    [
        "1_2",
        "XY",
        "2600",
        944.580121315778,
        2.1014160285560837,
        0.08194069373024504,
        0.00021097134854941373
    ],
    [
        "1_2",
        "XY",
        "2632",
        948.97529621026,
        2.5084862274109168,
        0.06951659643839939,
        0.00021590940762047152
    ],
    [
        "1_2",
        "XY",
        "2653",
        942.3410701205316,
        2.2520730938216555,
        0.07585410038151064,
        0.00020911498223684093
    ],
    [
        "1_2",
        "XY",
        "2674",
        949.694791501472,
        2.424791199116293,
        0.06927871430180677,
        0.00020465404746615362
    ],
    [
        "1_2",
        "XY",
        "2695",
        940.7338497804207,
        2.2051940324620314,
        0.08223126189735395,
        0.00022577755198935272
    ],
    [
        "1_2",
        "XY",
        "2716",
        949.9318628302269,
        2.4571087012089725,
        0.06855691900858525,
        0.00020387607955463444
    ],
    [
        "1_2",
        "XY",
        "2737",
        939.2636411257173,
        2.2666862687406177,
        0.0792623303229465,
        0.0002253457124181958
    ],
    [
        "1_2",
        "XY",
        "2758",
        945.9724360318359,
        2.425874531519249,
        0.07427765008304098,
        0.00022162076253217898
    ],
    [
        "1_2",
        "XY",
        "2779",
        941.6890283490977,
        2.543197350094202,
        0.07900836534553096,
        0.00025004582704308057
    ],
    [
        "1_2",
        "XY",
        "2818",
        940.447566190405,
        2.454697464132027,
        0.07802988109746282,
        0.00023471265729805486
    ],
    [
        "1_2",
        "XY",
        "2839",
        943.7639269144094,
        2.194004716707014,
        0.08129386081794816,
        0.00022437969747923583
    ],
    [
        "1_2",
        "XY",
        "2860",
        945.5348685762152,
        2.451391458918832,
        0.07653766327529145,
        0.00023102904926567712
    ],
    [
        "1_2",
        "XY",
        "2881",
        942.2808142043943,
        2.3256108511567057,
        0.08103075888293773,
        0.00023207825955236144
    ],
    [
        "1_2",
        "XY",
        "2902",
        941.0051139356032,
        2.3946555895881185,
        0.07690429904621097,
        0.00022608652966774414
    ],
    [
        "1_2",
        "XY",
        "2923",
        939.290892520844,
        2.212925999548564,
        0.08077210436406544,
        0.00021935901547248104
    ],
    [
        "1_2",
        "XY",
        "2944",
        941.5585637803855,
        2.3874019579849266,
        0.07481757092598508,
        0.00021844955668583172
    ],
    [
        "1_2",
        "XY",
        "2965",
        942.0709461432382,
        2.368353020030139,
        0.07334995216900309,
        0.00021479295510666474
    ],
    [
        "1_2",
        "XY",
        "2997",
        944.9520058042808,
        2.3168629646775485,
        0.07574523356525416,
        0.00021469645733519817
    ],
    [
        "1_2",
        "XY",
        "3018",
        945.7972413960117,
        2.349031779994957,
        0.0794339940081695,
        0.00022953461253486302
    ],
    [
        "1_2",
        "XY",
        "3039",
        944.6876847307688,
        2.5915437914041433,
        0.07131584505003301,
        0.00022982265012422612
    ],
    [
        "1_2",
        "XY",
        "3060",
        942.6617886488218,
        2.340650090918269,
        0.07623463715921089,
        0.0002195923345470197
    ],
    [
        "1_2",
        "XY",
        "3081",
        942.2216489538896,
        2.5294720332431346,
        0.07470585091509806,
        0.0002305780914673822
    ],
    [
        "1_2",
        "XY",
        "3102",
        941.8668961655609,
        2.436207504485233,
        0.07933412103672725,
        0.00024094556163665413
    ],
    [
        "1_2",
        "XY",
        "3123",
        942.4331300909739,
        2.2459919540734576,
        0.07809551987352546,
        0.00021575379415525372
    ],
    [
        "1_2",
        "XY",
        "3144",
        939.8233293528066,
        2.262514294955845,
        0.08219808820400124,
        0.0002272000947057752
    ]
]