Scan,Type,BCID,sigma,sigmaErr,Mean,MeanErr,CapSigma,CapSigmaErr,peak,peakErr,rate0sep,rate0sepErr,peakRateRatio,peakRateRatioErr,area,areaErr,fitStatus,chi2,ndof,covStatus
1,Y,103,0.0869729684613602,0.0003087741878684361,0.0029168245878803743,0.0005675900020662194,0.12299835155790306,0.0004366726441942803,0.001320072568350099,7.058460218369775e-06,0.001343752354810143,1.3305500927494125e-05,0.982377864213388,0.011054930726611682,0.0004069930860185818,2.6122113303012125e-06,0,59.82170987735493,22,3
1,Y,124,0.07533196696930684,0.0002506859189506425,0.0037491911620996304,0.00047815188895850914,0.10653548936823576,0.00035452342647596113,0.0015946675784128655,9.270164110788951e-06,0.0016363659057532724,1.5344376025797438e-05,0.9745177241876035,0.01075170505518664,0.0004258477960143128,2.8524657831237798e-06,0,133.0258444841103,22,3
1,Y,145,0.07572995150625121,0.0002904352760448207,0.00567584938383999,0.0005058283032663519,0.10709832449799728,0.0004107375063741592,0.001574857191327237,1.0175373364136147e-05,0.0015904893928008093,2.000134880706977e-05,0.9901714519164165,0.013999354045068796,0.00042277937135430107,3.1766085897259796e-06,0,84.2518975903218,22,3
1,Y,166,0.0754280591916953,0.000263507366984619,0.003886426933940227,0.0004882947095726491,0.1066713842923761,0.0003726556921748725,0.0015932395754083225,8.08544674489408e-06,0.001628133386193932,1.3085818936827535e-05,0.9785682112525311,0.009301674756795168,0.0004260091731745989,2.6246646260541265e-06,0,105.3036612598239,22,3
1,Y,187,0.077075963203077,0.0003217190566564615,0.0039539719329089165,0.000626478501030065,0.10900187249476112,0.00045497945319744604,0.0015680216945108245,1.0512955547278283e-05,0.001575830173081506,2.2693798393670167e-05,0.9950448476593057,0.015806666804198812,0.0004284261388442055,3.3835995736668167e-06,0,41.157106286986284,22,3
1,Y,208,0.08166868157678739,0.0003059617762721353,0.004081348416030521,0.0005538005925487824,0.11549695710702246,0.00043269529357181646,0.0014682971272908163,8.739958276406083e-06,0.0015131203596889765,1.526285901410637e-05,0.9703769550709279,0.011365403518791737,0.00042508367416065605,2.9897303090162072e-06,0,82.89491906228538,22,3
1,Y,229,0.07657733810784001,0.0002415481780137064,0.003938064870990107,0.00045489283352365833,0.10829671012253739,0.0003416007093134943,0.001552008506652278,8.946826141641292e-06,0.0016030949501198567,1.7809375989592994e-05,0.9681326153115515,0.012117122646323286,0.0004213076016498107,2.7685109753509176e-06,0,153.4478503229387,22,3
1,Y,250,0.07429016173900108,0.00024052652711050853,0.004127345682832224,0.00046241374799989234,0.10506215428218613,0.0003401558767501811,0.0016256430945150056,9.639943665036168e-06,0.0016585709346266626,2.0545617069024513e-05,0.9801468605145496,0.01346106812514424,0.00042811598066729413,2.8924451190677088e-06,0,77.23663103628488,22,3
1,Y,282,0.07628092019551228,0.00024018858255680286,0.005050564429540415,0.00044466780344424006,0.1078775118907932,0.00033967795097900044,0.0015446251483455372,9.078524108974084e-06,0.0015759493008890675,1.8945187296179186e-05,0.9801236292780112,0.01311536019958917,0.0004176802660269385,2.785005930974736e-06,0,85.96670501627663,22,3
1,Y,303,0.0749329342040169,0.00027411798335338206,0.005305735287662461,0.000499641338367452,0.10597117181973148,0.00038766136974871523,0.001607455767289565,9.553211074578294e-06,0.0016430125665449283,2.0655925018026713e-05,0.978358778271468,0.013604983432221652,0.0004269890148937171,2.9798285137251418e-06,0,123.5419199479067,22,3
1,Y,324,0.07640126390932746,0.000305548295628681,0.0038969787295736295,0.000519410398682144,0.10804770360301696,0.00043211054363806456,0.0015729228643022873,8.901342137962818e-06,0.0015723516866007435,2.366946718078463e-05,1.0003632633248727,0.016087966878745565,0.0004260032385174376,2.9520387163326892e-06,0,125.96823954943562,22,3
1,Y,345,0.07449963034318394,0.00024036972984949588,0.004122237682065332,0.00048326754408955364,0.10535838762311289,0.0003399341319371141,0.0016349603100165174,9.020706947377218e-06,0.0016661748458355902,1.5088935077459714e-05,0.9812657501719643,0.010405734007998099,0.00043178372048656503,2.75975540654131e-06,0,150.5060505589428,22,3
1,Y,366,0.07691560358106675,0.000275299018847245,0.004400971729638631,0.000503621047920283,0.1087750897424572,0.0003893316061617802,0.0015779413020698947,8.992094220825372e-06,0.0016098453311772852,1.6075857078863198e-05,0.9801819289781963,0.011269696335465736,0.0004302394485945946,2.8952665960364025e-06,0,117.95601053887967,22,3
1,Y,387,0.07530498719002608,0.0002578410656338736,0.003760988177524973,0.0004947905886156224,0.10649733419846708,0.00036464233195615536,0.00161640088651911,8.362064664105144e-06,0.0016413991765046635,1.2708846877157117e-05,0.9847701337106876,0.009170103237014223,0.0004314969705319454,2.6768856198607047e-06,0,78.67757692284007,22,3
1,Y,408,0.07672638509297006,0.00029448867083632695,0.0036006564291379555,0.0005208692430429678,0.10850749439033913,0.00041646987226195975,0.001565716010656283,8.945126094126216e-06,0.0016243105569104313,1.7863772084243695e-05,0.9639265126949615,0.011946095266088435,0.00042585589341946487,2.931029855586594e-06,0,142.86238776420402,22,3
1,Y,429,0.07464833538322044,0.00025963899815154283,0.0044559695842670095,0.0004823676408859556,0.10556868830752575,0.00036718499250687486,0.0016165978995080982,9.202482703861582e-06,0.0016482141162951261,1.8876125419974746e-05,0.9808178946688704,0.012543876997544005,0.00042778649482838415,2.8537611336472137e-06,0,126.15340950476804,22,3
1,Y,464,0.07693104288753826,0.0002790311553085941,0.004297609288078369,0.0005300858041345123,0.10879692421906284,0.00039460964416204725,0.0015194242256915303,9.537174106826658e-06,0.0015481317984734897,1.6653095998503507e-05,0.9814566351454921,0.012223352105426863,0.0004143674171933569,3.0039206105711896e-06,0,101.5897916129039,22,3
1,Y,485,0.07539069154615764,0.0002670694799731768,0.003351729678450275,0.0005087165604524616,0.10661853846126279,0.0003776932806739963,0.0016097844289484958,9.024228183483282e-06,0.0016326754354004404,1.4417862776448322e-05,0.9859794506883542,0.01031322539937168,0.00043021978738248264,2.852937722391629e-06,0,102.94398942078962,22,3
1,Y,506,0.07604431817800857,0.0002769136694789256,0.004011731033912708,0.0005175771992163169,0.10754290610875461,0.00039161506698359716,0.00157952705413593,1.023824531441289e-05,0.0016318384324240341,1.9910658708021418e-05,0.96794328577591,0.013373306461637518,0.0004257932488585836,3.165641454387939e-06,0,71.56047211605771,22,3
1,Y,527,0.07484808323135032,0.0002689610163944416,0.004558431309254516,0.000449664240436387,0.10585117442340586,0.0003803683171346717,0.0016150631523296189,1.0823341406942586e-05,0.0016505962772024737,2.453533058709981e-05,0.9784725523959872,0.015954329890072252,0.0004285239741198517,3.2585514660294356e-06,0,108.29894230486046,22,3
1,Y,548,0.07583176086619127,0.0002648140525852242,0.005480488577401468,0.0004990543268446297,0.10724230467560103,0.000374503624673006,0.0015724137663412371,8.6393329116888e-06,0.0016013585543467816,1.843685494124273e-05,0.9819248550382575,0.012526474780970317,0.00042269091166871137,2.7517929871090785e-06,0,91.49636306173404,22,3
1,Y,569,0.07519624283622962,0.0002812513341002418,0.00413273885574759,0.000486686331479002,0.10634354645849664,0.0003977494511200885,0.0016246101934495594,9.509699265239582e-06,0.0016766242601379227,1.7924826555845466e-05,0.9689769091829289,0.011810462152291257,0.0004330621698211709,3.008242763732328e-06,0,82.7898586896255,22,3
1,Y,590,0.07558626448965537,0.0002830987981353128,0.003491902546457621,0.000512214641448486,0.1068951203703905,0.0004003621598144824,0.0015761201469548637,9.706901203438442e-06,0.0016213444376840134,1.848337148936277e-05,0.9721069196168153,0.012595842913977941,0.00042231561081318935,3.0441252175935305e-06,0,116.863021026671,22,3
1,Y,611,0.07425147784141899,0.0002588044926251271,0.004362633189936453,0.0005108695310824221,0.10500744698958009,0.00036600482347354246,0.0016450613987948094,9.27930196667701e-06,0.0016594878808993349,1.818639465971887e-05,0.9913066661886635,0.012218355950159767,0.00043300423674003254,2.8711258732097445e-06,0,50.60952524181117,22,3
1,Y,643,0.07788131726315536,0.00028999622914721704,0.004313547556101929,0.0005240597023374096,0.11014081512903617,0.0004101166002970502,0.0015175312217397582,8.174077344598067e-06,0.0015269591883310262,1.4724743109390421e-05,0.9938256590855105,0.010977368809820299,0.0004189631782773026,2.7434438308746587e-06,0,84.54733110552756,22,3
1,Y,664,0.07656904066762132,0.00027157123400921047,0.003672848518904444,0.0004758392763762207,0.10828497577004714,0.000384059722286223,0.0015803942332878978,9.50401472997474e-06,0.0016146768618639546,1.67601448879404e-05,0.978768118014349,0.01174139912970277,0.0004289666943461119,2.994912824941143e-06,0,107.58261368980604,22,3
1,Y,685,0.07615701451048044,0.0002903246979116917,0.004236395542704459,0.0005471423200911396,0.10770228279056604,0.00041058112527858626,0.0015571501097104178,1.0349750096081938e-05,0.001568950627835898,2.125628461057515e-05,0.9924787192687147,0.014977158498687684,0.0004203831724595267,3.2210794625638184e-06,0,76.05433044127814,22,3
1,Y,706,0.08219573715662087,0.00029671905008808085,0.004170877154306049,0.0005119954821115535,0.11624232625614739,0.0004196241048490257,0.0014547743975982055,8.517852140683318e-06,0.0014850797154537497,1.5096100149188775e-05,0.9795934739797555,0.011491473520258913,0.0004238867837837064,2.9157018609661748e-06,0,83.42870877925434,22,3
1,Y,727,0.0763405627753203,0.00026611074681356207,0.004620156128640268,0.0005188665177894395,0.10796185923605262,0.0003763374272369724,0.0015770992584604622,9.288726592179369e-06,0.0016133433779714624,1.6097160045936406e-05,0.977534776535562,0.011325913643678416,0.00042679499393210945,2.92098257405066e-06,0,89.7684986029097,22,3
1,Y,748,0.07454766631332527,0.0002667052330260987,0.004558389071427797,0.0004726409372270309,0.1054263207435685,0.0003771781577013855,0.0016198400162185502,9.892002009938563e-06,0.0016370472078345649,2.0351379644218205e-05,0.9894888849059058,0.013705096498553846,0.0004280663682257098,3.029678396353254e-06,0,125.98819661055691,22,3
1,Y,769,0.07608586812054303,0.00028654541398586287,0.0037542819190368878,0.0005332530448366956,0.10760166660100268,0.00040523641069462046,0.0015786530501996846,1.0187578323661125e-05,0.0016227682187866133,1.887585513714101e-05,0.9728148677819716,0.012940497258778709,0.0004257901644701993,3.1814503430557605e-06,0,71.81216711517392,22,3
1,Y,790,0.07483165870948841,0.0002721269274368941,0.003906496147942288,0.00047339382495261204,0.10582794664183326,0.00038484559146817476,0.0016100510417505784,8.05650945350215e-06,0.0016332077165459437,1.3500540523041263e-05,0.9858213535481334,0.00952581611463197,0.0004271003704234011,2.641923855339789e-06,0,110.28099930855305,22,3
1,Y,822,0.08523105045197815,0.000312088773909921,0.004648572507897478,0.000578206656331397,0.12053490748449303,0.0004413601767278008,0.0013587967121536657,7.92772822675772e-06,0.0013599801766848172,2.0251515223903505e-05,0.999129792807689,0.015979296935713046,0.0004105416849396623,2.827908618532512e-06,0,56.6884310526021,22,3
1,Y,843,0.078262091021121,0.000263688401346253,0.004358156173841501,0.0004153947527150015,0.11067931054174696,0.0003729117134243509,0.0015306594732224822,7.6198842039327316e-06,0.0015820720126159913,1.726221873655024e-05,0.9675030346384187,0.011603394675420558,0.00042465374940953366,2.552672813061933e-06,0,98.1175225909899,22,3
1,Y,864,0.07539898936549949,0.0002938870379695723,0.004088132998082201,0.0005053488232736891,0.10663027334991415,0.00041561903490222596,0.0015883782646735956,9.578567048644695e-06,0.0016095198851903698,2.3186327207506933e-05,0.9868646416168548,0.015411880953418108,0.0004245456469912923,3.048412932801341e-06,0,86.65901374894642,22,3
1,Y,885,0.07489676098431783,0.00028012755492921935,0.00417354926714433,0.0004790588332624594,0.10592001516183835,0.0003961601873753162,0.001640557690484289,8.880292205074734e-06,0.0016511443611504013,1.634932200234522e-05,0.9935882828205669,0.011212420530384355,0.00043557151995800937,2.8658231724254574e-06,0,107.8642650311666,22,3
1,Y,906,0.07565713154418399,0.0002814028817204179,0.0035709842663567337,0.00048071476074742337,0.10699534152003032,0.00039796377181988696,0.0015731017174596392,1.0695809362526706e-05,0.0015955309496989143,2.9933617256690235e-05,0.9859424649559398,0.019674450867921158,0.00042190202386163493,3.2697602651327904e-06,0,67.98135205226143,22,3
1,Y,927,0.07440105384254284,0.000275082338198232,0.003598398751631144,0.00048629661355678854,0.10521897939897495,0.00038902517344924226,0.0016312457096237156,9.543885779375358e-06,0.0016548491316097393,1.7113654474238676e-05,0.9857368133836686,0.011712337280474999,0.0004302326856477948,2.9776434442150813e-06,0,96.63620186492668,22,3
1,Y,948,0.07579229795946033,0.0002839923721909764,0.004446403272720627,0.000530165241827028,0.10718649569769145,0.00040162586436298664,0.0015937778096077302,8.909048800865098e-06,0.0016367160990257079,1.566482496143467e-05,0.9737655849761986,0.01079294262235763,0.0004282109636529304,2.881665306780749e-06,0,88.70053411050164,22,3
1,Y,969,0.07463830009640322,0.00026102514633932305,0.004016435583331515,0.0004835367204844919,0.10555449626880653,0.0003691453020734925,0.0016154193342239986,1.0383608286107227e-05,0.0016256245959834685,1.968472171262245e-05,0.9937222518749503,0.013623244171804324,0.0004274171539685535,3.127664412327329e-06,0,97.18892787096196,22,3
1,Y,1018,0.07483069876935064,0.0002696152096135394,0.0037505997452552935,0.000509322909811122,0.10582658908147136,0.0003812934860575323,0.001616806070079653,9.483732704515562e-06,0.0016155646313992281,1.9973781436019422e-05,1.000768424027301,0.01369477471860928,0.00042888678389911143,2.9524208228031497e-06,0,60.44283262247197,22,3
1,Y,1039,0.07422284866654566,0.00029015923126584145,0.004781415009320858,0.0005050482667441604,0.10496695922219468,0.0004103471201039044,0.0016359036893902295,1.0515488433260385e-05,0.0016615832700242255,1.929377608156652e-05,0.9845451136291101,0.013067014891695929,0.0004304277693576982,3.238264757522874e-06,0,88.54183570679258,22,3
1,Y,1060,0.07417517028278801,0.00026934079669798885,0.003584968270426112,0.0004667435673708759,0.10489953180525258,0.0003809054075906704,0.0016210969510471334,8.910654237342332e-06,0.0016149147210338301,2.3671494439552605e-05,1.0038282083461012,0.01571469983701198,0.00042625793135952616,2.8080895986863174e-06,0,83.94617615027718,22,3
1,Y,1081,0.07597509022691233,0.0002729804586055844,0.004639872770073582,0.00047733648042688336,0.10744500300141901,0.0003860526668228448,0.0016222844781158356,8.94896973432751e-06,0.0016584006501948604,2.228367724331217e-05,0.9782222877959068,0.014208765003230922,0.0004369212519789002,2.8763605091341238e-06,0,49.91615416250237,22,3
1,Y,1102,0.07488448452449417,0.00030590726990892785,0.004156580138512882,0.00048568574819844815,0.10590265362585782,0.0004326182099337328,0.0016148948161057673,1.1442033156087822e-05,0.0016611422542363407,2.4327815644124042e-05,0.9721592548665652,0.01581618248247771,0.00042868769432047457,3.506060510578755e-06,0,81.23113309794338,22,3
1,Y,1123,0.07365773472499906,0.00027207153226240183,0.00431109537623785,0.000523404622567413,0.10416776742177336,0.00038476725086111774,0.0016656757208094756,1.031848892913537e-05,0.0017110778570141117,1.6975075444534713e-05,0.9734657683643547,0.011385612319715547,0.00043492437279594255,3.136853340785799e-06,0,99.16677401340074,22,3
1,Y,1144,0.07496203036404836,0.0002714787018418955,0.003346722340139798,0.0005309731909592512,0.10601232000386096,0.00038392886204025034,0.0015987499069695353,9.936920613347282e-06,0.0016319603118024027,1.6570772231866075e-05,0.979649992348044,0.011662913339798558,0.0004248413744796668,3.0561190977424836e-06,0,96.08710176229114,22,3
1,Y,1165,0.07447471723832612,0.0002492786614701194,0.003804585229968744,0.00043270499130551213,0.10532315517234214,0.0003525332638612544,0.0015846412531841042,9.290240352990692e-06,0.0016259858877092465,1.8484943116350886e-05,0.9745725748066668,0.012465872615522839,0.00041835479667299945,2.8242652860330845e-06,0,103.70275068692855,22,3
1,Y,1197,0.07465030545143744,0.00025185114069641094,0.0041187644129277575,0.000456007960251688,0.10557147440471704,0.00035617129887199894,0.0016135134982729702,7.898435898090297e-06,0.0016269459781240378,1.4118614644401813e-05,0.9917437456242056,0.00988118304446831,0.0004269815643836646,2.5384737324873564e-06,0,75.13382537979163,22,3
1,Y,1218,0.07380206468668085,0.0002648401994397423,0.005096298448729512,0.0005165378513935807,0.10437188081104054,0.00037454060190927896,0.001662881858046769,9.492073515205501e-06,0.0016302660179194166,1.706172314102795e-05,1.020006452792887,0.0121595957365818,0.0004350456585254826,2.933288761592993e-06,0,70.96807589404276,22,3
1,Y,1239,0.07434338583826569,0.00028048953112654637,0.0047189801088246275,0.0005187706243278311,0.10513742452521124,0.0003966720990228323,0.0016212733776083156,1.0107648726064515e-05,0.0016657522625027825,1.9887568383846622e-05,0.9732980192218754,0.013109190070642417,0.000427271100976081,3.1135815730822593e-06,0,79.29012051089558,22,3
1,Y,1260,0.0744591963350339,0.0002582128361967054,0.004082662109292722,0.0004838990698161875,0.10530120530040599,0.00036516809492820324,0.001652437014880835,1.0344592860177724e-05,0.0016917506743231094,2.123380918826794e-05,0.9767615523735468,0.013700011291733087,0.00043616236708444886,3.1214142770883903e-06,0,80.75455777115927,22,3
1,Y,1281,0.07479785184384052,0.0002565272629252465,0.004651085706499467,0.00047907989490378203,0.1057801365139327,0.0003627843343473325,0.001616030514555221,9.572086835739607e-06,0.0016277517445083378,1.686453848330316e-05,0.9927991292329057,0.011848346327556035,0.00042849288440503504,2.932801823293407e-06,0,61.06100639116795,22,3
1,Y,1302,0.07257360448749949,0.00025039359202691356,0.0040220033234969425,0.00044921219727679586,0.10263457573652268,0.0003541100137757769,0.0017107581691961733,1.0418237459379902e-05,0.0017301449701060143,1.7226252156923113e-05,0.9887946956787944,0.011540497946625037,0.00044012115914753507,3.080533774069246e-06,0,62.82655936345548,22,3
1,Y,1323,0.07419981412725736,0.0002886184871249467,0.004397994637941842,0.0005252001199672756,0.10493438346433015,0.00040816817884370415,0.001621117958674778,9.166325386750647e-06,0.00167526047640022,1.5694550751503986e-05,0.9676811346723927,0.010588870257651858,0.0004264050763065733,2.92644088019772e-06,0,105.81632526625613,22,3
1,Y,1344,0.07466608942413053,0.0002643657382606494,0.004191615658341224,0.00046284352347331206,0.10559379631296772,0.0003738696124749863,0.0016036502930630405,9.904778713865697e-06,0.0016574586292286168,2.142245891100367e-05,0.9675356384668142,0.01385977375323507,0.00042446120835459475,3.021853625367949e-06,0,105.11741881940213,22,3
1,Y,1376,0.0768068815031337,0.00026802572749194355,0.0038319710092152995,0.00047679354767932164,0.10862133350531489,0.0003790456188840219,0.0015377190271124656,8.673679928307133e-06,0.0015750147965769422,1.765344668501857e-05,0.9763203688336558,0.012250602655435996,0.00041867984289200856,2.7770146556622156e-06,0,68.52510652476111,22,3
1,Y,1397,0.08228414012861532,8.053944631117676e-05,0.003993319378591554,0.000519363210124692,0.11636734693809603,0.00011389997727928591,0.0014188048475304877,6.261500622356861e-06,0.0014302806637681196,1.757174090514251e-05,0.9919765284336582,0.012949398366097703,0.0004138507349080661,1.8707962390533497e-06,0,75.35521247631884,22,3
1,Y,1418,0.0755522036263316,0.00025424532417226943,0.00408040714640743,0.00046622078404855995,0.10684695103553188,0.00035955718561436756,0.0015930162011217478,8.861607207665998e-06,0.001602801568315174,2.238515898061987e-05,0.9938948355262015,0.0149415576252362,0.00042665050159334557,2.7738481181473374e-06,0,74.86376104539671,22,3
1,Y,1439,0.0885917107537789,0.0003242569652712129,0.005416760224646015,0.0005314138741125745,0.1252875988618285,0.000458568597980491,0.0013355829360903449,7.029511363294955e-06,0.0013545281526380875,1.2130325001263661e-05,0.9860134198681328,0.010242245327774915,0.0004194390701712881,2.688940423133037e-06,0,63.4929652188015,22,3
1,Y,1460,0.07600064719372533,0.00025602383425429046,0.0031947293469290323,0.0004705105323544482,0.10748114601049907,0.000362072378693179,0.0015742349344885422,8.119600185522629e-06,0.0016226010691059458,1.8622520284791492e-05,0.9701922206645326,0.012207604616993845,0.0004241229449992982,2.6127885488373287e-06,0,156.02982942992628,22,3
1,Y,1481,0.07461024824902213,0.0002641753529203592,0.004671900717757701,0.0004791651006169137,0.10551482496579057,0.0003736003669446708,0.0016281785556379064,8.853239305992504e-06,0.001650594664655038,1.5156891240910284e-05,0.9864193738795245,0.010526912882113248,0.00043063115581110615,2.7942406355681833e-06,0,101.2527135303733,22,3
1,Y,1502,0.07582922196273453,0.0002537577698329955,0.004394139664324259,0.000490577255411767,0.10723871412389896,0.0003588676796553725,0.0015927703990893196,8.560934641179605e-06,0.0016310282898575291,1.4015571330474757e-05,0.9765436988394902,0.009897857515515661,0.0004281487771140103,2.7108235165864887e-06,0,103.79717640865327,22,3
1,Y,1523,0.08949876768049818,0.00035786649276957594,0.005002041826711558,0.0005911197799469433,0.12657037106943936,0.0005060996475936275,0.001299995978113877,7.686734565874172e-06,0.001323027062607332,1.678540964263993e-05,0.9825921289561025,0.013753672339895459,0.00041244305610597113,2.9440111762674303e-06,0,63.01043183733433,22,3
1,Y,1555,0.08939892630427641,0.0003418966667906145,0.004520949449476704,0.0006100519936193953,0.12642917404110054,0.000483514903105442,0.0013040190002159228,7.800770095069673e-06,0.0013212189775431169,1.7073992374743684e-05,0.9869817360940588,0.014054948265501516,0.00041325789025245855,2.9341743110220664e-06,0,68.91834516362451,22,3
1,Y,1576,0.0847662781320256,0.0002899873139814797,0.005144856218538393,0.0004982720493531588,0.11987762016620052,0.0004101039923487537,0.001391056866440636,7.532203599445477e-06,0.0014095934197164378,1.449837687773823e-05,0.9868497163674822,0.01147086682805321,0.0004179967751148314,2.677227483149213e-06,0,98.57281483667937,22,3
1,Y,1597,0.09091498358151832,0.0003242215149042887,0.00352140482261824,0.0006114559147743828,0.1285732028039105,0.00045851846359079573,0.0012715546399843323,7.592550719534935e-06,0.0013005761913520858,1.6677971925342484e-05,0.9776856199884895,0.013829900197134055,0.0004098032738932823,2.8501687408364983e-06,0,52.8804781649685,22,3
1,Y,1618,0.08693843082797141,0.00030046972229930607,0.004846150080768886,0.0005351972885552968,0.12294950796835236,0.0004249283563581563,0.0013637718478861358,7.766433670219737e-06,0.0013849895247439012,1.8265422723944657e-05,0.9846802618513026,0.01414508707160654,0.00042029909066035635,2.799827158790807e-06,0,88.28862395366266,22,3
1,Y,1639,0.07632827817441298,0.00027528094680788685,0.0035437922804383713,0.0005001494707915377,0.10794448618684116,0.00038930604843862016,0.0015639662472750268,8.860067036614088e-06,0.0015860206335322092,2.309670835695979e-05,0.9860945149193517,0.015408504202748273,0.0004231728279233515,2.8419068500772417e-06,0,115.61751660840702,22,3
1,Y,1660,0.07823755284339445,0.0002845382984071192,0.0040446735376527595,0.0005317140446337674,0.11064460831801015,0.0004023979206219108,0.0015541264023397497,9.671559879060112e-06,0.0015975964307954978,1.9328839888324686e-05,0.972790357052749,0.01323517378709131,0.00043102903730968473,3.1068274058807815e-06,0,81.40438659411815,22,3
1,Y,1681,0.07579941329550131,0.00029301624998493027,0.004414110552609813,0.0005077863144924377,0.10719655830242147,0.0004143875547243936,0.0015741022607591072,9.969738536083723e-06,0.0015902656651654442,2.0685441585686948e-05,0.9898360350975348,0.014320522002676821,0.00042296430601350497,3.1384408680397545e-06,0,73.21341629637213,22,3
1,Y,1702,0.07379783654360994,0.0002687260603537793,0.005565069435308536,0.0004506579132806467,0.104365901313766,0.0003800360391154056,0.001620645772867486,8.35339288749008e-06,0.0016537339680797467,1.3191792296968999e-05,0.9799918270707824,0.009307319494829094,0.00042397149939952226,2.675629410334282e-06,0,115.80011218078695,22,3
1,Y,1734,0.07580285201864702,0.00025762018684377544,0.0045765327061336744,0.00046841030721170415,0.10720142139133138,0.000364329962175558,0.0015832058523384859,8.288267991272975e-06,0.0015858759044459702,1.7318522373538064e-05,0.9983163549556439,0.012090071995816723,0.00042542975779598634,2.6553302919851375e-06,0,89.88387051689126,22,3
1,Y,1755,0.08906375497853673,0.0003363210215700416,0.003985678769971384,0.0005982571722350987,0.12595517020652092,0.0004756297500155271,0.0013200455189958955,7.610377459057965e-06,0.0013184243448350957,1.7552683447992347e-05,1.0012296300255306,0.014525907882097063,0.0004167684554722522,2.872303777547141e-06,0,60.526000040161726,22,3
1,Y,1776,0.07656365455642905,0.0002818684627851063,0.003681032623101322,0.0005218890690050984,0.1082773586585506,0.0003986222028759534,0.001559107505890534,8.822268141425792e-06,0.0015797281964786873,1.7543689741787565e-05,0.9869466844776728,0.01230130887951723,0.0004231590655988574,2.8566348417483832e-06,0,59.96025956834589,22,3
1,Y,1797,0.074612374281581,0.00024734331079331894,0.0024449071561494966,0.0004245316747121827,0.10551783162986939,0.0003497962646861752,0.0016327495475527349,9.94265116534787e-06,0.0016471371978637938,2.474584643739767e-05,0.9912650565297666,0.016069174166634254,0.000431852426569215,2.9941950905409155e-06,0,124.21675624130779,22,3
1,Y,1818,0.08847340011707643,0.0003028544243659839,0.004478831826940071,0.0005167368632570182,0.12512028235483086,0.0004283008343630712,0.00132496889826458,7.822499367667802e-06,0.001336189817997861,1.6740048985348068e-05,0.9916023011235826,0.013733311977554041,0.00041555004522312856,2.835923534319609e-06,0,84.16289888179539,22,3
1,Y,1839,0.09423138875976773,0.0003012753800791189,0.004328816157369585,0.0005480301833622305,0.13326330798531516,0.0004260677285169989,0.0012213601499909245,6.99601614190232e-06,0.0012420119908475497,1.4125067863091524e-05,0.9833722693429615,0.012522063335218403,0.00040798506908180487,2.6763509847307196e-06,0,56.57911760390203,22,3
1,Y,1860,0.07716266934831321,0.0002744993388859455,0.004079801780548845,0.00046191525994225324,0.10912449350129527,0.00038820068791495244,0.0015521547407277656,8.937370683303491e-06,0.0015651157724227752,2.0278333126285452e-05,0.9917188032199393,0.014060895732907652,0.0004245679343566098,2.873613361790298e-06,0,91.23541107526123,22,3
1,Y,1881,0.0758246271510923,0.00025065277863072475,0.0027051352766936853,0.00046352816633002175,0.10723221607895794,0.0003544765589860721,0.0015993316270391268,8.059367354417624e-06,0.0016294947490757912,1.3987169681724805e-05,0.9814892793893493,0.009769360716781625,0.0004298864347995418,2.59080061130934e-06,0,82.56989148128551,22,3
1,Y,1916,0.07824284736610974,0.00027665851054027064,0.0033621756099201125,0.0005376360684341212,0.1106520959038404,0.00039125421775199065,0.0015042250740275487,7.691058744254383e-06,0.0015287987490567845,1.492625186774162e-05,0.9839261544108425,0.010844016608602462,0.00041721739040738687,2.5936370176793276e-06,0,83.47142458780338,22,3
1,Y,1937,0.08944136663933108,0.0003192575231015323,0.004279487209964724,0.0005875842943481195,0.12648919373852652,0.00045149831905982873,0.001281701463739494,8.405586700617671e-06,0.0013044069634027685,1.7088789344984706e-05,0.9825932394564627,0.014395596158853257,0.00040637804696650457,3.0342686801680808e-06,0,98.44203761242603,22,3
1,Y,1958,0.07527002114836784,0.00029069947498687183,0.003940595441700183,0.0005160177613671687,0.1064478847481315,0.00041111114010117245,0.00158579994925682,9.501787340790442e-06,0.0016136252691732473,1.8868787205382053e-05,0.9827560212101265,0.012912588236726622,0.0004231315118122449,3.016346856876052e-06,0,87.30757661339595,22,3
1,Y,1979,0.0747039915005843,0.00025754435363228124,0.004471941552285005,0.0005062297621447205,0.10564739794353073,0.00036422271781938464,0.0015812711157175954,9.66829251628442e-06,0.0016093694147697004,1.8050919441993263e-05,0.9825408021339055,0.012551395831762185,0.00041875024790736045,2.9393036777459227e-06,0,83.09168810089146,22,3
1,Y,2000,0.07557221796020525,0.0002676955791850424,0.004249653230673659,0.0004672897826231357,0.10687525557793787,0.00037857871867080783,0.0015866960093715889,9.18328829758349e-06,0.001614192968773313,1.803651505605261e-05,0.9829655066440909,0.012369319628953268,0.00042507036695996604,2.884369816858765e-06,0,104.02726145490026,22,3
1,Y,2021,0.07534202471246683,0.0002721889127604632,0.005075347504877387,0.0004683493691483021,0.10654971316501949,0.0003849332519534343,0.0015782141693439994,9.20187708380992e-06,0.0016149727939222265,1.7300365422516906e-05,0.9772388583160261,0.011918817700423079,0.0004215102668169556,2.8911776223678997e-06,0,149.5308811748195,22,3
1,Y,2042,0.0767741390131144,0.00028351361363938485,0.003045040818286309,0.0005359117890387016,0.10857502863186375,0.0004009487975262238,0.001532135629753717,1.0580141705765493e-05,0.0015608073374635204,2.0441453101380312e-05,0.9816302069950555,0.014533755649237442,0.00041698179922423434,3.265335275353336e-06,0,146.15983312976417,22,3
1,Y,2063,0.07466382119558682,0.00027843267673109364,0.0029341863465556293,0.000483041030489249,0.10559058855339865,0.00039376326764095637,0.0015994669108872351,1.0222323994068256e-05,0.0016391436057023856,2.427254377311854e-05,0.9757942533667459,0.01573798209397396,0.0004233410716014523,3.1325092805555645e-06,0,128.3160221486947,22,3
1,Y,2095,0.07547868931258497,0.00024950377798784763,0.004255969308320563,0.0004685687650782368,0.10674298609600286,0.0003528516266937398,0.0015563862429642708,9.065270667976451e-06,0.0015788121410403927,1.8100380330305023e-05,0.9857957147065364,0.012676642482175407,0.0004164344649696564,2.7889501632532214e-06,0,101.98320136463207,22,3
1,Y,2116,0.07446862655113051,0.00025096690575676623,0.004120477803155875,0.0004521523625600963,0.10531454163990595,0.0003549208018280292,0.0015949857695424805,9.153645139320106e-06,0.0016312322628575149,2.5418007422446975e-05,0.9777796858605902,0.016236378274905483,0.0004210513738291042,2.8022501219157274e-06,0,94.82816517426414,22,3
1,Y,2137,0.07505657476009558,0.00027261984362915746,0.004696433932429053,0.0005100523089901449,0.10614602597099732,0.0003855426802323869,0.0015780394094427083,8.154546201130915e-06,0.0015782783268213202,1.7811991711693095e-05,0.9998486215171609,0.012410634456363819,0.0004198667836595678,2.6520180334702408e-06,0,91.11786570900642,22,3
1,Y,2158,0.07471756721635497,0.00025613775743191675,0.0037311890082650095,0.0004880755842953082,0.10566659690489255,0.0003622334903960467,0.0016061544083478235,9.333003675380082e-06,0.0016303473525160481,2.1086706258698752e-05,0.9851608651795039,0.013968809879087581,0.0004254171061115139,2.8701264980753428e-06,0,83.80991293688291,22,3
1,Y,2179,0.07594312391563546,0.0002966677694019139,0.0042623394885101095,0.0005230916643167689,0.10739979581047221,0.00041955158300716056,0.0015494306388768259,9.963692386167273e-06,0.0015868316879237713,2.0171973521579056e-05,0.9764303616246274,0.013910265334124842,0.00041712433706052223,3.138491560277965e-06,0,106.48646258129422,22,3
1,Y,2200,0.07532614163666704,0.0002813768206257237,0.00450593392963858,0.0004825351253131896,0.10652725110381123,0.0003979269158663201,0.0016051436607520727,9.600576873195447e-06,0.0016640975130517504,1.8785501450777807e-05,0.9645730782978195,0.012322727645406843,0.0004286122334152396,3.022476435817894e-06,0,114.59726993790615,22,3
1,Y,2221,0.0757900471462067,0.0002725388403304677,0.004811908940429803,0.00043522773953277193,0.10718331256706182,0.0003854281242687829,0.0015511060788420928,8.709385998999837e-06,0.0015536605250025637,1.8622944929974584e-05,0.9983558530841435,0.013214693026795959,0.00041673368765504404,2.778669944267762e-06,0,109.00453501830546,22,3
1,Y,2242,0.07385232773571151,0.00025447680387887314,0.0038218237685283436,0.00047944447632392755,0.10444296349666593,0.00035988454735486064,0.0016202650779417616,8.64763214171831e-06,0.0016350115773046691,1.4778008479038995e-05,0.9909807981988621,0.010401966082064685,0.0004241848876486902,2.6947796299577975e-06,0,126.19350956258052,22,3
1,Y,2274,0.07563605841897032,0.0002558741408263642,0.00438452836587039,0.00048284159486507405,0.10696553962055155,0.0003618606802172075,0.00156579140231773,7.83451067970924e-06,0.0016008661049472486,1.2234065017449302e-05,0.9780901709886135,0.008934306100307416,0.0004198244470693978,2.535681751405191e-06,0,79.7956749574838,22,3
1,Y,2295,0.07605655303522384,0.00025121904471619365,0.003439094784748114,0.0004910202124393193,0.10756020880976214,0.0003552773801640541,0.0015950525179971877,7.742055897579872e-06,0.0016345593894335187,1.909353446349573e-05,0.9758302624598898,0.012343716442990357,0.0004300476292602509,2.5248407856194534e-06,0,78.33666095189159,22,3
1,Y,2316,0.07478010900911994,0.0002698369809878545,0.00483620115380972,0.00047150410630601535,0.1057550443564359,0.0003816071181428349,0.0015988898718864563,9.820081365838005e-06,0.0016420915250811398,1.8588116857504246e-05,0.9736910808351265,0.012539814510402095,0.0004238474526998293,3.0192237132476663e-06,0,119.35117317242693,22,3
1,Y,2337,0.08366621005615278,0.000303346436026608,0.004661230987848255,0.0005395845105700002,0.1183218889737675,0.0004289966439263715,0.0013933642970263625,8.665719250272692e-06,0.001451400749641995,2.03114430012701e-05,0.9600134886040621,0.014701749487420538,0.00041325651291427467,2.97501431220255e-06,0,79.7977838806281,22,3
1,Y,2358,0.08822416493131674,0.0003517354574747619,0.0038687003523725284,0.0006148901838455214,0.12476781057490893,0.0004974290543283133,0.0013030751776728208,8.986533442467731e-06,0.0013515871608635963,2.5053342698345473e-05,0.9641073956637922,0.01906770825414621,0.00040753222939707355,3.246353543054549e-06,0,61.21718193342,22,3
1,Y,2379,0.07615826050636539,0.00027143686284569144,0.004807320322358076,0.0004943472795320821,0.1077040448948452,0.00038386969276438254,0.0015773167841772074,9.627255390475975e-06,0.0016135394828860744,1.7488627182933287e-05,0.9775507825540922,0.012159817875262267,0.00042583452815648143,3.009792494466757e-06,0,67.05124304365205,22,3
1,Y,2400,0.07479531968431322,0.0002642265705575009,0.0036022235134473626,0.0004906017635848089,0.10577655549958709,0.00037367279962174926,0.0015798032115744553,8.204728128794768e-06,0.0016006781349533383,1.2466695226111522e-05,0.9869587002389512,0.009239087596105183,0.00041887298062111137,2.630984982252615e-06,0,99.25838530872782,22,3
1,Y,2421,0.07414523093805478,0.00029576141123639586,0.004881738926543554,0.0005001680573003944,0.10485719117788228,0.00041826979899711736,0.001611583304968202,9.811741611673284e-06,0.0016489937755014693,2.41529347990847e-05,0.9773131523665755,0.015502162335970453,0.00042358533304139414,3.0831261761486905e-06,0,113.56946309493135,22,3
1,Y,2453,0.0771722914133338,0.0002475467951616183,0.003772826150385751,0.0004607855367353678,0.10913810115614542,0.0003500840350395551,0.00153448576156084,8.322353552734758e-06,0.0015388567938932976,1.613568266553289e-05,0.9971595587387966,0.011771575407358795,0.00041978719853753144,2.6451353761136844e-06,0,86.94300760580462,22,3
1,Y,2474,0.07415426083834167,0.0002634656782847305,0.004487282968611756,0.00046248369831636943,0.10486996138533489,0.00037259673545009253,0.0016317232087280456,8.857160833818011e-06,0.0016503378219839952,1.5016249870797438e-05,0.9887207255338961,0.010475503293272672,0.0004289310967959523,2.7826913795684445e-06,0,99.92586387715477,22,3
1,Y,2495,0.07604327950505493,0.0002777542555304714,0.004252402114174187,0.00048006592416723434,0.10754143720337672,0.00039280383517803497,0.001542838579020563,9.3319991901723e-06,0.0015562789968616686,1.7083650416520124e-05,0.9913637478445645,0.012425125416562037,0.00041589745261828853,2.938685606691948e-06,0,109.10899217883463,22,3
1,Y,2516,0.07390624776812017,0.00026345338940696276,0.004553060622572811,0.0004550440190568792,0.10451921793778185,0.00037257935635248707,0.0016295696056440208,8.551002963327532e-06,0.0016437390073222615,1.577788407030763e-05,0.9913797740303533,0.01084515650743027,0.0004269322885147898,2.708321573891808e-06,0,85.9188564771361,22,3
1,Y,2537,0.07548850546237806,0.0002616675673305673,0.004180571223633888,0.0004630464604660838,0.10675686822817054,0.0003700538225520633,0.0015732702022015137,8.22338845660616e-06,0.0015960583886255116,1.7788974567418302e-05,0.9857222100479528,0.0121345785703771,0.00042100676693061545,2.64049778425433e-06,0,122.58650028827935,22,3
1,Y,2558,0.07348583443825106,0.00022501080358195205,0.004393715508356205,0.00043161991927084337,0.10392466370487852,0.00031821333010606523,0.0016487411545556422,8.861523088940551e-06,0.001675348493211287,1.9933942707515322e-05,0.9841183259701125,0.01284865151120924,0.00042949789591410005,2.6567571530853373e-06,0,123.93041580001182,22,3
1,Y,2579,0.07559561594615546,0.0002651263641421127,0.0037460675362092385,0.000492300462025605,0.10690834532700089,0.00037494529991244363,0.001582618482684813,8.07264892956981e-06,0.0016187019408165104,1.3903534588853371e-05,0.977708398796695,0.00976703827176978,0.00042410927991265007,2.625320621195395e-06,0,103.45085064912938,22,3
1,Y,2600,0.07364535742335343,0.0002661227504624459,0.004356464291917674,0.00044642242335822535,0.10415026327392052,0.00037635440296002187,0.0016359335568940573,9.609077435233194e-06,0.0016585288948048785,1.8504972257491802e-05,0.9863762772046974,0.012437339574777844,0.00042708662134710503,2.9453166678492547e-06,0,116.80839978951748,22,3
1,Y,2632,0.07818529505547553,0.00029554279089064544,0.004002899315200114,0.0005542284089387356,0.1105707046455956,0.0004179606231391464,0.0015067411960847175,8.475044961624065e-06,0.001514557349199063,1.7192432482223215e-05,0.9948393151844142,0.01260322050684988,0.00041760786949428697,2.830089442607518e-06,0,70.15218036440601,22,3
1,Y,2653,0.07458426361834133,0.00023456127379086744,0.003003811884612598,0.00045855348689258435,0.10547807714866853,0.00033171973460255355,0.0015937513417884227,8.774231091348063e-06,0.0016133968680963646,1.3356304204674015e-05,0.9878235004068643,0.009820817276075386,0.0004213788190507107,2.671683814284083e-06,0,106.90180390148026,22,3
1,Y,2674,0.07982834167582821,0.0003035387320108411,0.004428910876483474,0.0005666153517327433,0.11289432345970962,0.00042926859151526386,0.0014436997010298046,8.282049499028247e-06,0.001463058773691414,1.7204488745515498e-05,0.9867680827252312,0.01291082423046402,0.00040854406522853855,2.8117728950835996e-06,0,76.41703489995632,22,3
1,Y,2695,0.07377706933609252,0.00024683399085637396,0.004005954279437624,0.0004678787065778369,0.10433653204724225,0.00034907597752376063,0.0016653245305911777,8.468422223672242e-06,0.0016803707031416701,1.7878233715125046e-05,0.9910459206874045,0.011686646226381069,0.00043553715610249736,2.6511395681582527e-06,0,74.79062531958321,22,3
1,Y,2716,0.08012881120530543,0.00028812671570907625,0.003692902736310995,0.0005255104299623065,0.11331925154337619,0.00040747270903779276,0.0014484835522775147,7.953710338449513e-06,0.0014598248216590956,1.6004390806009073e-05,0.9922310751171559,0.012166229365710487,0.0004114406521460023,2.7005516992792933e-06,0,47.60122542282644,22,3
1,Y,2737,0.0743056379906113,0.00025807773379029665,0.004985209124296726,0.0004846891260441131,0.105084041007108,0.0003649770312727507,0.001668811673425107,9.04179180206564e-06,0.001704347511748192,1.7968141710786035e-05,0.9791498869343641,0.011606162832022492,0.0004395760563329719,2.829002021288938e-06,0,122.51152024646679,22,3
1,Y,2758,0.07575583636985166,0.0002698235836036147,0.00308764723046755,0.0004939663899751141,0.1071349312231612,0.0003815881713803426,0.001559829736973823,9.799202424973555e-06,0.0015940631305500497,2.0514705109822147e-05,0.9785244430285431,0.014013376457802219,0.00041888829487407727,3.0250709116762606e-06,0,107.82640797619972,22,3
1,Y,2779,0.07385452879411994,0.0002627880156746722,0.0036424576562163542,0.0004911735471914189,0.1044460762633187,0.00037163837579623493,0.0016420358255341521,9.273034270113503e-06,0.0016666145368559313,1.827065855530378e-05,0.9852523119304197,0.012149938164368289,0.0004298972745838488,2.86946153643456e-06,0,81.07460680368942,22,3
1,Y,2818,0.07646390072854316,0.0002732574590935629,0.004149726082517784,0.00048311996454863726,0.10813628544225573,0.00038644440466972796,0.001584863547266313,8.995792990768053e-06,0.0016018974588875611,1.8710152115075167e-05,0.9893664157298324,0.01284805707378047,0.0004295891043731059,2.8814168301205734e-06,0,98.90456442250016,22,3
1,Y,2839,0.07497441886014275,0.0002531592412034989,0.0031909061306142393,0.0004413076087844601,0.10602983998305504,0.0003580212323500698,0.001633993495278916,8.574811654047903e-06,0.0016666772722810376,2.2537941332659544e-05,0.9803898585852856,0.014220786013471775,0.00043427853438708647,2.7099991929503984e-06,0,86.228458775899,22,3
1,Y,2860,0.07560137920411479,0.0002527353347119883,0.004378249443910096,0.0004856745491481678,0.10691649580457041,0.0003574217380405975,0.001591972608352427,8.849864816178667e-06,0.001622738045036353,1.6132049798655438e-05,0.9810410332228102,0.011174036633966666,0.0004266485180027361,2.767589236804187e-06,0,85.20627872142278,22,3
1,Y,2881,0.07431308443612956,0.00027116537154405715,0.004727320039638813,0.0004882990228496463,0.1050945718713514,0.000383485746083545,0.0016509688178565575,9.33634467965373e-06,0.0016908726402337728,1.7338644646949095e-05,0.9764004565289445,0.011433879941229477,0.00043491971046787786,2.92706842399266e-06,0,129.1887994961469,22,3
1,Y,2902,0.07578017504770479,0.0002625577894032988,0.004063117682491448,0.00048637398155502185,0.10716935131147132,0.0003713127866808441,0.0015949350071500835,9.892353753393206e-06,0.0016233776603198763,1.7158330875189197e-05,0.9824793368388546,0.012040246098476117,0.0004284533339716115,3.0439358877875594e-06,0,108.218900286363,22,3
1,Y,2923,0.07408419757023539,0.0002624192699128218,0.004468903868236225,0.00042518830057874425,0.10477087696135479,0.0003711168905387585,0.0016385119788264347,9.58159297337681e-06,0.0016861759322058505,2.1188928381946475e-05,0.971732514698474,0.01346847234220177,0.00043030870721596706,2.941973801895609e-06,0,66.85221780427628,22,3
1,Y,2944,0.07544267060668294,0.00026639756660129125,0.00408526538444474,0.00044445940839010723,0.10669204795361709,0.00037674305167073596,0.0015568098320917312,9.088091293161919e-06,0.001590601028586146,1.9322816982509865e-05,0.9787557056187427,0.013191612011178883,0.0004163490244580179,2.8405520235479275e-06,0,93.16173623480601,22,3
1,Y,2965,0.0751470736102221,0.0002805787481168404,0.0040604051167316335,0.000503637584186673,0.10627401067222542,0.00039679827090050024,0.0015948876057728686,1.0161281971198592e-05,0.001631377426073911,2.0608431937526616e-05,0.9776325087512955,0.01383177592255558,0.00042486121617982606,3.1374322002937304e-06,0,121.18768491352579,22,3
1,Y,2997,0.07787211120059302,0.0003121198318907901,0.005170886850026092,0.0005417560233264924,0.11012779579050447,0.0004414040993455659,0.0015461088938033146,8.970574837345634e-06,0.001567660392680321,1.6558411462977086e-05,0.9862524441022851,0.011885466224159308,0.00042680250475161897,3.0097450750516143e-06,0,64.50161310125236,22,3
1,Y,3018,0.07628789972949168,0.0002723745136070695,0.00401740957748917,0.0004875469949215485,0.10788738244240592,0.00038519573118789285,0.00158922175017388,9.644813396957585e-06,0.0016154613280658045,1.573882862901907e-05,0.9837572231312147,0.011291806700748109,0.00042977890078302,3.0261695509749466e-06,0,88.11951367039194,22,3
1,Y,3039,0.0755108800961261,0.00026794878094770934,0.0037867025792507145,0.0005182203094943928,0.10678851073867013,0.0003789368000375881,0.0016038507606907604,9.595610612628733e-06,0.001634135994969726,2.1806040942338354e-05,0.9814671273552561,0.01435289712017735,0.0004293173288349069,2.9863422124206106e-06,0,73.38358247884553,22,3
1,Y,3060,0.0744337287152068,0.0002689696108116821,0.004805517466443518,0.0005136883230249823,0.10526518864704515,0.0003803804714760939,0.001635361064547351,9.450710723923447e-06,0.0016630965834500467,1.6027195813940672e-05,0.9833229656180527,0.011049485867340088,0.00043150751229573424,2.941041308531046e-06,0,81.43710359452028,22,3
1,Y,3081,0.0753520427678302,0.00027077504423744667,0.00406482076475404,0.00046066071275568005,0.10656388083478296,0.0003829337399127719,0.0016025597827956305,9.08763052277187e-06,0.0016047758014289348,1.771170926627595e-05,0.9986191101390418,0.012391306072227276,0.000428069417843123,2.873803258116135e-06,0,128.7358296538877,22,3
1,Y,3102,0.07346121127525782,0.00025484288781077273,0.005177547045087515,0.00048432529649090195,0.10388984129382495,0.00036040226821631993,0.0016993439774526929,9.372747700756303e-06,0.0017241949994246388,1.7277237711544012e-05,0.9855868843255904,0.011273260957253645,0.0004425316262380884,2.8834379596693415e-06,0,115.82447260670263,22,3
1,Y,3123,0.07629106247394066,0.00026590117936402204,0.005419928004386487,0.0004961739557772904,0.10789185523849998,0.0003760410541076009,0.0015672499728097828,8.840210117086699e-06,0.0015932203157183573,1.913519306156342e-05,0.9836994653831884,0.013052681004335626,0.0004238545661763076,2.81037951429953e-06,0,94.08060302386106,22,3
1,Y,3144,0.07423699574679132,0.0002510218357112929,0.0039395295633426345,0.0004966122463634099,0.10498696621494608,0.0003549984845147014,0.001636655275146486,1.0235915530992013e-05,0.0016557674678031218,2.0848209783060424e-05,0.9884572000427125,0.013896688907589931,0.00043070759986737247,3.0622124679897403e-06,0,106.45793201583841,22,3
2,X,103,0.08966763588669825,0.0003194074936562729,0.003304590630655284,0.0006347917699598703,0.12680918677690112,0.00045171040945229946,0.0013316325521639386,8.110125775591016e-06,0.0013169686495432143,1.423617198497713e-05,1.0111345874678266,0.012545583647707923,0.0004232773745004942,2.986469220584219e-06,0,32.108553135846975,22,3
2,X,124,0.08603469565365936,0.0003029245005661701,0.0037816709895745534,0.0005793800965217253,0.12167143342804665,0.00042839993707577406,0.001598222374389645,8.82076966234868e-06,0.0016451999509890537,2.1477087561153577e-05,0.9714456734750284,0.01376843207833613,0.00048743393914802015,3.191026702453584e-06,0,86.49737472690306,22,3
2,X,145,0.08599957028816578,0.00034527410229373535,0.0011734028143285731,0.0006586541887782795,0.12162175865978231,0.0004882913181999959,0.0015717323968407278,1.109016472944884e-05,0.0016099248511864434,1.7870220984586594e-05,0.9762768713598219,0.012840846300736028,0.0004791591857698663,3.889941220444129e-06,0,70.34014291744545,22,3
2,X,166,0.08499297286909388,0.0002929344555125291,0.002756205739856875,0.0005912322713736572,0.12019821493788108,0.0004142718798721967,0.001607551952790817,9.060294512795929e-06,0.0015957358291600816,1.9657787108683652e-05,1.0074048118835277,0.013647338888972554,0.00048434293540140685,3.199754428509186e-06,0,99.14675908530909,22,3
2,X,187,0.08713690152174719,0.00034065198583513616,0.0017893760793601381,0.0005646162186516327,0.12323018791522367,0.0004817546584173771,0.0015494820251888673,9.650758950184455e-06,0.001569005327952395,1.9317432323268556e-05,0.9875568919902865,0.013625977000345294,0.0004786230252234747,3.519620833565261e-06,0,81.65704951554459,22,3
2,X,208,0.08609557695112868,0.0002937636352042689,0.0026591423241837764,0.0005205724708567783,0.12175753258462263,0.00041544451703789953,0.0014783080503825818,7.992723137803248e-06,0.0015033207713415278,1.8464747653212952e-05,0.9833616873818452,0.013196674205205764,0.00045118090876065676,2.884533947824419e-06,0,94.04094430399294,22,3
2,X,229,0.08638088838813958,0.00031330069518495894,0.0022788968263028194,0.0005642486820258978,0.1221610238883436,0.00044307409223148797,0.001551691695926662,1.0507687511327224e-05,0.0015758988520999356,2.1442998277928155e-05,0.9846391434697622,0.014965309080355286,0.00047514704669232295,3.650034374104592e-06,0,94.19738493189348,22,3
2,X,250,0.08476801030774928,0.0003092805436099685,0.0018488380100195425,0.0005361218491186186,0.11988006983260135,0.00043738873935134093,0.0016365956181986923,9.154596769320647e-06,0.0016538240498961208,2.0924289624308353e-05,0.9895826695116021,0.013689331683666942,0.0004917884281404535,3.28436708367301e-06,0,73.64919148885274,22,3
2,X,282,0.0866211910367222,0.00027048879699825964,0.0034947709438701235,0.0005518718249947382,0.12250086315304332,0.00038252892518492176,0.001581127431473655,8.49281229419782e-06,0.0015840511830476783,1.3846159066831668e-05,0.9981542568792519,0.010240512241707342,0.0004855075148103593,3.0165057042469853e-06,0,36.69427296589831,22,3
2,X,303,0.08506753869226165,0.000327610184916082,0.0035284820762927493,0.0005690103413302433,0.12030366693629446,0.0004633107666798808,0.0016204390109639296,1.0442569143099587e-05,0.001662685611149379,1.8228666611754317e-05,0.9745913479360387,0.012393976723152301,0.0004886540350384053,3.6684988048423137e-06,0,95.14100157576023,22,3
2,X,324,0.08533728164085885,0.00030260941666444786,0.002190858440303565,0.0005277264712957401,0.12068514107255512,0.00042795434114867303,0.0015679468857501334,9.773094484654836e-06,0.001595481856873576,2.274813378440157e-05,0.9827419089694954,0.015292206040509534,0.0004743239821826334,3.4014466025503097e-06,0,126.74656035261607,22,3
2,X,345,0.08430516057840551,0.00029011330883715213,0.0022561174619390384,0.0005031836358359461,0.11922550146802269,0.0004102821759824349,0.0016298777159565775,9.768967767202491e-06,0.0016784317303537746,1.8101783826710042e-05,0.9710717966545097,0.011981590763078195,0.00048709549617288576,3.3664702115289898e-06,0,109.89265854683643,22,3
2,X,366,0.08473086146543055,0.00028248178214461953,0.0015057043848938404,0.0004942373157104705,0.11982753343596775,0.00039948956743224295,0.001617362723754121,8.85871314513575e-06,0.0016434303047283623,2.6390326193220787e-05,0.9841383106425375,0.016697382347593645,0.000485796054666656,3.1149739341607744e-06,0,156.00097856582494,22,3
2,X,387,0.08419297778679273,0.00027386567750882723,0.0015782840683734095,0.00047189034272726273,0.11906685104265902,0.0003873045554014798,0.0016443474020587361,8.468358602842102e-06,0.0016263758134024485,2.1028138919309788e-05,1.0110500835712075,0.014071147406242037,0.0004907658997344212,2.9893738926765988e-06,0,127.96668303704743,22,3
2,X,408,0.0857460829923244,0.0003194290924306388,0.0012913719968506631,0.0005781757251797841,0.12126327348811416,0.0004517409547319384,0.0015677207393249909,9.493958543641334e-06,0.0016365284835276057,1.8694698312213126e-05,0.9579550585918939,0.012385721196412574,0.00047652745298006814,3.3880969458176266e-06,0,137.27238267993184,22,3
2,X,429,0.0845383841000893,0.00029925001799783834,0.0008324442116197287,0.0005452793533964269,0.11955532933545232,0.0004232034339929358,0.0016391112053011343,1.0049818291134529e-05,0.0016595112587034183,2.269339913781288e-05,0.9877071919245534,0.014802139515911845,0.0004912101063091621,3.477636793789131e-06,0,79.78144173742686,22,3
2,X,464,0.08650087815440205,0.000311158948302516,0.0032134279261070904,0.000620031626111383,0.12233071504313797,0.0004400452047431669,0.0015765846990291594,8.708414305463079e-06,0.0015795782841730348,1.5680406824764996e-05,0.9981048200181843,0.011338689689835002,0.000483440194316428,3.18666581479708e-06,0,32.32609440545702,22,3
2,X,485,0.0840778474741599,0.00025213689634534075,0.0037872775276931335,0.000495134703263202,0.11890403219309342,0.0003565754183862402,0.0016375071219934512,8.83572654186369e-06,0.001618690370702878,1.4539577409726295e-05,1.011624676115422,0.010600212933036354,0.0004880560650377979,3.012859645618132e-06,0,42.3443107881804,22,3
2,X,506,0.08461226900821894,0.0003146504585521386,0.005359061525897855,0.0006158118914178837,0.11965981837458395,0.0004449829458913479,0.0016188391284973356,9.973616360603653e-06,0.0016055662075280582,1.562648486747111e-05,1.0082668163461863,0.011614028674917086,0.0004855589532870311,3.494220212276244e-06,0,32.59350052389569,22,3
2,X,527,0.08449962103065348,0.00029441432656353,0.0056619025654705436,0.0005859755837907962,0.11950051007693696,0.00041636473358308557,0.0016229240379016725,9.57193669878701e-06,0.0016363129077920956,1.598327955285657e-05,0.9918176591856817,0.011317027998964188,0.0004861361151047241,3.33014280387923e-06,0,36.59662355483945,22,3
2,X,548,0.08428570954687056,0.00031340285309514775,0.003628049955479132,0.0005502702499272772,0.11919799355542382,0.00044321856533358073,0.0016154739649739468,1.073153885971413e-05,0.0016402179900215027,2.0855272378492166e-05,0.9849141850668084,0.014129268841649686,0.00048267948704799137,3.6745525870887153e-06,0,33.60265631574859,22,3
2,X,569,0.08263117198368167,0.0002599977062237909,0.005306810065295795,0.0005111437524836236,0.11685812409410634,0.0003676922823275808,0.0016665089104446352,9.007451249878208e-06,0.001652741563811777,1.418498533767256e-05,1.0083300056913351,0.010227298776177177,0.000488153586691068,3.05297822367852e-06,0,44.348944749365245,22,3
2,X,590,0.08438020438577432,0.0003037962381258527,0.004629802086131811,0.0005938898448469408,0.11933162943817577,0.0004296327601555072,0.0016295411280577844,1.090091345170151e-05,0.0016304219805430282,2.187481784793639e-05,0.9994597395669614,0.014983797913021051,0.0004874284015521963,3.702934323698974e-06,0,27.13471023352478,22,3
2,X,611,0.08381091691109646,0.0002713481370087764,0.0037344833043851133,0.0005051419582847991,0.11852653537059721,0.0003837442154824844,0.0016484486703540592,8.833442597430773e-06,0.0016657571899997958,1.484897767126614e-05,0.9896092181083495,0.010292834601793775,0.0004897573389231387,3.0662572985065868e-06,0,61.392230294298905,22,3
2,X,643,0.08667927511700031,0.00025915121812266484,0.0030539132859521245,0.0004962705375498575,0.1225830064471306,0.0003664951673745809,0.0015490348281387294,7.672623029203908e-06,0.0015601276687296104,1.3089912122808093e-05,0.9928897866416831,0.009673960819380507,0.00047597197803524107,2.753758631013983e-06,0,50.77004034576432,22,3
2,X,664,0.08375687926382165,0.0002805367808222975,0.003938370316418393,0.0005622743456207631,0.11845011459694244,0.0003967389201833815,0.0016124961936756974,8.89904669738796e-06,0.0016305608149671162,1.9883314809447468e-05,0.9889212219957689,0.013236578134991921,0.00047876690015364416,3.0907646845093767e-06,0,72.48647282084616,22,3
2,X,685,0.08530139453845459,0.00030160939101090745,0.00495047114102123,0.0005685662361289304,0.12063438904562074,0.0004265400913067152,0.0015779216674113535,9.634723095655852e-06,0.0015735582681695387,1.930085158704259e-05,1.0027729505351528,0.013739490580707,0.00047714074356439704,3.3666214326741293e-06,0,46.60337959957289,22,3
2,X,706,0.08540723214413226,0.00032011615541249945,0.004507618668718478,0.0005988101771435646,0.1207840660229792,0.00045271260851909023,0.0014825504747123341,8.394565779798957e-06,0.001484774613774106,2.1372532872137367e-05,0.9985020359042114,0.015444912307116575,0.00044885810107634467,3.0479216949351894e-06,0,26.228248102371897,22,3
2,X,727,0.08424524084525689,0.00030159282382254485,0.005494013340166788,0.0006233095302814594,0.11914076216875014,0.0004265166617642424,0.0016143298141745273,9.568383250880901e-06,0.0015979467631993954,1.5956782036007178e-05,1.0102525636976352,0.011731439535917907,0.0004821060436586386,3.338288681496784e-06,0,44.2502113183265,22,3
2,X,748,0.08334187483114851,0.00028881539630087,0.0038719980856643283,0.0005395856232884777,0.11786320969981112,0.0004084466504708506,0.0016603790828204543,9.647820574778254e-06,0.0016554501831274409,1.662085979957474e-05,1.0029773772374726,0.011634819580211763,0.0004905411575397022,3.3187720523390776e-06,0,31.531938824040676,22,3
2,X,769,0.08489003440323237,0.0003416025453277473,0.003980029440584513,0.0006210211086369699,0.12005263796336985,0.0004830989525436702,0.0015823465073430446,1.04485738227388e-05,0.0015663088299327972,2.434811415055403e-05,1.0102391540568252,0.01706216955282869,0.0004761713202910118,3.682116152730048e-06,0,45.91722906014372,22,3
2,X,790,0.08379857990765112,0.0003231556517852103,0.005426866316585609,0.0005968556111183574,0.11850908821300576,0.00045701110551216173,0.0016538424349616658,1.0719489328290749e-05,0.001643272414733713,2.204587234767089e-05,1.0064322994368926,0.014995346228821848,0.0004912875086041656,3.7052995198314517e-06,0,41.31307526047133,22,3
2,X,822,0.08898799322827429,0.0003176856911321145,0.003240652598638123,0.0005945986186884133,0.12584802691179064,0.00044927541297090645,0.0013826886837793725,8.055400710063363e-06,0.0014101830283350858,1.4608809487885236e-05,0.9805029957081712,0.011653581362359009,0.00043617498378913344,2.980254758837167e-06,0,39.91005901035942,22,3
2,X,843,0.0840744269344583,0.0002908775698149281,0.0038781570905816703,0.0005341102599424944,0.11889919481945677,0.00041136300422239813,0.0015674362418965613,1.0186995696832055e-05,0.0015495605616681098,1.98250941690997e-05,1.0115359674675821,0.014515650179456632,0.0004671525587731791,3.4394881240230905e-06,0,27.65672499279486,22,3
2,X,864,0.08518390658255678,0.00031328637071058015,0.005597358496320805,0.0005702198893789507,0.12046823598497458,0.0004430538343655477,0.0016019641788512632,1.0431431428711785e-05,0.0016443496623939685,2.125223575823286e-05,0.9742235580959118,0.01409906347439169,0.00048374365971723903,3.6176636481415574e-06,0,65.25478881309401,22,3
2,X,885,0.08377751514858993,0.00026698175601068955,0.0036677472142865506,0.00048366427454025427,0.11847929814505331,0.00037756922025650175,0.001668416942780335,9.71327893722614e-06,0.0016773738523643774,1.9577982894036075e-05,0.9946601590507583,0.012973550487185488,0.0004954924010436367,3.2885782203866455e-06,0,35.07009484476103,22,3
2,X,906,0.08464366906359927,0.0003052296572841368,0.004526268988000912,0.0005773460563096075,0.11970422475876208,0.00043165992096971806,0.0016103517570728503,9.339460707201394e-06,0.0016167379205167935,1.8433308945244768e-05,0.9960499699036552,0.012741306654574108,0.0004831924770554443,3.299870423284384e-06,0,38.33562417922983,22,3
2,X,927,0.08440770992222187,0.00029766664462221447,0.0046393119390020394,0.0004838935569330964,0.11937052814086024,0.00042096420589082806,0.0016499133257937154,9.760659705299455e-06,0.0016375536195191835,2.2170389801297122e-05,1.0075476650823567,0.01488630881819046,0.0004936830081997288,3.400105848444778e-06,0,48.10017298004081,22,3
2,X,948,0.08484088936898806,0.00028577574234131553,0.003760915329187555,0.0005685307987170153,0.11998313638941827,0.0004041479306163276,0.0015921002134784631,9.861394565136278e-06,0.0015873918218259479,1.8511797432012248e-05,1.002966118123942,0.013243784033807257,0.00047882910998350614,3.376033671037748e-06,0,48.79563721966026,22,3
2,X,969,0.08402416213062872,0.00027507832379034767,0.0045368947894589805,0.0005311166035521081,0.11882810965217094,0.0003890194962191673,0.0016554563955620064,9.041615285889484e-06,0.0016668673403032266,1.7045689256508886e-05,0.993154257411304,0.011513953498500373,0.0004930907646546939,3.139869228742736e-06,0,30.36215311511475,22,3
2,X,1018,0.08419176869546667,0.00030400191778015676,0.0027824004084086792,0.0005698501394644479,0.11906514112930755,0.0004299236351121283,0.0016397966632799108,1.1737862518928593e-05,0.0016318071142968254,2.3941737016751004e-05,1.0048961356480715,0.01640487366639773,0.0004894006745545464,3.923661819162255e-06,0,32.92658318826592,22,3
2,X,1039,0.08346784207493,0.0002875645330392142,0.003770668153096174,0.0005293944805171948,0.11804135428438167,0.0004066776626815427,0.0016853224363185006,9.70135231900461e-06,0.00167489103866789,1.8512011427375358e-05,1.0062281052377635,0.012539447800860547,0.0004986629709658996,3.3453328186264188e-06,0,33.02930298312334,22,3
2,X,1060,0.08417644764712388,0.00028093635959745925,0.0037154294237907743,0.0005469257351179172,0.1190434738949514,0.00039730400990645176,0.0016607317292540134,8.693014730777705e-06,0.0016499942856606448,1.8504301597922368e-05,1.0065075641089687,0.012456744016785065,0.0004955585907290504,3.076383527893837e-06,0,33.10317963545219,22,3
2,X,1081,0.0830656758451337,0.00026988742842713124,0.0032485734190880336,0.0005498134578640804,0.11747260534787529,0.000381678461595647,0.0016336995309485785,9.967801936439207e-06,0.0016126681213926208,1.9724708920053946e-05,1.0130413748972702,0.013846706531954484,0.00048105941557013797,3.3253436275812418e-06,0,27.82641660039299,22,3
2,X,1102,0.08391658124973349,0.0002918036271270304,0.003286562217973987,0.0005265456533239306,0.11867596731135688,0.000412672647032708,0.0016482032964096095,1.0600120819341756e-05,0.0016278163517723463,2.0422721089714112e-05,1.0125241060608994,0.014275013260091703,0.0004903018058912038,3.584690288474231e-06,0,45.69031964903964,22,3
2,X,1123,0.0834544964046677,0.00028743115704680947,0.003003588650440881,0.000559949325403075,0.11802248065649779,0.000406489040544189,0.0016973127641824372,1.0264664174734762e-05,0.0016893851074557382,2.179279336919733e-05,1.0046926285141926,0.01431393459069216,0.0005021304402160054,3.494615556819172e-06,0,40.71565095766694,22,3
2,X,1144,0.08382804110631464,0.0002926285843135791,0.0022958044720927957,0.0005506105897939145,0.11855075263971948,0.0004138393126743023,0.0016578488298468104,9.688738899630315e-06,0.0016644608025848104,1.5404801213343955e-05,0.996027558757928,0.010902370174244197,0.0004926507823223236,3.3536481367473766e-06,0,28.766547249265564,22,3
2,X,1165,0.0844994753911662,0.0002919447494683088,0.003850858344278252,0.0005394652650066811,0.11950030411159884,0.0004128722241616978,0.0016467705946747273,9.790772291535967e-06,0.0016488319463410833,2.126544151549656e-05,0.9987498109368087,0.014183934288308189,0.0004932783425904377,3.391990064643975e-06,0,16.862636876458616,22,3
2,X,1197,0.08478329469361788,0.00027467174643560266,0.0031992921674971956,0.0005530912659964301,0.11990168521838929,0.0003884445090099331,0.001645659333807301,1.018215002084307e-05,0.0016206180501858632,1.6776675008601704e-05,1.0154516874710646,0.01224648088393164,0.0004946011919827553,3.454356437296247e-06,0,40.50896912648352,22,3
2,X,1218,0.08217609945237998,0.0002459342578749759,0.002993535068627179,0.00045946215642569114,0.11621455434847605,0.0003478035629389531,0.001729687492960664,7.927303817843002e-06,0.0017416437513042542,1.1054593328552933e-05,0.9931350723506821,0.007775165923127812,0.000503869534596049,2.758028380745738e-06,0,33.62377614311447,22,3
2,X,1239,0.08461945611420914,0.0003058886981085513,0.004997048380848722,0.0006092409066579215,0.1196699824773495,0.0004325919454417626,0.0016530369100543605,1.1208741945335031e-05,0.0016373015415488217,2.4564866272354208e-05,1.0096105501071315,0.016622610259569546,0.0004958584431350909,3.810218487401287e-06,0,45.756006025978266,22,3
2,X,1260,0.08262511604183338,0.0002817359175015374,0.003269067045776096,0.0005138041435177676,0.11684955969901156,0.00039843475553830165,0.0017016980620149997,9.80322425198705e-06,0.0016724620962859406,1.82324025592352e-05,1.017480794209916,0.012545617319970172,0.000498424657038181,3.33662359698427e-06,0,37.33757635806686,22,3
2,X,1281,0.08378022575008606,0.0003153784262861343,0.004059939863701953,0.0005938936411883075,0.11848313151445133,0.0004460124477337346,0.0016540970393954081,1.1161414478205167e-05,0.001687658158795642,2.3534639936114328e-05,0.9801137930538113,0.015183828551371199,0.000491255519117063,3.795798150553213e-06,0,45.152952629244254,22,3
2,X,1302,0.08206813991020143,0.0002482286400891737,0.0038050058728633703,0.0004924762144067408,0.11606187649973954,0.00035104830938353926,0.0017459213813432412,8.886268578126816e-06,0.0017624632825565037,1.8970211664601475e-05,0.9906143286064558,0.011794449422047106,0.0005079303991941241,3.0072718972538558e-06,0,34.74725388770641,22,3
2,X,1323,0.0845945461969974,0.0002804683288649,0.003495263377400511,0.0005631083912469532,0.11963475453459105,0.00039664211449685904,0.0016365029181446297,8.972876954921295e-06,0.001607493048860973,1.3003735275646491e-05,1.018046653019254,0.009948875558224,0.0004907542632743009,3.1444669833221943e-06,0,57.817105156110976,22,3
2,X,1344,0.08457949794531482,0.00027266453870715125,0.0037765799617363515,0.0005552922706818966,0.11961347309297155,0.00038560588861785705,0.0016511654628958794,8.919702634618696e-06,0.0016559074203405873,1.3741264954767564e-05,0.9971363390329319,0.009873390609219998,0.0004950631842516307,3.1143752584595844e-06,0,26.66860900551067,22,3
2,X,1376,0.08548795108827706,0.0002684528665064903,0.0020857218442544103,0.0005631567866300951,0.12089821984852922,0.0003796496846714126,0.0015900821274916481,8.203407677929078e-06,0.0015782540927956694,1.3194177202339525e-05,1.0074943792320707,0.009897355459720295,0.000481869453478995,2.910329169832241e-06,0,26.967953067696794,22,3
2,X,1397,0.08778018639406872,0.00030764257518269824,0.0016572410075495877,0.000580175473597591,0.12413993010613023,0.0004350723021867564,0.001460503516033698,8.75354653343531e-06,0.0014618838135927858,1.674761138839186e-05,0.9990558089868335,0.012917075720809777,0.0004544687622924852,3.1553706427091164e-06,0,52.58642862968439,22,3
2,X,1418,0.08535268816527257,0.00029973780190719983,0.0016290562418961503,0.0005860622916651365,0.12070692918833004,0.0004238932646130622,0.0016233417243679915,9.131935011693323e-06,0.0016452372036798743,1.5975932434568327e-05,0.9866915972584929,0.011072823607791056,0.0004911702875277519,3.2572210249571065e-06,0,38.0038182454653,22,3
2,X,1439,0.08717415531026346,0.0003491719964786093,0.001792530670734651,0.0006364406032376787,0.12328287272819316,0.0004938037730209399,0.0013739085268213958,9.017974790254077e-06,0.0013763922311942583,2.0659954331988485e-05,0.9981954966639797,0.016353033297576234,0.00042457116824485175,3.26468184484354e-06,0,23.269449171042414,22,3
2,X,1460,0.08519808039149987,0.000299545940481578,0.0026997852486791464,0.0005261573817856523,0.12048828077781237,0.00042362193158285155,0.001597033925902335,9.776905178615869e-06,0.0015793537636242605,2.2110220651030064e-05,1.0111945548143073,0.015450604749528956,0.0004823351184592103,3.4051365156123458e-06,0,42.36839131384441,22,3
2,X,1481,0.08408865081351564,0.00029170105446887185,0.002209407673725947,0.0005000935245744704,0.11891931042212922,0.00041252758738841155,0.0016568391874083558,9.82750099802612e-06,0.0016467614555920789,1.7858733511558897e-05,1.0061197277735976,0.012436520181977752,0.0004938814042189321,3.3936574021749695e-06,0,53.806910471905155,22,3
2,X,1502,0.08502205017231021,0.00026333037945857756,0.001810188755788881,0.0005174504631706979,0.12023933645444684,0.0003724053940151739,0.0016073117351053964,1.0032625586670038e-05,0.0015828357459145431,1.854142604155956e-05,1.0154633790992074,0.013478531216897287,0.00048443623551269104,3.3755701094787797e-06,0,78.9298818184109,22,3
2,X,1523,0.08942360095361516,0.0003058725017314761,0.002788634112620409,0.0006224089110343473,0.12646406926484222,0.00043256904030564147,0.0013428379290438656,6.860295467330677e-06,0.0013668120812303619,1.109324037641443e-05,0.9824598037171903,0.00942197034355328,0.00042567749073670465,2.6171248047250146e-06,0,55.231813597694696,22,3
2,X,1555,0.08907340480884351,0.0002969006932838788,0.0022383801356211565,0.0005782019521924294,0.12596881712741537,0.00041988098712003596,0.0013325167835486742,7.43023158864975e-06,0.0013208535423089739,1.4382186835230581e-05,1.0088300790860674,0.012341311571131445,0.00042075150033521453,2.7333656494169814e-06,0,34.667808657134636,22,3
2,X,1576,0.08701330396883625,0.00029749336471544894,0.0023197924658928362,0.0005290602956505358,0.12305539457962089,0.0004207191510965935,0.0014248665821994624,8.205174870371769e-06,0.001434773552054111,1.4997033863781935e-05,0.9930950986373667,0.011851442828210405,0.00043950598397201365,2.9433821968598196e-06,0,48.834406743267444,22,3
2,X,1597,0.08915046727689621,0.00035834638369029725,0.0019464902602039699,0.0006636666050355988,0.12607779991488544,0.0005067783158421713,0.001299784758211724,8.75610832057763e-06,0.0013066325083249926,2.126231639864138e-05,0.9947592379114715,0.017519607262565837,0.00041077120859022136,3.2223550456806593e-06,0,28.33008500964092,22,3
2,X,1618,0.08706115954495912,0.0003022099401523518,0.003566748664769571,0.0005878369746920902,0.12312307258440902,0.0004273893960474173,0.0013851120764199767,9.145865212852252e-06,0.0013923195197232294,1.7306355296962143e-05,0.9948234272369567,0.014001978981924977,0.0004274785178221632,3.188909881117101e-06,0,34.97999656807027,22,3
2,X,1639,0.08456981736919295,0.0002969477606597086,0.0019187400446110735,0.0005781029200784437,0.11959978269092841,0.00041994755044127974,0.001608656935274831,9.716514474736879e-06,0.001605657045786462,1.645315237465558e-05,1.0018683251795528,0.011916932694713854,0.0004822627967372338,3.369369101397725e-06,0,42.65972314785133,22,3
2,X,1660,0.08387971912843994,0.0002747075338546674,0.0021341996054161393,0.0005048207519121298,0.1186238363994857,0.00038849512006333686,0.0015782110178470226,9.999887016382295e-06,0.0015570828746876695,2.6928410310419637e-05,1.0135690549956058,0.018668251109379648,0.00046927451609433046,3.3471276064461823e-06,0,40.250263374569826,22,3
2,X,1681,0.08546814310042596,0.0002859293553837753,0.003124344831925838,0.0005341952631826683,0.12087020712346686,0.00040436517226433155,0.0015988072348061498,9.18190587223931e-06,0.0016225327781472286,1.8228049094659028e-05,0.9853774643812305,0.012432622385796033,0.00048440130594095494,3.219493196099593e-06,0,34.89352842618635,22,3
2,X,1702,0.0843488545074339,0.0002561400162750679,0.003661577480853563,0.0005011116988286632,0.119287294015048,0.00036223668488266636,0.0016715953868703054,1.0009297397142632e-05,0.0016878178316274358,1.857993137108002e-05,0.9903885096761371,0.012410967219341576,0.0004998219045300267,3.355737048414281e-06,0,35.90241553138694,22,3
2,X,1734,0.08585271732742011,0.0003193990310798924,0.0016999717799890594,0.0006237531316491775,0.12141407721102115,0.00045169844156200956,0.001594130827578803,9.261785280162075e-06,0.0015939537553864964,1.892065914533044e-05,1.000111089918204,0.01321731237407727,0.00048515771050730366,3.3470958440626426e-06,0,36.933308484568805,22,3
2,X,1755,0.08819717455326226,0.0003312832509328667,0.0014473758453743637,0.0006603710037564322,0.12472964041621071,0.0004685052664563094,0.0013416983815433498,8.178006964756119e-06,0.0013370596854006159,1.869888061469821e-05,1.003469326159022,0.015308568028890445,0.00041948313051331544,3.0033655849373406e-06,0,26.29883688463019,22,3
2,X,1776,0.0851420525806133,0.00029563241896843486,0.0015499700685740333,0.0005681288574924171,0.12040904548778653,0.0004180873763823256,0.001613310883470213,9.799364537829763e-06,0.00161076360702643,2.2650768231196592e-05,1.0015814092351425,0.015342117106396632,0.0004869306491110344,3.406798972765466e-06,0,53.776582817331345,22,3
2,X,1797,0.0839059421852363,0.00026773800034778246,0.003442667710240261,0.0005852479888512058,0.11866092140205398,0.00037863871125448645,0.0016680803596411733,9.955913262164505e-06,0.001641595234933767,1.8948166414283343e-05,1.016133772895896,0.01320398785805885,0.0004961518549713999,3.3579201663735184e-06,0,38.01390428952413,22,3
2,X,1818,0.08804831317126015,0.0003193286803614043,0.0024607963278902084,0.0006215746073996671,0.12451911863086973,0.000451598950621801,0.0013556956606561922,8.816140895504422e-06,0.0013361304202202425,1.6263485158628268e-05,1.0146432115756518,0.014002407822746431,0.00042314399122284026,3.1507262695648254e-06,0,48.203898544042495,22,3
2,X,1839,0.08907200524418879,0.0003526100109157832,0.002168283098738528,0.000649896367206958,0.12596683784409923,0.0004986658596656257,0.0012660874307500257,7.938610998161907e-06,0.0012890843883044865,2.0500517071232165e-05,0.982160238877217,0.016789650723746077,0.00039976968579329337,2.9644120305464923e-06,0,21.272329651642277,22,3
2,X,1860,0.08539369688713326,9.124352651264322e-05,0.0019248546237167628,0.0004807706515106724,0.12076492427896102,0.00012903783267292912,0.001551907345724042,6.203143883316658e-06,0.0015569091142752611,1.8327885935455577e-05,0.9967873728110664,0.012392121458085163,0.00046978217727572364,1.9437056418625817e-06,0,59.08151209795594,22,3
2,X,1881,0.08357930880075787,0.00028859089073536044,0.004185598398333459,0.0005350546670954726,0.11819899203980078,0.00040812915165527874,0.001630593994719579,1.0408554984131555e-05,0.0016219090743592867,2.1773357321294044e-05,1.0053547516920596,0.014944463670904126,0.00048311391414334107,3.5061193425627867e-06,0,17.61956024486258,22,3
2,X,1916,0.08710491035506472,0.00027502297144091223,0.003289435357922445,0.0005492366796742765,0.12318494557342519,0.0003889412161758865,0.0015354585733906216,8.889518584436731e-06,0.0015591916099557855,1.8167175145768007e-05,0.9847786273260944,0.012812701058624658,0.00047411715951251564,3.126557072234747e-06,0,53.46837517341609,22,3
2,X,1937,0.08877088145141118,0.0003294724923332389,0.0027560323815042746,0.0006418071405365165,0.12554098449239992,0.00046594446708653203,0.0013195746519112466,8.461417833489202e-06,0.00130525116779981,1.374856744046886e-05,1.0109737378251735,0.012466849971320247,0.0004152497969015943,3.0765467353398507e-06,0,37.046772285573574,22,3
2,X,1958,0.08641588000207583,0.00030473548236288015,0.004128588985425531,0.0005798401087812391,0.12221050950334156,0.00043096105209389224,0.0015943060263228866,9.95908439694365e-06,0.0015796850886078838,2.2539537710314072e-05,1.009255602790989,0.015720018090690648,0.0004883938387906906,3.5033914028069146e-06,0,42.65295870726356,22,3
2,X,1979,0.0842735082230302,0.0002858640373540842,0.0036597081792935824,0.000576248999972566,0.11918073827776987,0.00040427279862087495,0.0016675690076751778,8.098095575305695e-06,0.0016334467859096668,2.4165347724070383e-05,1.0208897051681474,0.015896005112850255,0.0004981725809153971,2.9509854842542523e-06,0,49.95558093178564,22,3
2,X,2000,0.08568845222961591,0.00028203751554509485,0.004148539450545566,0.0005438890039211119,0.1211817712818819,0.0003988612795818858,0.0016188762526173545,9.07689875502312e-06,0.0015808539023398876,1.9314201735825648e-05,1.0240517800039513,0.013766037686107365,0.0004917460530404131,3.1971430713511705e-06,0,53.50176723235805,22,3
2,X,2021,0.08402414626830254,0.00027307691988394086,0.004018228833171208,0.0005749641783918601,0.11882808721945415,0.0003861890836709403,0.0016492059386322986,8.764107667291774e-06,0.0016322810870816906,1.5408940527352325e-05,1.010368833949346,0.01094542663030236,0.0004912289239472065,3.059943809787162e-06,0,46.77213174650084,22,3
2,X,2042,0.08646508085543901,0.00029891906510647737,0.0035415036933550636,0.0006006840813269717,0.1222800900174481,0.0004227353959254665,0.001568485570914355,8.082020341618657e-06,0.0015757926059551373,1.5170718629071274e-05,0.9953629462321577,0.01086892970922623,0.00048075765900140727,2.9831183262671623e-06,0,67.362582241549,22,3
2,X,2063,0.08486742289945445,0.00028391272065985627,0.0044043638794810215,0.0005473938531883241,0.12002066046806148,0.00040151322008741275,0.001655469747383004,9.82297153848371e-06,0.0016545670977323765,2.077653509607695e-05,1.0005455503447787,0.013896006179057972,0.0004980434068454015,3.3925362587347974e-06,0,36.59134301125116,22,3
2,X,2095,0.08601752339535373,0.00026818223555566357,0.0035309446033383956,0.000495146877622156,0.12164714818745426,0.00037926695471035554,0.0015777961635449075,8.086441819623822e-06,0.0015836721591614474,1.9146923885559544e-05,0.9962896388734577,0.013082927963279678,0.00048110820322982967,2.8861522819747405e-06,0,37.73678676433787,22,3
2,X,2116,0.08568376608018942,0.00026090175477388165,0.003315403438487524,0.0004636537915150159,0.12117514406580765,0.00036897080004816285,0.0016300842372782755,8.24045132713802e-06,0.001626606856400207,1.693835015222424e-05,1.0021378127507492,0.011600247737696077,0.0004951234852641802,2.9219418476657025e-06,0,50.22502863272397,22,3
2,X,2137,0.08629486605343183,0.00027297023614907164,0.0038213694577742974,0.0005517040793516924,0.1220393699359329,0.00038603821008620365,0.0015803733625859501,8.654434561201762e-06,0.0015844415394802177,1.6920672287911082e-05,0.9974324222176085,0.011970661925788243,0.00048344780412707625,3.0573909008065195e-06,0,42.23364847377567,22,3
2,X,2158,0.08440783728349388,0.000270555073577836,0.003941461125112572,0.000526076681976837,0.11937070825689844,0.00038262265442262633,0.0016574986876666798,9.739772484675445e-06,0.0016645048509064207,2.3368457156988457e-05,0.9957908424022162,0.015155370171889794,0.0004959534298609798,3.3196932232713553e-06,0,49.01420420210846,22,3
2,X,2179,0.08548294624424431,0.00025682673882634145,0.002174474768417834,0.0005272816559547189,0.12089114193022055,0.0003632078572282649,0.001606640575205295,7.785459195638925e-06,0.0016018933782621476,1.2088697842689893e-05,1.002963491208321,0.008994940438093893,0.0004868589351135041,2.7758783629855068e-06,0,55.53289147198469,22,3
2,X,2200,0.08472393099066805,0.0002844205073677583,0.004562014999930988,0.0005389279425477477,0.11981773226456494,0.00040223133893652063,0.0016556115882012756,9.372617741229198e-06,0.0016751274409915133,1.740194714664548e-05,0.9883496310115449,0.011692965923555928,0.0004972439266392161,3.2726781111630703e-06,0,75.07128499195463,22,3
2,X,2221,0.08598294826773976,0.0003142950238808727,0.004255925240094336,0.00053360190375695,0.12159825157306181,0.000444480285358706,0.0016214035205834947,9.292469733440841e-06,0.0016363783911669965,1.901420843422256e-05,0.9908487727139794,0.0128376302299287,0.0004942064125140341,3.359410339602414e-06,0,67.69879073990762,22,3
2,X,2242,0.08491003799786476,0.00025553490793074016,0.001628819334653317,0.0004994127429647361,0.1200809273181952,0.0003613809324554129,0.0016409322115156044,8.231218946415473e-06,0.001658005955812874,2.0899421561584412e-05,0.9897022418783177,0.013426872464155568,0.0004939177201945501,2.88927374746407e-06,0,27.567696464396104,22,3
2,X,2274,0.08589495033739165,0.0003231045950684148,0.0036428885764999883,0.0006056346768245707,0.12147380370650274,0.0004569389004108193,0.0015799678632874477,9.971936919310999e-06,0.0015815440861512156,1.9847575629392298e-05,0.9990033645741715,0.014033225823447607,0.0004810838948793273,3.5347265039434693e-06,0,19.030287247483454,22,3
2,X,2295,0.08515375995335557,0.0003059917492580782,0.0036624400026824292,0.0006205416677256471,0.12042560221309839,0.0004327376817750417,0.0016011121548669086,9.125338477681514e-06,0.0016134901675111052,1.4657044024744474e-05,0.9923284238767377,0.010641677885157054,0.00048331526873145804,3.256390824987187e-06,0,31.878952714613682,22,3
2,X,2316,0.08527962708249673,0.00026562749796122087,0.0037484497457608294,0.000519700083109411,0.12060360521418678,0.0003756540101559902,0.0016075571129007674,9.390746296670177e-06,0.0015772400763346506,1.8377837762574452e-05,1.0192215738244306,0.013284773149134035,0.00048597802972513856,3.2172500479637395e-06,0,40.24138839436827,22,3
2,X,2337,0.08706758049038556,0.0002749411485753516,0.0037082998288543185,0.000533020849397805,0.12313215317251436,0.0003888255011696984,0.0014380982047336847,8.709539047490752e-06,0.0014333182824766996,2.0990093624555805e-05,1.0033348644996878,0.015900158951964144,0.0004438640302657428,3.0316362032542734e-06,0,44.54774320678834,22,3
2,X,2358,0.08882739159585624,0.00029400808815740104,0.0038182500203033467,0.0005922447262360705,0.1256209019050858,0.00041579022571958113,0.0013372993914054754,8.112883314790916e-06,0.0013467422652416255,1.9122519957273656e-05,0.9929883585895659,0.015332528446863848,0.0004210953912842647,2.9101059599239753e-06,0,30.335371857154723,22,3
2,X,2379,0.08441382457872999,0.0002751097111836801,0.0032493602471391327,0.0005086247544523063,0.11937917557102329,0.00038906388469650555,0.0015994153507157389,1.0105243019997193e-05,0.0015762967164237721,1.8951168906070373e-05,1.0146664229209443,0.013780831338190289,0.0004786077970275679,3.4024832695178524e-06,0,19.64762426571959,22,3
2,X,2400,0.08554191822886217,0.0003080982512282419,0.004167436691201097,0.0005916360992775359,0.12097454091066717,0.00043571672543041284,0.0016065596345709353,9.932892889761019e-06,0.0016251873640807694,1.839720597913292e-05,0.9885381034079291,0.012750589346638004,0.00048717025942264644,3.485849159473259e-06,0,48.79789249358011,22,3
2,X,2421,0.08421886133959952,0.0002704330820130083,0.0018396431721818946,0.0005438679956786514,0.11910345591408078,0.00038245013229715186,0.0016618505056559447,1.0266936910216264e-05,0.0016851673127570772,2.344263288735913e-05,0.9861635061844487,0.01501069957166904,0.0004961422946623203,3.4544784670682976e-06,0,41.836597036511264,22,3
2,X,2453,0.08604004961097644,0.0002725006670267718,0.003555721750124062,0.0005589165131732698,0.12167900506709683,0.00038537413906497564,0.0015690038067097552,8.03381414635181e-06,0.0015576392769042625,1.2337504205339922e-05,1.007295995917668,0.00950037348326099,0.0004785524912396447,2.8812086792169343e-06,0,34.39820182391869,22,3
2,X,2474,0.08419299647669212,0.0002924914288126639,0.0036726976245959513,0.0005311547882228633,0.11906687747416822,0.00041364534550475396,0.0016683376279980407,1.0165575226685132e-05,0.0016522930596943942,2.2802740871899443e-05,1.0097104858060797,0.015232440527466879,0.0004979260451875478,3.492468068965502e-06,0,33.16137915953326,22,3
2,X,2495,0.08624440138304745,0.0002622410363017417,0.004334244679123484,0.0004959861689854877,0.12196800211465464,0.0003708648301486983,0.0015885377225158398,8.273560118839155e-06,0.0015688739727168519,1.5199978302684808e-05,1.0125336707351553,0.011137528773228017,0.0004856611640763178,2.928981575755732e-06,0,41.112761023716246,22,3
2,X,2516,0.08416509673270763,0.0002690524772203543,0.004668276298153947,0.0005268266135587042,0.11902742127783861,0.0003804976622751033,0.001680802867447884,9.066084066165456e-06,0.0016745516839081311,2.3025381408655768e-05,1.0037330490302716,0.014825430154540882,0.000501480140905115,3.144292595517068e-06,0,52.98480931730635,22,3
2,X,2537,0.08596806862464411,0.0002855052469353932,0.003819843832927537,0.0005495602204645344,0.12157720857999266,0.00040376539234471265,0.001580962156654812,9.361318437782647e-06,0.0015988455031792374,2.0428402529750222e-05,0.9888148376507516,0.013924834978506285,0.0004817964285041141,3.270932876478473e-06,0,45.27176615591286,22,3
2,X,2558,0.08354242347298162,0.0002783262078680877,0.003647472846752793,0.000555865023905893,0.11814682830900702,0.0003936126979309229,0.0016712675639641932,9.898350816245424e-06,0.001685551380010795,2.109959998023824e-05,0.9915257308581656,0.013730976495894984,0.0004949461905602042,3.3633467944529405e-06,0,33.268916345457065,22,3
2,X,2579,0.08553147733061953,0.00030387027197939856,0.004353713589582699,0.0005959492778242928,0.12095977525076906,0.00042973745983526657,0.001595889070588686,9.994560366083255e-06,0.0015873856110131886,1.7002136301613968e-05,1.0053568959656058,0.012473804796065888,0.0004838754696777758,3.4840106778683723e-06,0,37.7142082295659,22,3
2,X,2600,0.08370333583140202,0.00025087530736406255,0.004503356387402826,0.00048742875545192425,0.11837439274863859,0.0003547912621387761,0.00167743951469608,9.275456426524702e-06,0.0016776169341043076,2.005627431323688e-05,0.9998942431942472,0.01317065849220516,0.0004977308590227991,3.1305219335168796e-06,0,30.50483146768814,22,3
2,X,2632,0.08727180202808454,0.0003092405748955368,0.003050292984765279,0.0006071655939895716,0.12342096604085695,0.000437332215053321,0.0015153203647813285,9.994278435736316e-06,0.0015207305701472839,2.0268811743251613e-05,0.996442364300317,0.014818042036699189,0.0004687953933950182,3.5099062463658908e-06,0,32.07044046858766,22,3
2,X,2653,0.08563858931118137,0.00025726397028138094,0.004394179386051714,0.000473966638906721,0.12111125446637228,0.0003638261958818778,0.0016529304015829947,8.92621138732604e-06,0.0016882078684141882,1.7408499041785682e-05,0.9791036000416635,0.01139704361194907,0.0005017980903901256,3.1008906170066623e-06,0,31.350056704722153,22,3
2,X,2674,0.08922170480814434,0.00029164062558188227,0.003985190732238557,0.0006161883481575561,0.12617854499772652,0.00041244212803687175,0.0014525342664691598,8.164435262711795e-06,0.0014462261019341388,1.7194181774466036e-05,1.0043618107338712,0.013208100373847476,0.0004594114720505326,2.9871691945337017e-06,0,78.54289631970529,22,3
2,X,2695,0.08277756071766845,0.000289145882611584,0.003998842291498259,0.0005168001523336089,0.11706514902708909,0.000408914028693641,0.001697261817530066,1.0257224128433054e-05,0.001684235985708761,2.0169920702392998e-05,1.0077339707332185,0.013517925523332816,0.0004980424922803738,3.476465101573762e-06,0,31.603110410959786,22,3
2,X,2716,0.08898541586129698,0.00030316612242514137,0.00234063601987476,0.0006084900220911797,0.12584438196445613,0.0004287416419856971,0.0014795122215867857,9.021765784689154e-06,0.001488586604418739,1.7233707283589954e-05,0.9939040276158493,0.01300516311527979,0.0004667048600291198,3.2599336700629666e-06,0,54.74765859221724,22,3
2,X,2737,0.08242122391681196,0.00024287837126293001,0.003942988918871432,0.0004676722255729797,0.1165612126905452,0.0003434818866471234,0.001680243479237242,9.615049404093415e-06,0.0016923412250572068,1.6007654639366198e-05,0.9928514736621418,0.010976127292034494,0.0004909261995449567,3.1598880093104978e-06,0,41.7845753438704,22,3
2,X,2758,0.08504070264739609,0.0002552345825978494,0.00405384329621402,0.0004765617457415373,0.12026571503768513,0.00036095620829651454,0.0016157891100578266,8.160962924979917e-06,0.0015979288423506564,1.57263626556566e-05,1.0111771358234554,0.011185719895265303,0.0004870981147339718,2.861804579669172e-06,0,42.24405290915941,22,3
2,X,2779,0.08421781054176154,0.0002768855210666159,0.002766642053457096,0.0004969228509712063,0.11910196986152699,0.0003915752591171495,0.0016674256292461098,9.881148448031778e-06,0.0016623223530872506,2.8100406533313288e-05,1.0030699678370933,0.017967918759872498,0.0004978005260334263,3.3735504865526296e-06,0,35.714832428550864,22,3
2,X,2818,0.08414008186408445,0.0002671992629330271,0.003558866884048231,0.0005114854102241413,0.11899204491137072,0.00037787682149598156,0.0016165677931131554,9.010183619026193e-06,0.0016710936166817584,2.0803014959811114e-05,0.9673711735690348,0.013194488201553672,0.0004821717749415693,3.093060221003242e-06,0,74.72353876405957,22,3
2,X,2839,0.08310035245305482,0.00028829911224846004,0.004421039495126208,0.0005456616802275129,0.11752164547709443,0.0004077165145618955,0.001653457437607972,1.0602203193343745e-05,0.0016448203073433638,1.856350672986235e-05,1.0052511087235776,0.01304854058127745,0.00048708058368368226,3.5510654517776405e-06,0,19.273374156253382,22,3
2,X,2860,0.08368855199244038,0.00029173354946783583,0.003535774853285148,0.0005562526492925891,0.1183534852430751,0.00041257354225665566,0.00163483015137446,9.831508960113026e-06,0.001652928349344564,1.7713563250428657e-05,0.9890508272924954,0.012153996474902914,0.0004850021060714238,3.3712827978956196e-06,0,37.64524077884772,22,3
2,X,2881,0.08289135701686735,0.0002622929083708874,0.003578113534744819,0.00047146791535519625,0.11722608129676404,0.00037093818833239256,0.001686741576725333,9.399621729642319e-06,0.0016851266349414745,2.1879519615924668e-05,1.000958350399532,0.014142806720847395,0.0004956358724396707,3.176218392023134e-06,0,36.02674165655561,22,3
2,X,2902,0.0838357693428922,0.0002998690939598467,0.004490181319127186,0.0006132771668879295,0.1185616820167007,0.00042407893961454723,0.0016270369976116594,1.0485277530548e-05,0.0016406301027971947,1.6379819737747226e-05,0.9917147045136135,0.011784631241107634,0.0004835392301516212,3.5639250825684243e-06,0,42.3656834831427,22,3
2,X,2923,0.08240061734894118,0.00027662445505369237,0.0041940806121444985,0.0005647285197024737,0.11653207060278836,0.00039120605602099845,0.0016917790150948748,8.675229582769034e-06,0.0016980275906771922,1.3287853663726119e-05,0.9963200977318482,0.009321477188172217,0.0004941730203000156,3.028800727900251e-06,0,38.76902396492948,22,3
2,X,2944,0.08606053299379665,0.0002501805833590216,0.0027680912030813654,0.000503829324136217,0.12170797294488445,0.000353808774028741,0.0015755628952490418,9.277140246378419e-06,0.0015796612952092407,1.7258311219119716e-05,0.9974055197955229,0.012378800418198168,0.000480667444009641,3.1563809446135228e-06,0,31.79323048433541,22,3
2,X,2965,0.08526699270070491,0.00026387830900082856,0.003400287096798274,0.0005060648902546318,0.1205857375001046,0.00037318028340505016,0.0016464966184256257,9.535242066244112e-06,0.0016562157312948079,1.7251643849608012e-05,0.9941317349633046,0.01184801973620882,0.0004976760267788587,3.2678678270211754e-06,0,29.015022264969154,22,3
2,X,2997,0.0852269003771744,0.0003180859818089821,0.0038464878969282903,0.0005970151136694998,0.12052903839242068,0.0004498415094750241,0.001555663563437961,9.540440401003204e-06,0.0015448591721200287,1.7195050930792062e-05,1.006993771026459,0.012797070735761805,0.0004699994023562277,3.3741797224651136e-06,0,51.6619565953539,22,3
2,X,3018,0.08320656604625788,0.0002589659962333781,0.004771090182425185,0.0004912730055820816,0.11767185418111059,0.0003662332240667032,0.0016365219029372622,8.839434945434803e-06,0.001653092046265793,2.091265523239499e-05,0.9899762730297074,0.013617592728637972,0.0004827078406752285,3.0091406828648974e-06,0,19.67761224544814,22,3
2,X,3039,0.084729753830348,0.00031695788179159746,0.004519558843210254,0.0005806257585059273,0.11982596700341186,0.0004482461351307254,0.0016076783722067307,9.329001487514102e-06,0.0016153728817019095,1.7050749438815278e-05,0.995236697618031,0.011987817071838384,0.00048288092048378125,3.333833627550348e-06,0,41.42582918286872,22,3
2,X,3060,0.08342495572465618,0.0003202843380602193,0.004042750527343143,0.0005937694143195649,0.11798070382618375,0.0004529504547004515,0.0016767463948883187,1.105505279790906e-05,0.0016973169342897696,1.9147189372546898e-05,0.987880554900574,0.012907915696739346,0.0004958705294607566,3.783239033204825e-06,0,29.81518588294972,22,3
2,X,3081,0.0839260692963811,0.00030079534260635997,0.0043352084186357555,0.0005362000879153267,0.11868938543560636,0.000425388853012576,0.001638229272429681,1.02974865813181e-05,0.0016711086109618674,2.2505506706067315e-05,0.9803248344742467,0.014569675792150892,0.00048738986840814457,3.5266278338061826e-06,0,86.83622024854593,22,3
2,X,3102,0.08228955956406031,0.00025574542806685143,0.004739017871806805,0.0005251618238721619,0.11637501117720273,0.00036167865288705414,0.0017001634285251164,8.542173378208995e-06,0.001707321783313389,1.621203335183079e-05,0.9958072609052171,0.010697868609243339,0.000495952792465592,2.9300154516802193e-06,0,33.71053964273449,22,3
2,X,3123,0.08518381870760557,0.00027602279754374785,0.0036078523075230894,0.0005618465305263802,0.12046811171102678,0.00039035518381053125,0.0016109034994914648,9.001088965699119e-06,0.0016116430031001567,1.5440396226706198e-05,0.9995411492450441,0.011085802936064417,0.0004864425563947441,3.1420189141191123e-06,0,25.4689299553309,22,3
2,X,3144,0.08360108445666647,0.0002530859330455098,0.004431143967803462,0.0004276993197648476,0.11822978746771629,0.00035791755895880906,0.0016675873466814512,6.956483094157851e-06,0.001685947370036469,1.712018694713153e-05,0.9891099664904601,0.01085855438794357,0.0004942030646228111,2.5472655191412234e-06,0,60.92489867471563,22,3
