XscanNumber_YscanNumber,Type,BCID,xsec,xsecErr,SBIL,SBILErr
1_2,XY,103,306.8611125919859,2.20840841863447,0.06341932942411006,0.0005398104730388553
1_2,XY,124,304.05225598263894,2.0665238992406065,0.07823340915850349,0.0006290709996755756
1_2,XY,145,304.59167270121674,2.515006571207011,0.06295498040161984,0.000623802932736523
1_2,XY,166,306.2817118636067,2.0720100940689963,0.07312829397657337,0.0005845319293386962
1_2,XY,187,307.43458200898954,2.469635710275501,0.06314634298912562,0.000602340279068056
1_2,XY,208,304.7651044874917,2.3373669632648726,0.06654645913241172,0.0006061500376504759
1_2,XY,229,301.8046593318707,2.2708054347738016,0.06821530326182151,0.0006062952684936823
1_2,XY,250,304.30437193327447,2.1463076063620243,0.07519982246344314,0.0006226306017192491
1_2,XY,282,300.7004988740033,2.1120315743244285,0.07547935492212424,0.0006362042977259854
1_2,XY,303,304.2038849772017,2.039515167800754,0.07700578611061935,0.0006167844902997188
1_2,XY,324,301.65383340298143,2.0768520261667685,0.06989374161654582,0.0005667441415360899
1_2,XY,345,303.47976321923636,2.1005906058683363,0.07788708489010643,0.0006472484043802437
1_2,XY,366,304.35865932880097,2.1362157188854836,0.07173278590261357,0.000584528711160897
1_2,XY,387,302.381298787169,2.140975099115055,0.07772712368103024,0.0006540077521743213
1_2,XY,408,303.75439252338,2.4299152144321012,0.06609269804719489,0.0006205689126262902
1_2,XY,429,306.1522016145886,2.214341248710082,0.07456083230017096,0.0006389867509740045
1_2,XY,464,301.9038780127592,2.1200444167044132,0.07432692063579135,0.0006164773224128275
1_2,XY,485,305.26625899926836,2.190041296522045,0.0765496041885515,0.0006583993290974782
1_2,XY,506,303.3080623583011,2.3107704797584576,0.0663027590982123,0.0005972268057531981
1_2,XY,527,303.7313024375884,2.135891793170034,0.07321637285629524,0.000614329140627429
1_2,XY,548,302.4576489850764,2.247112530096105,0.07247748775061666,0.0006444702405849738
1_2,XY,569,300.48958185199535,2.112620430914458,0.08124024215994292,0.0006823207476527205
1_2,XY,590,302.0865962549538,2.273073039555356,0.06976843009351111,0.0006215386733680065
1_2,XY,611,301.83986450621165,2.0249883953875627,0.07779631384817662,0.0006141860612472863
1_2,XY,643,300.6548446146593,2.180662726664534,0.06845781928726868,0.000583290985496018
1_2,XY,664,302.04151425869077,2.042609376191055,0.07755945867023495,0.0006187899953622425
1_2,XY,685,302.80135319353724,2.2498745221813974,0.06679541302493958,0.0005920564880147642
1_2,XY,706,302.9757385536618,2.146850013391291,0.07057177850635529,0.0005957344565243242
1_2,XY,727,302.28670812216353,2.2435125894066656,0.0691523010252021,0.000624867052103196
1_2,XY,748,301.9152826365317,2.023215373514879,0.07811062612797749,0.000619448884531714
1_2,XY,769,299.5334215945573,2.368615395888609,0.06348635905152482,0.00060298755775477
1_2,XY,790,301.4732124439547,2.2128171631655573,0.07252453633684335,0.0006347417960218995
1_2,XY,822,307.3747356155911,2.1453396743466797,0.065792991122581,0.0005355827001870773
1_2,XY,843,303.47382643957565,2.105523365524369,0.07718319195962454,0.0006364301364984216
1_2,XY,864,304.7314256343424,2.232736028127533,0.07011808726148568,0.0006139211667119925
1_2,XY,885,301.8476029769427,2.1987464391925027,0.07925237915395379,0.0006848239746899412
1_2,XY,906,19.970740711803497,10.772278845806424,0.5102185863102929,0.27523526578895013
1_2,XY,927,302.9215676128233,2.0896326973090407,0.07721975514079289,0.0006351057362276761
1_2,XY,948,303.04223286057925,2.107910299038356,0.06807900993347882,0.000558889622365746
1_2,XY,969,304.35508602855225,2.0711203308308117,0.07585023134001187,0.0006172678549372116
1_2,XY,1018,301.47417781210004,2.0310219726339707,0.07446736512008033,0.0005942073672948806
1_2,XY,1039,300.1262431885194,2.081959737955922,0.07794855209751825,0.0006342726099690388
1_2,XY,1060,301.49882815090103,2.2812328436665674,0.06979524640038152,0.0006173736895081066
1_2,XY,1081,303.7916380026153,2.1625244165300215,0.0771568344941189,0.0006576967975816306
1_2,XY,1102,301.6941307645771,2.235330041995638,0.06774699420472438,0.0005977366807554728
1_2,XY,1123,301.7650722221583,2.141229867298367,0.07444257993881039,0.0006331266849080262
1_2,XY,1144,304.96074128561,2.4123522596810036,0.06780317692395753,0.000644948378030808
1_2,XY,1165,301.04673274841673,2.093720806656139,0.08011701042192046,0.0006648088903830606
1_2,XY,1197,300.51021502244765,2.0465559188519644,0.07195446344109212,0.0005806031480482554
1_2,XY,1218,301.46820415148596,2.105925892519007,0.07808135338990478,0.0006488053300219581
1_2,XY,1239,279.28060126872657,2.0253199001846784,0.07219499392320348,0.000633347575886978
1_2,XY,1260,302.9934228958327,2.166520320195394,0.07746002027889252,0.0006630908190716081
1_2,XY,1281,301.2361629503116,2.22867817234642,0.07014881462981738,0.000619182069067431
1_2,XY,1302,23.731683915982156,4.131394249809925,0.4995864063833231,0.0870212184178317
1_2,XY,1323,302.15063162897644,2.2716260039819147,0.0644873297356267,0.0005770091764764146
1_2,XY,1344,300.53350640846804,2.1552518095952773,0.07622299054896961,0.0006474123620943186
1_2,XY,1376,301.92325599155606,2.394367262183934,0.07173937388883109,0.0006816342832199795
1_2,XY,1397,302.9889332591789,2.0791200445691835,0.06897467199879043,0.0005612092518206171
1_2,XY,1418,302.8154478334722,2.1242557468223655,0.07228595898298842,0.0006112848954078593
1_2,XY,1439,303.4504851321511,2.2085293518928966,0.06593278252545938,0.0005721943220967124
1_2,XY,1460,301.762461813082,2.117355271523948,0.07001201529479721,0.0005836675385775419
1_2,XY,1481,299.8411834629315,2.195461469892335,0.07609751123508776,0.0006552485425969677
1_2,XY,1502,302.7130504976404,2.2785279145127837,0.06834974675020127,0.0006095521864741141
1_2,XY,1523,305.35331386046306,2.2292034492626076,0.061917550611922556,0.000532651034105479
1_2,XY,1555,305.98225467851574,2.2151459682220853,0.06471182472990558,0.000556705414497981
1_2,XY,1576,304.17620462868075,2.268063928878236,0.06761723396322385,0.0005950796630366202
1_2,XY,1597,307.46733564234665,2.137248250725787,0.059463017309877714,0.00048709526624372444
1_2,XY,1618,305.661822282501,2.208444772714523,0.06599768064854308,0.0005609212406089675
1_2,XY,1639,303.70421381006383,1.9757993788851647,0.07714521164262413,0.000594237117556339
1_2,XY,1660,301.3025748678057,2.0851395127077974,0.07557322661889729,0.0006171267325230771
1_2,XY,1681,302.41541056924206,2.1554961879082506,0.07529348401241934,0.0006330777070323722
1_2,XY,1702,302.9988321357369,1.984138697338809,0.08125911506569074,0.000631898607635391
1_2,XY,1734,304.2375559638376,2.0220057011043453,0.07250204626212613,0.0005754311832512182
1_2,XY,1755,309.10968987793063,2.102362526158067,0.06032911164729931,0.0004788630246519107
1_2,XY,1776,303.84875360246554,2.170650193192124,0.07282865451121906,0.0006233472872497715
1_2,XY,1797,302.7085535110664,2.0966452857660416,0.07979463557122309,0.0006576224505441235
1_2,XY,1818,305.06462382544044,2.1251754958183544,0.06729223848889312,0.0005591022408422992
1_2,XY,1839,304.89210694892745,2.160757449652696,0.06123257275021202,0.0005155068064491812
1_2,XY,1860,305.3317941896392,2.1791165666546943,0.0722147104134359,0.0006151197566408262
1_2,XY,1881,305.3217402371992,1.9680974310558887,0.07351771645626501,0.0005626275615517924
1_2,XY,1916,302.0712860473839,2.192957936561279,0.06824628388711992,0.0005809961495662582
1_2,XY,1937,306.08714489480394,2.2919242967627547,0.06162882077362929,0.0005505645870862397
1_2,XY,1958,303.03117489968463,2.096570331106422,0.0721073002261899,0.0005862275927567645
1_2,XY,1979,302.4193240375936,2.167523833356673,0.07407967813636201,0.000635802465158413
1_2,XY,2000,301.07409541920214,2.2126024092804997,0.07675992562272793,0.0006759387062078989
1_2,XY,2021,301.4865376587331,2.0080229177028737,0.07959437029570911,0.0006247684070640533
1_2,XY,2042,302.7316150019486,2.1623851955207467,0.07026296804238594,0.0006004606830519667
1_2,XY,2063,301.85118689681826,2.041238134187687,0.07878304891433195,0.0006339622679525758
1_2,XY,2095,303.10707029502794,2.120123196823923,0.07362379309536368,0.0006086654134614935
1_2,XY,2116,303.23549766248755,2.0498795141999997,0.07513667919712903,0.000608064232917126
1_2,XY,2137,304.18068086733575,2.17023088975857,0.07306765683656825,0.0006235274818680921
1_2,XY,2158,305.1068866209889,2.0292664124431226,0.07662678486416433,0.0006094109856676966
1_2,XY,2179,304.19712896105057,2.1251025760612015,0.07604916615817277,0.0006276917005374557
1_2,XY,2200,304.2837437292453,2.1204679645070303,0.07753591841759454,0.0006440472297042916
1_2,XY,2221,303.6260979147697,2.262207258327022,0.07547396949615268,0.0006652586520925862
1_2,XY,2242,302.2105808336691,1.970552467577651,0.07967778404619125,0.0006156345786110329
1_2,XY,2274,303.6193537252514,2.0638416394485923,0.07586834214834905,0.0006159003324203902
1_2,XY,2295,303.85846489589784,2.1432056135557707,0.07006246172784272,0.0005889407025926758
1_2,XY,2316,304.9728744530648,2.064927994559612,0.07420649877546145,0.0005901075340217956
1_2,XY,2337,301.729341634845,2.2047020978471608,0.06817889220398976,0.0005883720322277751
1_2,XY,2358,305.3955572799414,2.2025443203241917,0.06406466544188359,0.0005530305686714407
1_2,XY,2379,304.4009811888925,2.0469911901577547,0.0699586624167625,0.0005604922527945452
1_2,XY,2400,300.4702326486594,2.183983568548,0.07236395774226526,0.0006315058118767154
1_2,XY,2421,302.7061656408586,2.089018299950813,0.0775419013153092,0.0006370510478816655
1_2,XY,2453,301.6888167510377,2.3134028213067945,0.07065598372250667,0.0006498212707929628
1_2,XY,2474,299.7541037184437,2.106315307595696,0.08052951436940542,0.0006717573348202134
1_2,XY,2495,300.11391374911136,2.113526019911862,0.0707759740625592,0.0005879320735553823
1_2,XY,2516,302.3496689060037,2.175692618471566,0.07599441524634236,0.0006402727444629403
1_2,XY,2537,303.60698724276256,2.1601698377159413,0.07617853385933494,0.0006355760342716671
1_2,XY,2558,299.7773927485103,2.021515697605054,0.08251925495939214,0.0006699246690255298
1_2,XY,2579,301.0196098848346,1.997922220501284,0.07915737478575674,0.0006265172133521344
1_2,XY,2600,302.1330897114944,2.0080576507825474,0.08056825020778764,0.0006270197555847686
1_2,XY,2632,281.36900713002285,1.9237025342189895,0.0705255821072765,0.0005793005283559612
1_2,XY,2653,303.6777040084831,2.2241105641397367,0.07404191774023579,0.0006529947514808515
1_2,XY,2674,305.4030859712106,2.079696897702122,0.06838668898427916,0.0005450108376752478
1_2,XY,2695,300.23780141334703,1.9678867709469772,0.08178333570888816,0.000635364439432557
1_2,XY,2716,306.0554653207319,2.1614606010799235,0.06756734811761285,0.0005600021636960022
1_2,XY,2737,302.63481925970854,2.1308045628560897,0.07822178921359911,0.0006572054189700207
1_2,XY,2758,302.2501384859839,2.000050996260842,0.07326228758239417,0.0005675102252543123
1_2,XY,2779,299.9727154749079,2.1068532499497308,0.07793550361052654,0.0006552138497329057
1_2,XY,2818,302.96361446527663,2.1281100651830513,0.07683588612291273,0.0006328456807050916
1_2,XY,2839,302.81778671145116,2.0153864463301217,0.0799668423168295,0.0006277664277671295
1_2,XY,2860,305.8324995597445,2.0710628545011383,0.07587941941973643,0.0006056371039313049
1_2,XY,2881,300.05209125685747,2.037594125265483,0.08024261242673404,0.0006414973937773348
1_2,XY,2902,302.0669685340062,2.078442235580508,0.07569885595075673,0.0006151535175389338
1_2,XY,2923,299.73035680767106,2.1009890175087644,0.08000788580104272,0.0006734588286208037
1_2,XY,2944,304.1940512815079,2.136094734557465,0.07383749821117792,0.0006144837997688577
1_2,XY,2965,302.5912694894768,2.04591742399508,0.07189698776662132,0.0005720183967605671
1_2,XY,2997,304.5026375495365,2.1948518141608497,0.07419237312167404,0.0006424663094019269
1_2,XY,3018,303.6100502721194,2.1533696663252537,0.07781677999862656,0.0006496436792021101
1_2,XY,3039,13.335059775956426,3.6255952564352643,0.8180627675012514,0.22246056487785476
1_2,XY,3060,300.889036027987,2.0571011356413473,0.07573617048065237,0.000615542546161824
1_2,XY,3081,300.0861966207186,2.074367208570333,0.07392208373911369,0.0006085533584718238
1_2,XY,3102,301.58746672548057,2.003425539370466,0.07810902815508439,0.0006037435377168343
1_2,XY,3123,301.88355833803735,2.080753429278206,0.07618991670318966,0.0006260505838909607
1_2,XY,3144,299.49874753747804,1.9904840447916932,0.08166702951533589,0.0006483460289413558
