[
    [
        "XscanNumber_YscanNumber",
        "Type",
        "BCID",
        "xsec",
        "xsecErr",
        "SBIL",
        "SBILErr"
    ],
    [
        "1_2",
        "XY",
        "103",
        128.8208321281263,
        0.8522061080657529,
        0.06396401291045113,
        0.0005064961112199347
    ],
    [
        "1_2",
        "XY",
        "124",
        128.12350389425288,
        0.8252294781542109,
        0.07892357738894856,
        0.0005968412907571769
    ],
    [
        "1_2",
        "XY",
        "145",
        127.29222058670375,
        0.8962493776462092,
        0.06396217927009931,
        0.0005322407587229435
    ],
    [
        "1_2",
        "XY",
        "166",
        128.79907521122024,
        0.8677325941623086,
        0.0734565166056623,
        0.0005850548976632431
    ],
    [
        "1_2",
        "XY",
        "187",
        126.80588195933817,
        0.9536692433638557,
        0.06509898610159862,
        0.0005824544136543747
    ],
    [
        "1_2",
        "XY",
        "208",
        129.700170896822,
        0.8232464125443343,
        0.06705752888073983,
        0.000502678154933026
    ],
    [
        "1_2",
        "XY",
        "229",
        127.8651889428962,
        0.9165917962172478,
        0.0681180245050714,
        0.0005775812619726714
    ],
    [
        "1_2",
        "XY",
        "250",
        127.32563595355492,
        0.8826648087726405,
        0.07562559627319594,
        0.0006217273653025818
    ],
    [
        "1_2",
        "XY",
        "282",
        128.23153344589517,
        0.8408719865061473,
        0.0750650704560177,
        0.0005833461609537345
    ],
    [
        "1_2",
        "XY",
        "303",
        127.93642962286283,
        0.8626907662908754,
        0.07776100480668234,
        0.000622406168146874
    ],
    [
        "1_2",
        "XY",
        "324",
        127.587518954449,
        0.9039978248833428,
        0.06947980970030514,
        0.0005806340546029169
    ],
    [
        "1_2",
        "XY",
        "345",
        127.19844870416516,
        0.8990291477653998,
        0.07795617984108934,
        0.0006570607765024497
    ],
    [
        "1_2",
        "XY",
        "366",
        127.32440632818816,
        0.8864827188634734,
        0.07231965959949284,
        0.0005884094562727661
    ],
    [
        "1_2",
        "XY",
        "387",
        127.80637777711532,
        0.7957376403054455,
        0.07830075683297093,
        0.000570936073384472
    ],
    [
        "1_2",
        "XY",
        "408",
        129.27188670091897,
        0.9637888519981884,
        0.06659139733234111,
        0.0005840888851754393
    ],
    [
        "1_2",
        "XY",
        "429",
        127.56153716786423,
        0.7657864968823426,
        0.07495137090284788,
        0.0005383258262996564
    ],
    [
        "1_2",
        "XY",
        "464",
        126.67918799697199,
        0.8648031091516013,
        0.07481058990550396,
        0.0006084763688597824
    ],
    [
        "1_2",
        "XY",
        "485",
        128.61771781789568,
        0.7641257705562833,
        0.076995821764514,
        0.0005387211260551419
    ],
    [
        "1_2",
        "XY",
        "506",
        127.43226662785416,
        0.8639511077326594,
        0.066699014102019,
        0.0005407149789591479
    ],
    [
        "1_2",
        "XY",
        "527",
        126.78903484167846,
        0.8445863955579134,
        0.0744371085673124,
        0.0005888279839897253
    ],
    [
        "1_2",
        "XY",
        "548",
        128.08226614500654,
        0.8552286647330858,
        0.07259567312428127,
        0.0005735689020382715
    ],
    [
        "1_2",
        "XY",
        "569",
        127.02788323299721,
        0.8590064582731439,
        0.08134732644665102,
        0.0006584962992132336
    ],
    [
        "1_2",
        "XY",
        "590",
        127.36064462707299,
        0.811649714069012,
        0.07037922111395446,
        0.0005258196509830171
    ],
    [
        "1_2",
        "XY",
        "611",
        126.6565677446027,
        0.8016481133338463,
        0.07779475656550018,
        0.0005886890915022391
    ],
    [
        "1_2",
        "XY",
        "643",
        128.15583444323167,
        0.8210125175046598,
        0.06848598494870818,
        0.0005233473437269147
    ],
    [
        "1_2",
        "XY",
        "664",
        127.7045326947889,
        0.8310322816834973,
        0.07728447313186729,
        0.0006047808196010442
    ],
    [
        "1_2",
        "XY",
        "685",
        127.20943359728243,
        0.878248446197873,
        0.06679322293225157,
        0.0005447867737450565
    ],
    [
        "1_2",
        "XY",
        "706",
        127.67287203239619,
        0.8483456572155452,
        0.07058458356404823,
        0.0005615981736532502
    ],
    [
        "1_2",
        "XY",
        "727",
        126.42914680071722,
        0.9064545127305234,
        0.07025874785204812,
        0.0005999524895534036
    ],
    [
        "1_2",
        "XY",
        "748",
        127.79119144345394,
        0.7172054127472911,
        0.07868907804514925,
        0.0005232696261276575
    ],
    [
        "1_2",
        "XY",
        "769",
        128.16264187518226,
        0.8439906367991419,
        0.06367837566467334,
        0.0004888230878180498
    ],
    [
        "1_2",
        "XY",
        "790",
        126.84469580970286,
        0.8129605069256821,
        0.07266378161748017,
        0.0005484626800182378
    ],
    [
        "1_2",
        "XY",
        "822",
        127.78774015020582,
        0.8073613253338009,
        0.06679814318115293,
        0.0004941239781217144
    ],
    [
        "1_2",
        "XY",
        "843",
        128.29871952913547,
        0.7504458238898324,
        0.07815301014497571,
        0.0005375870318772343
    ],
    [
        "1_2",
        "XY",
        "864",
        127.75587390017097,
        0.858743263557813,
        0.06987247060328937,
        0.0005581081869109986
    ],
    [
        "1_2",
        "XY",
        "885",
        127.1564204508822,
        0.8342305286960034,
        0.08041416017714753,
        0.0006332331736648205
    ],
    [
        "1_2",
        "XY",
        "906",
        127.48668454675342,
        0.8967540168550909,
        0.06895620368787646,
        0.0005766660226016174
    ],
    [
        "1_2",
        "XY",
        "927",
        127.33669727621088,
        0.7951415766333211,
        0.078933739564828,
        0.0005942887169213791
    ],
    [
        "1_2",
        "XY",
        "948",
        127.16448255215546,
        0.8388197371327106,
        0.06895640717259828,
        0.0005427121474817415
    ],
    [
        "1_2",
        "XY",
        "969",
        127.43632105569212,
        0.7684618998395049,
        0.07700873406631974,
        0.0005366329440600401
    ],
    [
        "1_2",
        "XY",
        "1018",
        127.09070417008873,
        0.7666959070031406,
        0.0754514588171195,
        0.0005200145859271152
    ],
    [
        "1_2",
        "XY",
        "1039",
        126.90738470500933,
        0.8327169382906042,
        0.07770630614767807,
        0.0006006116070668134
    ],
    [
        "1_2",
        "XY",
        "1060",
        127.24475267903145,
        0.8958390356160371,
        0.06996751679697806,
        0.0005877039734604483
    ],
    [
        "1_2",
        "XY",
        "1081",
        127.60160033183814,
        0.7993015076354711,
        0.07788131772819187,
        0.0005760584330719563
    ],
    [
        "1_2",
        "XY",
        "1102",
        127.4976232385835,
        0.8959334630889267,
        0.06812270476935252,
        0.0005649294223387926
    ],
    [
        "1_2",
        "XY",
        "1123",
        126.96470307639893,
        0.7598466398024916,
        0.07520905597684764,
        0.0005332746431964344
    ],
    [
        "1_2",
        "XY",
        "1144",
        127.69274760872251,
        0.8976552311449348,
        0.06902867010716016,
        0.0005746909079473051
    ],
    [
        "1_2",
        "XY",
        "1165",
        127.88471936983461,
        0.7655083811942881,
        0.08021065144455294,
        0.0005638658373957972
    ],
    [
        "1_2",
        "XY",
        "1197",
        127.3683005871436,
        0.8225720033611548,
        0.07179303155487977,
        0.0005397446600217767
    ],
    [
        "1_2",
        "XY",
        "1218",
        128.61901252213565,
        0.8946383973120549,
        0.07815519991124448,
        0.0006492645363795385
    ],
    [
        "1_2",
        "XY",
        "1239",
        126.98981462467889,
        0.8186909995143106,
        0.06923313316005257,
        0.0005325341732150287
    ],
    [
        "1_2",
        "XY",
        "1260",
        127.98187014717797,
        0.8607413043292542,
        0.07805482158429335,
        0.0006212776518179602
    ],
    [
        "1_2",
        "XY",
        "1281",
        127.6366669121982,
        0.8742640036800599,
        0.07063890317201173,
        0.0005663644472952951
    ],
    [
        "1_2",
        "XY",
        "1302",
        127.74341039300553,
        0.8209194217824894,
        0.07897134988209248,
        0.0005963496405233964
    ],
    [
        "1_2",
        "XY",
        "1323",
        128.37238930696293,
        0.8661221102484034,
        0.06445437317210939,
        0.0005066513188869661
    ],
    [
        "1_2",
        "XY",
        "1344",
        127.82716610411413,
        0.819756925215413,
        0.07712359610717733,
        0.0005835008200724617
    ],
    [
        "1_2",
        "XY",
        "1376",
        128.16441495227753,
        0.8673852478844076,
        0.07200699569162836,
        0.0005758988669197771
    ],
    [
        "1_2",
        "XY",
        "1397",
        129.13923022066405,
        0.8391842378328331,
        0.06812088734050607,
        0.0005213672662214356
    ],
    [
        "1_2",
        "XY",
        "1418",
        129.10136793868355,
        0.8120407471093475,
        0.0723624671390248,
        0.0005385325297414179
    ],
    [
        "1_2",
        "XY",
        "1439",
        127.71183782464621,
        0.8862492664606634,
        0.06576569573271328,
        0.0005485826840107899
    ],
    [
        "1_2",
        "XY",
        "1460",
        127.03144384663894,
        0.8224951210893383,
        0.07080464153156725,
        0.0005457508298518993
    ],
    [
        "1_2",
        "XY",
        "1481",
        127.89953675325081,
        0.8858666573778521,
        0.07742697229728848,
        0.0006397965929582748
    ],
    [
        "1_2",
        "XY",
        "1502",
        128.25566075487308,
        0.8534323825620629,
        0.0689291614302404,
        0.0005435227362858047
    ],
    [
        "1_2",
        "XY",
        "1523",
        130.4627559013144,
        0.8548349814846704,
        0.062197089270003954,
        0.00048199922841379487
    ],
    [
        "1_2",
        "XY",
        "1555",
        129.56283771371892,
        0.8578918733589572,
        0.06496303992549095,
        0.0005129077945671571
    ],
    [
        "1_2",
        "XY",
        "1576",
        128.37008995327392,
        0.8074183091561805,
        0.06828826988375034,
        0.000507148876274928
    ],
    [
        "1_2",
        "XY",
        "1597",
        129.1392955453196,
        0.912551472344295,
        0.06028075050182039,
        0.0005118438577757466
    ],
    [
        "1_2",
        "XY",
        "1618",
        129.99264807132693,
        0.9256802948684109,
        0.06546619389543869,
        0.0005582570642560428
    ],
    [
        "1_2",
        "XY",
        "1639",
        127.38774697362334,
        0.7960670386792938,
        0.07851125842968092,
        0.0005735806677558839
    ],
    [
        "1_2",
        "XY",
        "1660",
        128.6533174328228,
        0.8687948228403414,
        0.07488606875624641,
        0.0005972369822800423
    ],
    [
        "1_2",
        "XY",
        "1681",
        128.699617939475,
        0.768918981956055,
        0.07486285975457271,
        0.0005285978343296506
    ],
    [
        "1_2",
        "XY",
        "1702",
        127.62994930488087,
        0.7769502682240575,
        0.08144020107749074,
        0.0005962986309042177
    ],
    [
        "1_2",
        "XY",
        "1734",
        127.43533704720207,
        0.8511400448780874,
        0.07336811376978862,
        0.0005810983469207991
    ],
    [
        "1_2",
        "XY",
        "1755",
        129.78833607857067,
        0.8959288486571627,
        0.06038476265806072,
        0.0004943572977465715
    ],
    [
        "1_2",
        "XY",
        "1776",
        127.03130290176769,
        0.8291640860128685,
        0.0748171257508844,
        0.0005742563461341073
    ],
    [
        "1_2",
        "XY",
        "1797",
        127.825599677487,
        0.7835063862687044,
        0.08037782088119673,
        0.0005725611377334607
    ],
    [
        "1_2",
        "XY",
        "1818",
        129.5129107193266,
        0.8506483021760434,
        0.0675349212337261,
        0.0005281095746070069
    ],
    [
        "1_2",
        "XY",
        "1839",
        130.64589206823752,
        0.8740368485759572,
        0.060982202649493666,
        0.00048450814272937143
    ],
    [
        "1_2",
        "XY",
        "1860",
        128.06381122316614,
        0.8259374413695102,
        0.07223570381165283,
        0.0005516315774016168
    ],
    [
        "1_2",
        "XY",
        "1881",
        128.48882486683155,
        0.8225674317038285,
        0.07432325661405048,
        0.0005595941696004798
    ],
    [
        "1_2",
        "XY",
        "1916",
        128.77066777493835,
        0.892230195965248,
        0.06784044007827902,
        0.0005535365685054106
    ],
    [
        "1_2",
        "XY",
        "1937",
        129.63968187116825,
        0.8642936584314541,
        0.06137972955216632,
        0.0004745249127946239
    ],
    [
        "1_2",
        "XY",
        "1958",
        128.47665398768396,
        0.8502843083686283,
        0.07149745553424836,
        0.0005569484673390816
    ],
    [
        "1_2",
        "XY",
        "1979",
        128.03215413727196,
        0.8350185156193889,
        0.07374491454348545,
        0.0005679965562272915
    ],
    [
        "1_2",
        "XY",
        "2000",
        127.52033586817453,
        0.7835540102142675,
        0.07736417713916796,
        0.000559589252859705
    ],
    [
        "1_2",
        "XY",
        "2021",
        126.09799368013816,
        0.7765702891692609,
        0.0809269227941309,
        0.0005867246067914524
    ],
    [
        "1_2",
        "XY",
        "2042",
        127.64324614675522,
        0.8233334533035422,
        0.07095430521845271,
        0.0005481317763543161
    ],
    [
        "1_2",
        "XY",
        "2063",
        127.05513615133911,
        0.8320149310421184,
        0.07965126430534808,
        0.0006166491468804862
    ],
    [
        "1_2",
        "XY",
        "2095",
        129.1287698790667,
        0.7918664388409479,
        0.07435134058404375,
        0.0005291466888788788
    ],
    [
        "1_2",
        "XY",
        "2116",
        127.96080516963445,
        0.8812910463800092,
        0.07539069288997742,
        0.0006138137388883968
    ],
    [
        "1_2",
        "XY",
        "2137",
        127.16819559258944,
        0.8491229453281801,
        0.0740459363599148,
        0.0005890286151989968
    ],
    [
        "1_2",
        "XY",
        "2158",
        128.23494943260792,
        0.831915463216928,
        0.07736790843003746,
        0.0006058934898194747
    ],
    [
        "1_2",
        "XY",
        "2179",
        127.97143620797246,
        0.8554750346156884,
        0.07608167607247622,
        0.0006032950045424224
    ],
    [
        "1_2",
        "XY",
        "2200",
        128.48221936528714,
        0.8224654096986223,
        0.0780677477711488,
        0.0005887564806099667
    ],
    [
        "1_2",
        "XY",
        "2221",
        127.71595267130256,
        0.8097555733409807,
        0.07675231546292116,
        0.0005742914866088918
    ],
    [
        "1_2",
        "XY",
        "2242",
        127.76651929091595,
        0.7822159944207073,
        0.07944787579945062,
        0.0005720411390348841
    ],
    [
        "1_2",
        "XY",
        "2274",
        127.9579587208028,
        0.8266382406009093,
        0.07669439910540714,
        0.00058865340313158
    ],
    [
        "1_2",
        "XY",
        "2295",
        127.895168118967,
        0.8463013195010167,
        0.07131136856018491,
        0.0005542792418478169
    ],
    [
        "1_2",
        "XY",
        "2316",
        126.68903364023191,
        0.8424728580317202,
        0.07567092804971615,
        0.0005967827670442138
    ],
    [
        "1_2",
        "XY",
        "2337",
        129.96891315590378,
        0.8313210382764215,
        0.06753925296229908,
        0.0005057509251677436
    ],
    [
        "1_2",
        "XY",
        "2358",
        130.83548577432944,
        0.8468679790692898,
        0.06357148692460644,
        0.0004799878615676844
    ],
    [
        "1_2",
        "XY",
        "2379",
        126.67245627110958,
        0.7851181192217335,
        0.07158345327869504,
        0.0005201581986524745
    ],
    [
        "1_2",
        "XY",
        "2400",
        126.99103403073397,
        0.8180189907250286,
        0.07247502179973746,
        0.000545244613104307
    ],
    [
        "1_2",
        "XY",
        "2421",
        127.03711751733223,
        0.7802033627835184,
        0.07794363501466756,
        0.0005594361548685213
    ],
    [
        "1_2",
        "XY",
        "2453",
        127.41500772375284,
        0.7853244064680655,
        0.07209255812832406,
        0.0005305340340170032
    ],
    [
        "1_2",
        "XY",
        "2474",
        128.05844332707773,
        0.8503616612267458,
        0.08036313887480548,
        0.0006276532644785616
    ],
    [
        "1_2",
        "XY",
        "2495",
        129.02823609723768,
        0.9014329805311033,
        0.07007643379916795,
        0.0005647742933205842
    ],
    [
        "1_2",
        "XY",
        "2516",
        126.3324025632335,
        0.7880117795911662,
        0.07710741207175136,
        0.0005796576529735247
    ],
    [
        "1_2",
        "XY",
        "2537",
        127.71772335139995,
        0.8636732724912572,
        0.07674141159000795,
        0.0006194762835181482
    ],
    [
        "1_2",
        "XY",
        "2558",
        127.17761106634177,
        0.8428753805539181,
        0.08316582089480899,
        0.0006643560740382618
    ],
    [
        "1_2",
        "XY",
        "2579",
        129.00711170769665,
        0.8702089261738678,
        0.07835970852318584,
        0.0006242619101870143
    ],
    [
        "1_2",
        "XY",
        "2600",
        126.7132259001666,
        0.7928358255155549,
        0.08218353331139297,
        0.000605499278046988
    ],
    [
        "1_2",
        "XY",
        "2632",
        129.0408476351071,
        0.83451182458749,
        0.06901901669056501,
        0.0005179124981821891
    ],
    [
        "1_2",
        "XY",
        "2653",
        128.49694229615636,
        0.8204903014791506,
        0.07545444064094982,
        0.0005718459459721287
    ],
    [
        "1_2",
        "XY",
        "2674",
        129.78572404912487,
        0.8532254696235486,
        0.06886115685684267,
        0.0005307687187411256
    ],
    [
        "1_2",
        "XY",
        "2695",
        127.09139778842933,
        0.8163818432109778,
        0.0818222525341769,
        0.0006206103709907408
    ],
    [
        "1_2",
        "XY",
        "2716",
        130.25718130790816,
        0.8147733892003068,
        0.0675262841287241,
        0.00048760328582183926
    ],
    [
        "1_2",
        "XY",
        "2737",
        126.3553863432248,
        0.81783244181721,
        0.07877298420093262,
        0.0006094064403664281
    ],
    [
        "1_2",
        "XY",
        "2758",
        127.55560897397336,
        0.8320420153495908,
        0.07421028673241048,
        0.000576725561285883
    ],
    [
        "1_2",
        "XY",
        "2779",
        127.30705930641088,
        0.8297724027313622,
        0.0781081562434222,
        0.00060275786257019
    ],
    [
        "1_2",
        "XY",
        "2818",
        126.61140880261127,
        0.8311564087026648,
        0.07800291583865791,
        0.0006087912788790365
    ],
    [
        "1_2",
        "XY",
        "2839",
        127.55859864881285,
        0.7856796624971143,
        0.08085423266959806,
        0.0005950631092758371
    ],
    [
        "1_2",
        "XY",
        "2860",
        128.33798853117986,
        0.8396543892780581,
        0.07600580446998037,
        0.0005824064330791141
    ],
    [
        "1_2",
        "XY",
        "2881",
        126.80233819271527,
        0.7752867069476097,
        0.08107908305506413,
        0.0005884929341937053
    ],
    [
        "1_2",
        "XY",
        "2902",
        127.44831763415307,
        0.8920975632429747,
        0.07619021802286394,
        0.0006413869283197858
    ],
    [
        "1_2",
        "XY",
        "2923",
        126.02458103536244,
        0.7894475058519329,
        0.08055778191838435,
        0.0005975429818017849
    ],
    [
        "1_2",
        "XY",
        "2944",
        128.86911056667773,
        0.8373120473300679,
        0.07368916239887033,
        0.0005682707473404041
    ],
    [
        "1_2",
        "XY",
        "2965",
        127.28583998853179,
        0.8276582160712537,
        0.07322741356118742,
        0.0005641756773146211
    ],
    [
        "1_2",
        "XY",
        "2997",
        127.3919120147059,
        0.8318844766106883,
        0.07528945865609711,
        0.0005825903400811974
    ],
    [
        "1_2",
        "XY",
        "3018",
        127.16038090158519,
        0.7353028851210833,
        0.07980487455175247,
        0.0005477130365254101
    ],
    [
        "1_2",
        "XY",
        "3039",
        127.32433825638417,
        0.920550040141771,
        0.07055976053648438,
        0.0006019103922436638
    ],
    [
        "1_2",
        "XY",
        "3060",
        127.38628551513271,
        0.831771664248981,
        0.07601241100028655,
        0.0005811238735925481
    ],
    [
        "1_2",
        "XY",
        "3081",
        127.7551507405999,
        0.8579958811708382,
        0.07324422885226477,
        0.0005731714855278841
    ],
    [
        "1_2",
        "XY",
        "3102",
        126.91650692440291,
        0.8250025127628446,
        0.07868488582069118,
        0.000600937562302306
    ],
    [
        "1_2",
        "XY",
        "3123",
        127.15359243285384,
        0.837349429261469,
        0.07826202979506475,
        0.0006130499104377878
    ],
    [
        "1_2",
        "XY",
        "3144",
        126.96457029046768,
        0.7581071896914686,
        0.08145849544034255,
        0.000582898455984081
    ]
]