[
    [
        "XscanNumber_YscanNumber",
        "Type",
        "BCID",
        "xsec",
        "xsecErr",
        "SBIL",
        "SBILErr"
    ],
    [
        "1_2",
        "XY",
        "103",
        128.00668051060885,
        1.0449350551388352,
        0.06514004118607407,
        0.0006206815562725295
    ],
    [
        "1_2",
        "XY",
        "124",
        127.04020032570367,
        0.9802423600499816,
        0.08100898795149741,
        0.000722207978279186
    ],
    [
        "1_2",
        "XY",
        "145",
        125.69894266974487,
        1.1350339377992649,
        0.06605698996446793,
        0.0006871092942563497
    ],
    [
        "1_2",
        "XY",
        "166",
        127.61175650194284,
        1.0279307671844793,
        0.07561612391972448,
        0.0007071143225183664
    ],
    [
        "1_2",
        "XY",
        "187",
        125.68581780905589,
        1.130317487320951,
        0.06676651258007248,
        0.0006994251583614761
    ],
    [
        "1_2",
        "XY",
        "208",
        127.98819325310359,
        1.1078423246365774,
        0.06890484137660104,
        0.0006745189022918175
    ],
    [
        "1_2",
        "XY",
        "229",
        125.79670873031998,
        1.2778732827829413,
        0.07106200744885706,
        0.0008298743403244946
    ],
    [
        "1_2",
        "XY",
        "250",
        125.97593566738894,
        1.0393405063238423,
        0.0781625989332586,
        0.0007533796166343705
    ],
    [
        "1_2",
        "XY",
        "282",
        127.21198640912888,
        1.0432239805526575,
        0.0766241650257477,
        0.0007257121631020347
    ],
    [
        "1_2",
        "XY",
        "303",
        126.73903099953841,
        1.0631719615701487,
        0.07979451240922547,
        0.0007748230744009507
    ],
    [
        "1_2",
        "XY",
        "324",
        126.35408615874672,
        1.0736290576928913,
        0.07104742878205442,
        0.0006960895867099741
    ],
    [
        "1_2",
        "XY",
        "345",
        125.24788939845692,
        1.173409506228882,
        0.08138521565046589,
        0.0008846595612288758
    ],
    [
        "1_2",
        "XY",
        "366",
        126.33391116572822,
        1.039417836641412,
        0.07373079561942746,
        0.0006948957763441008
    ],
    [
        "1_2",
        "XY",
        "387",
        126.35285209503031,
        0.9517913078293032,
        0.08039384610645763,
        0.0006935646013305924
    ],
    [
        "1_2",
        "XY",
        "408",
        126.38908536881459,
        1.147836406275029,
        0.06984709836544589,
        0.0007290205713187997
    ],
    [
        "1_2",
        "XY",
        "429",
        125.75607683326602,
        0.9391027749111311,
        0.07746147232070603,
        0.0006713397331165761
    ],
    [
        "1_2",
        "XY",
        "464",
        125.63426498021313,
        1.0507644375170322,
        0.07651284930212934,
        0.0007463756397213116
    ],
    [
        "1_2",
        "XY",
        "485",
        127.8290882848216,
        0.9131390038859631,
        0.07801815141864765,
        0.0006397531447073205
    ],
    [
        "1_2",
        "XY",
        "506",
        126.75691091600987,
        1.0230269574598005,
        0.06756717999308512,
        0.0006341358554052462
    ],
    [
        "1_2",
        "XY",
        "527",
        126.08500628415915,
        1.0152956032320517,
        0.07572681860135042,
        0.0007120687406830474
    ],
    [
        "1_2",
        "XY",
        "548",
        127.60660889040788,
        0.964888069806043,
        0.07336360714652176,
        0.0006459501084890261
    ],
    [
        "1_2",
        "XY",
        "569",
        126.03466462293615,
        1.015179074441623,
        0.08331097080755642,
        0.0007890689210072079
    ],
    [
        "1_2",
        "XY",
        "590",
        126.16719687307852,
        0.9865073403335506,
        0.07171050367272393,
        0.0006405160631430553
    ],
    [
        "1_2",
        "XY",
        "611",
        125.92936279677848,
        0.9572343754907604,
        0.07928633117456134,
        0.0007065760418756515
    ],
    [
        "1_2",
        "XY",
        "643",
        127.26490017627056,
        0.9945453635297642,
        0.06947960701439307,
        0.0006299410799575686
    ],
    [
        "1_2",
        "XY",
        "664",
        127.92881261871383,
        0.9111042346350952,
        0.07758859230699033,
        0.0006558001404857305
    ],
    [
        "1_2",
        "XY",
        "685",
        126.13570193905475,
        1.1740158352498298,
        0.06807767284657286,
        0.0007252646723015211
    ],
    [
        "1_2",
        "XY",
        "706",
        127.15019325677873,
        0.9855774000210168,
        0.07150673472547428,
        0.0006475685762298476
    ],
    [
        "1_2",
        "XY",
        "727",
        125.38133114228147,
        1.1102760073721718,
        0.07196662440210864,
        0.0007437112079080099
    ],
    [
        "1_2",
        "XY",
        "748",
        126.54952157518899,
        0.8661428180499787,
        0.08012486298678712,
        0.0006302361735119789
    ],
    [
        "1_2",
        "XY",
        "769",
        126.78118927915365,
        1.1884393781990217,
        0.0651067602243009,
        0.0006886343909172576
    ],
    [
        "1_2",
        "XY",
        "790",
        126.21683539674198,
        0.9186243209237341,
        0.07355605108650017,
        0.0006196480162614976
    ],
    [
        "1_2",
        "XY",
        "822",
        127.30277798690713,
        0.9560961979888511,
        0.06754464843336921,
        0.0005802252639047657
    ],
    [
        "1_2",
        "XY",
        "843",
        127.98690015145505,
        0.8583344322859517,
        0.0786611282681201,
        0.0006052275938978755
    ],
    [
        "1_2",
        "XY",
        "864",
        126.537879099311,
        1.0594300243162182,
        0.07141814243194458,
        0.0006907151353567998
    ],
    [
        "1_2",
        "XY",
        "885",
        126.91515654236076,
        0.9305589963910458,
        0.08105563766692472,
        0.0007021009028062682
    ],
    [
        "1_2",
        "XY",
        "906",
        125.93949973825848,
        1.1435202277615482,
        0.07085432406035856,
        0.000742030362354697
    ],
    [
        "1_2",
        "XY",
        "927",
        126.80251080228406,
        0.9461201130289743,
        0.080053415260756,
        0.0007074230930201721
    ],
    [
        "1_2",
        "XY",
        "948",
        126.249468134513,
        0.9773124723082005,
        0.07008099949993608,
        0.0006308918674999598
    ],
    [
        "1_2",
        "XY",
        "969",
        126.34190247773618,
        0.9095092631618527,
        0.07841683362655646,
        0.0006417557727048476
    ],
    [
        "1_2",
        "XY",
        "1018",
        126.25503168153325,
        0.8418764401199385,
        0.0763449715083304,
        0.0005726155815898611
    ],
    [
        "1_2",
        "XY",
        "1039",
        126.10026873469789,
        1.0007655289867876,
        0.07917910233721419,
        0.0007281571756094379
    ],
    [
        "1_2",
        "XY",
        "1060",
        126.25877549186907,
        1.0168685918191236,
        0.07140342276319238,
        0.0006736512551797167
    ],
    [
        "1_2",
        "XY",
        "1081",
        127.26119795573291,
        0.9628380757808523,
        0.07855853439688117,
        0.0006816304008858178
    ],
    [
        "1_2",
        "XY",
        "1102",
        126.46828344789623,
        1.0399126929325881,
        0.06951663468001264,
        0.0006638225136649698
    ],
    [
        "1_2",
        "XY",
        "1123",
        126.07954479298196,
        0.8995859827736805,
        0.07640511191400814,
        0.0006282654651962319
    ],
    [
        "1_2",
        "XY",
        "1144",
        126.08977923340699,
        1.2168134838862636,
        0.07101870631396814,
        0.0007847555802179464
    ],
    [
        "1_2",
        "XY",
        "1165",
        127.10174921009727,
        0.9419387753739376,
        0.0813828328984449,
        0.0006880499401331886
    ],
    [
        "1_2",
        "XY",
        "1197",
        126.69594431812284,
        0.9978535154300404,
        0.07265939284816213,
        0.000653324462888787
    ],
    [
        "1_2",
        "XY",
        "1218",
        128.65769704822407,
        2.3005582057679725,
        0.07882470063379689,
        0.0014622226403348268
    ],
    [
        "1_2",
        "XY",
        "1239",
        126.32831338553675,
        0.9544148125850742,
        0.07026281018958214,
        0.0006205766458155102
    ],
    [
        "1_2",
        "XY",
        "1260",
        126.96548536256516,
        1.016255328084,
        0.07931223802839121,
        0.000732857120933152
    ],
    [
        "1_2",
        "XY",
        "1281",
        126.3948991430852,
        1.0718488197219946,
        0.07201956053743142,
        0.0006971002983588673
    ],
    [
        "1_2",
        "XY",
        "1302",
        126.81368644213593,
        0.9776564174834295,
        0.08017583667438048,
        0.0007094132961914842
    ],
    [
        "1_2",
        "XY",
        "1323",
        126.43275330350079,
        1.0759685203623912,
        0.0662137558294483,
        0.0006354802578650908
    ],
    [
        "1_2",
        "XY",
        "1344",
        126.91897125991561,
        0.940490834813875,
        0.07843437589118812,
        0.0006739273883783744
    ],
    [
        "1_2",
        "XY",
        "1376",
        126.81193033022282,
        1.1006489626339777,
        0.07388901880786991,
        0.0007386888727786511
    ],
    [
        "1_2",
        "XY",
        "1397",
        128.39013250724764,
        1.0795823881374522,
        0.06915684800206463,
        0.0006569830290240037
    ],
    [
        "1_2",
        "XY",
        "1418",
        128.1798319417907,
        0.9391210542212638,
        0.07351538332279031,
        0.0006227619617627357
    ],
    [
        "1_2",
        "XY",
        "1439",
        127.38341294157358,
        1.0845025607274401,
        0.06648197995943485,
        0.0006613325658569124
    ],
    [
        "1_2",
        "XY",
        "1460",
        126.2691738196739,
        0.9985252184423999,
        0.07224407417795335,
        0.0006663005001501288
    ],
    [
        "1_2",
        "XY",
        "1481",
        126.95866646618671,
        1.0879016869144655,
        0.0790898663596881,
        0.0007918778971799022
    ],
    [
        "1_2",
        "XY",
        "1502",
        127.05538605629681,
        1.0607756164429905,
        0.07063882760186634,
        0.0006822630182076628
    ],
    [
        "1_2",
        "XY",
        "1523",
        129.91244077888342,
        1.0273970228520752,
        0.06287063584056073,
        0.0005751926794615019
    ],
    [
        "1_2",
        "XY",
        "1555",
        128.37014957737523,
        1.044022960999804,
        0.06641250053898877,
        0.0006257138723292684
    ],
    [
        "1_2",
        "XY",
        "1576",
        127.82336627972515,
        0.9153334281306476,
        0.06930006088216241,
        0.0005770175104351786
    ],
    [
        "1_2",
        "XY",
        "1597",
        128.32993176795938,
        1.1492988685776242,
        0.061373112333233316,
        0.0006436508552911264
    ],
    [
        "1_2",
        "XY",
        "1618",
        128.71946336543132,
        1.1301488062966158,
        0.06711397920816796,
        0.000685585212288939
    ],
    [
        "1_2",
        "XY",
        "1639",
        126.07244824532447,
        0.9064314133784667,
        0.08013856811327992,
        0.0006606247706179388
    ],
    [
        "1_2",
        "XY",
        "1660",
        127.5664546626593,
        1.0774596599147561,
        0.07657788568979532,
        0.0007487279020564662
    ],
    [
        "1_2",
        "XY",
        "1681",
        126.30809199158914,
        1.028213574857048,
        0.07759265878113283,
        0.0007169101151958368
    ],
    [
        "1_2",
        "XY",
        "1702",
        127.06133291048899,
        0.9382677991016573,
        0.08252826734869612,
        0.0007115333801933339
    ],
    [
        "1_2",
        "XY",
        "1734",
        126.79454795956848,
        1.002641979537303,
        0.07453933680469015,
        0.0006852329709748205
    ],
    [
        "1_2",
        "XY",
        "1755",
        129.658685225196,
        1.1018164693777097,
        0.061053042800841416,
        0.0005958462364304366
    ],
    [
        "1_2",
        "XY",
        "1776",
        125.84103439427172,
        1.03548158025004,
        0.07649363605141356,
        0.0007205518127837829
    ],
    [
        "1_2",
        "XY",
        "1797",
        126.6990779828127,
        0.8970598642540125,
        0.08188026328248933,
        0.0006601767486124077
    ],
    [
        "1_2",
        "XY",
        "1818",
        129.2763410563546,
        1.0393714012259996,
        0.06819834473949653,
        0.0006335734849991687
    ],
    [
        "1_2",
        "XY",
        "1839",
        129.4839647719695,
        1.0956085260618693,
        0.0623026930656434,
        0.0006094324775197378
    ],
    [
        "1_2",
        "XY",
        "1860",
        127.12124850834552,
        1.0317327801770104,
        0.07371306625995533,
        0.000684996811714945
    ],
    [
        "1_2",
        "XY",
        "1881",
        127.67452070956958,
        0.9524149490781488,
        0.07548429661061595,
        0.000650889015208763
    ],
    [
        "1_2",
        "XY",
        "1916",
        128.2513332460747,
        1.012611880206482,
        0.06853769754714283,
        0.000618183401580917
    ],
    [
        "1_2",
        "XY",
        "1937",
        129.07202322458446,
        1.0089485308542252,
        0.06216473620098671,
        0.0005545179407056573
    ],
    [
        "1_2",
        "XY",
        "1958",
        128.10535021094427,
        0.9657826875962376,
        0.07212329983307042,
        0.0006255237742901011
    ],
    [
        "1_2",
        "XY",
        "1979",
        126.85619882041335,
        1.0527954624656568,
        0.07538529238509972,
        0.0007214273189088187
    ],
    [
        "1_2",
        "XY",
        "2000",
        127.507393717428,
        0.9555519444991976,
        0.07765787239882493,
        0.0006623476926156677
    ],
    [
        "1_2",
        "XY",
        "2021",
        125.75932163569105,
        0.9424581898682423,
        0.08226470315579087,
        0.0007188327944343064
    ],
    [
        "1_2",
        "XY",
        "2042",
        127.15890266505737,
        0.9432341686670427,
        0.07177958639610803,
        0.0006271750785557034
    ],
    [
        "1_2",
        "XY",
        "2063",
        126.55676238420544,
        0.9391626957331836,
        0.08079855628402392,
        0.0006992648407111949
    ],
    [
        "1_2",
        "XY",
        "2095",
        128.29213603284225,
        0.9322074940976841,
        0.07549052981537496,
        0.0006235018290216569
    ],
    [
        "1_2",
        "XY",
        "2116",
        126.94280874006485,
        1.0841179830860763,
        0.07686426860117238,
        0.000756976317567243
    ],
    [
        "1_2",
        "XY",
        "2137",
        126.43624070447584,
        1.0455066650381577,
        0.07521435546742684,
        0.0007191754259617003
    ],
    [
        "1_2",
        "XY",
        "2158",
        127.38257695047712,
        1.0029968824864546,
        0.07896507072913449,
        0.0007331179599657328
    ],
    [
        "1_2",
        "XY",
        "2179",
        127.51923698142399,
        0.7476092262131083,
        0.07695584865869208,
        0.0005283277477550481
    ],
    [
        "1_2",
        "XY",
        "2200",
        128.37582839055634,
        1.1017880366609754,
        0.0786254874766364,
        0.0007539132905580023
    ],
    [
        "1_2",
        "XY",
        "2221",
        126.91822524877733,
        0.9382058189430006,
        0.07801336773650362,
        0.0006681039800200373
    ],
    [
        "1_2",
        "XY",
        "2242",
        127.88481564041638,
        0.9899372066800252,
        0.08011771211178328,
        0.0007047492208653676
    ],
    [
        "1_2",
        "XY",
        "2274",
        126.79882942197386,
        1.1024400497774143,
        0.07844969347225333,
        0.0007741912364482773
    ],
    [
        "1_2",
        "XY",
        "2295",
        127.30247680618989,
        0.9236119964152828,
        0.07227377321839139,
        0.0005996471466506852
    ],
    [
        "1_2",
        "XY",
        "2316",
        126.30810354646579,
        0.9703622467025939,
        0.0765892448828917,
        0.0006865662400523771
    ],
    [
        "1_2",
        "XY",
        "2337",
        128.96880158505363,
        0.7613157719522256,
        0.06847394894147496,
        0.000453561056285666
    ],
    [
        "1_2",
        "XY",
        "2358",
        129.63398237007274,
        1.0872412971900691,
        0.06491160284402228,
        0.0006178400223944998
    ],
    [
        "1_2",
        "XY",
        "2379",
        126.20101635960265,
        0.8950450930408581,
        0.07238452899381174,
        0.000589101675455021
    ],
    [
        "1_2",
        "XY",
        "2400",
        126.50082120051775,
        0.9117234247564492,
        0.07317684250688192,
        0.0006056723619144963
    ],
    [
        "1_2",
        "XY",
        "2421",
        126.70667379252357,
        0.8915913261443443,
        0.07871637470283815,
        0.0006339818395698316
    ],
    [
        "1_2",
        "XY",
        "2453",
        126.66086279127016,
        0.9642676824223162,
        0.07326646444538398,
        0.0006477823651922377
    ],
    [
        "1_2",
        "XY",
        "2474",
        127.2480262052324,
        0.9793673967941109,
        0.08165843793633666,
        0.0007287273466230289
    ],
    [
        "1_2",
        "XY",
        "2495",
        128.0998395548476,
        1.0368285700831013,
        0.07121174811145493,
        0.0006558258019556765
    ],
    [
        "1_2",
        "XY",
        "2516",
        125.65822826738942,
        0.9591853036201885,
        0.07835788243165923,
        0.000701114206509199
    ],
    [
        "1_2",
        "XY",
        "2537",
        126.51351672615604,
        1.0654556964220459,
        0.0787364599683567,
        0.0007716223537267157
    ],
    [
        "1_2",
        "XY",
        "2558",
        126.61329971564541,
        1.0422917785964776,
        0.08488179330781538,
        0.000820865933676893
    ],
    [
        "1_2",
        "XY",
        "2579",
        126.98566376317879,
        1.1260972344517943,
        0.08088247492740262,
        0.0008180753140332161
    ],
    [
        "1_2",
        "XY",
        "2600",
        125.88826027552136,
        0.9084988315126691,
        0.08351458721423315,
        0.0006962142965450807
    ],
    [
        "1_2",
        "XY",
        "2632",
        127.69614328104946,
        0.9981313365023224,
        0.07053059018835652,
        0.0006258302163375439
    ],
    [
        "1_2",
        "XY",
        "2653",
        127.33668545979265,
        0.9666341047674106,
        0.07686360774532071,
        0.0006749872519773721
    ],
    [
        "1_2",
        "XY",
        "2674",
        129.32601543548438,
        1.0100253364481258,
        0.06959645651340922,
        0.0006182588340357386
    ],
    [
        "1_2",
        "XY",
        "2695",
        126.28174223428908,
        1.0278401936800923,
        0.08312878718702017,
        0.0007783355894046914
    ],
    [
        "1_2",
        "XY",
        "2716",
        129.1023788897318,
        1.0214280128249016,
        0.06875426503928073,
        0.0006126059373252666
    ],
    [
        "1_2",
        "XY",
        "2737",
        125.57324410696867,
        0.9491271521186192,
        0.08000441153174417,
        0.00070623219007893
    ],
    [
        "1_2",
        "XY",
        "2758",
        127.48827228370969,
        0.9361964035199715,
        0.07496201873312974,
        0.000644900513759504
    ],
    [
        "1_2",
        "XY",
        "2779",
        126.36475161538227,
        1.0077858869554759,
        0.08007109481317763,
        0.0007447624349685561
    ],
    [
        "1_2",
        "XY",
        "2818",
        125.29359653766718,
        1.0136248649961033,
        0.07997788196622521,
        0.0007495026410123107
    ],
    [
        "1_2",
        "XY",
        "2839",
        126.76672843651252,
        0.8964007015848872,
        0.08230344571026123,
        0.000683894219989953
    ],
    [
        "1_2",
        "XY",
        "2860",
        127.53460530732347,
        1.0037272802527546,
        0.07718113909328986,
        0.0007010377778489074
    ],
    [
        "1_2",
        "XY",
        "2881",
        126.38715263886942,
        0.9978060016474521,
        0.08237436235463003,
        0.0007448043335419219
    ],
    [
        "1_2",
        "XY",
        "2902",
        126.66783845967848,
        1.0701114349363627,
        0.07794543858067603,
        0.0007722279926702649
    ],
    [
        "1_2",
        "XY",
        "2923",
        125.58654671054992,
        0.808196819371164,
        0.08164654600805442,
        0.0006170696987318022
    ],
    [
        "1_2",
        "XY",
        "2944",
        128.38422213210035,
        0.9697478381237701,
        0.07452714774546602,
        0.0006541335527736402
    ],
    [
        "1_2",
        "XY",
        "2965",
        127.63794191139542,
        0.9353030774544216,
        0.07353575350238746,
        0.0006249235826181072
    ],
    [
        "1_2",
        "XY",
        "2997",
        126.9108324217861,
        0.9681684485244523,
        0.07631303857199172,
        0.0006805884248323538
    ],
    [
        "1_2",
        "XY",
        "3018",
        126.50832295631962,
        0.8750680066207152,
        0.08096673543088016,
        0.0006487955824439872
    ],
    [
        "1_2",
        "XY",
        "3039",
        127.14550479749795,
        1.059911355411116,
        0.07098581920694104,
        0.000682578199463654
    ],
    [
        "1_2",
        "XY",
        "3060",
        125.98008097140604,
        1.0350556089968324,
        0.07788617724386952,
        0.0007319790740015776
    ],
    [
        "1_2",
        "XY",
        "3081",
        126.84226361559537,
        0.9913148895190327,
        0.0744309631643608,
        0.0006652468717279651
    ],
    [
        "1_2",
        "XY",
        "3102",
        126.22177390476563,
        1.6320554292104468,
        0.08005016730758537,
        0.0010989568679055388
    ],
    [
        "1_2",
        "XY",
        "3123",
        126.68353883417576,
        0.9648020207184487,
        0.07937247555809666,
        0.0007094206308724399
    ],
    [
        "1_2",
        "XY",
        "3144",
        126.54278377234185,
        0.8666705902746064,
        0.08243890056334527,
        0.0006641155899119775
    ]
]