[
    [
        "XscanNumber_YscanNumber",
        "Type",
        "BCID",
        "xsec",
        "xsecErr",
        "SBIL",
        "SBILErr"
    ],
    [
        "1_2",
        "XY",
        "103",
        133.79670574791615,
        0.8946150196619284,
        0.07229916068272689,
        0.0005501612654357999
    ],
    [
        "1_2",
        "XY",
        "124",
        133.81503476186055,
        0.8898046504632927,
        0.080044511963861,
        0.0006044379651629757
    ],
    [
        "1_2",
        "XY",
        "145",
        133.97948029565595,
        1.0330980347098775,
        0.06464065946135174,
        0.000566905257604892
    ],
    [
        "1_2",
        "XY",
        "166",
        134.26334609536124,
        0.8882678947146707,
        0.07578001357316427,
        0.0005717485813150218
    ],
    [
        "1_2",
        "XY",
        "187",
        132.64117605928624,
        1.0799878995412695,
        0.06581396154501612,
        0.0006078373436555845
    ],
    [
        "1_2",
        "XY",
        "208",
        133.53331481901967,
        0.8704308301828777,
        0.07522186812828474,
        0.0005583549563989715
    ],
    [
        "1_2",
        "XY",
        "229",
        133.51711667579747,
        0.8369475590378411,
        0.07025223092598541,
        0.0004967216202477997
    ],
    [
        "1_2",
        "XY",
        "250",
        133.425670661974,
        0.9224726890871985,
        0.07871055927821761,
        0.0006169331998419129
    ],
    [
        "1_2",
        "XY",
        "282",
        134.77984129781052,
        0.936922857917735,
        0.07245006469043662,
        0.0005728934330625768
    ],
    [
        "1_2",
        "XY",
        "303",
        134.08923135561594,
        1.0050696501127423,
        0.07910544662315563,
        0.0006785609380394503
    ],
    [
        "1_2",
        "XY",
        "324",
        133.01456014978172,
        0.9011969316929719,
        0.07173166117308336,
        0.0005518841353977342
    ],
    [
        "1_2",
        "XY",
        "345",
        134.09779713336056,
        0.8405461148226447,
        0.08215881910942836,
        0.0005932335106792863
    ],
    [
        "1_2",
        "XY",
        "366",
        133.62323994240268,
        0.9016172326017395,
        0.07315915694548546,
        0.0005581896339006132
    ],
    [
        "1_2",
        "XY",
        "387",
        134.09557186593426,
        0.8932425160572546,
        0.08151626532942292,
        0.0006194558303673758
    ],
    [
        "1_2",
        "XY",
        "408",
        132.71312794274525,
        0.9224430688884468,
        0.0690592077480674,
        0.0005456039437808539
    ],
    [
        "1_2",
        "XY",
        "429",
        133.67248076071357,
        0.8644936060455487,
        0.07868317898155673,
        0.0005785969389368641
    ],
    [
        "1_2",
        "XY",
        "464",
        132.96639505647465,
        0.9343187346852336,
        0.07368193587380467,
        0.0005831854745782715
    ],
    [
        "1_2",
        "XY",
        "485",
        134.440208927902,
        0.8787005108927005,
        0.07657748167559955,
        0.0005715893658492221
    ],
    [
        "1_2",
        "XY",
        "506",
        133.60430952311907,
        0.9679852983757827,
        0.06652282287745302,
        0.0005514951856593392
    ],
    [
        "1_2",
        "XY",
        "527",
        134.2907862780811,
        0.9095939498178186,
        0.07370673299718856,
        0.0005702552969272786
    ],
    [
        "1_2",
        "XY",
        "548",
        134.0393523216141,
        0.9553575251594866,
        0.07162725579817616,
        0.0005761057658786196
    ],
    [
        "1_2",
        "XY",
        "569",
        133.95212045112754,
        0.8362269326750663,
        0.08006535225454924,
        0.0005716957873452155
    ],
    [
        "1_2",
        "XY",
        "590",
        133.36077001542162,
        0.92080531438808,
        0.06950095378702711,
        0.0005435071017716401
    ],
    [
        "1_2",
        "XY",
        "611",
        133.18442237651234,
        0.840308523496049,
        0.07853315821901227,
        0.0005621403323574464
    ],
    [
        "1_2",
        "XY",
        "643",
        134.50665450832528,
        0.9105132357199772,
        0.07190237330642603,
        0.0005561182724483346
    ],
    [
        "1_2",
        "XY",
        "664",
        133.89859653457594,
        0.934892733377238,
        0.07603061237497886,
        0.0006023057774563909
    ],
    [
        "1_2",
        "XY",
        "685",
        133.32816671954336,
        1.0647837516629297,
        0.06597882436313011,
        0.0006014092996712606
    ],
    [
        "1_2",
        "XY",
        "706",
        134.74375853197486,
        0.9301953011390125,
        0.07193722240194193,
        0.0005569523748838977
    ],
    [
        "1_2",
        "XY",
        "727",
        133.4055994904331,
        0.9070916625705621,
        0.06899011677287582,
        0.0005385251892110999
    ],
    [
        "1_2",
        "XY",
        "748",
        132.74597790772282,
        0.9061677627579859,
        0.08008915109873686,
        0.0006241738056270565
    ],
    [
        "1_2",
        "XY",
        "769",
        132.6749923499903,
        0.9190121568859961,
        0.06333557021768785,
        0.0004984059768220814
    ],
    [
        "1_2",
        "XY",
        "790",
        133.7255845896789,
        0.8576556579115351,
        0.07227772619162877,
        0.0005247133344242725
    ],
    [
        "1_2",
        "XY",
        "822",
        133.84846173212753,
        0.9445147691764354,
        0.07408793332138242,
        0.0005973570235713071
    ],
    [
        "1_2",
        "XY",
        "843",
        134.3859192778844,
        0.920479358139368,
        0.07492356343551552,
        0.0005874728071675137
    ],
    [
        "1_2",
        "XY",
        "864",
        133.9967162873136,
        0.9661432108713078,
        0.06959466669176528,
        0.0005669101622592626
    ],
    [
        "1_2",
        "XY",
        "885",
        133.10964427596133,
        0.8851378867318336,
        0.08194254464871342,
        0.0006220601067071525
    ],
    [
        "1_2",
        "XY",
        "906",
        133.79681333645036,
        0.886393716034717,
        0.06784494508114437,
        0.0005127708898452611
    ],
    [
        "1_2",
        "XY",
        "927",
        133.47579604584453,
        0.8339635708978953,
        0.078018603109237,
        0.000552633350274378
    ],
    [
        "1_2",
        "XY",
        "948",
        132.49346561849052,
        0.9782433113734251,
        0.0693224195704917,
        0.0005872995658287806
    ],
    [
        "1_2",
        "XY",
        "969",
        133.33609395835543,
        0.8835982924738552,
        0.07724663821526037,
        0.0005782077933373154
    ],
    [
        "1_2",
        "XY",
        "1018",
        133.22915830441463,
        0.8936905626307521,
        0.07485758266374659,
        0.0005706454139142898
    ],
    [
        "1_2",
        "XY",
        "1039",
        134.05934789027972,
        0.8352620698479425,
        0.07943043405372488,
        0.0005598019314761153
    ],
    [
        "1_2",
        "XY",
        "1060",
        133.92347672566396,
        0.9284634944568555,
        0.07075753105593813,
        0.000555242037010507
    ],
    [
        "1_2",
        "XY",
        "1081",
        133.8066167028772,
        0.8412559807695547,
        0.07708474280205979,
        0.0005513198734853924
    ],
    [
        "1_2",
        "XY",
        "1102",
        132.8710876120907,
        0.9973944042028836,
        0.06954558375576388,
        0.0005955297770990775
    ],
    [
        "1_2",
        "XY",
        "1123",
        133.93293217733742,
        0.83891159791708,
        0.07566531746071536,
        0.0005404234713338778
    ],
    [
        "1_2",
        "XY",
        "1144",
        133.45948655936544,
        0.912002157418028,
        0.06970228302518819,
        0.0005400559848588335
    ],
    [
        "1_2",
        "XY",
        "1165",
        133.48255597645644,
        0.8677240797505072,
        0.0798563418121717,
        0.0005942481226339388
    ],
    [
        "1_2",
        "XY",
        "1197",
        132.95327952918686,
        0.9829139879591717,
        0.07317332896123514,
        0.0006154806075422682
    ],
    [
        "1_2",
        "XY",
        "1218",
        133.75552057559912,
        0.851133324190927,
        0.07982081259671939,
        0.0005784974536879009
    ],
    [
        "1_2",
        "XY",
        "1239",
        133.6113239904997,
        0.956613799932362,
        0.06990095954034271,
        0.000571368476229541
    ],
    [
        "1_2",
        "XY",
        "1260",
        134.57624855425263,
        0.8851709985547648,
        0.078414504909294,
        0.0005908851953214454
    ],
    [
        "1_2",
        "XY",
        "1281",
        133.4979369568722,
        0.909665346198519,
        0.07164647055148775,
        0.0005497995353622105
    ],
    [
        "1_2",
        "XY",
        "1302",
        134.39184355309663,
        0.8484515606515236,
        0.07984845134461742,
        0.0005770896329065343
    ],
    [
        "1_2",
        "XY",
        "1323",
        133.47225787341122,
        1.0135448556740498,
        0.06625229193726473,
        0.00057713047111885
    ],
    [
        "1_2",
        "XY",
        "1344",
        133.62376978318014,
        0.9930510310510595,
        0.07611271265034018,
        0.0006398931983143132
    ],
    [
        "1_2",
        "XY",
        "1376",
        133.39370403157298,
        1.0155919101736,
        0.07177044148167466,
        0.0006148983916048147
    ],
    [
        "1_2",
        "XY",
        "1397",
        135.01878043842635,
        0.9513429471795307,
        0.07799724280459541,
        0.0006227815630352275
    ],
    [
        "1_2",
        "XY",
        "1418",
        133.28622729600582,
        0.9815404868170041,
        0.07251276730789051,
        0.0006077352128608307
    ],
    [
        "1_2",
        "XY",
        "1439",
        133.86070473928882,
        0.872381088419492,
        0.07581131085090313,
        0.0005537070575157636
    ],
    [
        "1_2",
        "XY",
        "1460",
        133.51653125265162,
        0.9672662255342438,
        0.06969883882452009,
        0.0005760123198065905
    ],
    [
        "1_2",
        "XY",
        "1481",
        132.67430492865378,
        0.8701951662326813,
        0.07762090177586041,
        0.0005792632381098366
    ],
    [
        "1_2",
        "XY",
        "1502",
        133.13092452516514,
        0.9615990596036037,
        0.06916030150626816,
        0.0005650705449188774
    ],
    [
        "1_2",
        "XY",
        "1523",
        133.88217415473747,
        0.8751577561870182,
        0.07215337378321365,
        0.0005337415306088005
    ],
    [
        "1_2",
        "XY",
        "1555",
        134.78873270647063,
        0.8566006651967636,
        0.07117725535293642,
        0.0005111620400201757
    ],
    [
        "1_2",
        "XY",
        "1576",
        134.43211831645948,
        1.0048774122405886,
        0.06939119449748203,
        0.0005874703320532865
    ],
    [
        "1_2",
        "XY",
        "1597",
        134.75643065049448,
        0.9216425334162623,
        0.06970284586241102,
        0.0005428653746008311
    ],
    [
        "1_2",
        "XY",
        "1618",
        133.82680728734107,
        0.8846448597263142,
        0.07475569154746041,
        0.0005592254692513593
    ],
    [
        "1_2",
        "XY",
        "1639",
        133.27084405645022,
        0.9479326693292116,
        0.07882192351901164,
        0.0006372551227659224
    ],
    [
        "1_2",
        "XY",
        "1660",
        134.07302838903314,
        0.8455627834634708,
        0.08214021944213967,
        0.0005867557093264501
    ],
    [
        "1_2",
        "XY",
        "1681",
        132.99422458348437,
        0.9646636214760506,
        0.07515758276056049,
        0.0006198487827885953
    ],
    [
        "1_2",
        "XY",
        "1702",
        133.2570961840806,
        0.8575593446035009,
        0.08125932607520188,
        0.0005976606174258209
    ],
    [
        "1_2",
        "XY",
        "1734",
        134.8987445686815,
        0.8948950735163342,
        0.07190003162663296,
        0.0005409123596142059
    ],
    [
        "1_2",
        "XY",
        "1755",
        133.76011702949486,
        0.9142232424028602,
        0.07368970305723535,
        0.0005677640856177665
    ],
    [
        "1_2",
        "XY",
        "1776",
        134.32179522068037,
        0.9020874386187953,
        0.073066596963131,
        0.0005527209830712821
    ],
    [
        "1_2",
        "XY",
        "1797",
        133.648819573928,
        0.9219534043537525,
        0.08135275982166974,
        0.0006436418748418262
    ],
    [
        "1_2",
        "XY",
        "1818",
        133.91735266023608,
        0.8869815306300362,
        0.07458578085360709,
        0.0005589261435424198
    ],
    [
        "1_2",
        "XY",
        "1839",
        135.9079119842234,
        0.9080326941186846,
        0.06511032739495873,
        0.000493365539241623
    ],
    [
        "1_2",
        "XY",
        "1860",
        133.34371248267482,
        0.9445018555781254,
        0.07683813765523752,
        0.0006182722566002482
    ],
    [
        "1_2",
        "XY",
        "1881",
        133.97217788965082,
        0.8701597518503748,
        0.0796487224379715,
        0.0005859054234981254
    ],
    [
        "1_2",
        "XY",
        "1916",
        133.9985819732746,
        0.9037772235892692,
        0.07391829751661902,
        0.0005675129341095131
    ],
    [
        "1_2",
        "XY",
        "1937",
        134.64750781748864,
        0.8675799016656641,
        0.07222523538961104,
        0.000527953554013749
    ],
    [
        "1_2",
        "XY",
        "1958",
        133.3488963315122,
        0.933227807052409,
        0.07115693874375852,
        0.0005650936843490167
    ],
    [
        "1_2",
        "XY",
        "1979",
        134.4586988718057,
        0.9141694214977848,
        0.07690932401209305,
        0.0005967027685282886
    ],
    [
        "1_2",
        "XY",
        "2000",
        132.97205233006542,
        0.8895667155963817,
        0.07638749446093812,
        0.0005817444112638651
    ],
    [
        "1_2",
        "XY",
        "2021",
        133.54796328066203,
        0.9060583465181353,
        0.08009989023347121,
        0.0006150332984257334
    ],
    [
        "1_2",
        "XY",
        "2042",
        133.413603071478,
        0.8577528332034922,
        0.07418984136415976,
        0.0005384010192854899
    ],
    [
        "1_2",
        "XY",
        "2063",
        133.1230811647697,
        0.9233929052207432,
        0.08012083866600532,
        0.0006306568616628618
    ],
    [
        "1_2",
        "XY",
        "2095",
        133.03357228877184,
        0.9764747206412068,
        0.07386789644641684,
        0.0006130742430944559
    ],
    [
        "1_2",
        "XY",
        "2116",
        133.02980840222958,
        0.937172937199415,
        0.07729251983142121,
        0.0006181985711949347
    ],
    [
        "1_2",
        "XY",
        "2137",
        133.53329170818196,
        0.8946274358356815,
        0.07267429210641965,
        0.0005538474460693022
    ],
    [
        "1_2",
        "XY",
        "2158",
        133.56738607562022,
        0.8525543201999629,
        0.07898938096867501,
        0.0005756407274867229
    ],
    [
        "1_2",
        "XY",
        "2179",
        134.18605021826082,
        0.9205751789584782,
        0.07408162940567703,
        0.000580852840711177
    ],
    [
        "1_2",
        "XY",
        "2200",
        133.40485966119445,
        0.8701798948215658,
        0.08148301391340639,
        0.0006022381906452194
    ],
    [
        "1_2",
        "XY",
        "2221",
        133.7844105303434,
        0.9073778825711883,
        0.0750801555298097,
        0.0005793546271107822
    ],
    [
        "1_2",
        "XY",
        "2242",
        133.45178616571135,
        0.8899251402585727,
        0.07966778612234302,
        0.0006090810961025171
    ],
    [
        "1_2",
        "XY",
        "2274",
        133.5881711790453,
        0.9013513404156789,
        0.07546638416595577,
        0.0005794849031547952
    ],
    [
        "1_2",
        "XY",
        "2295",
        133.0539306941532,
        0.8522293190210308,
        0.08093385436675767,
        0.0005879128671242586
    ],
    [
        "1_2",
        "XY",
        "2316",
        133.29070420656794,
        0.850615615875103,
        0.07477004542903491,
        0.0005421145109925057
    ],
    [
        "1_2",
        "XY",
        "2337",
        133.21350606570496,
        0.8368315046026616,
        0.0789313554076474,
        0.00056467870620261
    ],
    [
        "1_2",
        "XY",
        "2358",
        134.23598002152713,
        0.8967221135530918,
        0.07295380031064082,
        0.0005541316294396073
    ],
    [
        "1_2",
        "XY",
        "2379",
        132.92659758532943,
        0.8550333259538596,
        0.0799840337491679,
        0.0005800671682591463
    ],
    [
        "1_2",
        "XY",
        "2400",
        132.58080568534527,
        0.9769283964684957,
        0.07212853185455101,
        0.0006049529078460284
    ],
    [
        "1_2",
        "XY",
        "2421",
        134.11717395656217,
        0.8371858806971697,
        0.07830768253097514,
        0.0005584177017734813
    ],
    [
        "1_2",
        "XY",
        "2453",
        132.8335817163432,
        0.9195217062266743,
        0.07781377227083867,
        0.0006103690082172326
    ],
    [
        "1_2",
        "XY",
        "2474",
        133.23926094062318,
        0.8295855331987408,
        0.08228220330939466,
        0.0005835782494732232
    ],
    [
        "1_2",
        "XY",
        "2495",
        134.03943870442419,
        0.9187456907692156,
        0.07371507364705719,
        0.00057825842659162
    ],
    [
        "1_2",
        "XY",
        "2516",
        134.0232664289798,
        0.8777552960991425,
        0.07999884380301166,
        0.0005953688698754374
    ],
    [
        "1_2",
        "XY",
        "2537",
        133.40402014190704,
        0.9160764841073529,
        0.07590777742077078,
        0.0005978235319449246
    ],
    [
        "1_2",
        "XY",
        "2558",
        132.88624477707455,
        0.8957731806577105,
        0.08393971384185035,
        0.0006470685077174859
    ],
    [
        "1_2",
        "XY",
        "2579",
        133.46155805715233,
        0.9311670621163755,
        0.07785862661400254,
        0.0006235897903435194
    ],
    [
        "1_2",
        "XY",
        "2600",
        134.04211558681038,
        0.9000936899503823,
        0.08149082326869297,
        0.000621653710189282
    ],
    [
        "1_2",
        "XY",
        "2632",
        133.8330794761488,
        0.9812146472720635,
        0.0752998284420677,
        0.000634540336861972
    ],
    [
        "1_2",
        "XY",
        "2653",
        133.5678869637071,
        0.904355073440658,
        0.07853928611570345,
        0.000605034294554172
    ],
    [
        "1_2",
        "XY",
        "2674",
        132.7519769560381,
        0.8910953111161727,
        0.0754975421681555,
        0.0005727624245374926
    ],
    [
        "1_2",
        "XY",
        "2695",
        133.6405024189647,
        0.8906271863165144,
        0.08342295348978299,
        0.0006351791888061057
    ],
    [
        "1_2",
        "XY",
        "2716",
        134.65731278912102,
        0.9686664012943711,
        0.07056298254461557,
        0.0005778085125520104
    ],
    [
        "1_2",
        "XY",
        "2737",
        133.73205434706128,
        0.8799053041410309,
        0.07921940401412088,
        0.0005976616175044421
    ],
    [
        "1_2",
        "XY",
        "2758",
        131.88448132543803,
        0.9970313585576167,
        0.07351704803431958,
        0.0006240939028021265
    ],
    [
        "1_2",
        "XY",
        "2779",
        133.3314782659721,
        0.9113435375423738,
        0.07875932549456402,
        0.0006119901277382458
    ],
    [
        "1_2",
        "XY",
        "2818",
        133.03427175723803,
        0.8706713318298127,
        0.0770076268629401,
        0.0005693843822405105
    ],
    [
        "1_2",
        "XY",
        "2839",
        133.34352426620737,
        0.8315015149373018,
        0.0815438550675123,
        0.0005770567161350435
    ],
    [
        "1_2",
        "XY",
        "2860",
        133.63291920311656,
        0.8752833954734464,
        0.07531698267757582,
        0.0005643263564736512
    ],
    [
        "1_2",
        "XY",
        "2881",
        133.6728766106324,
        0.8230065936594092,
        0.08162926240653669,
        0.0005756589807706555
    ],
    [
        "1_2",
        "XY",
        "2902",
        133.1999709565336,
        0.8499005445153197,
        0.07688766725134835,
        0.0005565890187453524
    ],
    [
        "1_2",
        "XY",
        "2923",
        133.8151976981447,
        0.8203044795918153,
        0.08080989336728961,
        0.0005581722026593174
    ],
    [
        "1_2",
        "XY",
        "2944",
        133.8104025743838,
        0.9447605009819562,
        0.07318803828970484,
        0.0005888048837200203
    ],
    [
        "1_2",
        "XY",
        "2965",
        133.70164406027183,
        0.9364858026815386,
        0.07717525000615892,
        0.0006172617832724759
    ],
    [
        "1_2",
        "XY",
        "2997",
        134.28613973442964,
        0.9273234537972848,
        0.07372059631691298,
        0.0005842407867636359
    ],
    [
        "1_2",
        "XY",
        "3018",
        133.31183215070476,
        0.8175374796911362,
        0.07828243235981472,
        0.0005535781449856599
    ],
    [
        "1_2",
        "XY",
        "3039",
        132.6922073670555,
        1.0086553348071123,
        0.07123041161858562,
        0.000612831708704719
    ],
    [
        "1_2",
        "XY",
        "3060",
        133.5372570882143,
        0.9052680400025052,
        0.07660163220686611,
        0.0005868483932005311
    ],
    [
        "1_2",
        "XY",
        "3081",
        134.33154945746634,
        0.9660690911341929,
        0.07316335451458011,
        0.0005957306229411776
    ],
    [
        "1_2",
        "XY",
        "3102",
        134.22303581724614,
        0.895106530121537,
        0.08004370448578076,
        0.0006064371710866616
    ],
    [
        "1_2",
        "XY",
        "3123",
        133.0514137789254,
        0.8622872854996088,
        0.07642621583706818,
        0.0005664550206677308
    ],
    [
        "1_2",
        "XY",
        "3144",
        132.48356296294267,
        0.9293917454517154,
        0.08258323134399492,
        0.0006543114618833226
    ]
]