XscanNumber_YscanNumber,Type,BCID,xsec,xsecErr,SBIL,SBILErr
1_2,XY,103,3342.115850448765,15.789399398013616,0.06725085002083671,0.000375343761279785
1_2,XY,124,3319.362069267445,14.535450866095742,0.07590911583616515,0.0003882518370805868
1_2,XY,145,3282.7296486465993,16.542101765310846,0.06174518587130611,0.00036915675921949493
1_2,XY,166,3307.350047491846,15.767049727035767,0.07224181048042895,0.00040873759445514163
1_2,XY,187,3307.0810338380256,16.37041458863616,0.06166077831962903,0.0003524596813507857
1_2,XY,208,3279.7000123463276,15.741038941455546,0.07100597470568801,0.0003990880588302163
1_2,XY,229,3301.486670621688,16.19106168251532,0.06708278257043228,0.000385653787071917
1_2,XY,250,3290.9005912759776,15.524603661671605,0.07459554675587432,0.0004171505940449483
1_2,XY,282,3323.334205884547,15.989074192317881,0.06906756576760273,0.00038889711935782004
1_2,XY,303,3303.60077264342,15.18854519840948,0.07617976464788703,0.0004046504121408961
1_2,XY,324,3320.0262647852996,14.229204518247345,0.0681498156894815,0.0003395678891588761
1_2,XY,345,3316.6840315146433,14.821805716811351,0.07824047002015667,0.00041179922993832675
1_2,XY,366,3297.389701040782,16.164467836984468,0.06923471992550667,0.000402930459636924
1_2,XY,387,3293.6100670789015,14.779990331651389,0.07816861671407282,0.00041160539860814053
1_2,XY,408,3334.0785379752747,16.74463063262812,0.0644525809459167,0.0003768672783828153
1_2,XY,429,3338.0102577706157,15.545452730566431,0.07423866283791743,0.0004113624505024078
1_2,XY,464,3318.46986242709,15.939551649134835,0.06876081314506755,0.0003860592778701431
1_2,XY,485,3307.5559028499824,14.372635230456346,0.07403424876624938,0.00037817120774533727
1_2,XY,506,3295.582685254339,17.712912293453286,0.06308110530510931,0.0003975738408414371
1_2,XY,527,3248.8683254047123,15.9158292584216,0.07171351611838771,0.0004127610498322689
1_2,XY,548,3315.4984718512055,15.670880258169197,0.06765040952826139,0.0003735466153660412
1_2,XY,569,3307.2853155283656,14.999043298300496,0.07711843771181146,0.00041451392196840145
1_2,XY,590,3306.1934991358653,16.77742849550567,0.06582841951666164,0.0003916828009379968
1_2,XY,611,3307.829618787384,15.114455103925472,0.07455909521676354,0.0003990618887167165
1_2,XY,643,3310.4050403963106,15.356302153237824,0.06943233488941539,0.00037330665457731955
1_2,XY,664,3317.3315333090563,15.440851800939162,0.07272671827120053,0.0004015255458913362
1_2,XY,685,3301.2012512825927,16.704803745726647,0.061841411600981645,0.00036405781221708795
1_2,XY,706,3314.649231197219,15.876373961619727,0.06894897818429245,0.0003895853500616024
1_2,XY,727,3284.0998099933986,14.52386128023371,0.0664172053245088,0.00034068400776311795
1_2,XY,748,3292.3924721134854,15.666657160978067,0.07606084156074543,0.0004220203687689027
1_2,XY,769,3297.3903625975463,17.520426208828738,0.05970859428917231,0.0003668039446072913
1_2,XY,790,3272.7384001234273,15.54022466126504,0.06888490547117829,0.00038469725138685256
1_2,XY,822,3303.1324418940253,14.741423690669858,0.06985546240582194,0.00036492090568178426
1_2,XY,843,3304.4107442756263,14.46937090637766,0.07159700600323342,0.0003691073433259907
1_2,XY,864,3297.4314123974273,15.972079318623486,0.06641343781948572,0.0003767637082277548
1_2,XY,885,3289.282260957215,14.28538312273673,0.07820057436965405,0.0004031527507406616
1_2,XY,906,3285.097264506488,15.932141220771582,0.06490104989428429,0.0003681861484613444
1_2,XY,927,3286.175379342077,15.158687770896796,0.07519540823332116,0.0004053967721381867
1_2,XY,948,3306.0191826029672,16.01764984219975,0.06471402439168128,0.00036930612982847194
1_2,XY,969,3291.504579835281,15.115445340727199,0.07355680252199835,0.0003941297051224897
1_2,XY,1018,3304.9093083142325,14.22379069296916,0.07183148627436577,0.0003588509876296332
1_2,XY,1039,3294.5730742074297,14.828121476946423,0.07663646806147759,0.00040591721577997554
1_2,XY,1060,3301.92204106736,15.50732212174635,0.06778150680400943,0.0003702170059753926
1_2,XY,1081,3283.3965104546787,14.95073205390905,0.0745991211655234,0.000397963623499167
1_2,XY,1102,3292.168788959836,15.357112686238334,0.06620815551928802,0.0003615015811068296
1_2,XY,1123,3272.2479933894033,15.762636161844943,0.07313373411175977,0.000412814891970938
1_2,XY,1144,3302.528748233638,16.19076430272921,0.06659616419948004,0.0003867104670846804
1_2,XY,1165,3302.894321197607,15.861404439705877,0.07663986557653922,0.0004246085896570872
1_2,XY,1197,3290.5839989891806,15.086521189431926,0.07028577415430533,0.00037377166974412513
1_2,XY,1218,3320.5537556069444,14.388422868961237,0.0771412406322875,0.0003913573172527974
1_2,XY,1239,3290.581438679779,15.605231443460427,0.06770837698870055,0.00037789047416712145
1_2,XY,1260,3305.954142850213,14.530766203603635,0.0759208050616524,0.0003907980568943686
1_2,XY,1281,3286.7632712248146,16.03557327522011,0.06896668971943724,0.00038900029843329367
1_2,XY,1302,3297.580146190529,16.63803367740458,0.07757893502620586,0.0004607672413692873
1_2,XY,1323,3295.2292627429615,16.72200431719142,0.06259474090052594,0.000369696862724832
1_2,XY,1344,3299.068953194631,15.181529315927065,0.07248991535462643,0.000390894354805458
1_2,XY,1376,3319.4590623685995,16.26299019606456,0.06665118855066123,0.00038785339750639397
1_2,XY,1397,3313.505122117741,15.386284736177153,0.07463934074938312,0.0004100914448080424
1_2,XY,1418,3302.2140918663013,15.707901769647437,0.06935781035132718,0.000382603191073529
1_2,XY,1439,3306.2136245647844,14.60042151969655,0.07290228104733643,0.00037558468370546886
1_2,XY,1460,3311.183877934813,15.379834218982277,0.06616646015214869,0.0003530934146716938
1_2,XY,1481,3295.53015633941,15.983967725026181,0.07361974766696854,0.00041993968769584697
1_2,XY,1502,3313.5791186563265,15.798978092062004,0.06503975827316633,0.00036251492991669354
1_2,XY,1523,3306.9436823108567,14.426438872090673,0.06934376751813177,0.0003488365918173993
1_2,XY,1555,3322.6402647482096,14.741975987005516,0.06829892699750588,0.0003499063948601794
1_2,XY,1576,3318.135902090824,14.617796245604326,0.06557580594351076,0.000339797167409241
1_2,XY,1597,3333.945571830408,15.381415499540458,0.06651732084331516,0.00035805161195856625
1_2,XY,1618,3305.239165860673,15.728257718908372,0.07169383815132489,0.0004018813662636451
1_2,XY,1639,3301.5289458319958,15.04502489506509,0.07503373045146063,0.0003971324466808588
1_2,XY,1660,3326.7281844804966,15.062023837015573,0.07843037887700224,0.0004144444880012357
1_2,XY,1681,3306.0131480801933,15.59846069507778,0.07109825904275022,0.0003900115375446555
1_2,XY,1702,3307.6451235496847,14.757276904762197,0.07740374327291785,0.00040006316088767496
1_2,XY,1734,3305.0735048740353,15.952534843353067,0.06922922885278436,0.00039302668307939566
1_2,XY,1755,3296.486536186295,15.442593723967166,0.07078291791104403,0.0003876387624959334
1_2,XY,1776,3313.2483344081675,15.38951226913973,0.0697932058098117,0.0003824349958312454
1_2,XY,1797,3335.1870581479366,12.405186816475808,0.07671080775943245,0.00034334955591077185
1_2,XY,1818,3329.4057852589503,14.598685574291892,0.07086171242977744,0.0003601193454992241
1_2,XY,1839,3444.3286071326143,15.119713935380174,0.06778097764826371,0.00035094959860912703
1_2,XY,1860,3304.072168196309,15.33096141134792,0.07216126129335532,0.0003908932903088505
1_2,XY,1881,3287.9579297269906,14.976918417776105,0.07677066184052944,0.000413546175838345
1_2,XY,1916,3314.7308603053134,15.29066071045469,0.07052872195189305,0.0003785707685314622
1_2,XY,1937,3294.6129537583474,14.880771597852089,0.06960065277737948,0.0003669418026366024
1_2,XY,1958,3296.1686307110535,16.425215105279303,0.06815176040060651,0.0003954795226719321
1_2,XY,1979,3282.4785350791844,14.733126219123836,0.0744220559769157,0.00038861365337967735
1_2,XY,2000,3337.967486065915,14.78475573774563,0.0714304087890502,0.00037120229147603157
1_2,XY,2021,3301.5808605425973,14.770041866902236,0.07632344632496806,0.00040165323333113525
1_2,XY,2042,3292.7333858422808,12.446677939946303,0.07093665502236739,0.0003217200440907745
1_2,XY,2063,3323.825150997085,16.054240606988714,0.07574284467393615,0.00042936123246599585
1_2,XY,2095,3282.9906348904565,16.372471982436608,0.06984751581458948,0.0004078335852984522
1_2,XY,2116,3306.1217913222595,14.837228586249841,0.07331515168494271,0.00038183973518042633
1_2,XY,2137,3301.32070790133,15.24695050522018,0.0694123529632159,0.0003768869852216008
1_2,XY,2158,3299.9788424557955,14.631855462228609,0.07637962294968591,0.00039430397298378375
1_2,XY,2179,3325.2770971849013,14.717113517457333,0.07049121002251764,0.00036173339219715495
1_2,XY,2200,3308.1245372352646,14.771858165031027,0.07722701380509524,0.0004033910530578507
1_2,XY,2221,3290.8185523328643,15.997623461803581,0.07199162342524264,0.00040432424220022197
1_2,XY,2242,3278.2096347981383,15.632456802150426,0.07684220425141454,0.0004262884712199176
1_2,XY,2274,3332.6288608342006,14.458341106208442,0.07118610153927596,0.000366429836409584
1_2,XY,2295,3256.9090992892247,16.439511821065786,0.07767750832951989,0.00046683676456477265
1_2,XY,2316,3290.5054447584757,15.192120307581032,0.07097776751765576,0.0003817359793356619
1_2,XY,2337,3291.8753976864687,14.266324704290215,0.07557356571325514,0.000380999036188012
1_2,XY,2358,3316.0174963844975,14.687805351187905,0.06945074844234095,0.00035883150289873903
1_2,XY,2379,3300.3524508283263,14.118691871386654,0.07606702789435457,0.0003810350456346373
1_2,XY,2400,3289.5463262081757,15.29157068764126,0.0678504856283356,0.0003691387993046713
1_2,XY,2421,3296.5574034183005,15.544515422561025,0.07560056502599141,0.0004124787886325501
1_2,XY,2453,3291.6538919576697,16.177827043663473,0.07364678535345254,0.0004244600084952627
1_2,XY,2474,3306.9275961038925,15.487844427349925,0.07795401804037075,0.0004265204400971795
1_2,XY,2495,3291.209407041581,15.528053757471376,0.07048104130830089,0.000392485302861048
1_2,XY,2516,3322.6166746106046,15.605230728493623,0.07630590929242191,0.00040949092108224166
1_2,XY,2537,3300.5808418727675,15.637198648650083,0.07229852608677848,0.0003982205520382434
1_2,XY,2558,3300.2102284899115,15.622136834831615,0.07920025986066209,0.00043891605986506323
1_2,XY,2579,3299.608812226889,15.554609622892698,0.0737975413052686,0.0004085403057758625
1_2,XY,2600,3285.7952315962702,14.58601067831046,0.07890272554199862,0.0004077734261841329
1_2,XY,2632,3301.435894522776,15.440840530984609,0.07206490159754966,0.0003970790252273726
1_2,XY,2653,3297.3209806847003,15.257862209645978,0.0752842577710787,0.0004082049895749231
1_2,XY,2674,3296.9758110742123,14.29873000910886,0.07200515666701707,0.00036656767296693174
1_2,XY,2695,3300.1486189886227,13.72036798728507,0.07968984977954245,0.00039445799111289653
1_2,XY,2716,3299.836797583774,16.092061744338043,0.07070740126267433,0.00040159926039471934
1_2,XY,2737,3277.432021125227,14.305302520625967,0.07705978754854566,0.00039353219184592384
1_2,XY,2758,3302.900348291126,15.576729591054388,0.06898751925417505,0.0003819074144179339
1_2,XY,2779,3269.6407527844613,15.294626195542227,0.07486719737143498,0.00041366192430324555
1_2,XY,2818,3301.646081159486,16.034991913304157,0.07298957751072802,0.00041391425727075394
1_2,XY,2839,3287.806716089219,14.232745640487575,0.07803106395265037,0.0003990452703859361
1_2,XY,2860,3281.926738044194,16.22627321872605,0.0721040642682661,0.0004183601131025675
1_2,XY,2881,3295.515954754225,14.694509338215422,0.07833554076938797,0.00041089632361305124
1_2,XY,2902,3320.7845654785083,15.178968617269373,0.07264468054443109,0.00039022017034416557
1_2,XY,2923,3290.242622966568,15.304696297947784,0.07862334526318063,0.0004333725428747175
1_2,XY,2944,3308.7869920079315,15.708292734871861,0.06927481934763348,0.0003829983801671618
1_2,XY,2965,3294.8666944600695,15.963651826855044,0.07382416428799637,0.0004178429039112847
1_2,XY,2997,3273.966307598071,15.382046140074547,0.07044895154354866,0.0003888560755472206
1_2,XY,3018,3296.249535557511,14.606981054997526,0.07470277103367852,0.00039319434289987844
1_2,XY,3039,3301.0682712529,15.18099493837397,0.06780495578249343,0.0003661456382236292
1_2,XY,3060,3337.886341620201,15.91008382344433,0.07209137132159642,0.000407166763688101
1_2,XY,3081,3287.4356100894893,16.693586125962014,0.07113817935288572,0.0004223260641022287
1_2,XY,3102,3286.6936860946744,15.340988098104361,0.07734718347866257,0.0004190114058048157
1_2,XY,3123,3301.977116383542,14.64855918281283,0.07285751676344557,0.00037896133009751945
1_2,XY,3144,3293.2209635948557,14.765859025148593,0.0779052820320497,0.00040913156324970965
