Scan,Type,BCID,sigma,sigmaErr,Mean,MeanErr,CapSigma,CapSigmaErr,peak,peakErr,rate0sep,rate0sepErr,peakRateRatio,peakRateRatioErr,area,areaErr,fitStatus,chi2,ndof,covStatus
1,X,103,0.08997011830487645,0.00023596044031057726,0.004136676522544749,0.00038966214382241067,0.12723696151506814,0.00033369845487074556,0.03434650445890013,0.00014164829092168946,0.035511640519840494,0.00030313500951178004,0.9671900243445697,0.00916920332064049,0.010954328685384679,5.353796451802682e-05,0,257.10695557785886,22,3
1,X,124,0.08739615094601315,0.00021992794113523213,0.004934767096509014,0.00038466239700703995,0.12359682196705801,0.000311025077098237,0.03729005141870083,0.00014007949754761036,0.038866487168982194,0.00034798817605993456,0.9594397161897498,0.00931570973735002,0.011552878881882115,5.223599398497195e-05,0,273.2097367350652,22,3
1,X,145,0.08756692136330217,0.00023483576763251603,0.0036471810316987905,0.0004052717329811579,0.12383832780724024,0.0003321079275162009,0.036086682603888684,0.00015319378386429832,0.037240472397346513,0.0003424300970078258,0.9690178529115533,0.009813972978237521,0.011201907266583499,5.624804472044303e-05,0,206.126398476061,22,3
1,X,166,0.08619176553216581,0.00021843532354453045,0.0029788401713368956,0.0003661420751781298,0.12189356378047078,0.00030891419705803,0.037803727957037354,0.00014819802935987133,0.03906873275395444,0.0002937567580130971,0.9676210435366873,0.008204998385135656,0.011550621107980587,5.391874837673338e-05,0,265.2389870535341,22,3
1,X,187,0.08875473542219797,0.00024457578595386197,0.003505876971479144,0.00043182715441077895,0.12551815055890814,0.00034588239352401073,0.03587025318934748,0.00014842414115883527,0.03695655637278876,0.0003458758662550021,0.97060594140635,0.009932104021934191,0.011285762531552678,5.610621137889381e-05,0,249.71084576548074,22,3
1,X,208,0.08556846878616875,0.00021655894467594597,0.003931113321831628,0.0003587073229005867,0.12101208906889871,0.00030626059661392757,0.03729822171331557,0.00013515635147682943,0.038294020469130594,0.00030583345427620984,0.9739959726449264,0.008542029200874613,0.011313756274570756,5.000635254637361e-05,0,199.2083585595812,22,3
1,X,229,0.08752615122502434,0.0002226324658540462,0.003327424036322847,0.0003852720092308305,0.12378067012474792,0.00031484985263535714,0.03661730559764192,0.000144565017334297,0.037455375624475415,0.00036687314392605145,0.9776248398831741,0.01032436282389219,0.01136132931430078,5.335790871591142e-05,0,327.0916126105606,22,3
1,X,250,0.08652743400965317,0.00021202054667417768,0.0032156436401016716,0.0003760791545880447,0.12236827069379452,0.0002998423326083799,0.03825635152736189,0.00015570037982228605,0.039635387236005286,0.0002870627558421327,0.9652069575999838,0.008018734695075316,0.011734438312095153,5.5745835224740765e-05,0,315.4192159605074,22,3
1,X,282,0.08888505480973458,0.0002354915762830437,0.0047756060986636996,0.0004232027259769714,0.12570245000420255,0.0003330353810040987,0.03584461790791627,0.0001484453203795561,0.037351533110419666,0.0002852090180075329,0.9596558674566689,0.008336109377834936,0.011294256116337694,5.5526082743665615e-05,0,185.39491225548417,22,3
1,X,303,0.08629292187024229,0.00024031818395940424,0.0045946848251012095,0.0003912741073600851,0.12203662044569852,0.0003398612350402619,0.03823745653171905,0.00014974176279286864,0.03925078085052398,0.0003501621485980991,0.9741833335070733,0.009491305243200339,0.011696854905613898,5.6207721422592094e-05,0,186.32993445430702,22,3
1,X,324,0.0878025141326991,0.00020125329052114282,0.0035791342395528228,0.0003865732253812536,0.12417150629691842,0.00028461513292721285,0.0368472759758657,0.0001333416655952836,0.03799719373795526,0.0002589802070712582,0.969736771351593,0.007483340842800165,0.011468781289006405,4.9127698274117916e-05,0,275.4594461882373,22,3
1,X,345,0.08558057185952975,0.00020865661288028628,0.003999553794724252,0.00039066407585023455,0.12102920539939221,0.0002950850118141335,0.03894268116319584,0.0001476616742831311,0.040227460351032265,0.00026784837538177325,0.9680621352522579,0.0074175986265612925,0.011814244788897399,5.325852846222584e-05,0,215.1321341980849,22,3
1,X,366,0.08764959022108225,0.00022028611655910892,0.0036460995022982025,0.00039702073220710315,0.12395523922709872,0.0003115316136403923,0.036781248783075184,0.0001567504805645313,0.037803582468501615,0.00028961660003025945,0.9729566983161384,0.00852958063825188,0.011428291048494105,5.654235046351305e-05,0,250.11914514245453,22,3
1,X,387,0.08534660763486966,0.00021730375724795934,0.002500358846200842,0.0003762288756436877,0.12069833001976782,0.00030731392065469487,0.03857256844688135,0.00015462731378704697,0.04042703393955947,0.0002922728621736098,0.9541280843049074,0.007887451992176867,0.011669970381246782,5.542040396183638e-05,0,336.9369005625355,22,3
1,X,408,0.08805520223232387,0.0002484976859719999,0.0023943025149742968,0.00041514995804452194,0.12452886123445805,0.00035142879771993263,0.03635669946435959,0.00015703620415031652,0.037882662593079514,0.00038266360560308324,0.9597186938755807,0.010543482787717004,0.011348655193890228,5.8553544800394894e-05,0,223.0646298701994,22,3
1,X,429,0.08647620985262289,0.00021091488398947576,0.00379246990375533,0.00039832579207169425,0.12229582879620116,0.0002982786894442646,0.03853117671343851,0.00014805775610323059,0.039418844450043525,0.0002506039500351366,0.9774811324636881,0.007261212317355592,0.011811739246893636,5.375812410841151e-05,0,227.6350549081223,22,3
1,X,464,0.08973956881971892,0.00023979231167637694,0.003483928555740847,0.0004435947223599922,0.12691091530636023,0.00033911753932552857,0.03529968869933468,0.00015105367564312189,0.036289824351905114,0.00027338672484105705,0.9727158874353038,0.008427553709725148,0.011229483619420493,5.665209558743652e-05,0,218.42613823735076,22,3
1,X,485,0.08665759249799784,0.00021648949742869596,0.0067104300226707245,0.00040287442374234786,0.12255234259326953,0.0003061623833749971,0.03751903994025709,0.00015081504157929792,0.038262469499726656,0.00027478780839460876,0.9805702671785239,0.008070164003237816,0.011525592704544126,5.454787443311298e-05,0,169.47511877667512,22,3
1,X,506,0.08744096558153672,0.0002625008622356227,0.004846219332394224,0.0004379322957922384,0.12366019943240825,0.000371232279508249,0.0366692996196308,0.0001599197875177569,0.03789064210315869,0.0003172128463319983,0.9677666459121295,0.009135354476485563,0.011366388389436778,6.017933161311454e-05,0,167.72133028909292,22,3
1,X,527,0.0860463542686299,0.00023304629924208607,0.0041191384432174415,0.00036104992974923816,0.12168792119945648,0.00032957723704901687,0.03764483859729374,0.0001541932850250836,0.03903620501977527,0.00030635637979761196,0.9643570264635951,0.0085370613780515,0.011482668992076296,5.638510630758582e-05,0,187.9379624528705,22,3
1,X,548,0.08773832814062575,0.00022965797384321364,0.005264625352371273,0.00041768756203524357,0.12408073359641392,0.00032478542131619825,0.036890841462147876,0.00013708660162918248,0.03825301975254775,0.00022619757024505813,0.9643903069819958,0.006735186185895683,0.011473947226165883,5.215307566948463e-05,0,280.46723595599644,22,3
1,X,569,0.08568201190416967,0.00021095005276581277,0.0043649134779972475,0.0003814257041092286,0.12117266328628973,0.0002983284256047325,0.03820271968224156,0.00014557817322398647,0.03920793628336824,0.00027371681479947205,0.9743619099495149,0.007749566597524865,0.011603496335406582,5.2642988439107644e-05,0,199.7202132534102,22,3
1,X,590,0.08820328079673376,0.0002334244140643662,0.0050330138802278206,0.0004271947242456308,0.12473827594854325,0.0003301119721588197,0.03673423617795139,0.00015661379890890794,0.03784933698087773,0.00029389516441457567,0.9705384323247271,0.00859735045592764,0.011485785072751607,5.763581697026581e-05,0,174.72630110553848,22,3
1,X,611,0.08676897542473207,0.00023268542201821852,0.006068345024548669,0.0004204299006963024,0.12270986183887389,0.00032906687958467185,0.03777336594593479,0.00015403649101142987,0.038905800601122066,0.0003246786297892643,0.9708929095998448,0.009017947330455958,0.011618634434411872,5.670644204546836e-05,0,169.3504602234114,22,3
1,X,643,0.08870834902250453,0.00022080204219414884,0.004086392043059459,0.0003861224210966425,0.125452550283352,0.0003122612426706417,0.03565617943384439,0.0001359133976771103,0.03676580432928583,0.0002648486387268851,0.9698191045814394,0.007904023998721362,0.011212545932297528,5.104498951444309e-05,0,257.5996890181564,22,3
1,X,664,0.08674570399709523,0.00022365488167410308,0.0052138421806087005,0.00041528519575618437,0.12267695107029408,0.0003162957669544664,0.037085569751055474,0.00015284708400388648,0.03797951823963895,0.0003015989921375239,0.9764623531308917,0.0087363384332651,0.011404017195636084,5.5440483086926796e-05,0,146.70521316053097,22,3
1,X,685,0.08979069652165368,0.00024153146065856087,0.005439200366260132,0.0004304617829175356,0.12698322079584934,0.00034157706740312044,0.03485985959186834,0.00015426673599038346,0.035682452985609556,0.00030914311538505004,0.9769468373132038,0.009504233806819215,0.01109588395346884,5.746275919829077e-05,0,175.41788768364992,22,3
1,X,706,0.08718982502054436,0.0002163454296954323,0.00585525951040159,0.0004077730951335596,0.12330503304499085,0.0003059586408327153,0.03509247603711319,0.0001410744635489119,0.036282273809168056,0.000275448214835986,0.9672071883280309,0.008308790286491332,0.010846378360881431,5.124032274394333e-05,0,147.24837624726484,22,3
1,X,727,0.08778044694383859,0.0001943035542688545,0.004336984672259088,0.0003528871684053664,0.12414029857914843,0.00027478672166431073,0.03650533303147063,0.00013437539645439113,0.037988942033897674,0.00025507662349120714,0.960946293237037,0.00735824367736563,0.011359495257554404,4.8792004221464415e-05,0,376.4369540823093,22,3
1,X,748,0.08591141060497744,0.00021777646879981994,0.004642742634754736,0.0003779005326921406,0.12149708204016285,0.00030798243574242656,0.038309307038569974,0.0001480089837758281,0.039263799503234595,0.00027500209832442764,0.9756902674539689,0.007804442153784736,0.011667023649344459,5.391190810737932e-05,0,212.69575977178167,22,3
1,X,769,0.08841462953329357,0.0002701850038849777,0.005276520457397055,0.0004239754014746264,0.12503716819817656,0.00038209929684396293,0.035948967299065375,0.00013403757312410006,0.037322666048595056,0.000311425719634742,0.9631939811657321,0.008802920812276939,0.011267186486729282,5.431734412697129e-05,0,174.41525701075494,22,3
1,X,790,0.08718063935159306,0.00020946474426795467,0.005500674130643659,0.00036594564935405935,0.12329204254738046,0.00029622788218275353,0.03722429439367429,0.00014405567777809442,0.038716233193202436,0.00036230799450838913,0.9614647739080647,0.009736429331396618,0.011504068417022626,5.240245244185823e-05,0,201.12867287013998,22,3
1,X,822,0.08942226532885031,0.0002128592781279973,0.00515078039690501,0.00039407593483148417,0.1264621804061855,0.00030102847800556054,0.034876418241400836,0.0001296915463410071,0.035684385131600486,0.0002550506067799001,0.9773579707981531,0.007874457779278064,0.011055604061639019,4.8813004719894047e-05,0,194.93778607664507,22,3
1,X,843,0.08739433271161769,0.00021044384819003464,0.004822111242296165,0.0003931913628236198,0.12359425059531637,0.0002976125442283317,0.03491547583810294,0.0001460511846787259,0.03569255425023075,0.0002680881929563434,0.9782285569511243,0.008410100445112003,0.010816983514625017,5.220895165182101e-05,0,152.12002492870528,22,3
1,X,864,0.08753641317700095,0.0002308171597416179,0.005044094914850597,0.000416129957727355,0.12379518271640966,0.0003264247577350332,0.03689089161960249,0.0001487630266087293,0.03809854190721423,0.0002698597814599378,0.9683019289674427,0.007892282048148229,0.011447557436189847,5.515531318779831e-05,0,181.35480264238402,22,3
1,X,885,0.0854489298261558,0.00018790721831067183,0.004965174861701119,0.00037152845349127837,0.12084303545041641,0.0002657409366027541,0.03894772982680515,0.00013795398269161665,0.03968479762525694,0.00022458443341806837,0.9814269482885636,0.006552271039034387,0.011797601125250282,4.918599153245571e-05,0,188.8557016654598,22,3
1,X,906,0.08673192757497677,0.00022641481585721342,0.005318165517364222,0.00038826992596032963,0.12265746826729318,0.00032019890330747813,0.03715875293270845,0.0001311972914198925,0.037728747070484056,0.00024161642224840212,0.9848923120423068,0.007202367663722445,0.011424706737299499,5.0165766023701046e-05,0,228.8456591665249,22,3
1,X,927,0.08632903933654615,0.0002107140865828121,0.004255920096081327,0.0003653043797914343,0.12208769825638399,0.0002979947190284715,0.038195139671119184,0.00014919290230052139,0.03913726961151789,0.00034852869392269515,0.9759275506505585,0.009490189499316177,0.011688800400739108,5.383833133119794e-05,0,227.86600514406607,22,3
1,X,948,0.08852300167315112,0.00023402015233005925,0.005644869341563875,0.0004066130821453984,0.12519042954814652,0.00033095447329378747,0.03610373023982778,0.00016078470407462003,0.03762052829112283,0.000358233182872096,0.9596816387171002,0.010088379707846297,0.01132956249326692,5.867523845742156e-05,0,248.38313265416983,22,3
1,X,969,0.08643678194171493,0.000225145424534228,0.005083126308170567,0.0003543130770755031,0.12224006930985909,0.0003184037128825534,0.037870711327902956,0.00014601229109159977,0.03935647652991192,0.0003341499145522128,0.9622485208786477,0.008972735699178237,0.011603980337401957,5.39927041419769e-05,0,220.60394512382666,22,3
1,X,1018,0.0874808794415383,0.00020457121395743826,0.004518650476325838,0.0003678266894568595,0.12371664615454914,0.0002893073852497374,0.03673541692669226,0.0001316516997903652,0.03740465173818032,0.00022960824168688065,0.9821082464242021,0.006980890123950197,0.011392080510208813,4.87494794645117e-05,0,209.74071496110406,22,3
1,X,1039,0.08599986408481027,0.00021342134544454028,0.004959099271819876,0.00039025598138726,0.12162217415098153,0.00030182336122758224,0.03809199163742303,0.0001521035683484675,0.0388532000311407,0.00027047967106132284,0.9804080901159348,0.007868232726002455,0.011612784776842014,5.459626242602783e-05,0,138.85691827544326,22,3
1,X,1060,0.08671394121256089,0.00021934700530616504,0.005416387713505208,0.0003911021159037041,0.12263203170962689,0.00031020350976990185,0.03760024753624007,0.00012113215499697546,0.03834056257985007,0.0002489889837864117,0.9806910750965591,0.007109328803807893,0.011558049809897896,4.734171837383988e-05,0,223.0239938218461,22,3
1,X,1081,0.0851667404132962,0.00021676643399879926,0.003994278658482432,0.00032341284236433364,0.12044395935559227,0.0003065540308283543,0.03658159769192305,0.00013856129001869836,0.03732872628799676,0.00025373103905721177,0.9799851569992102,0.007625576928526695,0.01104428555713641,5.039990454107648e-05,0,221.2635830107192,22,3
1,X,1102,0.08715396559765881,0.00022258869303933462,0.005370503701191809,0.00041249864877152535,0.12325432016280724,0.00031478794852712877,0.03705929094565043,0.00016023397321952637,0.03822253794810323,0.00030509823283581656,0.9695664635343628,0.008801685254397798,0.011449570365481417,5.7496131391495347e-05,0,191.89014242132384,22,3
1,X,1123,0.08528729321390419,0.00020797745134554642,0.003848133051651872,0.0003277436145967486,0.12061444676119415,0.00029412453236066227,0.03869852159671313,0.00014790315999963532,0.03987681803511926,0.00042772526623741444,0.9704515932698438,0.011050275970392065,0.011699940071949605,5.304307624689201e-05,0,305.48226128886637,22,3
1,X,1144,0.08747635418713633,0.000220996013558297,0.004410411804832099,0.0004079868860070171,0.12371024647840068,0.00031253555960453205,0.03679062638919728,0.00015273979896037647,0.03806677570698914,0.00027814395535439147,0.9664760333889388,0.008122089142689973,0.011408611426501493,5.5444204542954114e-05,0,173.01824019110458,22,3
1,X,1165,0.08730023863079595,0.0002148456345701304,0.0042174712133613386,0.0003976277761834638,0.12346118147007923,0.0003038376102257323,0.03788947849759002,0.00014383867600061334,0.03886751428281456,0.0002522097815982009,0.9748366777945204,0.007328689424467631,0.011725705723370672,5.304915806764194e-05,0,223.5891980812969,22,3
1,X,1197,0.08713683498889829,0.00023376470065904857,0.005265437543247245,0.0003918371934985051,0.12323009382356642,0.0003305932100761133,0.0369415622676816,0.00014896940731220056,0.037777661289509226,0.0002727784775026789,0.9778678988246473,0.00808733395374309,0.011410954435951973,5.526797857611232e-05,0,206.69765482763933,22,3
1,X,1218,0.0848631716748331,0.0002081275489902435,0.005142560956766347,0.0003535744254263429,0.12001464832854525,0.0002943368024854731,0.03880640168764974,0.00014192397627065263,0.03965984375785648,0.00023188865122998837,0.9784809522846979,0.006748115991923444,0.011674211734973636,5.1406488185053196e-05,0,200.73666720642765,22,3
1,X,1239,0.08630850390816493,0.00021083647730439514,0.004572936424297835,0.0003825650857560994,0.12205865677505812,0.00029816780564684287,0.03749846220617991,0.00014367522287298017,0.03819995216610293,0.0003022966606318992,0.981636365488816,0.008630833737847626,0.011472867512089762,5.213247935719875e-05,0,194.65873113008576,22,3
1,X,1260,0.08552016722941352,0.00022772459285054275,0.004545319615964052,0.00038051441543288263,0.12094378035225173,0.00032205120769512874,0.037945167257996605,0.00015117591206706229,0.03890851697595512,0.00033944352516433187,0.9752406467058652,0.009353338286368402,0.011503498625572386,5.512486803384028e-05,0,133.4693384317792,22,3
1,X,1281,0.0862690254970406,0.00023888814719458427,0.004600817371204411,0.0003563584615476682,0.12200282587062516,0.00033783885765276134,0.03734332714188933,0.00014726774855238482,0.03916403181967377,0.0003287810459138007,0.9535107956666039,0.008843919505847946,0.011420176959276619,5.5030633477811155e-05,0,249.53582534952264,22,3
1,X,1302,0.08469671277085279,0.00020623552718176423,0.004412825414675006,0.0003727341894855596,0.11977923988895856,0.0002916610795836161,0.03945509750592365,0.00014651331308993513,0.04057637179127964,0.0002633233032879729,0.9723663246402685,0.007270285647724785,0.0118460785461217,5.26033261814169e-05,0,151.97549177412927,22,3
1,X,1323,0.08744334294104776,0.00022791017814597202,0.004169734012752502,0.00039181527968365845,0.1236635615264714,0.00032231366493690183,0.03647219237158507,0.00015197073936970142,0.03773186968000238,0.0002996157193554262,0.9666150307657578,0.008668108816920931,0.011305598395864118,5.5564516022255333e-05,0,200.17109797309467,22,3
1,X,1344,0.08724663570433591,0.00022576087011667772,0.005679350686924563,0.0003965624165375624,0.12338537548449657,0.00031927408437215643,0.03771894106759161,0.00015088196218358087,0.039004698668567504,0.00029247531178141806,0.9670358278652198,0.008218568366790335,0.011665762029081927,5.5577379734957095e-05,0,258.1267025273617,22,3
1,X,1376,0.08892224379191842,0.00024219843085733072,0.004120991189225495,0.000433937456685315,0.12575504316717778,0.00034252030570391945,0.03588409170827337,0.00016044041807277925,0.03737862099453428,0.00032828430784414945,0.9600164680639381,0.009461199398346791,0.01131142454303943,5.9219491210004424e-05,0,225.52294400350144,22,3
1,X,1397,0.08645199182415597,0.00021734236351210863,0.0044108730205326295,0.0003739983452201599,0.1222615793318893,0.00030736851815704735,0.03793016446561941,0.0001528664705494456,0.03885806290941787,0.00029782789743665637,0.9761208260442245,0.008452735686346856,0.011624242502495814,5.5215636417255354e-05,0,277.9971604303512,22,3
1,X,1418,0.08757369139991389,0.0002458988886200095,0.0037900539328330823,0.00041177702912343104,0.12384790208483432,0.0003477535432588885,0.03688838789308733,0.00015541402331112849,0.03867780039804919,0.000368464779025979,0.9537354118759009,0.0099346394758475,0.011451655230058339,5.798028442803295e-05,0,292.79907439139157,22,3
1,X,1439,0.08633246576190538,0.0002089830685878085,0.003967164463170618,0.0003715227918808243,0.12209254395359748,0.0002955466899032255,0.035854916235813085,0.000136093048083393,0.03708466381318138,0.00022037282742793849,0.9668394573141258,0.006817379851786832,0.010973060895096452,4.939914325825978e-05,0,181.8603212531628,22,3
1,X,1460,0.08775565967944199,0.00021954257672327618,0.0026914838512363463,0.00039118490576237,0.12410524409366464,0.00031048008952039297,0.03685642151822603,0.00012186660784789256,0.037922640631848734,0.00020188041735856347,0.971884365227266,0.006090585663231357,0.011465506198881217,4.753947797761401e-05,0,336.5818973137463,22,3
1,X,1481,0.08650332395936619,0.00021032762417458298,0.0034279710472266715,0.0004118152543861879,0.12233417393368917,0.00029744817864940654,0.03832426816323745,0.00014955033814846293,0.03939848206077699,0.0002577376941584841,0.9727346374440915,0.0074095839355856575,0.01175199500701004,5.4032786234625244e-05,0,205.71998285068432,22,3
1,X,1502,0.08845202231747247,0.00023165208064050756,0.0035663884004389405,0.0004230782079355322,0.12509004958069725,0.0003276055141937517,0.03632835670236994,0.00014751087269643248,0.037559588801757665,0.0003800612957978578,0.9672192337917686,0.010545771583039482,0.01139091082677932,5.503885422408902e-05,0,212.91860069895168,22,3
1,X,1523,0.08716488025137521,0.00022868501723799698,0.004179511422642445,0.0004089658049242408,0.12326975581412158,0.0003234094528895004,0.03533184003250606,0.0001221831989567821,0.036054685472154895,0.00020622945506772655,0.979951414630781,0.006550021747947797,0.01091723667114975,4.738899445108065e-05,0,197.66317302716877,22,3
1,X,1555,0.08891248232046055,0.00023792466629145848,0.005193693151092549,0.00036837955334473234,0.12574123836185336,0.00033647628989247336,0.03334467624139341,0.00013050981734378495,0.0342539315453838,0.0002745493677662272,0.9734554469233495,0.008682941586171066,0.010509793244147756,4.9829910639498914e-05,0,187.8881679899889,22,3
1,X,1576,0.09009706752984785,0.0002198675652404331,0.004176566074848224,0.00041648528831013696,0.12741649483075546,0.0003109396926889718,0.03228385760120426,0.00011800426822847734,0.03324234491186452,0.0002541969125704805,0.971166675720335,0.008231106453008116,0.010311005318918598,4.5316629928317344e-05,0,144.2250823625136,22,3
1,X,1597,0.08837341912809939,0.0002323726047853808,0.004484512548161142,0.00041462220938908237,0.12497888788424005,0.0003286244892114487,0.03427059817763452,0.0001353421684928383,0.03580372022207359,0.000268268729808829,0.9571798116248859,0.008107138924802873,0.010736142689761002,5.0937653473988426e-05,0,198.0742667434018,22,3
1,X,1618,0.0862046417976264,0.00022008069550276174,0.003090848605344087,0.00038258889371384686,0.12191177356971783,0.0003112411043965091,0.03586260670190117,0.000148173055434882,0.0369869713714091,0.0002725589106379715,0.9696010614597911,0.008191479939592052,0.010959164276753653,5.322664091845827e-05,0,266.4638457069185,22,3
1,X,1639,0.08690605316619923,0.00022602931774383787,0.004296649526171989,0.0003986447040450582,0.12290371903995623,0.0003196537266472732,0.036800444559449384,0.0001376554034741268,0.038157865978728445,0.00027044192217779773,0.9644261704772544,0.0077288965352694805,0.011337257846245093,5.165165921973967e-05,0,288.81474346864627,22,3
1,X,1660,0.08575870500168717,0.00022655221581799171,0.0035901968896571877,0.0003776280711837537,0.12128112370493938,0.00032039321619548033,0.03735876118793658,0.0001419239394054304,0.03830932391703085,0.00036638789250313306,0.9751871703308319,0.0100354697671836,0.011357313475368483,5.255232365481777e-05,0,254.63177696964888,22,3
1,X,1681,0.08764570690488045,0.0002608437787630506,0.003834876622519137,0.00042181673751202133,0.12394974738865916,0.00036888880958735326,0.03634849153258204,0.00015447515259362356,0.037957079678472366,0.00037189371092514345,0.9576208665282896,0.01022714334481855,0.011293328796558862,5.859309133528701e-05,0,191.28896144721344,22,3
1,X,1702,0.08620818409966483,0.0002156371941209812,0.004003709333648251,0.0003957393375233288,0.12191678314130261,0.00030495704447797145,0.03828229340076117,0.0001401626089572053,0.03930460627592352,0.00022264688150243814,0.973989998322701,0.0065694396200979424,0.011699070998430974,5.1875615684310094e-05,0,282.1223004933506,22,3
1,X,1734,0.08803328642309953,0.00025483358298851704,0.0030287114010806126,0.000436953952296986,0.12449786759982262,0.0003603891092104905,0.036262584375723876,0.0001544678751657848,0.037355026498322154,0.000268464809333061,0.9707551506449247,0.00811006689199436,0.01131646017537542,5.828208234005337e-05,0,224.0822305585199,22,3
1,X,1755,0.08668319511973403,0.000232561082446259,0.0038918168990800094,0.0004330917770492283,0.12258855016816117,0.000328891036875667,0.03644514583522877,0.00014664071479608058,0.03771004078982345,0.00023559928044191483,0.9664573432406357,0.007181925293634094,0.011199007495801761,5.4158795097476694e-05,0,184.89441601489568,22,3
1,X,1776,0.08794812760203403,0.00021262798088183825,0.004279435285661226,0.00038551538788839644,0.1243774348401161,0.00030070137430310284,0.036615835838792944,0.00013977215818596612,0.03765275465299416,0.00021830940119627637,0.9724610105221408,0.006750580666925024,0.01141564572091292,5.158118099166431e-05,0,286.4421319906741,22,3
1,X,1797,0.08557598939793645,2.5487169077735745e-05,0.0038059316159807775,0.00039111952078875576,0.12102272482005794,3.604430017623006e-05,0.038881193097468326,0.0001229687770724797,0.040682685677686126,0.00029502226120897956,0.9557184450778309,0.007561115753781496,0.011794959231133793,3.7468723893175086e-05,0,246.04301395924884,22,3
1,X,1818,0.08761448753685856,0.00021302915253778066,0.003112532204236714,0.0003786120889540502,0.12390559653499389,0.0003012687166997763,0.03430043847469056,0.00011559233078697152,0.034947870899044574,0.00024595607143352617,0.9814743385591563,0.007658486342514959,0.010653211001706419,4.427016089176013e-05,0,170.18731099918045,22,3
1,X,1839,0.08710000567709598,0.00021662843868015688,0.0018351670419425546,0.0003827333689901185,0.12317800931132272,0.00030635887597718625,0.03531272614495408,0.00013901327198228783,0.03630043586951608,0.00029686149825407915,0.9727906924282568,0.008829125067972687,0.01090320962098687,5.077064929679965e-05,0,185.54887073479014,22,3
1,X,1860,0.08778091162939573,0.00022834817313501153,0.001786560890681983,0.00041646584474535893,0.1241409557437656,0.00032293308339065296,0.03628436012475887,0.00013657119279432542,0.037426319270985574,0.00030319521911724835,0.9694878051470053,0.008660258261201568,0.011290794096594751,5.165957838954601e-05,0,238.066899628508,22,3
1,X,1881,0.08569156528719252,0.0002177745486556401,0.0038710671836747756,0.00038466983243609014,0.1211861738101272,0.00030797972024848574,0.037011055811716945,0.00015375898254626244,0.0386008557039186,0.0002841651888663057,0.9588143873183551,0.008104828092210173,0.011242799930811596,5.4753349394336104e-05,0,239.77346425520687,22,3
1,X,1916,0.0879382233070513,0.00022946988858671186,0.0045149981770125774,0.0003923862414270506,0.12436342805182576,0.00032451942859557104,0.03608009696027815,0.00014440956182217317,0.036556143727318705,0.00027417228216742993,0.9869776535897357,0.00839048695424652,0.011247352719564828,5.3739490776978805e-05,0,254.5468683355672,22,3
1,X,1937,0.08668177290065132,0.00022441669548516543,0.004606120476247164,0.0003801787590283781,0.12258653884664572,0.0003173731343780739,0.03526235744769149,0.00013659139548685765,0.03644978317840995,0.00028078398700732504,0.9674229686111877,0.008341496123654845,0.01083537785650612,5.048328253959638e-05,0,194.54651236843802,22,3
1,X,1958,0.08785173709637865,0.0002545638254828728,0.003977858440713627,0.0003950795152025553,0.12424111807973426,0.00036000761448745644,0.03646369321179991,0.00015151079839110647,0.037723021719226084,0.00027470917194227676,0.9666164466675177,0.00810439761516935,0.011355753041246634,5.752489010489834e-05,0,240.0038909731978,22,3
1,X,1979,0.08597441105518157,0.00021177110586898635,0.003719697987979354,0.00036708939307263235,0.12158617813127715,0.00029948957003866905,0.038438245141943356,0.0001395970550750598,0.039633760239269546,0.00027849713160424616,0.9698359406195918,0.007671202555070134,0.011714875936888134,5.14077595553581e-05,0,320.38208915105446,22,3
1,X,2000,0.0879261326505844,0.00022271139185564678,0.004590045388934497,0.00040339261031538935,0.12434632928147227,0.0003149614708572446,0.03695133564101665,0.00013892719046021293,0.03829460098854434,0.00021157470768186357,0.9649228530170736,0.00644842640108158,0.011517362723210516,5.2212374775342854e-05,0,293.56683234173886,22,3
1,X,2021,0.08665775506704669,0.00019385210243067844,0.0048079645766976875,0.0003583195349989066,0.12255257250062324,0.0002741482723520039,0.037833089671827316,0.0001354423015548901,0.03888986836033519,0.00026367218034559654,0.9728263752729563,0.007458754209164938,0.01162208843911884,4.906183373930649e-05,0,277.4443472828519,22,3
1,X,2042,0.08793236016823762,4.7119625262003334e-05,0.004745372341352829,0.00041821392494305657,0.12435513632139739,6.663721309946302e-05,0.03599653921230204,0.0001118726116232972,0.03707883088001553,0.00023762798842226102,0.9708110627539548,0.0069146426480479395,0.011220556859353307,3.5386605816699645e-05,0,308.32543379529307,22,3
1,X,2063,0.08651162133557613,0.00023600472117227394,0.004983782603371848,0.00039702757325204354,0.12234590819565738,0.00033376107746591055,0.038142596298447524,0.00016400622414832917,0.03969249899472702,0.00033187277878441313,0.9609522520493003,0.009034809242928458,0.011697407906673016,5.9565520627054885e-05,0,236.3864758637185,22,3
1,X,2095,0.08840856378812909,0.00024953321304676835,0.0048843709044208835,0.00039011912968216537,0.12502858993909904,0.00035289325415327477,0.03599429139363279,0.0001517965298742462,0.03729929955663401,0.0002788373918615513,0.9650125289613083,0.008282866282311603,0.011280618074059603,5.724467854132027e-05,0,254.15598677504272,22,3
1,X,2116,0.08662884106735826,0.00022631552040437104,0.0046892383360812055,0.000398488782572992,0.12251168193012141,0.00032005847833138645,0.03808145853061784,0.00013397279838173976,0.03950579349147033,0.0002128526402507637,0.9639461751056838,0.006202754449662619,0.011694482545804906,5.1244992232768794e-05,0,286.9690206192637,22,3
1,X,2137,0.08780773316089342,0.00023503338305800854,0.004723130815795335,0.00038801549769363947,0.12417888711737324,0.00033238739793106653,0.03639167765891296,0.00014085946522765305,0.03801278956185023,0.00036795231388711726,0.957353513866706,0.009980312072770227,0.011327648770320102,5.330806683037257e-05,0,282.5140623646929,22,3
1,X,2158,0.08568725362907025,0.00021428510244073188,0.0047841111718768415,0.0003766684776375554,0.12118007620473437,0.00030304489808619106,0.03866493668262606,0.00013984259470467198,0.04028714914849495,0.0002457599338958382,0.9597337488465725,0.006806239515988418,0.011744606184476576,5.1642905202420044e-05,0,304.1529680760568,22,3
1,X,2179,0.08855085686441222,0.00023247024518433258,0.004465019119564908,0.00038615156666493215,0.12522982273741046,0.00032876257358788186,0.03619805200961379,0.00014055131030236317,0.03751131425161975,0.0003001478856582373,0.9649902364604767,0.008582498288343163,0.011362735561751254,5.3257813348119265e-05,0,282.60056363333695,22,3
1,X,2200,0.08616023784320136,0.00021368270787168632,0.003986641735705127,0.00038313825286770783,0.12184897689514695,0.00030219298351674695,0.03836488163140575,0.00014295023476800338,0.03959017290912828,0.0002827913869589312,0.9690506207049171,0.00780706099508255,0.011717789277151329,5.244846856266948e-05,0,271.0494325544884,22,3
1,X,2221,0.08820393202464581,0.0002549020005548056,0.005064565053532547,0.0004173251296912068,0.12473919692388868,0.0003604858662606403,0.03609648635547281,0.00015288512359103,0.03760208037384364,0.00030230178574272446,0.9599598212811082,0.008723103631232687,0.011286461578414373,5.7870736419357494e-05,0,272.8577635835241,22,3
1,X,2242,0.0854143883047023,0.00022761703401070712,0.005462509217680611,0.0003552920458369808,0.12079418636231187,0.0003218990965250801,0.03846046783346897,0.00014544195705862376,0.03958497092531043,0.00024408458422548024,0.971592676069835,0.007027857217334379,0.011645295942016848,5.38737195611467e-05,0,284.90832082202434,22,3
1,X,2274,0.0881146918299459,0.00021470654842386448,0.0035482478725628605,0.0003990336223482779,0.12461299223023525,0.00030364091271134486,0.036581878050031706,0.00014497302156082402,0.03772854956069768,0.0002558600806379166,0.9696073259105492,0.007615912988334897,0.011426658715213088,5.315856544440602e-05,0,242.50963669950568,22,3
1,X,2295,0.08569558327912574,0.00022518081921193525,0.005858736908212885,0.0003495040310587466,0.12119185610881267,0.00031845376851580287,0.03723333529288351,0.00015414223536603232,0.03823576112596361,0.00037006909364116833,0.9737830291967324,0.01025085488015529,0.01131085180724833,5.546180019352594e-05,0,268.9484733330361,22,3
1,X,2316,0.08677331653074151,0.00022088287501416203,0.003501936071579158,0.0003698675218668163,0.12271600108986813,0.0003123755575409892,0.03715068845732746,0.00013847471543964503,0.03795084985153231,0.00022398672007877254,0.9789158504398409,0.006833310315104743,0.011427678010541537,5.158050599976911e-05,0,304.85857038881886,22,3
1,X,2337,0.08592983327100694,0.0002082114951715182,0.004489953838490645,0.0003592069321140082,0.12152313562431682,0.0002944555203135413,0.037082123889065836,0.00014520631407280505,0.03834228707766743,0.0003141258274801763,0.967133854429472,0.00878194881480775,0.011295709158914416,5.2015047767790634e-05,0,263.0376514343861,22,3
1,X,2358,0.08778001232131001,0.00022571700106236383,0.005130610037942177,0.0003794185338714724,0.12413968393007402,0.00031921204416057725,0.034798326117500285,0.0001342241584891112,0.03637245918096938,0.00034698853625937095,0.9567218412250578,0.00984480840814203,0.01082826618721712,5.019701037181984e-05,0,186.94630547175524,22,3
1,X,2379,0.08525193529863889,0.0002077470667960962,0.004940909861864083,0.0003651701373145839,0.12056444311788872,0.00029379871940626856,0.03764520434015531,0.00014558167350077567,0.03907315009084354,0.00022171805973093727,0.9634545526181453,0.006615957580309624,0.011376766315074316,5.2002591727613714e-05,0,346.85645816368947,22,3
1,X,2400,0.0875095555351941,0.00022374190651838104,0.0054019958590337345,0.0003866741756605372,0.12375720027511306,0.0003164188386695077,0.036612995742866666,0.00013926098647031583,0.038110123781795194,0.0002980285897811372,0.9607157392744106,0.008354514454637444,0.011357838137041788,5.205361681470505e-05,0,330.92774615968887,22,3
1,X,2421,0.0854609931313016,0.00023377844624387052,0.004724817039378548,0.0003769069872256089,0.12086009554016064,0.00033061264926859124,0.0386221199229086,0.00015723883217990263,0.040250697424894455,0.00030069564149037614,0.9595391482340228,0.008163652713406418,0.01170062270449064,5.738999750577111e-05,0,258.27938857409396,22,3
1,X,2453,0.08750083428897001,0.00023630785971715,0.0049079854624710356,0.0003868475044170851,0.12374486657042216,0.00033418978010735234,0.0360578700215826,0.0001485901305455725,0.037604115495958275,0.00031546954685257236,0.9588809508219422,0.008962373267868366,0.011184515990996326,5.510582586828761e-05,0,218.40601871919395,22,3
1,X,2474,0.08614130323453972,0.0002332966435081136,0.005506093151965146,0.0003846075189654397,0.12182219931477944,0.00032993127730529537,0.038188917261018286,0.00016222347687460707,0.03982855143772223,0.0002709718707105655,0.9588326936954322,0.0076905235539963136,0.011661481168418877,5.874855297673757e-05,0,325.07512129605516,22,3
1,X,2495,0.08810141557539772,0.00021266123594823434,0.005497937973672587,0.00037114681254364905,0.12459421677099569,0.0003007484040690178,0.036072407320144,0.00014530443158399287,0.03781073488715067,0.00031854555242788305,0.9540255545893288,0.008908885994385272,0.011265823548647698,5.2904279267996485e-05,0,281.22509453681374,22,3
1,X,2516,0.0853506701988341,0.00022969579327279825,0.004111050537748927,0.00038535729202000417,0.12070407535282435,0.00032483890606643806,0.038872076662988184,0.00013745266368495198,0.040528228341842124,0.00030803786897547805,0.9591358481085122,0.008040295116136425,0.011761145160971112,5.22624319488446e-05,0,267.6949761910853,22,3
1,X,2537,0.08770582737177103,0.00021770769068005062,0.004091259112724159,0.0003775810895423714,0.12403477056831202,0.00030788516879265426,0.036705851503395504,0.00013926856280009422,0.03833507373009552,0.00023697135026704567,0.957500480156349,0.006944864713498849,0.011412181895478636,5.174307943192951e-05,0,359.21993644049263,22,3
1,X,2558,0.08556323916914096,0.00022592146876426167,0.004475898060077571,0.000374757414243032,0.121004693273572,0.00031950120515766844,0.03865083510650059,0.00015772920144798756,0.04079120056856284,0.00042426787628840944,0.9475287456061835,0.010586640854023645,0.011723331109762002,5.698222210544095e-05,0,293.18036205764514,22,3
1,X,2579,0.08768638624096632,0.00023421992601288844,0.005424602881446975,0.00038974001420145703,0.12400727665746014,0.00033123699594544975,0.03618907804336078,0.00015238760601460178,0.0373572282954056,0.00033228721652383116,0.9687302750940844,0.009533503814256224,0.011249018300055168,5.6094462605036385e-05,0,243.5171096293558,22,3
1,X,2600,0.08566144951772524,0.0002132274810570717,0.00464235509466004,0.00036022991369583573,0.12114358368050526,0.000301549195581563,0.038555776498699436,0.00015458708585994277,0.04024440556805508,0.0002664836767545393,0.958040650730942,0.007416103079219637,0.011707921586895003,5.525304297930127e-05,0,324.21281568037483,22,3
1,X,2632,0.08862504084805074,0.00022121478750030483,0.004503074017069665,0.000385772692829108,0.1253347347331829,0.00031284495268041335,0.03580049630185863,0.0001463589280161711,0.03732218483072122,0.0002832994092554029,0.9592283105674447,0.008270033534559901,0.011247355639504268,5.387427098697607e-05,0,264.9903089251852,22,3
1,X,2653,0.08633799161102658,0.00021038532465577633,0.004559609332913453,0.00038126193080535736,0.1221003586843683,0.0002975297794524656,0.03835006288568417,0.00014265507011476723,0.03938667607501238,0.00022853023991393177,0.973681120301851,0.006710831150811286,0.011737428354794407,5.219505171577062e-05,0,308.3656855750392,22,3
1,X,2674,0.08797220725957342,0.00018756612633235247,0.0037130154844720034,0.0003491847718493623,0.12441148861838558,0.0002652585597009982,0.036910522472198344,0.00012930077216833697,0.038290010816566626,0.00025507979082456953,0.9639726311131929,0.007255518401627927,0.011510670269964392,4.720427126483028e-05,0,331.02320503711167,22,3
1,X,2695,0.08404449269286117,0.0001787215436155882,0.006217221767808433,0.0003094915362350743,0.11885686140901075,0.0002527504308694195,0.03960845913527667,0.00014290222520654128,0.041091219607922606,0.00026158777897314345,0.9639153939261503,0.007053267695985471,0.011800547019806772,4.941990341401096e-05,0,274.1211076627382,22,3
1,X,2716,0.08743726809017956,0.00024000891053103075,0.004304297082641751,0.0003886077082449038,0.12365497038998419,0.00033942385636337447,0.03654815779081558,0.0001505766328230214,0.03780975551386331,0.00030233946162420056,0.9666330102931991,0.008695151044584026,0.011328358991892752,5.608238307331561e-05,0,231.86754065088004,22,3
1,X,2737,0.08422372983580968,0.0001931459586217185,0.005546231803814048,0.00035645330867545814,0.11911034100744955,0.00027314963420038696,0.039417167863831364,0.00013478530314426588,0.04023711223808708,0.0003627312317807284,0.9796221863685439,0.009445106000710817,0.011768600462915422,4.845416579047048e-05,0,230.20466385195587,22,3
1,X,2758,0.08794194011606576,0.0002248369800410746,0.005077910660089538,0.00041381449177791855,0.12436868441354276,0.0003179675064970966,0.036548225433417215,0.00015173263721663521,0.03741706213640738,0.00028214465585656265,0.9767796653884065,0.008407980959742455,0.011393765309181701,5.555209358282574e-05,0,218.90219547402017,22,3
1,X,2779,0.08573655277124859,0.00020057334273826787,0.005365905537866317,0.0003318970538779875,0.12124979572021632,0.00028365354155096556,0.038288427625345164,0.00014007320384776332,0.04015301960421653,0.00021959151767413475,0.9535628454036478,0.006274136990235051,0.011636931596595736,5.053232966298454e-05,0,433.8914188030719,22,3
1,X,2818,0.08762805613789422,0.0002229460031821172,0.005567445617377077,0.0003920061389161464,0.12392478543460095,0.0003152932613770254,0.03652736729136063,0.000146652386654972,0.03782318045090056,0.00031832802620357023,0.9657402380209125,0.009005329943160072,0.011346619239048372,5.3931948146008926e-05,0,207.5047641425286,22,3
1,X,2839,0.08536114710025694,0.00019711327665024057,0.005017737172588943,0.00034458115069177313,0.12071889192890817,0.00027876026916257013,0.03804657338734696,0.00014763065892759662,0.03957578099044932,0.00035718453996125515,0.9613600145131338,0.009444501660003917,0.011512793721414534,5.198468083547414e-05,0,192.6505967991375,22,3
1,X,2860,0.08713749633782968,0.00023101170110055285,0.005813299572133041,0.00037349741301887076,0.12323102911219463,0.0003266998807632815,0.036888417824577226,0.00014273139679026959,0.03838503551190502,0.0002686264653100519,0.9610103867986881,0.007684850876645719,0.011394625022620064,5.344516802331361e-05,0,299.32998362789886,22,3
1,X,2881,0.08557173296681587,0.00019893839290913254,0.0054382630014706106,0.0003587157910987105,0.12101670531743991,0.0002813413733288028,0.03844884121643073,0.00015459448501005613,0.03992973399836848,0.00032771254246179594,0.9629125307471806,0.00880026940395707,0.011663221262494005,5.416993835050661e-05,0,181.88789721337,22,3
1,X,2902,0.08736819094313578,0.00020373585535739727,0.00569065495012105,0.00037969752773287977,0.12355728055178483,0.0002881260097881144,0.03720526106194772,0.0001381954164437129,0.0384581208511184,0.00024145303487984408,0.9674227507365523,0.007057169540366856,0.011522922249323367,5.0536480226304556e-05,0,246.9200664462211,22,3
1,X,2923,0.08465238883539271,0.0002068101837712669,0.0061901286441596575,0.0003681688641984746,0.11971655637829315,0.00029247376672619785,0.039308546040412486,0.00015122285848759257,0.04090731295525678,0.00028507869467306465,0.9609173323949931,0.007649134065942256,0.011795901310486601,5.375680441618297e-05,0,227.8025374312296,22,3
1,X,2944,0.08810548551277031,0.00020486932033105906,0.004444318582489867,0.0003509712452181562,0.12459997253162602,0.0002897289713263418,0.03635992041346604,0.00012797538986941936,0.037715601378994115,0.00027731405358022773,0.9640551677300544,0.007858756325471967,0.011356141746147463,4.790496956824106e-05,0,322.2582793407096,22,3
1,X,2965,0.08690675620381381,0.0002256253138830905,0.0042342015542209035,0.00039993805336346774,0.12290471328528563,0.00031908237890815316,0.03791117865901088,0.00014732259679759593,0.0393302213885641,0.00025354835228358965,0.9639197879021898,0.007255717018762271,0.011679540555852895,5.458368100791758e-05,0,278.2567981057697,22,3
1,X,2997,0.08713074287018031,0.0002339633704924962,0.005973553144953139,0.0003898898542627647,0.12322147826665186,0.00033087417164900934,0.03499679531873936,0.00014619870789651633,0.03669423468331364,0.0002659545221301927,0.9537409792240148,0.007978590464772763,0.01080947561995993,5.368045074068798e-05,0,317.03436552739305,22,3
1,X,3018,0.08675354855349136,0.00021199892677519898,0.00628306766794161,0.0003862130763766482,0.12268804494834029,0.0002998117574540271,0.03631481770628892,0.00015567873611919595,0.03774870459624458,0.0003537614397704307,0.9620149378556871,0.009914002865071337,0.011168016542535306,5.510860725055465e-05,0,173.28762670648698,22,3
1,X,3039,0.08710347669197256,0.00021962339539459744,0.0055144956040819905,0.0003810029199021563,0.12318291806763637,0.00031059438438146847,0.03698869258265738,0.00014883863960943005,0.0385869653497445,0.0003379428297803585,0.9585799828361548,0.009238914886004524,0.011421138625000223,5.4234457597120274e-05,0,204.84777889580792,22,3
1,X,3060,0.08614371243033275,0.00022240375023790764,0.005459167752204833,0.00038356482579969195,0.12182560643214435,0.0003145263999090875,0.038183216268500096,0.0001760200442346191,0.04000669832179664,0.00036100045048673347,0.9544205813079291,0.009670995889270173,0.011660066395467064,6.160727095568779e-05,0,265.51513293751833,22,3
1,X,3081,0.08666761076815299,0.0002579987463134922,0.005184998236432213,0.00042267679459092277,0.12256651056679446,0.00036486532611179623,0.03704384810470275,0.00017616227630136606,0.038475867439049266,0.00037626240294481666,0.9627813632372286,0.010469431348931487,0.011380932589022903,6.385163469771449e-05,0,231.5312554280338,22,3
1,X,3102,0.08429641766812772,0.00023129304213131093,0.006602920289552337,0.0003588154040876594,0.11921313712573323,0.0003270977570646316,0.03944189499381964,0.00015321296395087703,0.04101783136579405,0.0003251301056718762,0.9615792371390792,0.008488070759489904,0.011786146185522496,5.6053001870239756e-05,0,268.31846997507625,22,3
1,X,3123,0.08766844050132654,0.00022137699012588668,0.005029354998406246,0.0003912493443712396,0.12398189754907474,0.0003130743418333637,0.0364501802484072,0.00014257070684519502,0.03747740518423506,0.00030684322170604583,0.972590820234802,0.008825036763002269,0.011327860533247957,5.27389205662856e-05,0,308.6163927684067,22,3
1,X,3144,0.08583297453446753,0.0002196585329753562,0.004733224614521943,0.0003674395613576015,0.12138615668546848,0.00031064407642472647,0.038411944205432064,0.0001490730584760222,0.040255000973373894,0.0003242140492033768,0.9542154583684921,0.00853094441570964,0.01168760120692714,5.433239798665205e-05,0,398.8311752052259,22,3
2,Y,103,0.0861221806975276,0.00022140585148303234,0.0013536507622906222,0.0003957913599426317,0.12179515596358992,0.0003131151579560676,0.0343015640155865,0.00014682635761581434,0.03544162210176168,0.00029219009133360556,0.9678327904151285,0.008990442489438755,0.01047210221706653,5.228872568169119e-05,0,244.6682951549933,22,3
2,Y,124,0.08054318077271522,0.0001949527079109634,0.0007384333748559006,0.00033543257684791734,0.11390525860544176,0.00027570476354904505,0.037760463443592705,0.00014041924277504833,0.03895072801190957,0.0002955156400561322,0.9694417889197623,0.008191054882935193,0.01078129735779269,4.7837029852511606e-05,0,347.6482461035447,22,3
2,Y,145,0.08287472908397284,0.00023207809998031833,0.0008749295286476569,0.00041909531821590954,0.11720256584855038,0.0003282079965219453,0.035906777403426245,0.0001738461089747021,0.0367165012633873,0.0005119858738938333,0.9779465953427189,0.014435383789352926,0.01054881031611808,5.900077176636203e-05,0,177.8303036515832,22,3
2,Y,166,0.08038494857211465,0.00021283585217403723,0.0001607825166669584,0.00037740405375918045,0.1136814844813483,0.00030099534870375866,0.03816936009032265,0.0001779914987616172,0.03992338321901331,0.00031043006971823893,0.9560652683399008,0.008668413916419863,0.010876634866589654,5.8325364532349105e-05,0,272.515554712099,22,3
2,Y,187,0.08236229596626769,0.00024351691501309984,0.0009311580908616459,0.0004203217956173492,0.11647787598368264,0.00034438492387878217,0.036131818078507606,0.0001425373460265289,0.037628692774175236,0.000266420220675665,0.9602198592268147,0.0077826548763846835,0.010549289037448128,5.200730044715069e-05,0,258.4920844224842,22,3
2,Y,208,0.08266005071698798,0.00023475846124821178,0.00042572771890147403,0.00037848302623675576,0.11689896479041229,0.00033199859977905977,0.03649981788067228,0.00016845426933353286,0.03813812082493581,0.00043131625752309134,0.9570429032992008,0.011690070255709886,0.010695258775268801,5.795805884702982e-05,0,212.455309225577,22,3
2,Y,229,0.08208940604403289,0.000240381198779449,0.00013976706070216858,0.00041945063484751714,0.11609195135462325,0.0003399503514533997,0.03651423708007643,0.0001651290176145525,0.03745534591376703,0.00045164863904038747,0.974873844821583,0.012554865307792366,0.010625619903174819,5.724657738059881e-05,0,191.88933477322539,22,3
2,Y,250,0.07986417368206226,0.00021471619639767747,0.00037864413930958224,0.00034753507957847933,0.11294499756889287,0.0003036545570067606,0.03753664332891095,0.0001660863360818416,0.03964241521903026,0.0003602447358608439,0.9468808376461271,0.009570409198861719,0.010627041298461029,5.502058760831362e-05,0,332.6624690847497,22,3
2,Y,282,0.08380678862933343,0.00023060124528163133,0.0005753568268424547,0.00040127385153652126,0.11852069709853863,0.00032611940857740773,0.035159936338445455,0.00014527184933462041,0.03684884983635879,0.0002971367875709938,0.9541664528088776,0.008645295855956414,0.01044557162650096,5.18530948649981e-05,0,314.6252716630056,22,3
2,Y,303,0.07921277911802355,0.00019894407915127063,0.0007458858083036391,0.0003719358399930489,0.1120237865419732,0.00028134941488955345,0.038682187511306046,0.0001394024533233202,0.03972415905712847,0.00021311259279476716,0.9737698274663553,0.006293332910814594,0.01086203526079701,4.771266249740809e-05,0,270.98070051703166,22,3
2,Y,324,0.08098889295791432,0.00020895857731453575,0.0010815804172806325,0.00035462841782753554,0.11453559082266529,0.00029551205401240344,0.03745964000532695,0.00013370947916942344,0.03822192167791334,0.0002686517682042784,0.9800564273295845,0.007725924357556217,0.010754593360466143,4.7366232063804446e-05,0,238.25395431855296,22,3
2,Y,345,0.07969087936449319,0.00019990031335565334,3.969447161180962e-05,0.0003519742729740023,0.1126999223947045,0.0002827017342701965,0.03845722392790315,0.00015661465239423094,0.04014126638048301,0.0003781524930460823,0.9580471020366549,0.009832539885657752,0.010864043158898263,5.19626785081814e-05,0,325.2937296541196,22,3
2,Y,366,0.08120721592813425,0.00022785636401121182,-0.0002500885183217175,0.00039558890797234346,0.11484434612812788,0.0003222375602576766,0.03694903359033789,0.00017009763195534864,0.038278844750851825,0.00030627523272258307,0.9652598930513873,0.008910320821948401,0.01063659534526827,5.7344734485677646e-05,0,204.47582028137305,22,3
2,Y,387,0.07961501999325836,0.00019611737300910482,0.0009511464158654248,0.0003394727036477291,0.1125926410430711,0.00027735184872645924,0.038573010244573214,0.00014574665557779332,0.039520004322488596,0.0002748813792584173,0.9760376018639122,0.007725863351032235,0.010886379583652519,4.9103156289681006e-05,0,287.1631171369085,22,3
2,Y,408,0.08271103024615958,0.00023821082802301768,-0.0006429819405242934,0.00041595263409134815,0.11697106073197017,0.00033688098369427655,0.03650134463893431,0.00015141252724111876,0.038084549830052994,0.0003704604414539621,0.9584292003402032,0.010135256276140299,0.010702302589394898,5.404571905281986e-05,0,252.48171864314904,22,3
2,Y,429,0.07978102900937428,0.0002067466175304329,0.0011134391748758058,0.00037449518648571855,0.11282741324513845,0.0002923838704863013,0.038472509979249316,0.00017773521784924092,0.03940563455186159,0.0003734624652743291,0.9763200216612627,0.01029373810574686,0.010880656163188882,5.763464121439501e-05,0,221.92489468340003,22,3
2,Y,464,0.08314768513207128,0.0002274612677273561,0.0008435049935286444,0.00040986583754506816,0.11758858399370298,0.0003216788097346046,0.03548248054003267,0.0001396681821331884,0.03660960738812868,0.00027000350727181597,0.9692122661642774,0.008102512052365365,0.010458491988084547,5.0132945577214145e-05,0,210.2744198235748,22,3
2,Y,485,0.08064972675636216,0.000188047359703911,0.0015243081863495543,0.0003469410858575969,0.11405593738053166,0.0002659391264617228,0.03780225971809391,0.00013464584476562537,0.038604946105828514,0.0002534501636032919,0.9792076801367839,0.00731389688842159,0.01080750870253969,4.600923683109668e-05,0,245.20762129199713,22,3
2,Y,506,0.08219566591474205,0.0002470619220780678,0.0011663685792241954,0.00040870610726060475,0.11624222550491614,0.0003493983209487683,0.036308116271694495,0.000179335885121832,0.03724813571909035,0.0003971206042709341,0.9747633155526203,0.011453523912606118,0.010579315471566823,6.116927801490534e-05,0,235.29923896985386,22,3
2,Y,527,0.07989008530773362,0.00021923443211621231,0.0017147160445018421,0.0003596446275366344,0.11298164214134043,0.0003100443072379111,0.03757404485831652,0.00016702820358675883,0.039330730544088394,0.0003719169316095226,0.9553355439507363,0.009982198889002024,0.01064108142589778,5.55902573045364e-05,0,322.83602036260606,22,3
2,Y,548,0.08206429010945467,0.00022222894825976505,0.0018881882211178324,0.00036736893400519466,0.11605643205931104,0.00031427919258086856,0.03639589660996833,0.00015814790104190719,0.03875104849681881,0.0003020497050229582,0.9392235312795776,0.008381588624072078,0.01058794244095199,5.42099126016176e-05,0,312.2305703997742,22,3
2,Y,569,0.08071868916744719,0.00020060371555473197,0.0005754374347317048,0.00035611914043917424,0.11415346495758205,0.00028369649519993656,0.03790488225600043,0.00016448769618409223,0.03890971815768879,0.000383356021732589,0.9741751945461009,0.010487750073340676,0.01084611449049129,5.4238658590398076e-05,0,196.45679171306148,22,3
2,Y,590,0.08189135168668188,0.0002469328158365064,0.0009101451899052793,0.0003895164850815957,0.11581186019637035,0.0003492157371509652,0.03611510361819509,0.00016343507602178058,0.03750608366031798,0.0003388002457718406,0.962913215500701,0.009728666041900699,0.010484116466670745,5.7012442647502334e-05,0,293.4017696304069,22,3
2,Y,611,0.08031098129770083,0.0001954336115615355,0.0006908978574546143,0.0003460584524855941,0.1135768789587005,0.00027638486401387885,0.03777478884886252,0.00014350614797010346,0.038924339225109114,0.0003025889383922228,0.9704670548265839,0.008396860792711463,0.010754294121095919,4.851852726804953e-05,0,278.67421337355245,22,3
2,Y,643,0.0830404906589023,0.0002338935061672593,0.000770538370923685,0.00041602679377530054,0.11743698811593595,0.00033077536857273326,0.03586700841079417,0.0001390305662993927,0.03724433330657836,0.0002332287166700015,0.9630192092728126,0.007092410681644958,0.010558202645892037,5.059009329468133e-05,0,268.6566617705145,22,3
2,Y,664,0.08220486273635565,0.00020468508274765055,0.0010622091249331458,0.00036979978162407387,0.11625523177477282,0.00028946842003718665,0.036953938249149935,0.00015803968426900036,0.03828090136685039,0.00028615844652315196,0.9653361579712032,0.008313607363623982,0.010768697295815978,5.329109972562362e-05,0,253.34880567578062,22,3
2,Y,685,0.083519019996517,0.0002550076854826189,0.0005610341815498704,0.00043367211002852353,0.11811373079518406,0.00036063532731889225,0.035200990487769535,0.00014356721229979972,0.03580066260416542,0.0002097599951825189,0.9832496922465866,0.007019281593625332,0.010421859297571995,5.3097023995122556e-05,0,182.89544500385875,22,3
2,Y,706,0.0860971510282312,0.00024038349995405924,-0.0005232884475887581,0.00043007362099747474,0.12175975866580924,0.00033995360580574285,0.03518289078850542,0.00015650639819843803,0.036187550145040485,0.00032481012394699826,0.9722374310361335,0.009739466553261864,0.010738045331428246,5.6395950726434446e-05,0,89.53635069328628,22,3
2,Y,727,0.08092676246752602,0.00022754045547651908,0.0003612215420353411,0.0003913925421747536,0.11444772504052125,0.0003217907981234447,0.03707242070368565,0.00013602343657241302,0.03805078317049343,0.00023909405320762103,0.9742879808170033,0.0070892767910932485,0.01063525833113653,4.916212010307426e-05,0,206.8215999657905,22,3
2,Y,748,0.07958788534819015,0.00022609782386432236,0.0010162419327046266,0.0004064964880171271,0.11255426686000547,0.00031975060893196794,0.038326884839831196,0.00016105645747488818,0.03918956016734676,0.00023760593187436768,0.977987113817257,0.007214480971012086,0.010813229472279234,5.4848537625971724e-05,0,249.25805929692703,22,3
2,Y,769,0.08314972088592511,0.0002545905372301623,0.0006300227096775695,0.00041877721724165355,0.1175914629844127,0.00036004539060274787,0.03543580337255209,0.00017476185425445193,0.0377457389340403,0.0004620581998190146,0.9388027463040328,0.012389805922300936,0.01044498957697195,6.063255563089635e-05,0,273.1759671862524,22,3
2,Y,790,0.0801460800036953,0.00022847771660846288,0.0008235544732492196,0.0003915678890444515,0.11334367331226503,0.00032311628552772476,0.037322519850678144,0.00016524056694224617,0.038622444601080504,0.0002996759993392091,0.9663427635451642,0.008632717262050286,0.01060371814411125,5.583687079113978e-05,0,230.0530233403074,22,3
2,Y,822,0.08419673630907058,0.000220781307537046,0.0001412747049613806,0.0003720362702669367,0.11907216639583884,0.00031223191943735573,0.0349476572394779,0.00013833253376418855,0.03605523428712884,0.0002206074778538102,0.969281102465438,0.007063472813513159,0.010430815339443551,4.95259840917549e-05,0,263.2189761271906,22,3
2,Y,843,0.08563018356256719,0.00020940881038080522,0.0009652678123210965,0.0003770022135806314,0.1210993669426802,0.00029614877972095055,0.035360035050312856,0.00012325080455601243,0.03562599548340169,0.00028244995441825536,0.9925346525906134,0.00859592933105799,0.010733577437204852,4.5702688535296504e-05,0,162.630696469946,22,3
2,Y,864,0.08186040131762806,0.00022841928869499418,0.0008610854326061531,0.0003771533482089165,0.115768089764694,0.00032303365598007616,0.03634657038966846,0.00015703507692040264,0.03796796160869729,0.00037770577351428424,0.9572958054546331,0.010382561061778728,0.010547322833959505,5.4247204583090165e-05,0,234.01719120220977,22,3
2,Y,885,0.07947402964925375,0.0001994991388535258,0.00010029603091834962,0.0003574006264288782,0.11239325058641614,0.0002821343878484095,0.03814073776089297,0.0001639293995518603,0.03934254917919494,0.0003639319850577698,0.9694526297005301,0.009888498667349482,0.010745317574254867,5.348345071036101e-05,0,250.9239713115779,22,3
2,Y,906,0.08231929405501003,0.00023329002859220208,0.0008551032251630995,0.00040476574858104456,0.11641706209757408,0.0003299219224014993,0.036071026889221376,0.00017118979832701905,0.03770452481646634,0.0003855876186986852,0.9566763422905787,0.010785701476215697,0.010526041444041108,5.818436253956285e-05,0,298.9510645185793,22,3
2,Y,927,0.07949536075082042,0.00021818762756895763,0.00018799418652651982,0.00033375098571374273,0.11242341731955208,0.0003085639020500297,0.038014898033508236,0.00015156694701487012,0.039218155320153644,0.0003354838140998402,0.9693188708948003,0.009148260790219447,0.010712739551397942,5.1854135563441456e-05,0,267.33385284058625,22,3
2,Y,948,0.08196568523694686,0.00022292199787051653,7.538072401299798e-06,0.0003850174472650797,0.11591698371129444,0.0003152593127397907,0.03641284662828332,0.00014812785262440135,0.03766490988125696,0.0003857378350832755,0.9667578322390544,0.010653348584498845,0.01058014544170491,5.1773003893755524e-05,0,236.04868219141045,22,3
2,Y,969,0.07974274192966438,0.00020612903498659556,0.0005575992339186588,0.00034485992672263834,0.11277326713774904,0.00029151047687692166,0.038131257191301726,0.00015069612241982742,0.03954317303102416,0.0002686653773784498,0.9642943210800332,0.0075793866218446995,0.010778968950610734,5.090188426293724e-05,0,402.12267498315276,22,3
2,Y,1018,0.08199956702687108,0.0002109852585873038,-1.0421798794393167e-05,0.00035986587831634295,0.11596489979812274,0.0002983782141549596,0.03659007383623594,0.00013138599772357948,0.03761955067759833,0.0002760537012681652,0.9726345258563808,0.007945913814582558,0.01063603547298963,4.6984167847478113e-05,0,326.74944999177904,22,3
2,Y,1039,0.08000806564080878,0.00020085656701426664,0.0006722451394465107,0.00034349120607762444,0.11314849152846862,0.00028405408116327635,0.038113758228407756,0.00014878945695479106,0.03933406956912769,0.000353418372873743,0.9689757161136023,0.009492544315497339,0.01080987015386201,5.0172509648733975e-05,0,257.201970211061,22,3
2,Y,1060,0.08097019197084371,0.00022702917268711307,0.00018580428380590786,0.0003839988461627942,0.11450914363312026,0.00032106773506845876,0.03724648612260167,0.00017030220440895382,0.038359642607904025,0.0002716864922139723,0.9709810517089387,0.008185626748945725,0.010690928083507033,5.734124697761314e-05,0,179.58753608122612,22,3
2,Y,1081,0.08339739321742654,0.00021304125215405203,0.0018028129859836248,0.0004013284123155663,0.11794172455464658,0.00030128582814120675,0.036991825329739506,0.00015047968860089733,0.03724913125033346,0.00028752448018397005,0.9930922974051468,0.008664994328621695,0.010936117549194383,5.253160609648831e-05,0,200.44922728237077,22,3
2,Y,1102,0.08059267979198442,0.0002161778302770048,0.0007567537614138192,0.0003683430188894185,0.11397526078981646,0.0003057216194621293,0.0375373849750966,0.00013811687087970375,0.039258022399997296,0.0002466006155568382,0.9561710621240866,0.006960768643621534,0.010724191072451213,4.8831406984231906e-05,0,321.1056650276207,22,3
2,Y,1123,0.07963470109311475,0.00023338402909251716,0.0011193622346507553,0.00038401736027930596,0.11262047432141042,0.00033005485918391475,0.037981046163125254,0.00017057102640122946,0.039583917904211896,0.00031648128623478226,0.9595069961249063,0.00879883318680616,0.010721960655086259,5.749765070398857e-05,0,226.7976258952235,22,3
2,Y,1144,0.08187853337136468,0.00023099405142391652,0.0009349873658144351,0.0004061695506871979,0.11579373236100199,0.00032667492035121093,0.03659415574375797,0.00016991878659777094,0.0383382416415983,0.0003652418690421267,0.954507931945738,0.010116027730562917,0.010621521168189313,5.77087680156645e-05,0,354.1974053234398,22,3
2,Y,1165,0.07913805385833998,0.00024223269082882556,0.0005394688724009981,0.0003975921415770005,0.11191810906627686,0.000342568756620254,0.03819814385196725,0.00015336054881575777,0.03913332526515238,0.0002506440793189628,0.9761026846850172,0.007378561917280113,0.01071599637283883,5.410061517098932e-05,0,215.87901662867282,22,3
2,Y,1197,0.08161431067690778,0.0002092131137580448,0.0011836186162916115,0.00035494202207160465,0.11542006504301427,0.00029587202290293213,0.036700342818681744,0.00013090133235911188,0.03763342599661668,0.00030368167882645374,0.9752059996339737,0.008603841552806548,0.010617966967479029,4.663812837556047e-05,0,237.6716098092107,22,3
2,Y,1218,0.08012496510729832,0.00019291793077241327,0.00036121508636296167,0.00036411710717755493,0.11331381233941229,0.0002728271541233007,0.038915520795033805,0.0001480754972773507,0.04036325377967485,0.00023113749519941475,0.9641324014029301,0.006628748363442972,0.011053393528561986,4.977156305638072e-05,0,329.64612617240584,22,3
2,Y,1239,0.08117281661795828,0.00022747432050122644,0.0011318715658274,0.0004035734251980595,0.11479569815714075,0.00032169726914443864,0.037254528225638926,0.00016674575285970198,0.03863401582002729,0.00038620977288831676,0.9642934454234691,0.010561798497133257,0.010719995817123644,5.660969242112148e-05,0,229.72554081572235,22,3
2,Y,1260,0.08092134190878625,0.00018199844500167372,0.0001114562499707034,0.0003336131143031414,0.11444005921283584,0.00025738466925218084,0.038084893813761414,0.00013635429284144366,0.0396130840886562,0.00031025330924308917,0.9614220828786112,0.008279402331006686,0.01092498267863656,4.619175699790166e-05,0,343.09490970117116,22,3
2,Y,1281,0.0811023875800581,0.00023113216750190262,0.0001500115269803725,0.00040843759740399844,0.11469609645655743,0.00032687024598188064,0.037421963335859634,0.0001520034756917627,0.03923891242433728,0.00029856871720220515,0.9536952230268565,0.008225900470427207,0.01075883236052234,5.338449925951815e-05,0,279.944278646429,22,3
2,Y,1302,0.07878444267933352,0.00024515843171685013,-0.0001225622646183744,0.000413302936974233,0.11141802734111916,0.00034670637906408786,0.03919666682318452,0.00019858692289471264,0.04081973782124932,0.0004171507768478724,0.9602380837140044,0.010952758536555886,0.010946985341818954,6.508782528879841e-05,0,194.84510115918218,22,3
2,Y,1323,0.08202767299434811,0.0002570883976529905,0.0014204714475091525,0.00044586594003624284,0.11600464763851237,0.00036357789868962653,0.036644851348407455,0.00016044962671262823,0.0380611895054811,0.00029710367861981,0.9627878640821333,0.008617038853470394,0.01065560928804077,5.737657015348152e-05,0,195.23770806856726,22,3
2,Y,1344,0.0798052199170811,0.00020470400264773077,0.00036739319795051284,0.00037191270735140327,0.11286162435490354,0.00028949517681647885,0.03769150963835144,0.000148880802173545,0.03854080017685803,0.000297270284645414,0.9779638581812178,0.008474764678547604,0.010663008688606196,5.0220188604203094e-05,0,261.71320747820835,22,3
2,Y,1376,0.08303702353108675,0.00021535193276149382,0.0019284137035078988,0.00034181401958553455,0.11743208485675671,0.00030455362399456343,0.035665187400589354,0.00015724945986996712,0.03747841746439665,0.0003551217632329779,0.9516193535778342,0.009945322372564442,0.010498354070277426,5.370156376166239e-05,0,274.96292267776033,22,3
2,Y,1397,0.08045008945355657,0.0002068976543577285,0.0007774337180809481,0.00038187958819313803,0.1137736075993484,0.00029259746881588056,0.037893757231295004,0.0001619757773668962,0.03917819854049661,0.00034260995295843754,0.967215406602375,0.009414569663097422,0.010806850207403702,5.3909841596633015e-05,0,237.8647288641104,22,3
2,Y,1418,0.08043184135137106,0.00021195304372756873,0.0005164582926207468,0.00037685991989154695,0.1137478008857501,0.0002997468690257854,0.03772619066419512,0.00013879001294769401,0.038610253104693217,0.0002603325526573763,0.9771029099938577,0.007505044830139278,0.010756621783809556,4.8676955544048285e-05,0,156.6589580094609,22,3
2,Y,1439,0.08478896150693849,0.00021786316742853918,0.0011585653813777701,0.00041143359749979796,0.11990969930264272,0.00030810504611900047,0.036029968670294434,0.00013362509863919288,0.03644081102615279,0.0002675506067517672,0.988725762564299,0.008132859917264982,0.010829493190822818,4.886107921286172e-05,0,135.32114578015768,22,3
2,Y,1460,0.08132092827350886,0.00023574654341429731,0.0010327997676928976,0.0004120312509477694,0.11500515966916591,0.0003333959589790769,0.036989407054283815,0.00015112468180873305,0.038151675156668334,0.0003028949553843848,0.9695355945024245,0.0086568009240539,0.010663128159956256,5.3418222410468185e-05,0,198.56675298273308,22,3
2,Y,1481,0.07945670221470513,0.00023289233764616592,0.0006668233857006634,0.00036693283285379547,0.11236874589347634,0.000329359502471982,0.037985843626589695,0.00017369043668048916,0.03870901321987592,0.00030478664736095486,0.9813177982817992,0.008935078694350167,0.010699346295736108,5.8111248873413685e-05,0,232.2861193364916,22,3
2,Y,1502,0.08181470386582798,0.0002246634557070254,0.0010483839043778538,0.00038320542130471194,0.11570346380859242,0.00031772210603048245,0.036546606218233996,0.00014999909706246128,0.03833690914557609,0.0002804828988669605,0.9533008015710446,0.007997118319391483,0.01059945044090927,5.234240728003483e-05,0,348.44629033518214,22,3
2,Y,1523,0.08547960047216581,0.00020712059746908292,2.5786013420948746e-05,0.00040328707096838655,0.12088641029397051,0.00029291275798759564,0.03530689427858425,0.0001280285501499587,0.03639322810244601,0.0002524674142731468,0.9701501108721723,0.007594108035420709,0.010698599566012426,4.665888060638057e-05,0,244.6557255713036,22,3
2,Y,1555,0.08770641659095788,0.0002142725345241698,0.0002838001034375315,0.00040495898591293476,0.12403560385007728,0.00030302712436813817,0.034467760829330604,0.00011452504147680951,0.0350527027642173,0.0002642786501182182,0.9833125012122085,0.008101664875531704,0.010716411214986149,4.419621919616708e-05,0,161.3419541513383,22,3
2,Y,1576,0.09013668661635936,0.00022089323360024237,0.0007250185898166928,0.000419325605505046,0.12747252468022885,0.00031239020679391105,0.03274439077453566,0.00013253371302296047,0.033434921686236324,0.0002523295072683423,0.97934701572862,0.008386889311231514,0.0104626918885258,4.950536784622013e-05,0,160.30675812241623,22,3
2,Y,1597,0.08716169950266306,0.0002253054024116089,0.0017399645566054096,0.0003878410672866129,0.12326525755615436,0.00031862995576642517,0.03461545292567351,0.00013479893236382806,0.035315891258818656,0.0002517570421758694,0.9801664829010865,0.007961902175219544,0.010695488871253662,4.999090423266023e-05,0,150.33304642299092,22,3
2,Y,1618,0.08443807720602244,0.00022887105214471022,-0.00019003277382044232,0.0004101225459252722,0.11941347396546342,0.00032367254597764905,0.036406724430134936,0.00015459039479311023,0.037433516103572755,0.00034620466696928066,0.9725702584123584,0.009897564037541882,0.01089744971510948,5.489672676489752e-05,0,152.01701859984928,22,3
2,Y,1639,0.08248273363035613,0.00021435544381540349,0.0007830653407336076,0.0003601065426509305,0.11664820056165703,0.0003031443758122476,0.036502626196847104,0.0001414107962152456,0.03734571992974407,0.0003240005117477541,0.9774246222998774,0.00928685499653514,0.01067313711986724,4.978937147737032e-05,0,214.40077293640718,22,3
2,Y,1660,0.0825624631601,0.00020382571305002187,0.000838036035561605,0.0003888039913532998,0.11676095514394247,0.0002882530877557077,0.0374197120290231,0.00014621733130609053,0.038542624330996034,0.0003408091496269032,0.9708657020256432,0.009385639691624967,0.010951863295421017,5.061991071456154e-05,0,227.42573955940824,22,3
2,Y,1681,0.08209443855203181,0.00019395191062233469,0.0011316608593872786,0.00036020274920975105,0.11609906839568807,0.0002742894224502801,0.03677894049933265,0.0001340513153497595,0.037769691800488274,0.00023516086615578782,0.9737686156829372,0.007025304343401949,0.010703304558885827,4.64899109777295e-05,0,302.7707793637607,22,3
2,Y,1702,0.0800006323566722,0.00020923181636733809,0.0019984002081945575,0.00035514362262763753,0.11313797927722968,0.00029589847238664646,0.03804803355842843,0.00014150450979211177,0.0392185274840265,0.00023624835471102693,0.9701545672240038,0.006868190638211512,0.010790226666226668,4.9059252279446254e-05,0,306.8626865065815,22,3
2,Y,1734,0.08229126638699784,0.00020131267528290909,0.0006181836530123909,0.00036420782825021317,0.11637742498934955,0.000284699115662701,0.03634811058824694,0.00015243294782449335,0.03761387596708149,0.0003092557289621108,0.9663484459846067,0.00891903205756923,0.010603287045012587,5.1479680359873074e-05,0,283.7225605833329,22,3
2,Y,1755,0.0832852518440285,0.00021560013254813852,0.00024277769994793236,0.00035284955350532173,0.11778313270348395,0.0003049046314990145,0.03622707356394746,0.00014487551615501452,0.0376586216912329,0.0002865970661820773,0.9619861783837215,0.008270334925091272,0.010695627970912794,5.0952186037650294e-05,0,251.9719073269313,22,3
2,Y,1776,0.08173550725308759,0.00022042036614585483,0.0004203175968605234,0.0003819567582078748,0.11559146288476096,0.00031172147122671134,0.036740353011191856,0.0001611588283769422,0.03823341239933429,0.0003125779388037135,0.9609488325931266,0.008915607431735828,0.010645327306979887,5.481382293671336e-05,0,268.83010509751097,22,3
2,Y,1797,0.07977092594861956,0.00021903564871542574,0.0006050495494110165,0.00039518233608992623,0.11281312535959764,0.0003097631850565441,0.038876571404511735,0.00014968095387931128,0.039848738113898954,0.00035571736122326833,0.9756035760377533,0.009484428716875807,0.010993539012699694,5.198814332902761e-05,0,195.57004636119518,22,3
2,Y,1818,0.0877412432434471,0.00022725274929623254,0.0005512892106210871,0.0004323769583799749,0.1240848561743596,0.0003213839201413049,0.03462938282340024,0.00013426072879776444,0.03534174439221543,0.00021822978613344742,0.9798436217264901,0.007144156827185574,0.010770936544315763,5.022073962556847e-05,0,175.13628399282618,22,3
2,Y,1839,0.09470099134852156,0.00022337574569532477,0.0005213089992019496,0.00040668601788783137,0.13392742633525634,0.0003159010090675318,0.031145998336689514,0.0001178599273484082,0.032099374205932577,0.00021795463769854842,0.9702992381369584,0.007542387018898283,0.010455907039177844,4.6623486029534806e-05,0,239.66248470761766,22,3
2,Y,1860,0.08310201100985348,0.00021900555718082934,-0.0002970811819945613,0.00034337594575538025,0.11752399103061306,0.00030972062920020527,0.035802819783442054,0.00014823218226564335,0.03718939122486851,0.0004617672403803655,0.9627159414080633,0.012600715615162864,0.010547115404428788,5.176346182929662e-05,0,297.78994788200134,22,3
2,Y,1881,0.0822091993521609,0.00020177377246617082,-0.00020421401773951055,0.0003593613050408433,0.1162613646756594,0.00028535120555284177,0.03727167979675943,0.00014822295457102367,0.03850441373643426,0.00034335878162566256,0.9679846069566728,0.009451364233116991,0.010861862905493867,5.076011161065575e-05,0,208.86776499680985,22,3
2,Y,1916,0.08313511859523776,0.00021902107716050332,0.0014493567287413136,0.00038483067982972763,0.11757081222688093,0.00030974257776594794,0.036081509958877135,0.00013547471537257418,0.03752594316964279,0.0002619995717385703,0.9615084102154119,0.007622254049178996,0.010633449099375638,4.877306344318367e-05,0,289.59835771169963,22,3
2,Y,1937,0.08563400705458446,0.00021500645549884392,0.0008174360091858701,0.00039286472181144713,0.12110477417694665,0.0003040650453642324,0.0353776085611028,0.00013504896250103213,0.036074316892927095,0.0002918927994695648,0.9806868600203239,0.00877391159646147,0.010739391401186222,4.9068714567425716e-05,0,182.26429102306346,22,3
2,Y,1958,0.08165419526029062,0.00022497949579760638,0.0008147997021875745,0.00036903151053652974,0.1154764703617639,0.0003181690542128357,0.036667169599336406,0.00015601656423739788,0.037732530049787036,0.0004046849035573735,0.9717654647317602,0.011212511482458096,0.010613553718164224,5.380142903255019e-05,0,210.1742504076364,22,3
2,Y,1979,0.07959990339347588,0.00020992393697655932,0.001026996901048755,0.00035515788486783855,0.11257126294264175,0.00029687727873900505,0.03789966675130267,0.000148408157197951,0.03967541757951968,0.0003505711653706127,0.9552430462853239,0.009232222720020646,0.010694312337630253,5.048876450927159e-05,0,287.5337704341001,22,3
2,Y,2000,0.08216702611587735,0.00019811735276805355,0.00030479642269504853,0.0003524971230352096,0.11620172271293805,0.0002801802472260362,0.036582410827749504,0.00014371172075483107,0.03829951023369025,0.00027118485889513204,0.9551665440246205,0.007734373245781667,0.010655524290129025,4.9115247394796096e-05,0,291.5445234291484,22,3
2,Y,2021,0.08054307599917485,0.00021791793921116653,0.0008525549987051322,0.00034100391977872653,0.11390511043328,0.00030818250511682743,0.03745155832622965,0.0001588537535267342,0.038871003091700704,0.0003300336891717128,0.9634831969187305,0.009144432128174992,0.010693085432697334,5.3797279355886913e-05,0,334.4014790431717,22,3
2,Y,2042,0.0826672674889712,0.00022958201918212384,0.0002791659000090244,0.0003812801729479078,0.11690917084722752,0.00032467800520435963,0.03609667458731395,0.00014202245346267323,0.03728746488460166,0.0002984858808429991,0.9680645948719495,0.0086348006110782,0.010578052273874521,5.094301156419429e-05,0,344.5203399771712,22,3
2,Y,2063,0.07984655235860816,0.00021254701359635922,0.0009952243783161304,0.00039297917293350704,0.11292007725427711,0.0003005868692698699,0.03843957602051653,0.00015722785058273122,0.03951054983660669,0.0002751609908273527,0.9728939784305937,0.007857639962844944,0.010880270422805744,5.309769076725034e-05,0,277.52574125277596,22,3
2,Y,2095,0.08165733502418808,0.00022629581119526043,0.0006611462086249749,0.0003993099986726468,0.11548091065845034,0.0003200306053005586,0.0363826519626677,0.0001589913604143213,0.0373686482980672,0.00032161932753321326,0.9736143430306924,0.009397841520703769,0.010531603159711703,5.449707858799932e-05,0,237.2057121218831,22,3
2,Y,2116,0.07968600276158322,0.0002004212633424956,0.0002614115651894495,0.0003717671467293079,0.11269302583673091,0.00028343846880690693,0.03814301496426848,0.0001505364576552794,0.03894280383247758,0.00026952937980317124,0.9794624734354107,0.007803701780713694,0.010774620745973167,5.042456241814901e-05,0,209.74597814676005,22,3
2,Y,2137,0.0815386095538034,0.00019989146334934186,0.0002794746696209763,0.00038635206861659555,0.11531300748803319,0.00028268921847124373,0.03699407973132642,0.00015517725436777597,0.03831980098239521,0.0003034559630271404,0.9654037542711184,0.008651346110774534,0.010693022030101225,5.1951938439505823e-05,0,274.9844650057933,22,3
2,Y,2158,0.07958583361688001,0.00020153256108824667,0.0018732285418130248,0.0003710590804087918,0.1125513652737603,0.00028501008115078275,0.038350768091510314,0.00014807034349296252,0.03917803083128325,0.0002504870430120422,0.9788845247650277,0.007311193941603567,0.010819688762127373,4.9957560956165704e-05,0,210.30988468789195,22,3
2,Y,2179,0.08194206516329933,0.00019995875703834564,0.00027834606036548367,0.0003683480532713618,0.11588357988279785,0.000282784386118895,0.03673901574093231,0.00012691268308856514,0.03799166890841597,0.00021483401738831603,0.9670282142513047,0.006407941674758834,0.010671841202556095,4.5135638528302065e-05,0,283.51620617517966,22,3
2,Y,2200,0.07976634584070595,0.000202438687557772,0.001210333631479752,0.0003311623871306545,0.11280664810886909,0.0002862915374932107,0.038243342665840833,0.00015062047265273663,0.03939896093605633,0.0003210003718183857,0.9706688135230002,0.008784002805321144,0.010813853307980724,5.066668935327071e-05,0,226.61788490671918,22,3
2,Y,2221,0.08170197115295177,0.00022191601725802775,-0.00013794683989698067,0.0003806374736972503,0.1155440356771198,0.0003138366413141247,0.036581617511178485,0.00013553775152696398,0.03746211725992097,0.0002069202333233368,0.976496263074685,0.006494701088240745,0.010594985606903293,4.8673731977949356e-05,0,274.7217687054459,22,3
2,Y,2242,0.0794587795816473,0.00021898932128707832,0.0007553873300231485,0.0003682163492179462,0.11237168373397999,0.0003096976681790653,0.03841431971961441,0.00016240494017537088,0.04007056775704392,0.00036927817797697193,0.95866671898757,0.009720079807516071,0.010820316618346074,5.4606918874949645e-05,0,280.4467565286703,22,3
2,Y,2274,0.08215699366631297,0.00018754037320854638,0.0014502941436524508,0.0003508233269541681,0.11618753468670029,0.00026522213928403815,0.03668610175780634,0.0001420460594311311,0.03780472635038474,0.0003209543939047482,0.9704104565600957,0.009054947628595168,0.01068442210791963,4.802359940668373e-05,0,233.22784730664398,22,3
2,Y,2295,0.0807794313669176,0.0002272970972350267,0.0005515342911343153,0.00038040707580759813,0.1142393673998815,0.0003214466375978109,0.03764678585161734,0.00018970526001046645,0.039029350612135444,0.0004258651425642833,0.9645762807007038,0.011593033716744233,0.010780369019799008,6.221853187194996e-05,0,157.02810183348817,22,3
2,Y,2316,0.08153727497739673,0.00021914548184694477,0.00018183554580399584,0.0003641382010547757,0.11531112011197886,0.0003099185125607362,0.03686782447066932,0.00015011557551493007,0.037938465579569806,0.00037886146803858296,0.9717795358208416,0.010480060481946071,0.010656353925502442,5.199002626997561e-05,0,191.74027769005608,22,3
2,Y,2337,0.08131833739366348,0.00020382851813520857,-5.733065361796744e-05,0.00034651283667208247,0.1150014956117501,0.00028825705474522234,0.03789539416091681,0.00012717957645038203,0.038681954166284116,0.00022668869485237357,0.9796659702871762,0.006615942790060243,0.010923953713095996,4.575819521175742e-05,0,226.32300459098187,22,3
2,Y,2358,0.08559537709436663,0.00020849347780741004,8.360845531716843e-05,0.0003839415862549073,0.12105014316329266,0.0002948543039815732,0.035442724359849756,0.0001299436369307606,0.03615103328624385,0.0003224589001253679,0.9804069521115565,0.009454907947948116,0.010754304741878457,4.733713070757223e-05,0,165.9014082576497,22,3
2,Y,2379,0.08175526621198612,0.00019304524587663796,0.0010126800929765635,0.00033729169295945184,0.11561940627241363,0.0002730072048703902,0.03771819325035052,0.00013173126082106145,0.03920778252991537,0.00034039832464583295,0.9620078162179078,0.009002520028242483,0.010931293381301947,4.608442070267098e-05,0,334.6452346689742,22,3
2,Y,2400,0.08203492567368996,0.00021823617753481578,-0.00023640284286375056,0.00037043845453124376,0.11601490447600116,0.00030863256207019907,0.03631627511436145,0.00015207745670930473,0.0380284910920387,0.00031607317082062294,0.954975442661313,0.008887770070517028,0.010560999410935565,5.239466057897719e-05,0,323.1968208084386,22,3
2,Y,2421,0.07883740678407263,0.00021188489142329832,0.0004855767322387583,0.00037446131322421943,0.11149292989636017,0.0002996504871127792,0.03924973294300075,0.00014466940490164912,0.04069149922873293,0.00027558963418107204,0.9645683665370057,0.0074374752113034815,0.010969175087337083,5.003787399825789e-05,0,349.1224843287368,22,3
2,Y,2453,0.08349030218917976,0.0002331213254937667,0.0006659468013195143,0.0003819145363269419,0.11807311768256612,0.00032968334019167767,0.03565317789388578,0.00015665247862745407,0.03733087528019532,0.0003607289556129187,0.9550587181865626,0.010137996737182584,0.01055210760059395,5.4933554094027555e-05,0,270.02732262635067,22,3
2,Y,2474,0.07980137674629939,0.00020509883146201842,0.00037009494596503093,0.000350852414132977,0.11285618929066155,0.0002900535490804601,0.03837479740533408,0.00014334025376600183,0.03973249745904623,0.00035085234128583387,0.9658289777753946,0.009260257342066733,0.010855789453074017,4.922085484031122e-05,0,279.03890980196724,22,3
2,Y,2495,0.08179722271816038,0.00022667344909763846,0.0002084202818229048,0.00039087910664736185,0.11567874173247505,0.00032056466594376776,0.0366141672182737,0.00015854645940979468,0.037918755090344376,0.000332977063560209,0.9655951818839412,0.009454075407779672,0.010616775913373776,5.458089365614594e-05,0,262.7944205372504,22,3
2,Y,2516,0.07925446098103546,0.00022518586637148942,0.00020292485942392213,0.0003936850392258768,0.11208273359794962,0.00031846090627729584,0.03930325268806827,0.0001493876563094102,0.040276640443587926,0.0004199200582007111,0.9758324491616178,0.010828932329565123,0.011042238982884787,5.2401007127439144e-05,0,194.72597898981044,22,3
2,Y,2537,0.08125197261214062,0.00023531294983169024,0.0009535035586096606,0.0004053340513210015,0.11490764163765654,0.00033278276505399607,0.03700783696217338,0.0001533438719759745,0.03817903596811451,0.00037817314583829726,0.9693235050010359,0.010407624477676798,0.010659394795545883,5.3886745745158164e-05,0,267.0784718308725,22,3
2,Y,2558,0.07903742569841044,0.00021106962430297507,0.000477685317104131,0.00034262340166967605,0.11177579935774784,0.0002984975252942612,0.03901709547507695,0.00015879620934841038,0.040827417850125995,0.0002829798818016705,0.9556591508751647,0.00768130458789546,0.010931824601182659,5.3214275573476076e-05,0,429.37496400893514,22,3
2,Y,2579,0.08218588244311412,0.000212194392760209,0.00022340544061347873,0.0003762131348268377,0.11622838958665282,0.0003000881881010109,0.03668166394946158,0.00014662123605569083,0.037889156194497564,0.0003118731396068055,0.968130928046074,0.008858775418674006,0.010686886142814028,5.085334371966109e-05,0,176.18722619607442,22,3
2,Y,2600,0.0785659880367873,0.000200520133641188,-0.000785769851854237,0.0003496221848694202,0.11110908582286694,0.0002835782925242336,0.03914773243856007,0.00013543080353122864,0.04039149848700245,0.00021176675148166976,0.969207231842547,0.00608794287814938,0.010903002707333454,4.687275414668892e-05,0,386.8892361304417,22,3
2,Y,2632,0.0825158543703958,0.00022075437107262855,0.00037515031999777924,0.0003824137360929204,0.11669504036141698,0.00031219382552405417,0.03604989726423229,0.00014963946612635723,0.037883796738708585,0.000284892336346423,0.9515914551246004,0.008173877815333545,0.01054499465948161,5.2074734546802184e-05,0,310.0510655523148,22,3
2,Y,2653,0.07933619860087346,0.00021699164934344589,0.0006755098534170587,0.0003509369915275969,0.11219832804848062,0.0003068725334232081,0.038263917883058954,0.00016300613690739462,0.039688442915867886,0.0003443074495921122,0.9641073086231007,0.009317891318284876,0.010761325189056484,5.447902029198541e-05,0,247.59782783308322,22,3
2,Y,2674,0.08090902243939908,0.00021632591189491948,0.0022539276980719698,0.00035433384200793356,0.11442263685214726,0.0003059310384945224,0.03681085643623331,0.00014814476637966831,0.03851856457929008,0.00034232606890058343,0.9556653223787333,0.009323523021097574,0.01055790640686508,5.101241393523289e-05,0,286.268143991464,22,3
2,Y,2695,0.07931459373042217,0.000186704271845651,-0.0003378106677517726,0.0003434791175865075,0.11216777414767509,0.00026403971339711285,0.039185199379276614,0.00015624878830495354,0.040244113283239104,0.0002834474914501675,0.9736877317557023,0.007880643142421083,0.011017424850240399,5.101542437095251e-05,0,247.0290383067095,22,3
2,Y,2716,0.08185652009905645,0.00022815577527611426,0.0013580982498369715,0.00040995337286801637,0.11576260089275148,0.0003226609917292289,0.036829312455595696,0.0001515728204883907,0.037776256899459355,0.00028038241410041403,0.974932814376397,0.008274106535961829,0.010686901861245424,5.312001168646381e-05,0,258.93816858002356,22,3
2,Y,2737,0.0788419971302369,0.0002049345327549575,0.001315509267424289,0.0003439196949486041,0.11149942162616167,0.0002898211956206542,0.03913564429613712,0.0001588990671663358,0.04037604106578141,0.00028325734231397423,0.9692788907257298,0.007856679819220676,0.010937927410440527,5.2731393223904576e-05,0,270.50945322151915,22,3
2,Y,2758,0.08158719317124401,0.00022046090525211046,-0.000739170929985804,0.0003589942573781764,0.11538171509872686,0.0003117788021805845,0.0367169455534805,0.00014860762398449638,0.03783420698700541,0.0003098883858810945,0.9704695427101552,0.008866331273758958,0.010619240825726073,5.167867129292356e-05,0,250.29328818274473,22,3
2,Y,2779,0.07968673190867745,0.0002217985009039874,0.0007978793067444414,0.00035457682825189795,0.11269405700644053,0.00031367044809244016,0.037878797799083354,0.00017500998762601575,0.04005421024052819,0.0003585345888648689,0.9456882952283583,0.00952620348456863,0.010700082714246207,5.7715052556318176e-05,0,293.05122576100484,22,3
2,Y,2818,0.0818941086081386,0.00023931182783673392,0.0007860536307402274,0.0003948384685984241,0.11581575907208486,0.0003384380325630043,0.03669686230541132,0.00015642640579933948,0.037698367306296894,0.00037285026732471226,0.9734337300937091,0.010483725171547555,0.01065335807272266,5.505799503962511e-05,0,237.07003868758466,22,3
2,Y,2839,0.08039038389807522,0.00019684741960203914,0.0017141927243558865,0.0003611776951280895,0.11368917119303767,0.0002783842905193512,0.03820732734447011,0.00014595053126051596,0.03931239782762066,0.0002271134355990788,0.9718900259405157,0.006731172828324713,0.010888190078331673,4.9404033096674235e-05,0,257.5730727769242,22,3
2,Y,2860,0.08146582616363918,0.0002330757136362349,0.0003168333959858552,0.0003720962560201876,0.11521007623054746,0.00032961883528415115,0.03669305391708471,0.00017205828195561676,0.037935640829633535,0.0003643439991826438,0.9672448682723142,0.010337753549257565,0.01059654427869896,5.8207103104936014e-05,0,236.0053035713008,22,3
2,Y,2881,0.07877772798046014,0.00020615696355161527,0.0009909189962418097,0.0003527572635637253,0.11140853132290518,0.00029154997383235015,0.039356564508483224,0.0001492782854877402,0.04048414864322836,0.000311032068754492,0.9721475151995387,0.008329449994828562,0.01099070533560209,5.064679282664523e-05,0,237.19469716716415,22,3
2,Y,2902,0.08083264095234136,0.00022118331986249078,0.00019540747548303444,0.00039657174338713177,0.114314617117236,0.0003128004507202409,0.037632488946987966,0.00015977312466715124,0.03875327489112027,0.0002615942024736306,0.9710789359794437,0.007743774868444289,0.010783373376255699,5.446688660292167e-05,0,258.3478228725511,22,3
2,Y,2923,0.07864072002674911,0.00020677124678441223,-0.00014286580629728498,0.00036171541671780764,0.11121477281661407,0.00029241870151131,0.03935279686098376,0.00017693022727548332,0.04130776811783155,0.00031174125309391153,0.9526730359463822,0.008368794284004876,0.010970540295174375,5.713885285775826e-05,0,240.3146025178113,22,3
2,Y,2944,0.08226849563004895,0.0002480606455663995,-0.0005990733259455868,0.0004146887401474953,0.11634522227604693,0.00035081072925102763,0.03629289302837419,0.00016142713145677132,0.03764201060873226,0.00032369158736295474,0.9641592582717912,0.009334447771433399,0.010584249686892363,5.687552868420152e-05,0,245.77196262394517,22,3
2,Y,2965,0.07992680136701309,0.0002284129490522065,0.0006469214272177534,0.0003444965013856141,0.11303356649033036,0.00032302469037126524,0.037582746589765265,0.00016468950476391153,0.03981204347111033,0.00036607714971849864,0.9440044597820567,0.009615550523219142,0.010648437366099271,5.570797637135764e-05,0,335.99756191853777,22,3
2,Y,2997,0.08469078359220043,0.0002154602530011813,-5.4316679049649924e-05,0.0003857060400836813,0.11977085476409466,0.000304706811946609,0.03561654718729886,0.00014306284917291396,0.03640399504970973,0.00031663256861282427,0.9783691910369835,0.009373217051160006,0.010692835805911677,5.084063917622595e-05,0,234.09060854757365,22,3
2,Y,3018,0.08205772668467586,0.0001942789667292879,0.0008689363123865083,0.000362170006839124,0.11604714997497323,0.00027475194963239025,0.037379412037739486,0.00013977661084055954,0.03848722494928287,0.0002768458366008506,0.9712160875978141,0.007873745946021549,0.010873187545714685,4.8123648704902715e-05,0,199.0389296124633,22,3
2,Y,3039,0.08140279323646821,0.00021198129293647784,0.0010577128978569359,0.0003854014417770257,0.1151209342100662,0.00029978681944015095,0.03710817360041229,0.00014773615173760264,0.038585180020346416,0.00030927076385342723,0.9617208881970932,0.008606987909845576,0.010708134538686105,5.0941402058456466e-05,0,256.5634631252455,22,3
2,Y,3060,0.08023181612837585,0.00021049970665720403,0.0008054352210038029,0.00039784775934895036,0.11346492250257356,0.00029769154003017606,0.03868051605663876,0.00015230588954605345,0.04061626842952551,0.00034496999164696743,0.952340467311872,0.00891555149997532,0.01100129510542174,5.205332202149297e-05,0,279.2805892308792,22,3
2,Y,3081,0.08108259997559908,0.0002217051332374845,0.0005535979920261719,0.0003948976968684135,0.11466811255796461,0.00031353840627218466,0.03741098533298786,0.00014608525560158296,0.038183213700890666,0.00029417669277622424,0.9797757105006384,0.00846273319272438,0.010753051977220335,5.1260057630531105e-05,0,229.62083467407908,22,3
2,Y,3102,0.07830291039268286,0.00020264280225853,0.000644921284782518,0.0003442191998733579,0.11073703785061728,0.0002865801992713024,0.03980684006697036,0.00015494987544983392,0.04123620437654204,0.000271503992274493,0.965337151389598,0.007383566882960005,0.011049446929450436,5.164869337044851e-05,0,309.63785102125445,22,3
2,Y,3123,0.0818891887206905,0.00019945020033669065,0.0005726938656823464,0.0003449803590908774,0.1158088013005304,0.00028206517833417877,0.03675205475585508,0.00013848300535358095,0.037843236786970574,0.00024564906784653814,0.9711657320102389,0.0072891872766134074,0.010668739854608172,4.786720508773444e-05,0,292.805565770323,22,3
2,Y,3144,0.07913744395838553,0.00019511154761301262,7.838055640208465e-06,0.00031453584459346543,0.11191724653748958,0.00027592939680992634,0.03875029475562485,0.00014929470072997061,0.04032379324986972,0.00027308382017902916,0.9609784108232439,0.00748745225996121,0.010870811404601579,4.9723904738026886e-05,0,412.2508043208399,22,3
