1.8925524915949938,1.875192121374582,1.883091416403316,1.8829835575054596,1.8876008557512258,1.8902422110917552,1.892360844606676,1.8941945582650577,1.8960230597939336,1.8974419384911871,1.8984484358738538,1.8989382574644689,1.899248917257411,1.8992642224974683,1.8990815724653198,1.8984260802032464,1.8971998637065823,1.8959525488182445,1.8942093829281028,1.8923636648358337,1.890143569960912,1.8879685194687816,1.8831676040515029,1.8913859034037064,1.8740248752514959
1.888577492526282,1.9076263413972665,1.9067426285224516,1.9057911114398376,1.9046274566575818,1.9033183011968682,1.9026525146335298,1.902317156218708,1.9026734732309536,1.9030914496027014,1.9033566432752145,1.9037751638370808,1.9039320037250917,1.9039765558186714,1.904065644172299,1.9039061676546924,1.9037749847233945,1.9037674645546314,1.9041364427207672,1.9055042513702014,1.9066895957046417,1.909662748782051,1.9112444458665503,1.918903723005657,1.9292101556887105
136
