XscanNumber_YscanNumber,Type,BCID,xsec,xsecErr,SBIL,SBILErr
1_2,XY,103,129.5039332961595,0.8532947779917351,0.0633645148812337,0.0005003029981076093
1_2,XY,124,129.02264842624672,0.8258799105087867,0.07802015337492833,0.0005872959114389076
1_2,XY,145,128.11216938133816,0.8974030903074566,0.06331058199317743,0.000524839477759841
1_2,XY,166,129.75891536137536,0.869596997232008,0.07261200071382519,0.0005761050173808454
1_2,XY,187,127.71289493037607,0.9554035572957698,0.06438887898569859,0.0005738221010435457
1_2,XY,208,130.4957346628988,0.8244161221901984,0.06640053551386262,0.0004960486670127346
1_2,XY,229,128.6931931346191,0.9185030973535417,0.06740820185378078,0.0005698137367642579
1_2,XY,250,128.332042870072,0.8835077854965574,0.07473426360404234,0.0006111602184396854
1_2,XY,282,128.96943368005878,0.8413865044512786,0.07428604307654667,0.0005751708823757047
1_2,XY,303,128.8670652547084,0.8646309540690098,0.07683959590877029,0.0006128056916961837
1_2,XY,324,128.46687173789053,0.9045887286008496,0.06873984166106116,0.0005717646653876626
1_2,XY,345,128.1512879593347,0.9043504237114843,0.07707054690885953,0.0006491236564654861
1_2,XY,366,128.21359028685234,0.8875381505137989,0.07151776466187786,0.0005794046068941534
1_2,XY,387,128.77455468237898,0.7972463843373254,0.0773762177547235,0.0005618406261237253
1_2,XY,408,130.10205098908523,0.9648294824907081,0.06590572982619627,0.0005758241535777893
1_2,XY,429,128.46406324330212,0.7673564432946467,0.074128513670241,0.0005305148322430899
1_2,XY,464,127.47108054102172,0.8660622352987573,0.0740056090027862,0.0005998615676887949
1_2,XY,485,129.45820756903854,0.7646467606250645,0.07616013892882322,0.0005305878921389368
1_2,XY,506,128.1739405555934,0.8649171685675594,0.06603771801355306,0.0005335627762524627
1_2,XY,527,127.63709522892871,0.84542667736203,0.07360921683592897,0.0005798657740337082
1_2,XY,548,128.91652821312252,0.8657956652411236,0.07180474439472267,0.0005704359061873758
1_2,XY,569,127.9743463039157,0.8603411112330537,0.08039107637824182,0.0006479692756808039
1_2,XY,590,128.20686801360938,0.8125141188885584,0.06960555344380678,0.0005178862792257411
1_2,XY,611,127.56677597197985,0.8034279886968059,0.07688845887889892,0.00057975948760822
1_2,XY,643,128.76349737666925,0.8211963780132806,0.06788528719993249,0.0005171120635993234
1_2,XY,664,128.60366923361101,0.8328604843816096,0.07640758966011743,0.0005958690950981165
1_2,XY,685,127.95596186479241,0.8789114652421897,0.06613218619538905,0.0005374102221541805
1_2,XY,706,128.4732392021533,0.8497746564316839,0.0698562341040482,0.0005539769232566295
1_2,XY,727,127.27152937592118,0.9080014096153841,0.06949267518184918,0.0005913031849146407
1_2,XY,748,128.62649550451383,0.7181680686724383,0.07783299546590192,0.0005156655004907296
1_2,XY,769,128.8924105064608,0.8447606537607086,0.0630466899990673,0.0004822936770852733
1_2,XY,790,127.68491731980777,0.8142860410526214,0.07186068669425429,0.0005404421838881916
1_2,XY,822,128.44021623622876,0.8081586393369112,0.06616247327194835,0.0004880011692181034
1_2,XY,843,129.11664903499693,0.7512204891616444,0.0773277355465549,0.0005298591557117503
1_2,XY,864,128.5307381096906,0.8595504013650502,0.06916052562069384,0.0005503998130223547
1_2,XY,885,128.0197906731681,0.8357767475976544,0.07951318531332338,0.0006239864710292041
1_2,XY,906,128.29234426971942,0.8976215577424059,0.06823940246428367,0.0005684679268373884
1_2,XY,927,128.28651864523678,0.7971626293430089,0.07802103764539375,0.0005853689560866874
1_2,XY,948,127.93791198239703,0.839668098327948,0.06825748913668316,0.0005352462411191936
1_2,XY,969,128.31684535869866,0.7690558606003384,0.0761194899042506,0.0005280082872694696
1_2,XY,1018,127.91821877034282,0.7675467182420807,0.07461346638965673,0.0005121505367543681
1_2,XY,1039,127.85633854666462,0.8340211015788263,0.07678098243837161,0.0005908714862145534
1_2,XY,1060,128.08971798187488,0.8878759916964383,0.06921344823708431,0.0005738273594253991
1_2,XY,1081,128.5481823228968,0.800470487409807,0.07696537378594516,0.0005667610550952202
1_2,XY,1102,128.3150569960361,0.8960464015473791,0.06741329138439087,0.0005564419682893639
1_2,XY,1123,127.83063084426703,0.7611763872598215,0.07436807185483159,0.0005254129852894486
1_2,XY,1144,128.50038102217118,0.8988931421255917,0.06829746009150507,0.0005665942296652446
1_2,XY,1165,128.6474925031129,0.7665868262444611,0.07933538635387374,0.0005559415518301233
1_2,XY,1197,128.15994341983904,0.8228275875013912,0.07102742800076933,0.0005316548873331348
1_2,XY,1218,129.4980101754696,0.8959005249968637,0.07729299804744874,0.0006396210423251819
1_2,XY,1239,127.80694484982929,0.8200848961831323,0.06849184055887693,0.0005250535780714593
1_2,XY,1260,128.83768013891063,0.8614153124727215,0.07719793114498529,0.0006118158290340879
1_2,XY,1281,128.42937442128664,0.878433413721945,0.06990376634975273,0.0005602460245354498
1_2,XY,1302,128.6188380521791,0.821963467021023,0.07806244493951953,0.0005871179917710472
1_2,XY,1323,129.12355779368033,0.8666193676910565,0.06381997255347686,0.0004996961156981656
1_2,XY,1344,128.63685825257375,0.8203659333254724,0.07628404243132704,0.0005748213887871865
1_2,XY,1376,129.014119998975,0.8687810128497072,0.07122620402474769,0.0005675908754310352
1_2,XY,1397,129.89256089529644,0.8392655414794842,0.06746222074458483,0.0005141218688497941
1_2,XY,1418,129.89334737761024,0.8125143702466173,0.07161312349249005,0.0005308012427742824
1_2,XY,1439,128.47128233110385,0.8876656536476623,0.06514322909950063,0.0005416717131404813
1_2,XY,1460,127.91297934698052,0.8242553926796908,0.07001286020708948,0.0005377765059988369
1_2,XY,1481,128.83470283671244,0.8875446484082544,0.07652728855849694,0.0006298692038198887
1_2,XY,1502,129.0772246580771,0.8551941917020358,0.06819504700051485,0.0005360975290176133
1_2,XY,1523,131.06538589375722,0.855883403604752,0.06165493496126424,0.00047668043352086287
1_2,XY,1555,130.27959746057,0.8724690669012688,0.0643572790461787,0.0005132345096901077
1_2,XY,1576,129.1397962268729,0.809200226226138,0.06759976915498525,0.000500698764065959
1_2,XY,1597,129.81769447805132,0.9136459242736044,0.05975296643335197,0.0005058880578424007
1_2,XY,1618,130.72553441775378,0.9263324228476278,0.06485839549540565,0.0005510745720256176
1_2,XY,1639,128.2090162119824,0.7963424967012813,0.07766732758214268,0.0005648637879352809
1_2,XY,1660,129.45516879918173,0.8698797828313254,0.07410826772118226,0.0005889087533000249
1_2,XY,1681,129.5156190047721,0.7607669051414899,0.07407956984555723,0.0005150765139587193
1_2,XY,1702,128.455377856709,0.7781659639723925,0.08055370839290346,0.0005877765242048443
1_2,XY,1734,128.28824500467448,0.8527072090568504,0.07257409802789236,0.0005728124698467599
1_2,XY,1755,130.42282796590752,0.8967491255146306,0.059863263253792424,0.0004886991126701479
1_2,XY,1776,127.8772081977641,0.8306744647524987,0.07398797169122519,0.0005659155856232601
1_2,XY,1797,128.7438129113433,0.784366717649298,0.07943432240209436,0.000563275309689288
1_2,XY,1818,130.26082884520133,0.8524026694498616,0.06687569056037414,0.0005216042947582703
1_2,XY,1839,131.27624249976034,0.8749334326993933,0.060463523436550065,0.0004790867775974867
1_2,XY,1860,128.80187399714848,0.8267542556268889,0.07152920339709497,0.0005443932748915021
1_2,XY,1881,129.21736331609668,0.8233229435792877,0.07355479185324895,0.0005519345288699234
1_2,XY,1916,129.4569106309268,0.892993570719785,0.06717671068669348,0.000546378614102433
1_2,XY,1937,130.25393103854768,0.8643794488729919,0.06083573811750822,0.00046871950687333555
1_2,XY,1958,129.20887242054658,0.850628624191593,0.07077072735996322,0.0005491370612533272
1_2,XY,1979,128.72900185376471,0.8343733435702179,0.0730183460493732,0.0005598499923210263
1_2,XY,2000,128.3023630514602,0.7848171569671035,0.07650548720721241,0.0005516272368782869
1_2,XY,2021,126.99010989820133,0.7778535422174715,0.0799376186660845,0.0005772624094059165
1_2,XY,2042,128.3817852460363,0.824812273677432,0.07023115052183511,0.0005410478701467386
1_2,XY,2063,127.90791322133278,0.8330743929957872,0.07874142627926993,0.0006072184430014264
1_2,XY,2095,129.89625305942445,0.7921895791436797,0.07355908021173285,0.0005213699227128196
1_2,XY,2116,128.7462163526804,0.8816080148647804,0.07458005349392222,0.0006046540752969726
1_2,XY,2137,127.91821966527668,0.8498744194168055,0.07328394556254916,0.0005809007864154322
1_2,XY,2158,129.0488732862729,0.8333534656728196,0.07653524967957086,0.0005974343545434691
1_2,XY,2179,128.76694599818708,0.8733265566395003,0.07524519113492154,0.0006069020451021632
1_2,XY,2200,129.28080060455304,0.8225814401587859,0.07722739088234656,0.0005798274711606603
1_2,XY,2221,128.52382343438956,0.8015430137890647,0.07590147887222862,0.0005605557917345928
1_2,XY,2242,128.51665500530004,0.782989755498571,0.0786000930717761,0.0005639921473725244
1_2,XY,2274,128.73104883758757,0.8276810402305378,0.07587837896853085,0.0005804208547909345
1_2,XY,2295,128.56537736513187,0.8467287572378668,0.0706138265709302,0.0005470338685824484
1_2,XY,2316,127.4850117542688,0.8439191371983081,0.07484261826755281,0.0005883793457181669
1_2,XY,2337,130.6057096750872,0.8316437607747468,0.06692959051092945,0.000499571383342757
1_2,XY,2358,131.48729205735444,0.8474647842880818,0.06297856737519553,0.0004740252399948979
1_2,XY,2379,127.38657931830873,0.785713201576279,0.07085825550606507,0.0005130550478312942
1_2,XY,2400,127.75479462970942,0.8186792920652924,0.0717025941904039,0.0005373882272302756
1_2,XY,2421,127.85986354847104,0.7810947308604911,0.07706437703228587,0.0005509803434577202
1_2,XY,2453,128.11616131330786,0.7870923697553197,0.07136332486228794,0.0005240819783170665
1_2,XY,2474,128.8248918043892,0.851095495545994,0.079491918451158,0.0006186176663855236
1_2,XY,2495,129.7322750872234,0.9015891038011925,0.06936938142497982,0.0005568935487642401
1_2,XY,2516,127.14089491819126,0.7895816807925066,0.07625574862923733,0.0005714903755716938
1_2,XY,2537,128.51292344987306,0.8644448643042649,0.07591751487539838,0.0006104774725833556
1_2,XY,2558,128.04991875088444,0.8436077377897993,0.08222334575774813,0.0006539586493005238
1_2,XY,2579,129.79412129756363,0.8710511904109213,0.07751392917084113,0.0006152426066695528
1_2,XY,2600,127.53466039818922,0.7937833142465043,0.08124173301684234,0.0005963101587031775
1_2,XY,2632,129.73824383575956,0.8346217115699653,0.06833529213893261,0.0005107818715780925
1_2,XY,2653,129.2403521357225,0.8210319208911872,0.07467381573146242,0.0005638637197224419
1_2,XY,2674,130.53033876135743,0.8540317431805848,0.0681807262134764,0.0005237127619845767
1_2,XY,2695,127.98481329354017,0.8173624761998236,0.08088584330193099,0.0006109417312927344
1_2,XY,2716,130.95962459447284,0.8149799268069748,0.06687266598595297,0.00048104479392622063
1_2,XY,2737,127.22536131908342,0.8193688461065457,0.07788021395772474,0.00060035597184672
1_2,XY,2758,128.34863738018257,0.8330389984215446,0.07341006414205976,0.00056845355216329
1_2,XY,2779,128.1285701431263,0.830709295689661,0.07722088408532432,0.0005936622835111608
1_2,XY,2818,127.50214342716535,0.832809499200721,0.07710390596685947,0.0005995919296251466
1_2,XY,2839,128.49665574607855,0.7868564660606399,0.07992226376247051,0.0005857067004247584
1_2,XY,2860,129.1968412502328,0.8404262091077048,0.07515838811083375,0.0005734801360860773
1_2,XY,2881,127.73651889783608,0.776197924923226,0.08012988194079135,0.000578948404975477
1_2,XY,2902,128.33869989633246,0.8935309938721528,0.07533585361647853,0.0006317238975976946
1_2,XY,2923,126.96251232977203,0.78568570387378,0.0795927036299921,0.000582908973708993
1_2,XY,2944,129.65731043580294,0.8386341592939575,0.0728945671183113,0.0005603408084842586
1_2,XY,2965,128.0103972517977,0.828180651773414,0.07248417320661364,0.0005564221076381589
1_2,XY,2997,128.2736035791569,0.8332309991732976,0.07444235870612201,0.0005738194666426892
1_2,XY,3018,127.9801938147818,0.7367513429649837,0.07893304691248795,0.000540057261957945
1_2,XY,3039,128.14531290805454,0.921015932945709,0.06981831362878149,0.0005929694080668071
1_2,XY,3060,128.24925506093453,0.8327284383880755,0.07514746555089694,0.0005721859233372709
1_2,XY,3081,128.55987558717743,0.915118355142628,0.07246283809312937,0.0005887755965718897
1_2,XY,3102,127.79391057655678,0.8259791569884583,0.07776987724310265,0.0005914844241564045
1_2,XY,3123,127.97989200081479,0.838922281761059,0.07737878054485976,0.0006041754901899326
1_2,XY,3144,127.81658471540209,0.7599505573336567,0.08049895951935183,0.0005743713670762352
