[
    [
        "XscanNumber_YscanNumber",
        "Type",
        "BCID",
        "xsec",
        "xsecErr",
        "SBIL",
        "SBILErr"
    ],
    [
        "1_2",
        "XY",
        "103",
        130.20105606820147,
        1.0247562736768514,
        0.06666064685810688,
        0.0005973368235026368
    ],
    [
        "1_2",
        "XY",
        "124",
        126.50545035618285,
        0.9440380490739392,
        0.08025482481152729,
        0.000686162366354941
    ],
    [
        "1_2",
        "XY",
        "145",
        126.23479437001339,
        1.16388907287484,
        0.06525948747196084,
        0.0006907765872218363
    ],
    [
        "1_2",
        "XY",
        "166",
        127.96625126044333,
        0.9670682852124622,
        0.0750708358893446,
        0.0006525477194291237
    ],
    [
        "1_2",
        "XY",
        "187",
        127.256887905156,
        1.155325942052769,
        0.06504549042206437,
        0.0006790733652649401
    ],
    [
        "1_2",
        "XY",
        "208",
        127.87576284231702,
        1.1186283851229835,
        0.06809245348764127,
        0.000675726268557365
    ],
    [
        "1_2",
        "XY",
        "229",
        125.8486583443185,
        1.0511146325149587,
        0.07061129502858478,
        0.000686233422027205
    ],
    [
        "1_2",
        "XY",
        "250",
        128.0182707259247,
        0.9658331878571229,
        0.07660862642947826,
        0.0006578635417148021
    ],
    [
        "1_2",
        "XY",
        "282",
        127.59877150952885,
        1.0487552675122236,
        0.07485988228497296,
        0.0007090548621298961
    ],
    [
        "1_2",
        "XY",
        "303",
        126.48500689256814,
        1.067195029702921,
        0.07859850679191512,
        0.00074781637962177
    ],
    [
        "1_2",
        "XY",
        "324",
        126.74341168176504,
        1.0929266245070617,
        0.0717073718813483,
        0.0007020565752128871
    ],
    [
        "1_2",
        "XY",
        "345",
        126.68144259673356,
        0.9473446928752348,
        0.08057637676457016,
        0.0006952795869911492
    ],
    [
        "1_2",
        "XY",
        "366",
        127.72779262865517,
        1.0910108896681234,
        0.07196889850821028,
        0.0007050466719491497
    ],
    [
        "1_2",
        "XY",
        "387",
        126.5207838584693,
        1.0551025056981953,
        0.08043031615179101,
        0.0007675287550590456
    ],
    [
        "1_2",
        "XY",
        "408",
        126.31250883850554,
        1.1266361994008776,
        0.06888584543902093,
        0.0007042676695767318
    ],
    [
        "1_2",
        "XY",
        "429",
        127.18823794333875,
        0.9898717679657447,
        0.07747330528546625,
        0.0006955753800703575
    ],
    [
        "1_2",
        "XY",
        "464",
        126.93956181080648,
        0.9143851315187717,
        0.07446673304265522,
        0.0006189375885489555
    ],
    [
        "1_2",
        "XY",
        "485",
        127.07952273776257,
        1.0374171263014127,
        0.07738855540903788,
        0.0007199511601810877
    ],
    [
        "1_2",
        "XY",
        "506",
        128.07590204963057,
        1.1009357779863869,
        0.06581012820652395,
        0.0006566303347227692
    ],
    [
        "1_2",
        "XY",
        "527",
        126.75385863135692,
        1.053270308508117,
        0.07411385527752702,
        0.0007183641573207917
    ],
    [
        "1_2",
        "XY",
        "548",
        127.6209168179046,
        0.9031184110267069,
        0.07147070197155912,
        0.0005905750606941094
    ],
    [
        "1_2",
        "XY",
        "569",
        126.59271474242433,
        0.9347919073723807,
        0.08098983570786945,
        0.0006992687572361174
    ],
    [
        "1_2",
        "XY",
        "590",
        127.2742429963605,
        1.0297492624614062,
        0.0701387915319649,
        0.0006590959430254523
    ],
    [
        "1_2",
        "XY",
        "611",
        127.3850346181434,
        0.9491598099554794,
        0.0778678568221851,
        0.0006697922613668393
    ],
    [
        "1_2",
        "XY",
        "643",
        127.85643785398379,
        1.127597950476185,
        0.0731759856382508,
        0.00074938784274188
    ],
    [
        "1_2",
        "XY",
        "664",
        128.54439945968878,
        0.9230883682960797,
        0.07599921978810699,
        0.0006270704951105671
    ],
    [
        "1_2",
        "XY",
        "685",
        127.02085564403944,
        1.0894038633335572,
        0.06648890414957875,
        0.0006535780237313308
    ],
    [
        "1_2",
        "XY",
        "706",
        128.36167050021382,
        1.0103040338345093,
        0.07357789031243744,
        0.0006583030806999516
    ],
    [
        "1_2",
        "XY",
        "727",
        125.39019613743648,
        0.9280047922003811,
        0.07037682123918072,
        0.000597493011125185
    ],
    [
        "1_2",
        "XY",
        "748",
        127.18923973793343,
        0.8751830369387789,
        0.07935095092262828,
        0.000629233785907554
    ],
    [
        "1_2",
        "XY",
        "769",
        126.40915959115374,
        1.1077517326914899,
        0.06393408061665726,
        0.0006551394171272262
    ],
    [
        "1_2",
        "XY",
        "790",
        128.2491057973918,
        1.027392980470645,
        0.07210615462709902,
        0.0006711174157788602
    ],
    [
        "1_2",
        "XY",
        "822",
        131.22244693246589,
        1.0057979084010362,
        0.06916675250117682,
        0.0006122623174922514
    ],
    [
        "1_2",
        "XY",
        "843",
        128.04185582046327,
        0.8927730851627951,
        0.07618609555189498,
        0.0006125030747948102
    ],
    [
        "1_2",
        "XY",
        "864",
        128.12149642943848,
        1.0146656345301166,
        0.06911388146992217,
        0.0006346823690546068
    ],
    [
        "1_2",
        "XY",
        "885",
        127.2311016133552,
        1.0729508472264762,
        0.08078675605597595,
        0.0007937449540394423
    ],
    [
        "1_2",
        "XY",
        "906",
        127.22798178831059,
        1.0455013411766694,
        0.0680335793450859,
        0.0006364583130342318
    ],
    [
        "1_2",
        "XY",
        "927",
        127.06254593195017,
        0.895731657095162,
        0.07751167409752195,
        0.0006310862220887627
    ],
    [
        "1_2",
        "XY",
        "948",
        127.81004952678686,
        1.080999982268053,
        0.06854879007653868,
        0.0006699105281245196
    ],
    [
        "1_2",
        "XY",
        "969",
        126.93829164693955,
        0.9404701943705249,
        0.07611417075190519,
        0.000648333542130401
    ],
    [
        "1_2",
        "XY",
        "1018",
        126.58928599301618,
        1.0615079493607844,
        0.07507426107854295,
        0.0007128076452851614
    ],
    [
        "1_2",
        "XY",
        "1039",
        126.62479153795931,
        1.1376168166418776,
        0.0787801834660726,
        0.0008219863571475909
    ],
    [
        "1_2",
        "XY",
        "1060",
        128.1815470810833,
        0.9818929592158051,
        0.06929638118820731,
        0.0006153138461702387
    ],
    [
        "1_2",
        "XY",
        "1081",
        128.1273041468658,
        0.9630639840709767,
        0.07669408702002621,
        0.000667396660958566
    ],
    [
        "1_2",
        "XY",
        "1102",
        128.00688611400105,
        1.0293631548692437,
        0.06738186048612956,
        0.0006254366066939752
    ],
    [
        "1_2",
        "XY",
        "1123",
        127.27369182125648,
        1.0663603153020398,
        0.07487688988144531,
        0.0007161879680014543
    ],
    [
        "1_2",
        "XY",
        "1144",
        126.65179351546742,
        1.188007682186039,
        0.06942245651907407,
        0.0007474574648344246
    ],
    [
        "1_2",
        "XY",
        "1165",
        127.57935186695472,
        0.9654720519285487,
        0.07965613565869645,
        0.0006943553494668152
    ],
    [
        "1_2",
        "XY",
        "1197",
        127.28826580695545,
        0.9680296632054275,
        0.07226019769970736,
        0.0006416631362404845
    ],
    [
        "1_2",
        "XY",
        "1218",
        126.1646671665673,
        1.0791584509726073,
        0.07919707932219389,
        0.0007658901413314093
    ],
    [
        "1_2",
        "XY",
        "1239",
        126.45038850119153,
        1.087850671398164,
        0.06952638539955984,
        0.000679877106693575
    ],
    [
        "1_2",
        "XY",
        "1260",
        128.2031089432318,
        0.6978433121900037,
        0.07698272170564138,
        0.0004769258204573887
    ],
    [
        "1_2",
        "XY",
        "1281",
        127.70851164214545,
        0.9764539950495397,
        0.07047747091956072,
        0.0006136681425355749
    ],
    [
        "1_2",
        "XY",
        "1302",
        126.79379224152295,
        0.9493944142475031,
        0.0794490294833296,
        0.0006795572266847034
    ],
    [
        "1_2",
        "XY",
        "1323",
        126.67584199447951,
        1.1089629066153357,
        0.06510531205461227,
        0.0006523235065880001
    ],
    [
        "1_2",
        "XY",
        "1344",
        127.96236130145275,
        0.9739736439376905,
        0.0755853923180334,
        0.0006593135743618453
    ],
    [
        "1_2",
        "XY",
        "1376",
        127.47152836875443,
        1.5701229315387648,
        0.07134723087526541,
        0.0009952770457530217
    ],
    [
        "1_2",
        "XY",
        "1397",
        128.55828989568886,
        0.8984406455227101,
        0.07452661348531806,
        0.0005980539301916058
    ],
    [
        "1_2",
        "XY",
        "1418",
        127.52831022713733,
        1.0802003966464184,
        0.07237675737213713,
        0.0007069748321355321
    ],
    [
        "1_2",
        "XY",
        "1439",
        129.65362990092294,
        0.9455068840617923,
        0.06541903094431588,
        0.0005393226068523925
    ],
    [
        "1_2",
        "XY",
        "1460",
        126.83308191742464,
        1.172218354144186,
        0.07003195301212486,
        0.0007385822896624457
    ],
    [
        "1_2",
        "XY",
        "1481",
        127.245947418009,
        1.1086116631552603,
        0.0773887658564735,
        0.0007702147423665503
    ],
    [
        "1_2",
        "XY",
        "1502",
        127.22812140588077,
        1.0831536474253731,
        0.0699216577031817,
        0.000692865214892735
    ],
    [
        "1_2",
        "XY",
        "1523",
        129.27208983244216,
        1.0295902231434264,
        0.06424799833749367,
        0.0005892482334006968
    ],
    [
        "1_2",
        "XY",
        "1555",
        130.30295499308875,
        1.126324467997008,
        0.06446048913520905,
        0.0006382595919092166
    ],
    [
        "1_2",
        "XY",
        "1576",
        129.3989747970262,
        1.018347009783385,
        0.06788428579311905,
        0.000622325393604678
    ],
    [
        "1_2",
        "XY",
        "1597",
        129.103447076293,
        1.130700722528841,
        0.0604313623389776,
        0.000609869862796295
    ],
    [
        "1_2",
        "XY",
        "1618",
        130.9970893400877,
        0.9574552742434477,
        0.06651966922305594,
        0.000564884125569214
    ],
    [
        "1_2",
        "XY",
        "1639",
        128.7160843450856,
        0.9544845112647629,
        0.07845012016618964,
        0.0006728643049714799
    ],
    [
        "1_2",
        "XY",
        "1660",
        127.40887750331561,
        0.8482285699786967,
        0.08323689097652218,
        0.000648179551528552
    ],
    [
        "1_2",
        "XY",
        "1681",
        127.57415465639902,
        1.0688191038061454,
        0.07533681514278426,
        0.0007314244245530637
    ],
    [
        "1_2",
        "XY",
        "1702",
        128.46895412153052,
        0.8454628683085783,
        0.0807117788749826,
        0.0006140318449678941
    ],
    [
        "1_2",
        "XY",
        "1734",
        128.07714054173547,
        1.0057816678606282,
        0.0727661162744654,
        0.0006623071420771106
    ],
    [
        "1_2",
        "XY",
        "1755",
        129.4714221748803,
        1.0667404044793851,
        0.06164769788050387,
        0.000577283183182363
    ],
    [
        "1_2",
        "XY",
        "1776",
        126.23601254800059,
        1.115025955817309,
        0.07436108826063155,
        0.0007603403472276671
    ],
    [
        "1_2",
        "XY",
        "1797",
        128.0225972138405,
        1.0946626212824708,
        0.07917561051893501,
        0.000752341290337848
    ],
    [
        "1_2",
        "XY",
        "1818",
        128.83769520621146,
        1.0220709498447127,
        0.06839359391794672,
        0.0006257507576408684
    ],
    [
        "1_2",
        "XY",
        "1839",
        130.8719322843347,
        0.8449590194827239,
        0.061635035822691316,
        0.00045414903841706417
    ],
    [
        "1_2",
        "XY",
        "1860",
        127.15423060702449,
        1.0010956981174837,
        0.07669261585082451,
        0.000690673812288277
    ],
    [
        "1_2",
        "XY",
        "1881",
        127.85815815530185,
        0.9347645126200266,
        0.07915551233156919,
        0.000670109270632455
    ],
    [
        "1_2",
        "XY",
        "1916",
        127.62300833633651,
        0.9607221373259007,
        0.07538606465069789,
        0.0006505396415253076
    ],
    [
        "1_2",
        "XY",
        "1937",
        130.42000053787274,
        1.1648420922576679,
        0.06389366201769782,
        0.0006608115264882647
    ],
    [
        "1_2",
        "XY",
        "1958",
        127.0961670807404,
        1.1110607953979001,
        0.07194628083339796,
        0.0007239657747495972
    ],
    [
        "1_2",
        "XY",
        "1979",
        127.35739273514022,
        0.9372399161767505,
        0.07750885210301119,
        0.0006590891730227054
    ],
    [
        "1_2",
        "XY",
        "2000",
        128.23192636973286,
        1.1154510781095766,
        0.07527441348411072,
        0.0007446269809543302
    ],
    [
        "1_2",
        "XY",
        "2021",
        127.90163860106296,
        0.8710228142084367,
        0.07953278176354826,
        0.0006301765612633807
    ],
    [
        "1_2",
        "XY",
        "2042",
        127.3504908382295,
        0.9486977080738631,
        0.07483914834024753,
        0.0006335344333537834
    ],
    [
        "1_2",
        "XY",
        "2063",
        126.98837485502473,
        0.921114731334264,
        0.07909132533213468,
        0.0006630593408329216
    ],
    [
        "1_2",
        "XY",
        "2095",
        127.58765047016664,
        1.0620372571542285,
        0.07410689471287353,
        0.0007066521645364027
    ],
    [
        "1_2",
        "XY",
        "2116",
        127.23088314059486,
        1.0688373998196892,
        0.07685661682207662,
        0.000749522125170319
    ],
    [
        "1_2",
        "XY",
        "2137",
        127.66794081454783,
        1.0116543769383415,
        0.07295026184348315,
        0.0006644313793518358
    ],
    [
        "1_2",
        "XY",
        "2158",
        126.34908652277319,
        1.033564897054497,
        0.07874201342219274,
        0.0007385425247045738
    ],
    [
        "1_2",
        "XY",
        "2179",
        126.89866843847284,
        0.9757213769742148,
        0.07496332707984793,
        0.0006528403731551222
    ],
    [
        "1_2",
        "XY",
        "2200",
        127.27261612481439,
        1.0249155580930338,
        0.08046624467153848,
        0.0007455384557452513
    ],
    [
        "1_2",
        "XY",
        "2221",
        127.2930185833429,
        1.049241549582758,
        0.0762411500033384,
        0.000725647161819483
    ],
    [
        "1_2",
        "XY",
        "2242",
        127.18534885325509,
        1.034905858390945,
        0.07914674772472825,
        0.0007476798360376376
    ],
    [
        "1_2",
        "XY",
        "2274",
        128.79211204195664,
        1.015311466332392,
        0.07512447711746022,
        0.0006792197003724614
    ],
    [
        "1_2",
        "XY",
        "2295",
        128.03134151670758,
        0.9046800290185405,
        0.08004701395248641,
        0.0006516080020189963
    ],
    [
        "1_2",
        "XY",
        "2316",
        126.85752955122223,
        0.9922855311970364,
        0.07477562436258466,
        0.0006688200763862536
    ],
    [
        "1_2",
        "XY",
        "2337",
        129.17702303608698,
        0.9798561129150751,
        0.0749284715036973,
        0.0006497758094714596
    ],
    [
        "1_2",
        "XY",
        "2358",
        131.42010672260406,
        1.1310960531704315,
        0.06558317103583916,
        0.0006400252530924797
    ],
    [
        "1_2",
        "XY",
        "2379",
        127.70681967648335,
        0.9240815720772074,
        0.07919075498585017,
        0.0006575592055493442
    ],
    [
        "1_2",
        "XY",
        "2400",
        126.23182769149112,
        1.05320926269045,
        0.07228464552767416,
        0.0006931770317045777
    ],
    [
        "1_2",
        "XY",
        "2421",
        127.98706498091144,
        1.0002122095011416,
        0.07799831882998526,
        0.0007000497260301818
    ],
    [
        "1_2",
        "XY",
        "2453",
        129.50393828119314,
        0.9351774377687473,
        0.07680415515633039,
        0.0006471058690815151
    ],
    [
        "1_2",
        "XY",
        "2474",
        127.4678354012955,
        1.0098478091701042,
        0.08232656463606047,
        0.0007486401186106238
    ],
    [
        "1_2",
        "XY",
        "2495",
        125.88275545998353,
        1.099252948243435,
        0.07507131090609509,
        0.0007554362980129116
    ],
    [
        "1_2",
        "XY",
        "2516",
        126.11021729642422,
        0.9152883998070079,
        0.08026639481528863,
        0.0006697791424023541
    ],
    [
        "1_2",
        "XY",
        "2537",
        127.62584253651698,
        0.974388388436468,
        0.07571003468095885,
        0.000658349325523793
    ],
    [
        "1_2",
        "XY",
        "2558",
        127.80406882721701,
        0.8779785729437957,
        0.08212240227085851,
        0.0006436697516545144
    ],
    [
        "1_2",
        "XY",
        "2579",
        126.81410443639824,
        1.013986712932447,
        0.07819402162119762,
        0.0007282296322603173
    ],
    [
        "1_2",
        "XY",
        "2600",
        125.72785333596518,
        1.1489473999341075,
        0.08261991540811224,
        0.0008667419659704453
    ],
    [
        "1_2",
        "XY",
        "2632",
        126.89266207084476,
        0.9707431666535166,
        0.07675068999901251,
        0.0006601272081116422
    ],
    [
        "1_2",
        "XY",
        "2653",
        126.80017803323507,
        0.9172350485653226,
        0.07828530161077372,
        0.0006517681993559938
    ],
    [
        "1_2",
        "XY",
        "2674",
        128.0581192322437,
        0.9698236168227088,
        0.06810261767774453,
        0.00058899891104618
    ],
    [
        "1_2",
        "XY",
        "2695",
        127.60199370378197,
        0.8843979108127301,
        0.08064962972599686,
        0.0006400672049611879
    ],
    [
        "1_2",
        "XY",
        "2716",
        127.85602063419981,
        1.0606213062382237,
        0.06726453485766984,
        0.0006480162717338782
    ],
    [
        "1_2",
        "XY",
        "2737",
        128.06985387143928,
        0.9753443679394538,
        0.07778930098589089,
        0.0006809341462035198
    ],
    [
        "1_2",
        "XY",
        "2758",
        126.15193226160793,
        1.1132862425710632,
        0.07364549314372627,
        0.0007410830092837719
    ],
    [
        "1_2",
        "XY",
        "2779",
        127.12558134862608,
        0.9529562016059736,
        0.07773590460956877,
        0.0006681478927204416
    ],
    [
        "1_2",
        "XY",
        "2818",
        125.891040587839,
        0.9581045211400896,
        0.07716755681464986,
        0.0006734665941613056
    ],
    [
        "1_2",
        "XY",
        "2839",
        127.31955342943749,
        0.9623209558711388,
        0.08057956031994372,
        0.0006942471267851917
    ],
    [
        "1_2",
        "XY",
        "2860",
        127.85341525764181,
        1.038658112843326,
        0.07530070486290164,
        0.0006967451338212501
    ],
    [
        "1_2",
        "XY",
        "2881",
        127.36245872564353,
        0.9857096640965477,
        0.08027525860600186,
        0.0007105035272035358
    ],
    [
        "1_2",
        "XY",
        "2902",
        126.8437402282981,
        1.1094467515026902,
        0.07640069842538326,
        0.0007594305124412231
    ],
    [
        "1_2",
        "XY",
        "2923",
        127.32174716251676,
        1.0207490528527887,
        0.08047806345652342,
        0.0007393190491476883
    ],
    [
        "1_2",
        "XY",
        "2944",
        128.0320279652663,
        0.9855237946555404,
        0.0728234107423114,
        0.0006408393574681569
    ],
    [
        "1_2",
        "XY",
        "2965",
        127.1797934791848,
        1.0167444333582323,
        0.07759795407048603,
        0.0006970606912967359
    ],
    [
        "1_2",
        "XY",
        "2997",
        127.31575357013293,
        0.9915082374589709,
        0.07421913564453018,
        0.0006657354248776532
    ],
    [
        "1_2",
        "XY",
        "3018",
        127.06941893868246,
        0.9196335695695398,
        0.07896006432465744,
        0.0006513204786576129
    ],
    [
        "1_2",
        "XY",
        "3039",
        127.51146582341777,
        1.0886177748762376,
        0.07066526905769432,
        0.0007013572316826868
    ],
    [
        "1_2",
        "XY",
        "3060",
        126.6732809620589,
        0.9618983245197924,
        0.07614543631683347,
        0.0006588398421376827
    ],
    [
        "1_2",
        "XY",
        "3081",
        126.69254951174621,
        0.9985421502747809,
        0.07441887768941431,
        0.000673663083262021
    ],
    [
        "1_2",
        "XY",
        "3102",
        126.63920310940868,
        1.0332350803284025,
        0.07948197549812437,
        0.0007497128940216639
    ],
    [
        "1_2",
        "XY",
        "3123",
        128.05300517255552,
        0.947013208650617,
        0.07600724039096446,
        0.0006433102740309268
    ],
    [
        "1_2",
        "XY",
        "3144",
        126.61693140377501,
        0.9730456811359565,
        0.08127479919628333,
        0.0007235145738937181
    ]
]