XscanNumber_YscanNumber,Type,BCID,xsec,xsecErr,SBIL,SBILErr
1_2,XY,103,131.34932127258344,0.8477489046835598,0.0653252974607109,0.0004915896003179224
1_2,XY,124,128.11284434595706,0.7779202974041265,0.07777012592031494,0.0005522982739174814
1_2,XY,145,127.98247992010617,0.9225077531777736,0.06285632919419054,0.0005346938983925483
1_2,XY,166,129.88566637528479,0.816482396284972,0.07263502011199471,0.0005383318491223653
1_2,XY,187,129.31477745948476,0.9214772690537139,0.06253231143252291,0.0005267083597738425
1_2,XY,208,130.89929942856094,0.8536771799248954,0.06489645925985403,0.000496066115157589
1_2,XY,229,127.35327451796775,0.8822739862050575,0.06779487847090394,0.0005579637652273241
1_2,XY,250,129.99606712198153,0.7270332181081952,0.07403321023307223,0.00048796804209782216
1_2,XY,282,128.51367864200506,0.7867748062875066,0.07337547112441743,0.0005350156115102528
1_2,XY,303,129.07748740580885,0.7827058422439624,0.07538288336863747,0.0005316414432558607
1_2,XY,324,129.22661815898093,0.8531623238759064,0.06857139567248424,0.000526020619978862
1_2,XY,345,128.41726092034503,0.7965005047602871,0.07786322494595084,0.0005686473766657374
1_2,XY,366,129.18313284600038,0.8727342876429799,0.06982631087163113,0.0005548729763945402
1_2,XY,387,128.47726620387908,0.8287375243606583,0.0774450138482643,0.0005842880432713835
1_2,XY,408,128.5808126366063,0.912572595516034,0.06590854943512699,0.0005449711911328513
1_2,XY,429,129.1103165789435,0.8062171908923245,0.07457090310976752,0.0005500977977090914
1_2,XY,464,127.8013724298896,0.7938434611881409,0.0730799783217342,0.0005308946389563102
1_2,XY,485,128.44518033920642,0.7744250001334428,0.07552049006212122,0.0005374756866928359
1_2,XY,506,129.22521826743005,0.8819031426809119,0.06433137739749131,0.000522521058471182
1_2,XY,527,127.67384063685205,0.8141753087570137,0.07235443301329579,0.0005535463002651321
1_2,XY,548,128.22501495542187,0.7909420503470642,0.07034194023602534,0.0005152953482215698
1_2,XY,569,127.57648102425962,0.7847970815680911,0.0792801462584602,0.0005842468591096267
1_2,XY,590,128.59555872327874,0.8432867667102837,0.06807098555533,0.0005285951263720993
1_2,XY,611,128.4212275099218,0.7869830013260056,0.07611624234903984,0.0005499945074294941
1_2,XY,643,129.07157282460884,0.8468621737764308,0.07150251967942846,0.00056776217358126
1_2,XY,664,129.56359433982539,0.7417162529963016,0.07455430983435214,0.0005074458492879472
1_2,XY,685,129.17794864957216,0.8579566843914515,0.06413277289490538,0.0005043664993065822
1_2,XY,706,130.16497352370595,0.7755360393686919,0.07165173076571071,0.0005032456477380533
1_2,XY,727,127.01828205364073,0.7596710639973207,0.06840814360364021,0.0004843030531900026
1_2,XY,748,128.6534743234137,0.7224338611376231,0.07716816787603661,0.0005123208410900739
1_2,XY,769,127.52373028746234,0.8982222391712283,0.062148405537462224,0.0005260276548556883
1_2,XY,790,129.06073445990432,0.8720397920967825,0.07069684824055483,0.0005648360386684747
1_2,XY,822,131.72104000417815,0.8473382415999032,0.06833870571740942,0.0005165815040470245
1_2,XY,843,128.96875394909588,0.7590187171544557,0.07504402025510896,0.0005219557334752733
1_2,XY,864,128.63234884369328,0.8515116851777819,0.06818188333583151,0.0005322839958613575
1_2,XY,885,128.22866310607986,0.8884855890567782,0.07864736943634527,0.0006449236691515719
1_2,XY,906,128.7763245653765,0.8443438071824346,0.06620229974458802,0.000507815902810717
1_2,XY,927,127.91449058614089,0.78232687743226,0.07614839556212767,0.0005456272984617255
1_2,XY,948,129.06577589318644,0.8491308540637862,0.06694665522256578,0.0005227806157721679
1_2,XY,969,128.4087982159745,0.7774861498716854,0.0740945496653633,0.0005269317942763891
1_2,XY,1018,128.7819965425766,0.7730746095915366,0.07264610125284461,0.0005166743919822401
1_2,XY,1039,127.91496430384939,0.811972566048916,0.07675768426748296,0.0005828286219240396
1_2,XY,1060,128.4785975586458,0.8079328130739697,0.06851267747220333,0.0005062700565215607
1_2,XY,1081,128.97345409622955,0.7911437305282787,0.07529469528335878,0.0005475546416326236
1_2,XY,1102,128.8800140360468,0.8182365179356186,0.06618431645119803,0.0005007310192339126
1_2,XY,1123,128.6073790446985,0.818467564674577,0.07320346157003024,0.0005542662825659275
1_2,XY,1144,128.36252484553998,0.8682312370937622,0.06725254395329375,0.000540292041102811
1_2,XY,1165,129.07943731104996,0.8040849818147295,0.07766003893290253,0.0005718628322660664
1_2,XY,1197,128.40800349529914,0.7977997230676873,0.07071069936856168,0.0005274581201166178
1_2,XY,1218,128.00406807895854,0.7843054366749387,0.07701450831926071,0.0005523044314124716
1_2,XY,1239,128.07137385740384,0.8240309969064759,0.0677323908664005,0.0005116362823546605
1_2,XY,1260,129.1185401380081,0.7728542819045098,0.07579843925885611,0.0005305498682801406
1_2,XY,1281,128.8008369195902,0.8263255893257302,0.06922921920151218,0.0005167767679317377
1_2,XY,1302,127.91658704840785,0.7146754115843437,0.07798160728751029,0.0005161715816834939
1_2,XY,1323,127.87291695643232,0.9149914496961704,0.06357597561201404,0.0005334843605908821
1_2,XY,1344,129.64821870649445,0.8039885533258913,0.07342549612395706,0.0005320510423778637
1_2,XY,1376,128.8497197468184,0.8179559977373942,0.0694758658250672,0.0005209729042349161
1_2,XY,1397,129.64717517843962,0.7758454118658322,0.0731861369604991,0.0005130585033268687
1_2,XY,1418,128.69374710303927,0.8620690039705078,0.07048443424143447,0.0005551460970916014
1_2,XY,1439,130.35538167071041,0.8172225254385922,0.06446933901090648,0.0004657166630621672
1_2,XY,1460,128.77994553154173,0.8563679322633493,0.0677223576935782,0.0005304936328157251
1_2,XY,1481,128.6381284832881,0.7787813608386731,0.07531142700479755,0.0005373372370308471
1_2,XY,1502,128.71145347931977,0.8887945133312993,0.06750115150409616,0.0005517608899175985
1_2,XY,1523,130.84830001232473,0.8369594510410215,0.06251652924816391,0.00047438071118232895
1_2,XY,1555,131.4683626846379,0.8539300020310437,0.0629809909440837,0.0004805131934299352
1_2,XY,1576,130.4462264986162,0.8385663378938912,0.06632466201133815,0.000507331786867382
1_2,XY,1597,130.056310368511,0.8565733592259663,0.05941047465301247,0.0004676309549929752
1_2,XY,1618,131.65750732980692,0.8273874858061347,0.06558341332229997,0.0004887852103410487
1_2,XY,1639,129.4848581073683,0.7995388333728478,0.07698896573379731,0.0005618766248756865
1_2,XY,1660,128.18259793813192,0.7562320697451479,0.08168855962359421,0.0005705501806907008
1_2,XY,1681,128.94463755969826,0.814643635870305,0.07325950449060355,0.00055070115687763
1_2,XY,1702,128.92294679796487,0.7397841582468543,0.07969434670087754,0.0005400505255934008
1_2,XY,1734,129.1321163199549,0.837610781857806,0.07106281040114669,0.0005413848898493032
1_2,XY,1755,130.39781153523535,0.8829749017987599,0.060526826135980843,0.00047239217804946414
1_2,XY,1776,127.46622140805246,0.8412690898764338,0.07239361226029455,0.0005696766163321424
1_2,XY,1797,128.67511485354646,0.7827366783479963,0.07803982308299715,0.0005640897221861504
1_2,XY,1818,130.3782516030747,0.8064060177613266,0.06668768918073072,0.0004899595634577747
1_2,XY,1839,132.1714854935796,0.8014233375819925,0.06034595735535854,0.0004345540857494415
1_2,XY,1860,128.42270465257243,0.7724240979620561,0.07502003430497105,0.0005327085130320704
1_2,XY,1881,128.56486309357754,0.8207135089043808,0.07798971168153439,0.0005868884950326101
1_2,XY,1916,129.04075278055888,0.7790358668723898,0.07337541937276888,0.0005186636711337071
1_2,XY,1937,131.5129645697349,0.8589618039794291,0.062369822182779186,0.0004876063981832317
1_2,XY,1958,128.47319877205686,0.8756867212727232,0.06991271345165202,0.0005626742458828525
1_2,XY,1979,128.1522943704382,0.7684623022015504,0.07581221413017573,0.0005377687621208857
1_2,XY,2000,129.24729274543472,0.808925938187796,0.07379504085801773,0.0005460346946307424
1_2,XY,2021,128.49027936101092,0.7467565238460144,0.07828702833881028,0.0005361136245150205
1_2,XY,2042,128.72063902072387,0.7418050386745412,0.07299838027880802,0.0004937219547453954
1_2,XY,2063,128.30156077880704,0.8146852509131147,0.07708878360313608,0.000586003668633021
1_2,XY,2095,128.91295004362033,0.8499099839455643,0.07216426455249952,0.0005574306684711003
1_2,XY,2116,128.61208035903582,0.8172410529043619,0.07451171667770563,0.0005684714503700258
1_2,XY,2137,129.1824465784459,0.7938949680978077,0.07096368544672406,0.0005155427462597706
1_2,XY,2158,127.9795954956444,0.8144571136897397,0.07644083679922066,0.0005729827685025109
1_2,XY,2179,128.43767539372107,0.7545069430189137,0.07311595863563732,0.0005029771136863815
1_2,XY,2200,129.01976613231264,0.8282224600079275,0.07801851122924729,0.0005906381948025215
1_2,XY,2221,128.83695993406437,0.7742338966770561,0.07400218958781292,0.0005323667651516005
1_2,XY,2242,128.41857868268391,0.8012768126053249,0.07716834259156073,0.0005765245777414873
1_2,XY,2274,130.36720419073458,0.7969325649037593,0.07310475954569007,0.0005293621822441013
1_2,XY,2295,128.95534631807533,0.7194560555033441,0.07870997380485528,0.000520989045876385
1_2,XY,2316,128.1278947704473,0.7809990838293607,0.07297624062489202,0.0005242905269004279
1_2,XY,2337,130.31272014678004,0.7787946834834775,0.07343945598556507,0.000517579590765115
1_2,XY,2358,133.01678435762813,0.7913218560824371,0.06405264073667717,0.0004497688823702362
1_2,XY,2379,128.8870724852139,0.7702734502412406,0.07742233238885571,0.0005408123031107213
1_2,XY,2400,127.99605775335598,0.815821230169537,0.07001225193625743,0.0005304341532056256
1_2,XY,2421,129.51590259376067,0.7986024258507548,0.0758106445774922,0.0005498343625201745
1_2,XY,2453,128.93563823142338,0.8075226055100216,0.07605068306927028,0.0005662000846400784
1_2,XY,2474,128.73443116957117,0.8222746871606664,0.08022620653222527,0.0006045143073644379
1_2,XY,2495,127.52600408714831,0.8052869591211488,0.07273882463180187,0.000549755355400971
1_2,XY,2516,127.53370848746484,0.750439233187509,0.07806789807138373,0.0005394721887906003
1_2,XY,2537,129.41581253835722,0.7866657838796215,0.0735714693702351,0.0005235626837786558
1_2,XY,2558,129.21241577976988,0.7374801630966973,0.08005651764442152,0.000533347171267066
1_2,XY,2579,127.9372995700617,0.8188360362776693,0.07606384839454151,0.0005813035041039522
1_2,XY,2600,128.29999041327724,0.8338225730580662,0.07884556026728141,0.0006123955689017266
1_2,XY,2632,128.8430376868145,0.7544623317742414,0.07436888676302988,0.0005032187580731853
1_2,XY,2653,127.82911993011481,0.7730441865860136,0.07667899797815415,0.0005453055633353461
1_2,XY,2674,129.18160738925556,0.7752143682125673,0.06675415015460666,0.00046972735396142335
1_2,XY,2695,127.89882493471517,0.7430139976542675,0.07970115317702332,0.0005420754455885597
1_2,XY,2716,129.00065059077176,0.8486530114973435,0.06571006400666377,0.0005143012325822413
1_2,XY,2737,129.01591429927745,0.8242212211410835,0.07622271509208832,0.0005699259001316015
1_2,XY,2758,128.04008897075119,0.8240093605791633,0.07105676922059026,0.0005410518800598536
1_2,XY,2779,128.35366246692942,0.7664930811447445,0.07606064350576647,0.0005368015042507491
1_2,XY,2818,127.33681000564292,0.8065405063622701,0.07537523667678375,0.0005629140799080406
1_2,XY,2839,128.54415310496844,0.7707608155821939,0.07893601589225974,0.0005564418416601817
1_2,XY,2860,129.57326281522796,0.8238115357617141,0.07324562268044543,0.0005456161923543825
1_2,XY,2881,129.10830208492033,0.7844770000125646,0.07794596288126483,0.0005570610554333677
1_2,XY,2902,129.41173883983416,0.849771419376562,0.07331054945643223,0.0005667535183591575
1_2,XY,2923,128.7871851350014,0.8424423680651394,0.07843399746098992,0.000600976838322456
1_2,XY,2944,129.01010950298712,0.8470305045562692,0.0715127084508051,0.000546909008101802
1_2,XY,2965,128.99278630233997,0.7518846423132194,0.07529703545654477,0.0005079302631039198
1_2,XY,2997,128.61889657318127,0.7813557256156,0.07243028865453739,0.0005221439553430462
1_2,XY,3018,128.70785162899614,0.7494288058395387,0.07693492247177913,0.0005208132649748515
1_2,XY,3039,128.1578296827838,0.8915943786500711,0.06951827475156937,0.0005748601070328267
1_2,XY,3060,128.114755151056,0.7801745429994986,0.07418866723627082,0.0005281886931783312
1_2,XY,3081,128.03171935041928,0.8113207883318003,0.07254792888901546,0.0005413433593026732
1_2,XY,3102,128.07093466552908,0.7986633728263384,0.07732227383009875,0.0005747165476762844
1_2,XY,3123,129.59233436169635,0.7511911906565607,0.073999522424342,0.0005067853798807068
1_2,XY,3144,128.11299211041222,0.7806995487211239,0.07882348742442173,0.0005711371866364556
