Scan,Type,BCID,sigma,sigmaErr,Mean,MeanErr,CapSigma,CapSigmaErr,peak,peakErr,rate0sep,rate0sepErr,peakRateRatio,peakRateRatioErr,area,areaErr,fitStatus,chi2,ndof,covStatus
1,X,103,0.08847641810721346,0.00028511676225219883,-0.0032556259973556597,0.0005552726050381621,0.12512455043741377,0.0004032159920369649,0.0014298686587512904,7.703137951400063e-06,0.0014316730324768056,1.3368606670207783e-05,0.9987396747130218,0.01076679581829568,0.0004484650584810777,2.8152629829719493e-06,0,43.77302671278656,22,3
1,X,124,0.08623139293469675,0.00028685441449428857,-0.005006907703122283,0.000519141086529837,0.12194960539057165,0.00040567340340441627,0.001571191131284221,7.679042045709383e-06,0.0015745129884399199,1.6259033820262557e-05,0.9978902319764346,0.011400475861299462,0.0004802853642398452,2.8394873399432843e-06,0,79.14181855095386,22,3
1,X,145,0.08679592620211436,0.00030823639952531033,-0.005977144898867153,0.0005586982161719061,0.12274797599376441,0.0004359120966257457,0.001523097649597369,9.38665256650224e-06,0.0015723816409725943,1.8459843230457075e-05,0.9686564698473961,0.01284373464055013,0.00046863208768148764,3.333306442408996e-06,0,108.98069781252843,22,3
1,X,166,0.08538538717141753,0.0002832815952774324,-0.004999844884344453,0.0005334997716166871,0.12075317256629636,0.00040062067401203105,0.0016051600639998488,7.78128505564541e-06,0.0016189453750840833,1.2357468562891675e-05,0.991485005426129,0.008965302039527338,0.0004858551718550937,2.85403889357706e-06,0,126.60502214049463,22,3
1,X,187,0.08749910546348372,0.0003278584957877495,-0.0060561534071853895,0.0005692189948690009,0.12374242164197247,0.0004636619312822776,0.0015153853375960023,9.199025400918463e-06,0.0015473974964159349,1.9410605980740334e-05,0.979312258877193,0.013647368100903685,0.0004700365456531187,3.353108796178221e-06,0,80.76722356954429,22,3
1,X,208,0.08716438594754682,0.0003177742304192791,-0.0057088032938773835,0.0005657938863494504,0.12326905676294353,0.0004494006264316175,0.0014475491391113047,7.679968197515175e-06,0.0014801300420927313,1.6182539535583374e-05,0.9779878104930828,0.011884982349238961,0.000447277778671916,2.8792792622485814e-06,0,115.34688975695806,22,3
1,X,229,0.08635588355299088,0.00029764595751948327,-0.005116487607193582,0.0005224074126152777,0.12212566171135142,0.00042093494990957936,0.0015372685793039955,8.877542341618726e-06,0.001543131014543243,1.7824380570398824e-05,0.9962009478236151,0.012864883986198143,0.0004705942480868601,3.164872652955462e-06,0,80.19313400631185,22,3
1,X,250,0.08541054838626938,0.0002647891312394868,-0.0052055904073841424,0.0004942766872339422,0.12078875589758564,0.0003744683805678717,0.0015931022863327382,7.436622211614527e-06,0.0016013725660039705,1.5586276956181868e-05,0.9948355055863922,0.010738836464132293,0.0004823475791788742,2.7029347720510256e-06,0,83.12027164363349,22,3
1,X,282,0.08660506793212949,0.0002815807536497095,-0.004653962386416775,0.0005480684801397118,0.12247806163986075,0.0003982153207146566,0.0015477988665411621,9.04158216943257e-06,0.001531632981445037,1.918141838185022e-05,1.0105546728831036,0.013964763268586552,0.0004751850437902451,3.17681974989546e-06,0,31.672782785861763,22,3
1,X,303,0.0865468353650705,0.0002823239759031369,-0.004046449638285997,0.0005117683875417994,0.12239570835375413,0.0003992663957053111,0.0015741923938244696,7.90616162035381e-06,0.00161472178432907,1.7339099902576108e-05,0.9749000782066982,0.011557054520101974,0.00048296308161010327,2.89235483188963e-06,0,85.11245651694362,22,3
1,X,324,0.08588967346004349,0.00030595294417292465,-0.005111346487085934,0.0005175577524022687,0.12146634107498999,0.00043268280309732843,0.0015549951775641175,8.484125612024892e-06,0.001591555229122533,2.0983305682832568e-05,0.9770287258089234,0.013940741434706356,0.00047345088221260737,3.0849763003739592e-06,0,112.82818310157919,22,3
1,X,345,0.08516773359786123,0.0002860195330227757,-0.0053977523628119415,0.0005309526735342508,0.12044536393067407,0.0004044927027044287,0.0015987538042733136,8.662133360664166e-06,0.0015981688889330791,1.7435805587063296e-05,1.0003659909439389,0.01218560917157689,0.0004826825665043182,3.0768330737178773e-06,0,116.995986736643,22,3
1,X,366,0.08596256097842633,0.00029757599785469954,-0.0057845640404789915,0.0005019173251540062,0.12156941959201473,0.00042083601200282317,0.001561485864979409,8.366602750941736e-06,0.0015699399684150287,2.003288895524702e-05,0.9946150148376981,0.013765064605610848,0.0004758305640496863,3.035358594086037e-06,0,102.04636577625955,22,3
1,X,387,0.08513407630766413,0.00030357241030527625,-0.005258994699220371,0.0005206099984718244,0.1203977653344046,0.00042931621981601165,0.0015925058766607925,8.944944418226783e-06,0.0016216360432775852,1.6230975772158304e-05,0.9820365570082447,0.01127119118512613,0.0004806062386742646,3.197552187319223e-06,0,101.17999552669785,22,3
1,X,408,0.08600356053711322,0.00035207784161385696,-0.006051645248131075,0.0005860942495691098,0.12162740172396103,0.000497913258621363,0.0015463993695672463,9.609825958016306e-06,0.001576543045242843,2.1798465525973832e-05,0.9808798904878911,0.014869207865858115,0.00047145801933747624,3.5083788114341006e-06,0,91.38727870463096,22,3
1,X,429,0.08546009149990177,0.0002745114492351726,-0.0056105937195299015,0.0005015885350141058,0.12085882044080676,0.00038821781453507453,0.0015920707161895206,8.573645396624157e-06,0.001603667517812614,1.866781354612682e-05,0.9927685748484129,0.01273325717810731,0.0004823148567341594,3.0243304975221907e-06,0,130.44766430171563,22,3
1,X,464,0.08681946409776045,0.00029466777062875295,-0.004916557747533504,0.0005083633878687451,0.12278126360501684,0.00041672315761742684,0.0015357605581687618,8.805899256426904e-06,0.0015514844640431753,1.7546223302328042e-05,0.9898652508363268,0.012551326717980003,0.00047265639966003804,3.149362289800851e-06,0,47.608170018507806,22,3
1,X,485,0.08465165828377895,0.0002747746682660343,-0.001970786079963066,0.0005351483481800301,0.11971552322229295,0.0003885900624583938,0.0016039656198446153,8.982787171590006e-06,0.0016338510261171035,1.6679856851122404e-05,0.9817086100294519,0.011431157959301297,0.0004813217170590424,3.1156133618544364e-06,0,54.98250592432338,22,3
1,X,506,0.085580611174997,0.0003004789628614064,-0.0031002993691624683,0.0005527221176276704,0.12102926099985922,0.0004249414244864025,0.0015600148318699806,9.271900020298247e-06,0.0015416806642527335,1.8694081373630962e-05,1.0118923250724778,0.013664645017507677,0.00047327007320471846,3.267017033227753e-06,0,31.938799886237486,22,3
1,X,527,0.08401267032165215,0.0002732043037664582,-0.002858865362672336,0.0005118887214730603,0.11881185778006009,0.0003863692316852241,0.0016107261958051347,9.614269329451626e-06,0.001634619342677337,2.285418507777369e-05,0.9853830514246408,0.014979960133968146,0.0004797019045112212,3.2606653032868265e-06,0,47.656525386756854,22,3
1,X,548,0.08484944856620068,0.00028409565201092783,-0.0038128146630617196,0.0005290284982556057,0.11999524092219938,0.00040177192408508144,0.001580455087118454,8.596768994387457e-06,0.00156904645773996,1.8849338221709054e-05,1.0072710590067084,0.013283205229384894,0.0004753747553522367,3.036376652821584e-06,0,38.24345861186164,22,3
1,X,569,0.08382078540768224,0.00026939377995218437,-0.003053597511632579,0.0005146899837132371,0.11854049153230906,0.0003809803372273324,0.0016200248843399648,1.0203919494619085e-05,0.0016307952414040719,1.9719705212343097e-05,0.9933956411015561,0.013544139213577158,0.00048136924943376313,3.40385995104164e-06,0,39.50717980696179,22,3
1,X,590,0.08540434698790024,0.00028714914338903084,-0.0036731700508827723,0.0005094140236189749,0.12077998579590632,0.00040609021300458403,0.0015608472228208826,8.880021668195736e-06,0.0015575686230555254,1.8110365797412452e-05,1.0021049472343153,0.012971828870035085,0.00047254731990850927,3.122817653134895e-06,0,54.23910735426171,22,3
1,X,611,0.08408584478247776,0.00025654094372785734,-0.0032016510566299835,0.0004795419116671827,0.118915342094979,0.00036280368192392887,0.0016240394815182813,8.540410891448866e-06,0.0016217724359519972,1.6482055737862208e-05,1.0013978814265352,0.011458930685160313,0.0004840880999781972,2.9431062932027074e-06,0,51.64384115011063,22,3
1,X,643,0.08759675408840505,0.0003027724344469034,-0.004253255596018317,0.0005718391920484264,0.12388051765168329,0.00042818488310752967,0.0015218306724117969,9.680356216213121e-06,0.0015147496761765656,2.1202137512438832e-05,1.004674697309132,0.015446581876433121,0.0004725625253028598,3.421078113685988e-06,0,26.41735988236219,22,3
1,X,664,0.08479946892980982,0.00024247175132943637,-0.004153943846129367,0.00048295076969866863,0.11992455904257293,0.00034290683922244547,0.0015857704872642518,6.765676164833846e-06,0.0016037767843024107,1.458659481150312e-05,0.9887725665975449,0.009933338941480633,0.0004766925837906461,2.4483098947212045e-06,0,44.90794571117069,22,3
1,X,685,0.08728534330654238,0.00027410745222670123,-0.0033370414252000603,0.0005455608858792451,0.12344011630050389,0.00038764647648653616,0.001514033145105551,7.975723831543776e-06,0.0015419031246441902,1.7630287321525634e-05,0.9819249477524273,0.012361699820818752,0.0004684698431226386,2.8730716405447194e-06,0,78.07972076913894,22,3
1,X,706,0.0852770365978656,0.0002862325621236547,-0.0029427978615054616,0.0005597441490560517,0.12059994171568833,0.00040479397134807193,0.0015250991006882956,8.231412284041501e-06,0.0015391459661185695,1.792166670761983e-05,0.9908735976057571,0.012716861637562249,0.0004610362743918296,2.9302806374617427e-06,0,44.87296628610573,22,3
1,X,727,0.08502490532271328,0.000253362183719545,-0.005089580408859861,0.0005126834717243255,0.12024337424686948,0.0003583082364086443,0.0015646581682428825,8.311846607833152e-06,0.0015893187369218987,1.529095033907892e-05,0.9844835600901697,0.010819692504985618,0.0004715964863466864,2.872463852681941e-06,0,60.37101439887724,22,3
1,X,748,0.0841680550511542,0.00025669533894366977,-0.0038972322089946844,0.0004943813225681824,0.11903160497190757,0.0003630220297320963,0.001637365892171066,7.86661958191005e-06,0.0016590333863447763,1.9076559166474227e-05,0.9869396876807592,0.012299200152202597,0.0004885375645701588,2.7801116982032703e-06,0,64.49495739027269,22,3
1,X,769,0.08651311010616985,0.0003212486786751251,-0.0032113915188372926,0.0005816730894463145,0.1223480136352223,0.0004543142382767984,0.001527633739302794,9.824218999984384e-06,0.0015245480552440152,2.094661625048169e-05,1.0020239992095787,0.015200848257585381,0.00046849622802018915,3.4790812866464496e-06,0,48.71768102082954,22,3
1,X,790,0.08476383937656896,0.000292263712644179,-0.003249786634353955,0.0005320144535163831,0.11987417124515842,0.00041332330621091096,0.0016130878795408013,8.793750177975377e-06,0.0016238386101153591,2.263700783058733e-05,0.993379434072088,0.014869348571207964,0.0004847006251405312,3.1265032852030956e-06,0,36.44148514902552,22,3
1,X,822,0.08825544477749728,0.00029232411842608047,-0.00537173482589346,0.0005260230005520581,0.12481204695760639,0.0004134087328869218,0.0014932404454423103,8.018840710809542e-06,0.001497115902906242,2.06213871305808e-05,0.997411384478377,0.01474560836686871,0.00046717133217367903,2.947584752968785e-06,0,25.775255133919767,22,3
1,X,843,0.08501196061966225,0.00025465470979713377,-0.004011709431784444,0.0005040496170819817,0.12022506767225383,0.00036013614431729124,0.0015303391023067403,8.397589345710472e-06,0.0015058119218446784,2.047809382865737e-05,1.0162883425919587,0.014903600056837085,0.0004611823092583477,2.8832092394140423e-06,0,57.98729485298321,22,3
1,X,864,0.08579709417214988,0.00030986902076935753,-0.004088659323687967,0.0005703284151336517,0.12133541419045601,0.0004382209717312957,0.0015811980046943784,9.124534741217384e-06,0.0015771637487918,1.7523917406962292e-05,1.002557918228636,0.012552225349884073,0.0004809099567578097,3.273876335196155e-06,0,26.318512503626522,22,3
1,X,885,0.08381810345268631,0.0002955240871889603,-0.0030582706983134835,0.0005018153990204412,0.11853669867518013,0.0004179341721105567,0.0016388570408652657,9.820849196792305e-06,0.0016312811547151732,2.229348332818823e-05,1.0046441326979072,0.01499164094725723,0.0004869493978659418,3.3856523984855468e-06,0,59.80096929529007,22,3
1,X,906,0.08619234187061324,0.00029976891949486285,-0.0032954224195334745,0.0005539425982030919,0.12189437884611964,0.00042393727152756355,0.0015621995139903475,8.378439258142738e-06,0.001587297188925371,1.589052045363594e-05,0.9841884209774131,0.01117760333569033,0.0004773205266685479,3.051123681314166e-06,0,56.63234176320144,22,3
1,X,927,0.08424010544013001,0.0002615848601290741,-0.002984201736908334,0.0005055771303433202,0.11913349960917141,0.00036993685690600575,0.0016215323336859063,7.539788932951366e-06,0.001651932027393344,1.3716223219270186e-05,0.9815974911780078,0.009341317622413534,0.0004842274963863042,2.7074778763148965e-06,0,62.70084097430652,22,3
1,X,948,0.08564631811225938,0.0002690672035595053,-0.0031441449482248474,0.0005075452166806486,0.12112218464167768,0.00038051848846365477,0.0015850215882790375,7.945213670319816e-06,0.0015762159811334793,2.0413530801982544e-05,1.0055865485764368,0.01396479564117847,0.000481225698322572,2.8468359508497326e-06,0,37.00351328531462,22,3
1,X,969,0.08485549785251535,0.000264665463924791,-0.0030932446030197853,0.0005080239985971524,0.12000379590494825,0.00037429348857420663,0.0016032729757246142,8.814395079366636e-06,0.001609992772549466,1.855488222924457e-05,0.9958261944156365,0.012715683374411056,0.00048227237976675657,3.0483852752309956e-06,0,28.828383105877553,22,3
1,X,1018,0.08461925260648356,0.0002710010873079497,-0.004864075907425578,0.000513684726964736,0.11966969467396393,0.0003832534130887577,0.0016028688482788462,8.156401950828114e-06,0.001579152962577022,1.76831012188377e-05,1.015018105442504,0.012484546633283683,0.0004808084655327219,2.8908839559323127e-06,0,43.863166788488485,22,3
1,X,1039,0.0839305466496542,0.0002346738716534493,-0.003674683185445956,0.0004668924157685659,0.11869571736932871,0.0003318789720269111,0.001642679019961085,9.429373166122154e-06,0.0016310094284345906,1.6474995844746606e-05,1.0071548277545488,0.011701330348437181,0.0004887397858297464,3.1206045430419276e-06,0,33.8548328873103,22,3
1,X,1060,0.08490773167868605,0.00026036941239732727,-0.005170971026870007,0.0004530704594088233,0.12007766569033351,0.0003682179542394137,0.0016091251729810979,7.763742015425647e-06,0.0015953954430967896,1.8917371105759443e-05,1.0086058474992619,0.012911681816961245,0.0004843307016260552,2.7688435120896643e-06,0,38.14201807906054,22,3
1,X,1081,0.08437497832157373,0.0002694250103272429,-0.0040257116127932115,0.00048485193953662077,0.11932423866730546,0.0003810245036472981,0.0015879245604956003,9.039815782517311e-06,0.001571762407795431,1.868149037532849e-05,1.0102828217674695,0.013314220972706304,0.0004749506345920327,3.1001208839415608e-06,0,37.83906777572896,22,3
1,X,1102,0.08491036688330725,0.0002678039812815003,-0.003910499425273347,0.0005262753306987038,0.12008139243244842,0.00037873202238580816,0.001606442445668607,8.836306911849464e-06,0.0016285531009364662,1.4857134367986649e-05,0.9864231290615302,0.01050822476707941,0.0004835382340131163,3.0659317754819235e-06,0,25.524852113410194,22,3
1,X,1123,0.0837961511960045,0.00028009938210157945,-0.004612382183151036,0.0005231546644419801,0.11850565349605602,0.0003961203449803774,0.0016645007590432713,9.740890792430838e-06,0.0016805617635094951,2.079652165716645e-05,0.9904430739679071,0.013557925861569878,0.0004944393208877737,3.3322679764595558e-06,0,36.362742359718865,22,3
1,X,1144,0.08508750019096223,0.0002994231262248066,-0.0044709062811967995,0.0005362157637275802,0.1203318967584821,0.00042344824599527264,0.0015910965885399446,8.921574891963727e-06,0.0016031998314270347,2.4896500122468707e-05,0.9924505712576599,0.01638590654717989,0.00047991822333874173,3.177041098666151e-06,0,31.27773023044524,22,3
1,X,1165,0.08565423672129227,0.00028186175823242005,-0.004051551150123031,0.0005273248484523565,0.12113338324596712,0.00039861272120661484,0.0016162227195244342,8.746076928275647e-06,0.0016186948083462451,2.073206694711884e-05,0.998472788811662,0.013882925091836846,0.0004907439890752914,3.1080889051314064e-06,0,39.27082100569772,22,3
1,X,1197,0.08454308363618533,0.0002741218197592956,-0.0038021612998613797,0.0005052352921228109,0.11956197548313618,0.0003876667952459889,0.0016074238614665248,9.520021032314847e-06,0.0015966344245983049,1.9407437103419055e-05,1.0067576125768016,0.013612676653151483,0.0004817407974965256,3.2527138784770743e-06,0,41.196327324445306,22,3
1,X,1218,0.08324932875073748,0.00029536788438928895,-0.004221456352687883,0.0005237422067532608,0.11773232977774939,0.00041771326799278086,0.0016696387179757789,9.509083043987815e-06,0.0017087010012333684,2.03032559325567e-05,0.9771391933232357,0.012875448433717771,0.0004927290633537902,3.3062308480981426e-06,0,29.703443849279715,22,3
1,X,1239,0.08463915149268066,0.00029824417378183286,-0.004135345922234206,0.0005718845695574167,0.11969783594869998,0.00042178095546102634,0.0016138091026376119,8.285801426043165e-06,0.0016009567477263172,1.3339000402970614e-05,1.0080279213848515,0.009865375897404301,0.0004842040232628647,3.0152241646938665e-06,0,28.390542089454673,22,3
1,X,1260,0.08358852511014436,0.0002507562566899613,-0.003289761645310555,0.0005042853611028787,0.11821202586953017,0.0003546228990608524,0.0016451610767246546,8.131869649359946e-06,0.00163523875970153,1.5314472641998404e-05,1.0060678093423714,0.01065391091697833,0.0004874836118288268,2.818633840899622e-06,0,93.48979057364866,22,3
1,X,1281,0.08421617802134687,0.0003067296498291355,-0.003454357981806737,0.0005491293872895661,0.11909966112901571,0.0004337812307703137,0.001622531376008051,9.0471761546067e-06,0.001635436976046139,1.7123729649167327e-05,0.9921087756806816,0.01176899013875513,0.00048438820989167954,3.2260682172088865e-06,0,34.07226414745444,22,3
1,X,1302,0.08244465287083996,0.00024229356083780546,-0.004117169803452769,0.00044966899140547184,0.1165943462350838,0.0003426548398124951,0.0016971581004496274,8.860931015713405e-06,0.0017009522653179685,1.622565098915423e-05,0.9977693878037007,0.010850244679303874,0.0004960091945641527,2.9717607684079904e-06,0,29.86703247232309,22,3
1,X,1323,0.08516936400879309,0.0003170350510658114,-0.003914599030838863,0.000617293364287678,0.12044766967992615,0.0004483552689649173,0.0016015352829560805,9.660636569372568e-06,0.001602801611145405,2.439769226870924e-05,0.9992099283027177,0.016360600596932843,0.0004835315839377457,3.427371428939534e-06,0,34.574566590876195,22,3
1,X,1344,0.08596047407960593,0.00027349733267675907,-0.003147986067278939,0.00046818688662695647,0.12156646827139961,0.00038678363714433894,0.0016049882958142567,8.661621273383205e-06,0.001633026103254966,1.9009991429252433e-05,0.9828307659107076,0.012610763974746586,0.0004890751577966136,3.0639388632228375e-06,0,36.949077420882645,22,3
1,X,1376,0.08657979302866083,0.0002912952427408639,-0.0058662425038500405,0.0005461771500524189,0.1224423175285877,0.00041195368293889256,0.001537319529525993,9.113824366592995e-06,0.001508563507153783,1.623559726448244e-05,1.0190618573469699,0.012521307339946008,0.0004718300747359058,3.216256098202491e-06,0,46.55343647529227,22,3
1,X,1397,0.08514802992298741,0.0002608841594204818,-0.0047897956573381886,0.0004863195617720914,0.12041749872643892,0.00036894591646075003,0.0015880315021703979,8.389841611030313e-06,0.0015733959241450842,1.548697352739826e-05,1.0093019041175322,0.011275172222836898,0.00047933445709922814,2.9274471498642992e-06,0,40.54165326184878,22,3
1,X,1418,0.08607029354075776,0.00032674424509178434,-0.00462468173883923,0.0005816206245236354,0.12172177644277304,0.00046208614283616,0.001566458826771814,9.068203054783415e-06,0.001592709486556614,1.8236817089034135e-05,0.9835182373142304,0.01261892764355689,0.00047794420517991934,3.308666078738866e-06,0,57.75796426582912,22,3
1,X,1439,0.08742769835371543,0.00031064874119385527,-0.00529860243912355,0.0005543351388682356,0.12364143673888828,0.00043932366293047975,0.001361939847539265,6.798268064307073e-06,0.0013649623860837693,1.674712693697343e-05,0.997785625028704,0.013216488914868166,0.0004220966484982584,2.586230632835621e-06,0,34.91166129932089,22,3
1,X,1460,0.08628221472628918,0.0003129500472196372,-0.005998494416687786,0.0005599751379917501,0.12202147825750576,0.0004425782011233115,0.0015748709300267276,9.290129691191433e-06,0.0015989346234229636,2.1627959229272776e-05,0.9849501705424822,0.014534729231319512,0.00048169394016915563,3.335654901979343e-06,0,35.838403783575046,22,3
1,X,1481,0.0845382641739081,0.0002657307933498166,-0.004574388139091145,0.0004750996873708184,0.11955515973422037,0.0003758000918954729,0.0016322939294785908,7.987458099014924e-06,0.0016459418359480063,2.102452419478278e-05,0.9917081477781657,0.013565354919565365,0.0004891664059162739,2.8449881330522745e-06,0,45.89882100956979,22,3
1,X,1502,0.08570879453898339,0.00031064662395871676,-0.0051262533936266095,0.0005560317269328935,0.12121053965167938,0.00043932066870783215,0.0015847908418080542,1.0433242021564973e-05,0.0016024187695966596,2.162773466381371e-05,0.9889991754196423,0.014851715532542888,0.00048150663042608816,3.6185843047549585e-06,0,46.73721258915535,22,3
1,X,1523,0.08832048300738037,0.00030452529985925493,-0.0042444629735948515,0.0006080886903178034,0.1249040249043798,0.0004306638091466919,0.001365793314757405,7.218760059071046e-06,0.0013628297583599875,1.3475509570123736e-05,1.0021745609671626,0.011236239523128213,0.00042761344330071084,2.6985029354973644e-06,0,31.60495083004975,22,3
1,X,1555,0.08867130795787631,0.0003038012914179917,-0.004905315836522569,0.000570813123888232,0.12540016630739004,0.0004296399065897849,0.0013565151524327721,7.720511283047469e-06,0.0013688400518833224,1.526798629277238e-05,0.9909960996293227,0.01240936010444703,0.00042639558169265746,2.832592040668263e-06,0,68.02378118766507,22,3
1,X,1576,0.08808956101996002,0.0003144675392811621,-0.006072290906815845,0.0005753196359273792,0.1245774518979198,0.00044472425897751355,0.0014014117739547054,7.731519218386487e-06,0.0014256657649195734,1.7577119807861587e-05,0.982987603713528,0.013277338416620744,0.0004376179623863046,2.8756746128575765e-06,0,45.245604364057876,22,3
1,X,1597,0.08894445200987261,0.0002968989082975756,-0.005707967646023176,0.000549190115231631,0.12578645033020475,0.0004198784627681973,0.0013046527606761344,8.086327891728107e-06,0.0013297947983737857,1.9543531820776523e-05,0.9810932951998326,0.015648596434454536,0.00041135684970222,2.895861026526054e-06,0,45.12929342531768,22,3
1,X,1618,0.08723831150313203,0.00030924607879969745,-0.0055071127737341295,0.0005763507833548764,0.12337360328625813,0.000437339998749231,0.0014273629909533337,8.044462264819767e-06,0.0014141438005299976,1.5166211267714596e-05,1.009347840310428,0.012228597829324653,0.00044141452045184384,2.938944915518041e-06,0,54.764925675995805,22,3
1,X,1639,0.08550296687155805,0.00027872318631323153,-0.00442897324043643,0.0005070330654496828,0.12091945537289484,0.0003941741102320151,0.0015768201547223576,8.240244131456645e-06,0.001562358611002018,2.179312785625636e-05,1.0092562255672304,0.015033529199567863,0.0004779343872456255,2.9437023745872084e-06,0,52.403822128469315,22,3
1,X,1660,0.0836549964818285,0.0002478754719684466,-0.006119398501755739,0.0004893539302880698,0.11830603058487543,0.0003505488542374091,0.0016114336823771821,8.199136757231421e-06,0.0016178714056360886,1.4613927563076181e-05,0.9960208683851635,0.01032602523743035,0.00047786943595194004,2.8136951650738354e-06,0,43.99361483020895,22,3
1,X,1681,0.08565804185339805,0.0002692264334106894,-0.005560379952283036,0.000514958186058107,0.12113876451539773,0.00038074367347873395,0.001572623157114913,8.32452091488124e-06,0.0015833332810716804,1.8840736864106095e-05,0.9932357109619283,0.012935578696914085,0.000477526789362887,2.939748584886176e-06,0,41.40101048325439,22,3
1,X,1702,0.0850092412889113,0.0002729564501108175,-0.004231613433976873,0.0004986047445536005,0.12022122195782525,0.00038601871368393326,0.0016256028416606367,8.098714593468445e-06,0.0016615326184982173,1.7150294441507004e-05,0.978375521228072,0.01121353263801717,0.0004898752768092238,2.9035179229904426e-06,0,45.25552491669924,22,3
1,X,1734,0.08670156314389682,0.00029694548690480056,-0.0033873604423466717,0.0005375019544255689,0.12261452647704618,0.00041994433486625127,0.0015618682094965658,9.05794645198299e-06,0.0015615699404671786,2.2143748606909407e-05,1.0001910058727808,0.015323444274935939,0.0004800386931519772,3.2331751528644817e-06,0,38.220526539080716,22,3
1,X,1755,0.08900520008296786,0.0003329723678986871,-0.004703360886925823,0.0005899440520898274,0.12587236107906408,0.0004708940385778071,0.001334072737465396,7.35041020787925e-06,0.0013159083434499163,1.501501813545293e-05,1.0138036924120857,0.012845905290423456,0.00042092025229065373,2.8032397468887363e-06,0,26.84981742518804,22,3
1,X,1776,0.08569834510755082,0.00030550255461024074,-0.0031278095532591152,0.0005243789800596619,0.12119576192402837,0.0004320458560694296,0.0015576620925434241,9.340952116719552e-06,0.0015895956601879513,1.8430752280743455e-05,0.9799108864950277,0.012791364581455947,0.0004732064095488103,3.3012568309978204e-06,0,52.28876149012746,22,3
1,X,1797,0.08430374239255589,0.0002544268185704051,-0.0048280252935766765,0.0004954328227655608,0.11922349585036018,0.00035981385745370575,0.0016359854951789295,8.443541044741287e-06,0.0016278902062664034,1.595695670863184e-05,1.0049728715618313,0.01113304263585844,0.0004889126058522777,2.923088147240663e-06,0,40.01085084892648,22,3
1,X,1818,0.08756047891664924,0.00027413659509946213,-0.0046464894204522765,0.0005061335699486098,0.1238292168118088,0.00038768769073244114,0.0013748757289111597,8.077754164980644e-06,0.0013716363656576989,1.6350409369946834e-05,1.002361677872187,0.013321000285681847,0.0004267529241406077,2.8410581859242875e-06,0,32.876592911972374,22,3
1,X,1839,0.08983159322333317,0.00028840807841829717,-0.0035732088338295198,0.0005267418398030081,0.1270410574660208,0.00040787061599711905,0.0012730969465176614,6.781273901783059e-06,0.001267573801674766,1.4078744188876765e-05,1.0043572570177752,0.01237173328431077,0.0004054109837132845,2.5213893919737743e-06,0,34.135029217837165,22,3
1,X,1860,0.08552456566104007,0.0002659274239291228,-0.005620912838949105,0.0005198913659987587,0.12095000067391115,0.00037607816952750506,0.001558183190721393,7.924031519045578e-06,0.0015739260656055431,1.614892788191241e-05,0.9899977036862317,0.011336879449812298,0.000472404824522963,2.8158566430808188e-06,0,24.472164789864948,22,3
1,X,1881,0.08471431177433765,0.00028049304045452784,-0.003364722808234088,0.0005436474180647586,0.11980412863837109,0.00039667706196205854,0.0015856285448649229,9.138522779506572e-06,0.001585543835668128,1.6829955441742847e-05,1.0000534259570055,0.012078990697792199,0.0004761712545747712,3.164986942602632e-06,0,36.624858673448394,22,3
1,X,1916,0.08691356850197386,0.00028868135838025104,-0.00423426674257784,0.0005278621549106661,0.1229143473297345,0.000408257092225639,0.0015488427330640452,8.405792861632334e-06,0.0015525705542703883,1.8058269869621694e-05,0.9975989360379857,0.01280424650746917,0.00047719934186821677,3.0363567921621787e-06,0,49.49460995913687,22,3
1,X,1937,0.08786888805411483,0.00029473895825872715,-0.004853638198925302,0.000518765267419853,0.12426537319677244,0.0004168238321292095,0.001381544500467732,8.37203847860834e-06,0.0013715421477347074,2.0411978271039793e-05,1.0072927782420285,0.016186144746423138,0.0004303332872259652,2.9806255271459343e-06,0,42.52768650793608,22,3
1,X,1958,0.08690237411285388,0.0002999686777593841,-0.003165608256088763,0.0005767484477300091,0.12289851607281854,0.00042421977237444564,0.001558005391123941,8.557721828789592e-06,0.0015846049819939676,1.61204698262298e-05,0.983213740224043,0.011367234346162916,0.0004799605356692496,3.1136481107003933e-06,0,48.438400541682526,22,3
1,X,1979,0.08513928333157053,0.0002588999537329986,-0.004641293859302481,0.00047984995748487873,0.12040512917823265,0.00036613982586697347,0.0016260062309504041,8.005176829497555e-06,0.0016526714675962207,1.4999813215387465e-05,0.9838653736277055,0.010158792192162223,0.0004907464059341942,2.839768580939568e-06,0,66.59046390443338,22,3
1,X,2000,0.08623825525397594,0.0002842748171211628,-0.003946577667037286,0.0005282457708001656,0.1219593101755656,0.00040202530181387974,0.001565853323914064,9.061760778720534e-06,0.0015708012765768841,2.211548861458198e-05,0.9968500454280234,0.015174141292006263,0.00047869178225108953,3.1881299195245716e-06,0,55.41368375344205,22,3
1,X,2021,0.08514941351924758,0.000256776151302238,-0.0038714801920697872,0.0004428904650961071,0.12041945542703492,0.0003631363156655909,0.0016106058570082467,7.4196354699476595e-06,0.0016133247256161574,1.4534149229835178e-05,0.9983147418714032,0.010101288751224975,0.0004861562429867471,2.6767670575914807e-06,0,21.476075330604502,22,3
1,X,2042,0.08644786770473316,0.0002465620305581129,-0.003971351092628296,0.0004865434014661196,0.12225574694626873,0.00034869136758153285,0.0015517943879351118,6.916960225577324e-06,0.0015445549158788529,1.3019970455978339e-05,1.0046870926904787,0.009580228477916565,0.0004755469433150452,2.5164976917516517e-06,0,52.75046116063662,22,3
1,X,2063,0.08497383445927247,0.00025173139874376836,-0.004204758919872419,0.0004862586520394937,0.12017114913914939,0.0003560019581785867,0.0016161064175261666,8.264545447388012e-06,0.0016053484685114182,1.4462529328491437e-05,1.0067013170198018,0.010428621494391868,0.0004868106863224717,2.8770364267313854e-06,0,53.92137353900145,22,3
1,X,2095,0.0864317502531665,0.0002807197741635633,-0.00415308374846564,0.0005124479035999696,0.12223295342767226,0.0003969977118484236,0.0015666081350904015,7.899340952764184e-06,0.0016006266040776336,1.6969288985917695e-05,0.9787467802293369,0.011490172965167274,0.00047999710389992005,2.878930885023208e-06,0,36.98667516378965,22,3
1,X,2116,0.08606140490932748,0.00028276717000508245,-0.003614239352792866,0.0005262122530576116,0.1217092060196534,0.0003998931668150463,0.00161103515303547,8.74352929482752e-06,0.0016248917513682264,2.1564301805496446e-05,0.9914722944952558,0.014215813994278088,0.0004914941809336329,3.118210552138902e-06,0,62.11969644949809,22,3
1,X,2137,0.0867512010103042,0.00029035485108105263,-0.004308308956491324,0.0005209245067288766,0.12268472502092675,0.000410623768299645,0.0015676780265979876,8.511531287585344e-06,0.0015770373756262002,1.8860855751957596e-05,0.9940652332196653,0.013056436374529188,0.00048210018607451784,3.07489783036605e-06,0,39.75974038142323,22,3
1,X,2158,0.08530880046833476,0.00028985443282176945,-0.003478342525782609,0.0005314780169257022,0.12064486261209928,0.00040991607001050756,0.0016058784607910772,8.984254506521261e-06,0.0016303749785764878,1.6281443123387825e-05,0.9849749179745146,0.011274678184925065,0.00048563663414897645,3.1787512652133736e-06,0,42.59622324988055,22,3
1,X,2179,0.08663649409930378,0.0002635567446859503,-0.0019298357873766651,0.0005503529098176775,0.12252250495169204,0.0003727255227897741,0.0015550934174348074,8.041641251426138e-06,0.0015627731614703726,1.6563611331816905e-05,0.9950858229300921,0.011735126157197465,0.0004775977636320635,2.865399032572581e-06,0,29.19507194628064,22,3
1,X,2200,0.0846551252571759,0.00025573767373425385,-0.004504175633413746,0.0005064738777722467,0.11972042626309132,0.0003616676866047275,0.0016176961486058519,8.462149703241121e-06,0.0016292327808526018,1.6668368698460126e-05,0.9929189785632029,0.011409182741203555,0.00048546188757023554,2.9324988417872928e-06,0,50.261061901602055,22,3
1,X,2221,0.08672750814966398,0.0002654140741351725,-0.003768353868683722,0.0004919713278218216,0.12265121825607794,0.0003753521832866591,0.0015605893345426863,9.091237478110037e-06,0.0015752253131557827,1.7202844484468955e-05,0.990708644350201,0.012262484874931747,0.0004797891637018252,3.157224168270199e-06,0,31.167664554516616,22,3
1,X,2242,0.0851702497240114,0.00026392465677816307,-0.004724334815200532,0.0005268631708491314,0.12044892227040027,0.0003732458290603424,0.0016184622992076393,8.888599844329092e-06,0.0016325344808964556,1.9144621805303907e-05,0.9913801626529266,0.01283762840751903,0.0004886472285631778,3.0813689827222707e-06,0,43.65914401491759,22,3
1,X,2274,0.0865754445888504,0.0002910614401847198,-0.0047159165455922525,0.0005329632582174905,0.12243616790603262,0.00041162303619307616,0.0015658669054828516,8.13560458122263e-06,0.0016011577410700872,1.950158113294033e-05,0.9779591762372831,0.012949695691362804,0.00048056762287838374,2.9739646705147235e-06,0,43.33025353291196,22,3
1,X,2295,0.08472142174719245,0.00024248311522216662,-0.0023195018542579637,0.00045556631635161403,0.11981418365841046,0.00034292291019366594,0.0016077598713388364,8.430985043584509e-06,0.001634795864503209,1.8397072134378854e-05,0.9834621595567907,0.012209938208590055,0.0004828579119500163,2.884670127233946e-06,0,35.87592711883794,22,3
1,X,2316,0.08618598147239537,0.0002784347856834057,-0.0034399392651196722,0.0005160512184986385,0.12188538388469783,0.0003937662501499184,0.0015636031998108291,8.440626412785497e-06,0.0015798964079169052,1.798218785857149e-05,0.9896871668139566,0.012467214295708342,0.0004777141597037915,3.0053271902682384e-06,0,44.275432326522974,22,3
1,X,2337,0.08491540234582293,0.0002588767644944206,-0.0035270855344116323,0.0005116632742269015,0.12008851365183093,0.0003661070313312753,0.0015791144428600483,7.786058281648741e-06,0.001561944818479449,1.4903004292176128e-05,1.0109924654043245,0.010858075419798994,0.0004753407087821952,2.755562846510159e-06,0,51.53843335040672,22,3
1,X,2358,0.08784392437518938,0.00028084372733262855,-0.004076964807253076,0.0005296328880980471,0.12423006922346935,0.0003971730081012148,0.0014201566917795246,8.160793412662476e-06,0.0014455559596399249,1.6197619572015997e-05,0.9824294122333894,0.012371424963541712,0.00044223481138779285,2.9080915388454784e-06,0,19.864228911851413,22,3
1,X,2379,0.08454554711889112,0.00027288150364731037,-0.004399104448377667,0.0004903762477145838,0.11956545937378937,0.00038591272337878957,0.0016019505886225981,6.992442073250427e-06,0.0016065353239946235,1.4970177515354098e-05,0.9971461969721117,0.010260607198982375,0.00048011446124496905,2.6063807775372643e-06,0,46.32710382953438,22,3
1,X,2400,0.08638628058194775,0.00026196139069960554,-0.004406400244838859,0.0005187742745379232,0.12216864960195806,0.0003704693515454993,0.0015661138055087437,8.383293538214727e-06,0.001553135391042819,2.142683618298252e-05,1.008356267290523,0.014921613164511108,0.00047959320969806057,2.950552253925305e-06,0,45.88593169353093,22,3
1,X,2421,0.08474483576879017,0.00026689025787859493,-0.004287556159993911,0.000505328531394254,0.11984729608530365,0.0003774398223571618,0.001644058637054828,7.85690576172194e-06,0.0016493992411390625,1.3828374028405355e-05,0.9967620913414836,0.009619042365502647,0.0004938959642443632,2.8267460088830115e-06,0,41.94661882646172,22,3
1,X,2453,0.0861573337578275,0.0002776849013445641,-0.0045253574975805885,0.0004867183273489242,0.12184486989822496,0.0003927057535477174,0.001547022076702614,8.577190456958536e-06,0.0015519808358488278,1.8201046868023836e-05,0.9968048837771236,0.012930702347806041,0.00047249116708271275,3.0301104018644703e-06,0,41.301760642378376,22,3
1,X,2474,0.08489511780719416,0.0002738744499117488,-0.0043845849853603475,0.0005018772457470465,0.12005982698219564,0.00038731696145266614,0.0016283426328704996,8.501622436500957e-06,0.0016461670039748303,1.9563254850269654e-05,0.989172197558758,0.012839880581339724,0.0004900421549038275,3.0075345435062797e-06,0,56.42404975801853,22,3
1,X,2495,0.08677627863307989,0.0003044871497032359,-0.003990501461426407,0.0005630616676150929,0.12272019013516822,0.00043060985667864315,0.0015515409880693947,8.349074318045798e-06,0.0015635686677629252,1.774563859146785e-05,0.9923075462296522,0.012463900365875255,0.000477275571961911,3.0660629502024517e-06,0,45.22991892564781,22,3
1,X,2516,0.08456113560768228,0.00026463669911164933,-0.003814620675906391,0.0005002780234015364,0.11958750482605474,0.0003742528089853425,0.0016269246987647334,8.098329106788108e-06,0.0016244489592673003,1.4856542362252694e-05,1.0015240488064026,0.010428323557539726,0.0004876892593820359,2.8674874528740015e-06,0,55.04520387998125,22,3
1,X,2537,0.08648467351261563,0.000289665934324783,-0.004621413099954422,0.0005092066239411349,0.12230779821895021,0.0004096494928795824,0.0015745717652075756,7.5284655961777974e-06,0.0015874396900864764,1.7278537501961433e-05,0.9918939125944369,0.011792014690904355,0.0004827325034250062,2.8180437430409874e-06,0,44.56380581088738,22,3
1,X,2558,0.08465214952529823,0.0002670393616416161,-0.004332304472976305,0.0005068048377403695,0.11971621794271192,0.0003776506869210272,0.001648387330250279,8.028648349149282e-06,0.0016614174017726873,1.29300034058431e-05,0.9921572559017947,0.009108972916572814,0.0004946547572838778,2.870447130932666e-06,0,57.69553527756742,22,3
1,X,2579,0.08593853897980919,0.0002729695736138204,-0.003692006892014025,0.000506263176089261,0.12153544735577504,0.0003860372731198658,0.0015607098082646555,8.578997600975088e-06,0.001593765203542647,2.8845282119865503e-05,0.9792595576785618,0.018522844040891318,0.00047546117335351155,3.0185057097495816e-06,0,47.790071271395945,22,3
1,X,2600,0.08434624240463542,0.00025006164409926995,-0.00324747617726392,0.0004903363043954975,0.11928359994384408,0.00035364056851450165,0.0016357408025764672,8.907442671331738e-06,0.001666497142763071,2.0004535102273754e-05,0.9815443186805533,0.012938087180030696,0.0004890859181684596,3.0324528945712058e-06,0,43.78502135093268,22,3
1,X,2632,0.0863583768048899,0.00027691502738261275,-0.004146945745582109,0.0005127959544225041,0.12212918770200143,0.000391616987349408,0.001553786307790859,6.525731943081076e-06,0.0015673544134653804,1.8537242948125304e-05,0.9913433071946232,0.012442016271822478,0.00047566444810523043,2.5134368722937005e-06,0,43.234619229502684,22,3
1,X,2653,0.08489207844037154,0.0002473966548981353,-0.003652568864823936,0.000420952976349875,0.12005552866841407,0.00034987170464267914,0.0016168508978554367,8.145822664310757e-06,0.001619538217123622,1.860753969870862e-05,0.9983406879567448,0.012524652398198796,0.00048656635021164155,2.8319285152614475e-06,0,57.038517497275365,22,3
1,X,2674,0.09005689293675478,0.0002937706223155043,-0.004507774105834491,0.0005496811576315625,0.1273596793763404,0.00041545439830537045,0.0014147551821783193,7.268263400011722e-06,0.001422392542222595,1.3245866503597154e-05,0.9946306242351766,0.01057840587745682,0.00045165121685507796,2.7485718932672205e-06,0,70.14306790032082,22,3
1,X,2695,0.08329941096486027,0.0002454980370949287,-0.0033024605091969035,0.0004903073639890192,0.1178031567241955,0.0003471866535956214,0.0016436804573151213,7.77094178891193e-06,0.0016564405294552747,1.3863107346846745e-05,0.992296691663087,0.00953821498325791,0.00048536030405890056,2.704012280217929e-06,0,32.76186842706967,22,3
1,X,2716,0.09001610353652968,0.00032223003569322904,-0.0048557664125676945,0.0005784787771829487,0.127301994453341,0.00045570208668133105,0.0014155092307228361,8.186286845367132e-06,0.0014468522487795451,1.456414840168186e-05,0.9783370982882685,0.011357669911000689,0.00045168726678157414,3.072155392818561e-06,0,62.68504154676221,22,3
1,X,2737,0.083659078689708,0.00029050923195034147,-0.0028198074348829796,0.0005109070225013767,0.11831180369862304,0.0004108420958187642,0.0016511786059201878,8.75539529321478e-06,0.0016182705841084816,1.8587564431522835e-05,1.0203353024734336,0.012908204433096407,0.0004896796571634922,3.103779238935171e-06,0,57.619482777991365,22,3
1,X,2758,0.08599904695945039,0.00026092746750764804,-0.004148606086994022,0.0005091934027664708,0.12162101856121543,0.00036900716334498096,0.001583739345592019,7.842453751703876e-06,0.0016137045022076417,1.2868550339184251e-05,0.9814308279027365,0.009212608486141607,0.0004828166925615297,2.803935281773879e-06,0,37.79147186778587,22,3
1,X,2779,0.08495470866795679,0.0002497312048220494,-0.004615933839726167,0.00047050277850579984,0.12014410118567964,0.00035317325680711553,0.0016246931424508337,8.283707358083139e-06,0.0016111621213914576,1.594069684804277e-05,1.0083982988922866,0.011223863480536039,0.0004892870645494806,2.8796175285958453e-06,0,35.675655637002905,22,3
1,X,2818,0.08519466673130831,0.000274473017170819,-0.0027655808649117595,0.0005575716457199328,0.12048345313327213,0.00038816346338843566,0.0015676892027743413,8.441566648194935e-06,0.0015765012652275952,1.6595586807560693e-05,0.9944103676618479,0.011758022785802626,0.00047345347402120275,2.9708840683459567e-06,0,51.11499682657191,22,3
1,X,2839,0.08355796109811102,0.0002566467788522853,-0.004035838499111493,0.0004997896328428833,0.1181688018291921,0.00036295335539227036,0.001622957543505123,8.85018606249887e-06,0.0016249671616440523,1.797844000675592e-05,0.9987632869227363,0.012319491555629537,0.00048072856089023485,3.008705880679944e-06,0,47.68219188133773,22,3
1,X,2860,0.08501339236217925,0.00028108265833456475,-0.0033716004774303806,0.0005012848819241324,0.12022709246193919,0.00039751090756462437,0.001598234737344729,8.327370409544002e-06,0.0015953538598290616,1.5820254198841305e-05,1.0018057921745187,0.011222186825675648,0.0004816514192210391,2.9722085535151215e-06,0,30.60947000905604,22,3
1,X,2881,0.08456006784141115,0.0002653053668971332,-0.004133747268589715,0.0004744410745052429,0.11958599477651266,0.00037519844803629576,0.0016254739743627661,8.353799655016126e-06,0.0016410925452124358,1.5716100206119678e-05,0.9904828214013685,0.010765041739650103,0.0004872482355389999,2.9338729805905745e-06,0,74.24389846711696,22,3
1,X,2902,0.0853010435524197,0.00030715861641736954,-0.004070151677700967,0.0005842646836360962,0.12063389267641,0.0004343878811371993,0.0015803538193438808,8.994759606645256e-06,0.001609536380759771,1.7695843074152993e-05,0.9818689644019635,0.012155786536997264,0.0004778742249170733,3.218501823748904e-06,0,55.789119184022844,22,3
1,X,2923,0.08359827098836596,0.00030707627617572697,-0.0042367458875609805,0.0005907461880042112,0.11822580862268839,0.00043427143445073924,0.0016560915210970901,9.904180916476435e-06,0.0016290870739920534,2.120408424243741e-05,1.016576429545207,0.014561558417899157,0.0004907796662661737,3.444508129648457e-06,0,47.98862891576065,22,3
1,X,2944,0.08682062993696686,0.0003045208833836638,-0.005037642241021613,0.0005893910264104712,0.1227829123506341,0.0004306575633070131,0.0015573325219156928,8.789673397352511e-06,0.0015723944694900542,1.4202934891441601e-05,0.9904210121145706,0.010549014737544547,0.0004793019740769491,3.1850232772939175e-06,0,36.76712851702708,22,3
1,X,2965,0.08612658808895858,0.000272600941233253,-0.003979251459997632,0.0005308931456046584,0.1218013889563263,0.0003855159482077375,0.0016010387532914645,7.079712104933835e-06,0.0016111806177696846,1.3031225483882975e-05,0.9937053211996435,0.009159858226052623,0.000488814431319687,2.658162648418148e-06,0,57.67997188087253,22,3
1,X,2997,0.08527056019747221,0.00026479043887470133,-0.004289919534524749,0.0005048766723778899,0.12059078270241663,0.0003744702298433267,0.001536208670537746,7.0948780771955185e-06,0.0015647790867406829,1.1665107392343952e-05,0.9817415656657025,0.00860936978307011,0.0004643594200844709,2.584309412461268e-06,0,53.73534488471777,22,3
1,X,3018,0.08368695623518678,0.0002703270548070016,-0.0029528457341834713,0.00045243360916205497,0.1183512285015248,0.0003823001871844367,0.0015928061888107262,8.53990698922486e-06,0.001627390152456069,1.947467562996185e-05,0.9787488184114003,0.012834335933195022,0.0004725259228500267,2.957744369491705e-06,0,53.57828518295006,22,3
1,X,3039,0.08492661438167053,0.00030835002144753015,-0.003335477504551177,0.0005510666076951813,0.1201043698649884,0.00043607278228913193,0.0015934450866216963,9.56024278014071e-06,0.001597383792503936,1.883875472426347e-05,0.9975342770468044,0.013199287969003793,0.0004797178124378952,3.364164828892696e-06,0,36.34952773889297,22,3
1,X,3060,0.08376392274722766,0.0002882113923503534,-0.0030414861964093566,0.0005458471081549506,0.11846007558670157,0.0004075924598923031,0.0016453839023737168,8.670575027551945e-06,0.0016545760291454311,1.4775365585812686e-05,0.9944444216465157,0.010311289926692216,0.0004885726858737645,3.0748221980348165e-06,0,60.382296873113646,22,3
1,X,3081,0.08463486760543726,0.00028154563688935805,-0.002871231030699926,0.0005239112140203505,0.11969177761726069,0.000398165658115901,0.0015847051154087221,9.081929528869898e-06,0.0015794266310935373,2.088521683437956e-05,1.0033420256511252,0.014459953320950595,0.0004754476564168028,3.1505523952201097e-06,0,42.80565910534568,22,3
1,X,3102,0.08289591570998768,0.00027783095085127674,-0.0020490573953295,0.0005153302403478826,0.11723252826240149,0.0003929122987408884,0.0016717793951870205,8.922991307638871e-06,0.0016836680438272245,1.703175096897012e-05,0.992938840477616,0.011356837594604353,0.0004912663681511833,3.096188439168485e-06,0,39.22913673145074,22,3
1,X,3123,0.08605161532239824,0.0002634015263061852,-0.0032926253242636064,0.0005167872229619392,0.12169536145304805,0.00037250601085198065,0.0015619133777680595,7.189048520279608e-06,0.0015469178469420025,1.2997827494304177e-05,1.0096938120247954,0.009673341139678654,0.0004764539192851933,2.633655590956865e-06,0,65.186827509076,22,3
1,X,3144,0.08474816174509664,0.0002554744752780801,-0.003526977421732144,0.00046869370075914505,0.11985199972610439,0.0003612954677784108,0.0016314290306684788,8.163186657603698e-06,0.0016485635148149058,1.7185885190816553e-05,0.9896064155293702,0.01144323731821874,0.0004901211060910531,2.8630934083210106e-06,0,54.09906260949328,22,3
2,Y,103,0.08511627563550417,0.00034362243130472796,0.0021570055539466846,0.0005932858143242195,0.12037259138241663,0.00048595550268676346,0.001346056928600767,7.486182455884406e-06,0.0013515597576479333,1.3539308847817343e-05,0.9959285344092054,0.011411193402733501,0.0004061448700821859,2.7911678003518716e-06,0,74.74680775356944,22,3
2,Y,124,0.07509215146753932,0.0002626881556815442,0.0021376404387557332,0.0004595415982417408,0.10619633903316883,0.0003714971524396149,0.0015776652723889692,8.692403288632924e-06,0.0016130395846068294,1.5965969197027444e-05,0.9780697804595524,0.011079767460545275,0.0004199662065872974,2.740866214470359e-06,0,121.53587513118069,22,3
2,Y,145,0.0767982050881423,0.00033416305825769506,0.003254816947904473,0.0005708202409027497,0.10860906320156127,0.00047257792903210305,0.00153266938253679,1.0123853443072758e-05,0.0015466494921455665,1.9268201912041722e-05,0.9909610356581937,0.013973373074259584,0.00041725781901967167,3.300394659225839e-06,0,113.51983522238129,22,3
2,Y,166,0.07524267773339505,0.00027214339524213305,0.003041769305592478,0.0004988510881491445,0.10640921531983538,0.0003848688804616862,0.0016124511262501056,9.958313955151199e-06,0.0016270290146518868,1.9775986625221476e-05,0.9910401792036264,0.013511529262338135,0.0004300864248161608,3.07814969861454e-06,0,87.85760110936218,22,3
2,Y,187,0.07699743153848318,0.000313346082915325,0.0023693896165738852,0.0005716826699239557,0.1088908119496168,0.00044313828017533696,0.001539454440008277,1.0181590562057064e-05,0.0015896662076121534,1.9346303959608406e-05,0.9684136409496307,0.013413553484550473,0.0004201922237053065,3.2630098954389265e-06,0,91.15100859931357,22,3
2,Y,208,0.08240883121457217,0.0003009285329151165,0.0031729695550491975,0.0005693829191058422,0.11654368676296323,0.00042557721255359615,0.001452762224384407,8.649675261163949e-06,0.001482774710910378,1.7728378681125276e-05,0.9797592403585409,0.013086323245147814,0.00042439789898768017,2.9642335591702416e-06,0,106.9068720856508,22,3
2,Y,229,0.07643931080441277,0.0003091713870183366,0.003559198462421582,0.0004899890210644388,0.1081015100380528,0.00043723436861903275,0.001533319453429263,1.0365633919767578e-05,0.001581316827532229,2.4914950201255395e-05,0.9696472122048624,0.016624489875604224,0.0004154840347321328,3.2731174811505506e-06,0,106.81827429452183,22,3
2,Y,250,0.07579731362193647,0.00023359243027894897,0.0019617078312011535,0.0004382146826786935,0.1071935889155895,0.0003303495829681813,0.0016027376604351828,8.306210387651905e-06,0.001627796784019961,1.661602099724854e-05,0.9846054963182241,0.011271694150333928,0.0004306467635853161,2.5966237433335024e-06,0,114.97900541316298,22,3
2,Y,282,0.07666434063145358,0.000256873661524039,0.002045181575479695,0.00044950247575632437,0.10841975027139239,0.0003632742159437319,0.0015327831470989136,8.189988605213069e-06,0.00159552931190528,1.6793626097877485e-05,0.9606737624071356,0.011339797940943558,0.0004165614280377646,2.627199900304184e-06,0,88.63299804941649,22,3
2,Y,303,0.07491399609461,0.00027175592398512543,0.0027267604752594693,0.0004908574069193724,0.10594438928856253,0.0003843209133549963,0.0015943277922966892,8.228115570648247e-06,0.001652378325597102,1.5092308942728556e-05,0.9648684974856253,0.010122331724812585,0.0004233947931281948,2.6708742242954885e-06,0,127.54040388785016,22,3
2,Y,324,0.07669865221723136,0.0003032987983351038,0.00262211812286054,0.0005364484424771255,0.10846827418134586,0.0004289292740569661,0.0015670805053008918,8.76196312347077e-06,0.0016034047039028786,1.5883002159325826e-05,0.9773455831122553,0.011117153363790119,0.0004260729590811471,2.9178905640991585e-06,0,95.37000879872416,22,3
2,Y,345,0.07477157243463634,0.0002625034218519656,0.0031090813535540654,0.0004458731966968315,0.10574297181702497,0.00037123589935239565,0.0016107059177943074,8.83767091823578e-06,0.0016459763412859582,1.8250104571498016e-05,0.9785717311926276,0.012105947829179446,0.00042693100941683767,2.780976164337268e-06,0,123.48284488312949,22,3
2,Y,366,0.07666181269216955,0.0003079834211720807,0.002194771101485364,0.0005694025358761202,0.10841617522537206,0.00043555433120762155,0.0015583914381400242,1.002548967419333e-05,0.0015772340222712927,1.7153819876274744e-05,0.9880533998980479,0.012485155168778517,0.00042350697714240484,3.212131658686822e-06,0,71.34032733659005,22,3
2,Y,387,0.07516132507733322,0.0002770084854016563,0.0019726389918949252,0.00047943430372674893,0.10629416529029767,0.0003917491569474518,0.0016030657924753769,8.736838008719369e-06,0.0016038845197799776,1.9515779355333895e-05,0.9994895347548381,0.013325832381076728,0.00042712078585689005,2.810131160148773e-06,0,99.25496784733865,22,3
2,Y,408,0.07712601092179037,0.00030481702032672493,0.0017649045873944851,0.0005165345523870285,0.1090726506573314,0.0004310763641882098,0.0015387699006606515,8.883067655835107e-06,0.0015708249754422924,1.6677616920494297e-05,0.9795934777694661,0.011838443227603109,0.0004207067539892997,2.943308760105267e-06,0,102.70562288883775,22,3
2,Y,429,0.07459632828969798,0.00027148806022412637,0.002922350017450251,0.00046972718616795423,0.10549513917052666,0.0003839420967913232,0.0016312259026728042,9.31645459914043e-06,0.0016548660809090592,1.9495893628907728e-05,0.9857147484567036,0.01290533482178226,0.00043135664499605004,2.9212952236088007e-06,0,148.34398508270513,22,3
2,Y,464,0.07653148282461239,0.0002746388251747885,0.0011193130404050498,0.0004788859987305939,0.10823186095909043,0.0003883979513163993,0.001525486779807884,7.442850886320102e-06,0.0015466394130330277,1.8099853765609846e-05,0.9863234875259886,0.012505624403067168,0.0004138600523388008,2.506588224766991e-06,0,79.8991607150227,22,3
2,Y,485,0.0757171965315981,0.0002570067020173208,0.0027440214004357064,0.0004504728547256884,0.1070802862398551,0.0003634623636136758,0.001585426733973441,8.044425367476385e-06,0.0016014543905688708,1.6508125849029655e-05,0.9899918120117449,0.01137433161780197,0.0004255451398015947,2.5977968055172336e-06,0,75.1031227765245,22,3
2,Y,506,0.07715581977610639,0.0002972526337126116,0.002526667649413751,0.0005321719617707427,0.10911480674338392,0.0004203787060474973,0.0015547361569326317,1.0113556341263424e-05,0.0015632666109061766,2.219011245491545e-05,0.9945431867385692,0.015529043605262454,0.0004252362901469149,3.2149028969246346e-06,0,85.83736551338063,22,3
2,Y,527,0.07567836040498296,0.0002646303974955197,0.002022657148284177,0.00045047954452251323,0.10702536366288595,0.00037424389715434714,0.001585264830732782,9.48840074764181e-06,0.0016136675206169808,1.8171547144475312e-05,0.9823986728856393,0.012528388410564868,0.00042528343909910136,2.948049935447707e-06,0,95.69167845012059,22,3
2,Y,548,0.07639869726456297,0.00025591244342442637,0.0032397278365812396,0.00046217170964620496,0.10804407381918124,0.0003619148482708612,0.0015677130038124995,8.993565947753504e-06,0.0015927433190256887,2.1432804747485407e-05,0.9842847777704063,0.01439845890152134,0.00042457795985115584,2.8205107781694556e-06,0,96.32541716424318,22,3
2,Y,569,0.07485114588518255,0.00024891019547931527,0.0016457882241766501,0.00043947448926255503,0.10585550566999224,0.0003520121742597859,0.0016162139957959162,8.258947199816224e-06,0.001659597033010071,1.4522990778856447e-05,0.9738592945448513,0.009868764833293363,0.00042884687384787165,2.6145944867732687e-06,0,80.43032206419346,22,3
2,Y,590,0.07643295321614814,0.00029000656955084164,0.00282164447687244,0.00048503476094465713,0.10809251905050499,0.00041013122383609657,0.001574498853606173,9.551463629700207e-06,0.0016070953404601273,1.6132499333096803e-05,0.9797171418314102,0.011491042833411569,0.00042660694463662646,3.052462504591664e-06,0,86.53328918790751,22,3
2,Y,611,0.07575515295732711,0.000279235515556308,0.002044090072080483,0.00047149821297799683,0.10713396473190029,0.00039489865319597417,0.0015846070496416396,8.83075680711538e-06,0.0016271965712643533,1.7564590656617614e-05,0.973826443359808,0.011830100315418434,0.0004255383400310516,2.8432618941311978e-06,0,83.82739989329443,22,3
2,Y,643,0.07728846619202288,0.00025751491208240204,0.002364323695596404,0.0004989042875852674,0.10930239710377321,0.00036418108118024817,0.0015123960689953336,9.509420515183173e-06,0.0015340127984707463,2.225625103663544e-05,0.9859083773636294,0.015589566636366133,0.0004143669995197628,2.9485905611646945e-06,0,73.07353192308177,22,3
2,Y,664,0.07684616033692132,0.0002552051307267711,0.002985876656387976,0.0004911406407266018,0.10867688216477156,0.0003609145570609984,0.0015786035621755843,9.491151023266993e-06,0.0015923313043990153,1.5138586090202967e-05,0.9913788404551827,0.011151806860233706,0.00043003141491750616,2.953710712315736e-06,0,84.67773619199293,22,3
2,Y,685,0.07776748262027673,0.00031585871675574153,0.00250582731012425,0.0005716668316758635,0.10997982863320932,0.00044669168102973167,0.0015147567666529006,9.962437846707879e-06,0.0015310828422542607,1.9385024696039604e-05,0.9893369090484204,0.014115191802113406,0.00041758594614200225,3.2279238976541265e-06,0,88.33649196505327,22,3
2,Y,706,0.07978644345992095,0.00025736083366237865,0.0019036358824282766,0.0005027464508883888,0.11283507043453433,0.0003639631813889821,0.0015196608566284864,7.77427211126834e-06,0.0015575011183052911,1.2776281775300227e-05,0.975704504329359,0.00943267663018498,0.0004298141566287198,2.5994334754299036e-06,0,104.59582005215137,22,3
2,Y,727,0.07598645461082482,0.00026906795784683836,0.0021241540360715638,0.0004823999575862575,0.10746107466727606,0.00038051955518703107,0.0015643307682465216,8.451333874011362e-06,0.00161463685281374,1.5663319914064856e-05,0.968843715861215,0.010757803963449376,0.0004213759076167678,2.72190359239417e-06,0,101.92846444302914,22,3
2,Y,748,0.07472702031930666,0.0002325360292471009,0.0022787020957537396,0.0004157562780250259,0.10567996561129334,0.0003288556063016368,0.0016181265653468632,8.431956479877034e-06,0.001654673813480062,1.2544267033347076e-05,0.9779127173975555,0.00899611270075505,0.0004286423580085461,2.6015875777869537e-06,0,111.7716427900942,22,3
2,Y,769,0.07661699943163915,0.0002845185584909253,0.003430016043658883,0.0004933932529389178,0.1083527997045558,0.00040237000416470936,0.0015343584260438573,1.0491071091909388e-05,0.0015206656375027798,2.29253775782152e-05,1.0090044702815562,0.01670299333938274,0.00041673204215115454,3.2425042880609772e-06,0,87.18426746472797,22,3
2,Y,790,0.07527992648205624,0.00029711085309750915,0.002788458589771031,0.0005102322094970034,0.10646189300537345,0.0004201781979787378,0.0016059379224480062,1.0542722580465463e-05,0.0016326916013773712,1.851757973166656e-05,0.9836137584668194,0.012889934245511055,0.0004285612221920747,3.2827318311278434e-06,0,68.01488149021627,22,3
2,Y,822,0.08244656880081862,0.0003155339956437789,0.002846173157555377,0.0005424677096040903,0.11659705576924417,0.00044623245602920525,0.0013878785013580026,8.157615828478383e-06,0.0013978085954459585,2.0102786065482835e-05,0.9928959557694036,0.015426029483246326,0.00040562897184259663,2.8450471106994708e-06,0,60.15655581525588,22,3
2,Y,843,0.0787858250503112,0.00027208425607854695,0.0030350311814631536,0.0005218885242040137,0.11141998230890404,0.0003847852450544753,0.0015342800811882526,7.64839011051795e-06,0.0015558354855742763,1.1569771023444325e-05,0.9861454475194288,0.008828611344264981,0.0004285067487228537,2.598627075755686e-06,0,42.997695390045614,22,3
2,Y,864,0.07605477634222788,0.00028099190317002533,0.0020032017911469743,0.00046047962648220804,0.10755769618643107,0.00039738256038007735,0.0015562118688358297,9.237293553223459e-06,0.001595655205830914,2.078465653021217e-05,0.9752807894519138,0.013960632246513909,0.0004195658660734952,2.9334603475933036e-06,0,57.029407395115534,22,3
2,Y,885,0.07500391390734974,0.0003032012600412272,0.002280649299437627,0.0005017676572093018,0.10607155227883802,0.0004287913340789151,0.0016074043724085504,1.030904178210763e-05,0.001626229139462692,2.036688985722549e-05,0.9884242837633808,0.013907769992671695,0.0004273798123117011,3.2400406835070472e-06,0,102.33476242323388,22,3
2,Y,906,0.07635641819191365,0.00029611908142453813,0.003380669867553098,0.0005481846525748464,0.10798428218123601,0.00041877562102804466,0.001551967703704705,9.14096771460719e-06,0.0015918275231592335,1.538574216529997e-05,0.9749597121078668,0.011035245628839575,0.00042008111620653354,2.96241967781193e-06,0,82.10353088923587,22,3
2,Y,927,0.0751862648059529,0.0002794662157832489,0.0024658459723071987,0.0004791523883482852,0.10632943539275352,0.00039522491258575654,0.0015927384853033832,9.340645251190082e-06,0.0016248183044001475,2.088221923492863e-05,0.9802563652748806,0.013847915815461737,0.0004245099910197685,2.9474741286449816e-06,0,79.59172294219759,22,3
2,Y,948,0.0768622070008212,0.00030455026771171966,0.0022701141395538977,0.0005453476704848291,0.10869957557448962,0.00043069911902227087,0.0015353741784884583,1.0457420396499266e-05,0.001576985808561446,1.9211060937995924e-05,0.973613186721733,0.013588589344053052,0.0004183425265975562,3.296404727863643e-06,0,64.91183632897084,22,3
2,Y,969,0.07525492291397687,0.0002715592712300296,0.0017358201308285501,0.0004619721464585898,0.1064265326202879,0.0003840428043616617,0.001597095707242998,8.048825601604517e-06,0.001621928929002567,1.3399109890504526e-05,0.9846890814292087,0.009528918700468243,0.0004260600260608735,2.640873367916431e-06,0,103.66343061948893,22,3
2,Y,1018,0.07631257876901189,0.0002556767051750844,0.0028497536901197066,0.0005108514143168676,0.10792228387480174,0.0003615814640414716,0.0015711534301370935,8.949624353899084e-06,0.0016065804529846075,1.7099854386854627e-05,0.9779488025130022,0.011805822337552688,0.00042503007284036906,2.8088004483158463e-06,0,101.33975764036072,22,3
2,Y,1039,0.07428224531039249,0.00028876193557135217,0.0021575673193561466,0.00048179993059471857,0.1050509587614823,0.0004083710455821121,0.0016227211521698446,9.810288970677539e-06,0.0016632362132208353,2.1455129270137286e-05,0.9756408255610706,0.013899010890450234,0.0004273009435511493,3.0712388629406513e-06,0,69.93920002217041,22,3
2,Y,1060,0.0747013178133455,0.00028998089702616186,0.0037113284770204564,0.0004672172713889491,0.1056436167787761,0.000410094917403514,0.00161472920802747,9.8171056023767e-06,0.0016636166628708137,1.680171147817652e-05,0.9706137501899137,0.011441848684046413,0.0004275952738894958,3.084380514038984e-06,0,68.48677256109174,22,3
2,Y,1081,0.07615707800818006,0.00026576866332754664,0.002167792875674118,0.0004734043646048728,0.10770237258987403,0.0003758536481315855,0.0016065285349328641,8.598437070447829e-06,0.0016050558592434593,1.841309113775871e-05,1.0009175230138712,0.012670647093413617,0.0004337142071567263,2.7711652561575693e-06,0,88.77625969961515,22,3
2,Y,1102,0.07564192201681035,0.00027710954670588883,0.0027931319471820905,0.0004822761676274541,0.10697383200014121,0.0003918920792145286,0.0015871716280385795,9.73070507069749e-06,0.0016024370279816734,1.960296324701024e-05,0.990473635046788,0.01355317319086065,0.00042558996484991235,3.0395603672481764e-06,0,63.78479666399443,22,3
2,Y,1123,0.07366378137614002,0.0002604676064271697,0.00251703136245551,0.0005012280770326549,0.10417631867782384,0.00036835682156816096,0.0016514489775700863,9.493322248277162e-06,0.001682401206349833,1.66573786885943e-05,0.9816023498658198,0.011238122563283139,0.000431245028214086,2.910427989579148e-06,0,83.12308857806661,22,3
2,Y,1144,0.07574877694348306,0.00028906958272759245,0.0021631370636086807,0.0005173644322444299,0.10712494768664815,0.00040880612436289265,0.0015785948949665091,1.0455951817066535e-05,0.0016274576000359809,2.181004188408557e-05,0.9699760503324993,0.014499976619092329,0.00042388812579988904,3.2403168709449175e-06,0,74.45059136612733,22,3
2,Y,1165,0.07476910731549855,0.0002649471411943819,0.0025008249622491935,0.0005068609946120394,0.10573948561210744,0.0003746918403890742,0.0015915689134891058,9.065069351327727e-06,0.0016229886034984785,1.4931114375031147e-05,0.9806408437239515,0.010610718318508173,0.00042184467903280773,2.8297397791511786e-06,0,116.63729959649864,22,3
2,Y,1197,0.07595528549931072,0.0002524890441218575,0.0016933341225341255,0.00047818924883106595,0.1074169948870457,0.00035707343054774965,0.0015751327702361398,9.052243726706881e-06,0.0016156935350918865,1.6202881658746093e-05,0.9748957559247522,0.011268261847930318,0.00042411154956206016,2.815725691339709e-06,0,81.52146152620878,22,3
2,Y,1218,0.07401621986346939,0.0002463525936552842,0.0025860427275288516,0.00046404658507992534,0.10467474196650728,0.00034839517907309103,0.001636615642724897,7.827075631086317e-06,0.001689666723622712,1.6204969736426924e-05,0.9686026361553294,0.010380432680129566,0.0004294163053567456,2.5020661576924673e-06,0,91.01344290258191,22,3
2,Y,1239,0.07528741769546299,0.00027467939934670404,0.0018684265735563563,0.0005217765307019957,0.10647248718097191,0.0003884553318606043,0.0015849276306621422,9.575419955115392e-06,0.0016225756271987608,1.7283124191526367e-05,0.9767973856469083,0.011961608653265034,0.0004229964963067802,2.9853853381687148e-06,0,56.642905162991376,22,3
2,Y,1260,0.0750493955464711,0.00027737138998562604,0.002980318223175454,0.0004913131475289558,0.10613587302972238,0.00039226238153194926,0.0016306200595190851,8.67096358473879e-06,0.0016637054063699417,1.553846006935996e-05,0.9801134583537563,0.010533651512795722,0.00043381534647741094,2.8093033701590182e-06,0,88.04557304563069,22,3
2,Y,1281,0.07530718780442178,0.00027499656042167435,0.0036695719303321216,0.000527748639347339,0.10650044633719102,0.00038890386535428423,0.0016097328726190445,8.381758182635997e-06,0.0016263863940526825,1.5150546171500942e-05,0.9897604151789907,0.010562647956916449,0.0004297295068476307,2.7329823056806744e-06,0,74.42725091205041,22,3
2,Y,1302,0.072938435684578,0.00023047629311081868,0.002295096951899424,0.0004605143448801499,0.10315052496340793,0.00032594269952279653,0.001688382735642505,8.11339141071372e-06,0.0017043556717482697,2.0513579238623525e-05,0.9906281673652189,0.01283835497735963,0.00043654827797503544,2.510698636149041e-06,0,71.17649189261272,22,3
2,Y,1323,0.07538905182898435,0.00032098600652807424,0.0032923100959034476,0.0005547917463856809,0.10661621955099787,0.00045394276376398146,0.0015680834018581855,9.986390085695049e-06,0.001590714626045728,1.9508511859567735e-05,0.9857729200341859,0.013622358572159458,0.0004190659462781461,3.2103418127922088e-06,0,85.9955334318892,22,3
2,Y,1344,0.07511916834029014,0.0002839105841816646,0.0020460120255289932,0.0005035447177699765,0.10623454666102594,0.00040151019865097837,0.0015904991282330336,8.272308711738965e-06,0.0016275852964334242,1.4176877510812077e-05,0.9772139940796598,0.009913874654818711,0.0004235348373769071,2.723022412384295e-06,0,150.350479103326,22,3
2,Y,1376,0.07711166952921045,0.00027859624829752386,0.0026645747408181298,0.00046578238503984114,0.10905236886544156,0.0003939945927686206,0.001534296749361002,8.197512663397351e-06,0.0016025009434419122,1.9066853695487037e-05,0.9574389055057785,0.012487618186776206,0.0004194057719126705,2.7050538419378255e-06,0,59.62653595400937,22,3
2,Y,1397,0.07828255390906196,0.0002832855176262819,0.003425138424519226,0.0005378258268397575,0.11070824943539836,0.00040062622105097034,0.0015075596761637273,7.572086595855298e-06,0.0015201611947924692,1.105114350429891e-05,0.991710406322757,0.00876285785633696,0.00041835448601622554,2.5898595687678932e-06,0,70.23606428357964,22,3
2,Y,1418,0.07584033529092833,0.000276545411586017,0.001507007413227883,0.00046343323386221965,0.10725443074335372,0.00039109427167699495,0.0015713324357491795,9.314233182532361e-06,0.0015976813054137929,2.115051075469147e-05,0.9835080565971891,0.014265540454852071,0.0004224479935675437,2.939971391354826e-06,0,97.18110724786236,22,3
2,Y,1439,0.08827666328259129,0.00032787611216527615,0.0023970059757385145,0.0006047911650735125,0.12484205445528362,0.0004636868446022957,0.001326214138413096,6.84638240070576e-06,0.0013475706502189466,1.2140586109744957e-05,0.9841518425750956,0.010218901792572805,0.00041501566973681985,2.639351386369417e-06,0,78.47076149824393,22,3
2,Y,1460,0.07615832478665209,0.00028419541116624146,0.0031340648493700615,0.000522361997400462,0.10770413580089844,0.00040191300483549686,0.0015442319661796455,8.969086084853242e-06,0.0015798895898877449,1.6865001716589936e-05,0.9774303065629839,0.011878315036786128,0.00041690283924316696,2.8781216714086455e-06,0,106.405943541268,22,3
2,Y,1481,0.07488839997689034,0.00026489648085625936,0.0025372015170391864,0.00045867417632037183,0.10590819091173931,0.00037462019585182693,0.0016015716711127133,9.236932411740031e-06,0.0016365335745865627,1.7951075784020753e-05,0.9786366109337649,0.012128038142373723,0.000425173180772818,2.8766038630472855e-06,0,89.5008130034293,22,3
2,Y,1502,0.07628172609005575,0.00029956747383470524,0.002167102916297217,0.00046384950510780634,0.10787865159778642,0.00042365238434288743,0.0015484330367474583,8.882346946217392e-06,0.0015855772966340555,1.8244566463763368e-05,0.9765736681740783,0.012555979083301728,0.00041871437623932923,2.9108308437496334e-06,0,144.00100986498776,22,3
2,Y,1523,0.08748966904726586,0.0003074004805580932,0.001798228171135965,0.0005653522832808635,0.12372907653417697,0.0004347299286852624,0.00132927642065261,8.309444741237205e-06,0.0013602925804365221,1.4351701095851966e-05,0.9771989054193335,0.011983675385894347,0.00041226551324794847,2.9563037548048882e-06,0,95.01829690959698,22,3
2,Y,1555,0.08929549222776008,0.0003392512023313713,0.003313914002561931,0.0005691970097713041,0.1262828961672796,0.00047977365138840433,0.0012860684490380405,7.227960852560268e-06,0.001325021159837479,1.680528649066456e-05,0.9706021971722956,0.013464668385720899,0.0004070976088331949,2.76168668349645e-06,0,55.45939651653044,22,3
2,Y,1576,0.0844963954409933,0.0002851509990149795,0.002542556601980726,0.0005010317264494035,0.1194959484042929,0.00040326441013122105,0.0013878483864562994,8.601120971831888e-06,0.0014085707101819532,1.8835566450443485e-05,0.9852884036450134,0.014521619836677872,0.0004157048959916847,2.9335062873269848e-06,0,79.54400494823228,22,3
2,Y,1597,0.09031304040793836,0.00033380846150846594,0.003294821246970643,0.0006263688259215231,0.1277219266040558,0.0004720764535001698,0.001272156270214788,7.6118974505537814e-06,0.0012773333263086484,1.281791197774193e-05,0.995946981115085,0.011636012211768427,0.0004072826014073163,2.8644205939969973e-06,0,36.82630537999731,22,3
2,Y,1618,0.08551572023423257,0.00028202751957677436,0.0035746771241010277,0.0005402456632199607,0.12093749135135501,0.0003988471431479179,0.0013813835523930514,7.868605801075294e-06,0.0014140534023502106,1.5094106552336681e-05,0.9768963110566682,0.011819568140424572,0.00041875998014633784,2.756286482195186e-06,0,55.0892047408959,22,3
2,Y,1639,0.07698441316606791,0.0002706905413602646,0.0027274307222272033,0.000479209208333462,0.10887240119078712,0.0003828142347978014,0.0015539784288253011,8.971000479310205e-06,0.0015858733459494785,1.7130426103429695e-05,0.9798881056891201,0.012001427021485168,0.0004240848144113872,2.8665791716094315e-06,0,85.25495101181795,22,3
2,Y,1660,0.0765667593631804,0.00026575545333717824,0.003318249120641205,0.00044634734361047117,0.10828174951836689,0.0003758349663840477,0.0015736221485029569,8.63623005652879e-06,0.0016082843025416328,1.947631332973431e-05,0.9784477446034274,0.013008993079682285,0.000427115820236685,2.7735119523946538e-06,0,77.96722286212385,22,3
2,Y,1681,0.07674744293420938,0.0002813339575887228,0.0012315047437916518,0.00048601978235060956,0.10853727467501406,0.00039786629837806897,0.0015490782535384016,9.615203580830372e-06,0.0015606210783694944,2.3707809963523188e-05,0.9926036979821184,0.016289047440906316,0.00042144625966494766,3.0380659568456086e-06,0,93.07157708151645,22,3
2,Y,1702,0.07395110355975001,0.00022938198524469393,0.002674918006131914,0.00044117381673971834,0.10458265360665575,0.00032439511449711134,0.0016383175373024194,8.53559371283695e-06,0.0016467894005731064,1.5157088539665021e-05,0.9948555272047909,0.010521879719448261,0.00042948467464766846,2.6041452752481597e-06,0,113.92645472430756,22,3
2,Y,1734,0.07685133840348417,0.00029143845738382,0.002517000812206662,0.0004635792605984574,0.1086842050567316,0.00041215621902929156,0.0015225697374830968,8.356001425737034e-06,0.0015685561689027987,1.6696798173143706e-05,0.9706823177063086,0.011625055465836502,0.0004147950460283994,2.7670343683609797e-06,0,75.95486618377355,22,3
2,Y,1755,0.08796666044399294,0.0003605157432600824,0.0013324322873085163,0.0005955544634960846,0.12440364423656369,0.0005098462535674253,0.0013166051110810556,7.1961954185588934e-06,0.0013454757443770709,1.6430940797930974e-05,0.9785424349590324,0.01309225711459259,0.000410561832839969,2.8047818441640576e-06,0,55.7102598924406,22,3
2,Y,1776,0.07618398909493444,0.0002691970440069172,0.002380901711533697,0.0005002594073538303,0.10774043061374028,0.0003807021105853292,0.001549608671487199,9.490282577045172e-06,0.0015534321288743736,1.799974856353641e-05,0.9975387032905357,0.013073759075723043,0.00041849539081397706,2.9589982915209196e-06,0,62.00769430748422,22,3
2,Y,1797,0.07478559786200613,0.00026596306584948583,0.0012484874438031532,0.0005011110722180859,0.10576280676662941,0.00037612857481467143,0.0016122676837585113,9.465061949285081e-06,0.0016091430753554848,1.49169278006066e-05,1.001941784078048,0.010993973808960101,0.0004274251285721087,2.933771795632683e-06,0,98.29979910315309,22,3
2,Y,1818,0.08748936713142755,0.0003122723771516397,0.002481378492656356,0.000581958003109022,0.12372864956070373,0.00044161983092233514,0.001333830342016483,7.07429408739941e-06,0.0013345111501051115,1.0834944968227269e-05,0.999489844585731,0.009692910712305472,0.00041367645162785895,2.644596999004333e-06,0,104.82304919236488,22,3
2,Y,1839,0.09375618155303381,0.0003161047715024804,0.003989422057982585,0.0005927785990248734,0.1325912635086146,0.00044703965498965603,0.0012245375791837669,6.939430965141439e-06,0.0012328073001407012,1.5518631770974205e-05,0.9932919597766897,0.013712232987190435,0.0004069836485478032,2.683689225835296e-06,0,81.18771411138768,22,3
2,Y,1860,0.07722821419941692,0.00027040419746991474,0.00274889483296542,0.0004925154065302354,0.10921718791866986,0.00038240928338456603,0.001536349493547823,8.582479395367038e-06,0.0015588886937018594,1.599418420268123e-05,0.9855414948834397,0.011513299292581903,0.00042060162481831356,2.772976809780805e-06,0,74.48425187746152,22,3
2,Y,1881,0.07672469357073348,0.00028617562668453516,0.0026294069018808,0.0005069985959071872,0.1085051022166511,0.0004047134524778895,0.0015624856224368028,8.592248119298638e-06,0.0015827775856229746,1.5110123162799093e-05,0.9871795232820504,0.010875891634933969,0.0004249678976215732,2.8237879882117515e-06,0,90.16138645600324,22,3
2,Y,1916,0.0764256581148801,0.00026363039832335503,0.004066144467804332,0.0004506134220282065,0.10808220221935283,0.00037282968476270995,0.00154302032841024,7.651626547619768e-06,0.0015551372593675208,1.5017802476804552e-05,0.9922084492000347,0.01077110752288214,0.0004180380053876306,2.525218824563919e-06,0,114.77869367858199,22,3
2,Y,1937,0.08833154472755432,0.0003178495356612775,0.0015328287098484107,0.0005538502815393005,0.12491966853907299,0.00044950712412616944,0.0013151872188942762,8.009507271981798e-06,0.0013515948467601206,1.4832441280614293e-05,0.9730632090281224,0.012212527669916581,0.00041182085610424606,2.9130765149304943e-06,0,67.3635836665366,22,3
2,Y,1958,0.07608921399351529,0.00030645343454223665,0.002986505492293891,0.0005149748759461652,0.10760639837993802,0.00043339060336544666,0.001534268332346503,1.0098269750238785e-05,0.001574986017583672,2.0975596672232854e-05,0.9741472719233167,0.014471523243996543,0.00041383703232977266,3.1932958153966708e-06,0,116.22574301151585,22,3
2,Y,1979,0.07429181403902525,0.0002610460610138066,0.002329118138663441,0.00043332842516206253,0.10506449098728943,0.0003691748798897998,0.001598591651825455,9.234378236691831e-06,0.0016170047214174874,1.5939320920184518e-05,0.9886128535383055,0.01129510772758085,0.00042100129880083895,2.8465265725076654e-06,0,114.68837431307823,22,3
2,Y,2000,0.07639648467623161,0.00027257287575283446,0.0034870441270072974,0.0004937278079286298,0.10804094474675507,0.00038547625762469506,0.0015564008143517608,8.35025488792678e-06,0.0015783321847877606,1.60403618152603e-05,0.986104718228914,0.011332398042763554,0.00042150211358389606,2.7157976680878753e-06,0,91.95565838186803,22,3
2,Y,2021,0.0750678929015072,0.00025520290231868467,0.003031273176460859,0.00043894542670747664,0.10616203224008247,0.00036091140561606005,0.0015886908444082304,8.904742108442782e-06,0.0016079195288788385,1.5395064419366408e-05,0.9880412644257044,0.010961847182333227,0.00042276453745107914,2.771427485999705e-06,0,88.93074582078043,22,3
2,Y,2042,0.07705209794567287,0.00027283304547278634,0.002646139401288368,0.0004962911376475159,0.10896812192407068,0.0003858441931711698,0.001523803579018088,8.411932852083545e-06,0.001558779549634887,1.5591030359999264e-05,0.9775619518327711,0.011168011076618039,0.00041621563405035866,2.729695500531742e-06,0,110.74862876165415,22,3
2,Y,2063,0.07487883167244866,0.00028085341939169386,0.002683092623091613,0.0004895717853281238,0.10589465928582897,0.00039718671474259226,0.001593174955027019,1.056797222760063e-05,0.0016003462133594114,1.743264443025408e-05,0.9955189331705052,0.012696626180754195,0.00042289004533573174,3.222540512897303e-06,0,130.0390469501735,22,3
2,Y,2095,0.07625657945193404,0.00031170969126066803,0.00320771382516099,0.0005252393702173814,0.10784308888110661,0.00044082407290396697,0.0015462981777223303,9.729666787191831e-06,0.0015744365000310927,1.771225165862811e-05,0.9821280043315772,0.012659641826438587,0.00041799924452480666,3.13641548946161e-06,0,92.96708586053362,22,3
2,Y,2116,0.07439012843291118,0.0002549568623606467,0.0026764194524291794,0.0004494403846416189,0.10520352853649939,0.00036056345257051703,0.0015862263231329122,1.028947392417148e-05,0.0016283233132133711,1.8697105487905013e-05,0.9741470322638913,0.012847084469178004,0.00041829761960337087,3.0688463495553627e-06,0,110.09931617213266,22,3
2,Y,2137,0.0761590602112621,0.0002588736759311993,0.003112225342806341,0.00047624874577827114,0.10770517584835604,0.0003661026634432796,0.0015442286521603495,8.539461058441677e-06,0.0015681840915336798,1.9700208845272928e-05,0.9847240897910768,0.013516024530745574,0.0004169059703665417,2.7061669160625164e-06,0,120.51896655161445,22,3
2,Y,2158,0.0752101146610974,0.00027396928284329115,0.002343730415645478,0.0004879696912120037,0.10636316418135949,0.00038745107547061286,0.0015687344537957293,8.796081810053845e-06,0.0016034941473012938,1.5343647011353164e-05,0.9783225317260649,0.010850267408164983,0.0004182448651422288,2.7965913962563454e-06,0,85.41067259311839,22,3
2,Y,2179,0.07603350111288454,0.0002682080435333974,0.0017104305633345953,0.0004820630689939631,0.10752760846855114,0.0003793034527024841,0.0015480847414335375,7.66218833977021e-06,0.0016042881564136376,1.8097291534034736e-05,0.9649667581503923,0.011887064291578101,0.00041725797973958203,2.53603720034378e-06,0,96.446961250849,22,3
2,Y,2200,0.07554525850101634,0.00030191782615259015,0.003103149190038907,0.0005193394800944049,0.10683712914511867,0.0004269762844671954,0.001593123512960741,9.719766667793869e-06,0.0016169212443029506,1.845831873762388e-05,0.9852820714514957,0.012753286662395627,0.00042664002002255707,3.111702437644003e-06,0,123.22625007038975,22,3
2,Y,2221,0.07584108005861612,0.0002528020480316231,0.0022964056111545216,0.00045789706507851015,0.1072554840039186,0.00035751608492201603,0.0015568586978888673,8.325377502355053e-06,0.001580484924805245,1.3231012929126942e-05,0.9850512798030712,0.0097851898273297,0.00041856088304242136,2.63750654303878e-06,0,115.01623282107445,22,3
2,Y,2242,0.07447886472092176,0.00026270637347042643,0.0023698125385620992,0.00046094240727388556,0.1053290205984786,0.0003715229162837286,0.001603548723491396,9.814020106083542e-06,0.0016570741428478368,1.9601577396979635e-05,0.9676988385900148,0.012888303503742739,0.00042337005833860153,2.990631454326959e-06,0,75.27282308013328,22,3
2,Y,2274,0.07673234308839993,0.0002544589308110519,0.0015792601107471067,0.00048513050330950736,0.10851592026828061,0.00035985927101994664,0.0015574445431939246,8.989404533132378e-06,0.00157164436221377,1.8182316550843433e-05,0.9909649922328204,0.012812068824561458,0.0004236390479881903,2.8200447654375736e-06,0,89.904358058491,22,3
2,Y,2295,0.07563485337672979,0.00024216352628889096,0.0037881553930893736,0.00047048433054607805,0.10696383543347177,0.00034247094318984317,0.0015951467641426163,7.683363939933466e-06,0.0016064856567611005,1.0631695123918792e-05,0.9929418027663285,0.008127483392879909,0.0004276884761381964,2.4736480627642693e-06,0,80.0768656768881,22,3
2,Y,2316,0.07523868821404485,0.0002634095811680214,0.0017241837054987165,0.00047689292249246764,0.10640357328746297,0.0003725174021468325,0.0015811457111543413,8.471451720583625e-06,0.0016155433431046576,1.3134091999420326e-05,0.9787083199611265,0.009529225924583596,0.00042171402185218104,2.6990636228102244e-06,0,105.7371041123622,22,3
2,Y,2337,0.07948303722457498,0.00028060934434293803,0.0034607753694650793,0.0005155402409188284,0.1124059892215995,0.0003968415404984049,0.0014937684958260778,8.43700613794566e-06,0.001524275510408885,1.4340872003772173e-05,0.9799858920684072,0.01075388478450745,0.0004208842574229893,2.8033978204412024e-06,0,61.683324518255034,22,3
2,Y,2358,0.08712729912707848,0.00029255009516959766,0.0031748144738119027,0.0005548629674452568,0.12321660807845192,0.0004137283122623847,0.0013458969332820793,6.3020480489606105e-06,0.0013514165147707302,1.2244162013298598e-05,0.9959157066468236,0.010157022672625736,0.0004156913495740191,2.3951677047066636e-06,0,75.88690773915265,22,3
2,Y,2379,0.07623891019612113,0.0002664461956472112,0.00235014786369303,0.0004749592540923876,0.10781810077989895,0.00037681182352700127,0.001580502953068937,9.144924686383711e-06,0.0016088080584015906,1.7712541283351964e-05,0.9824061638771404,0.01221873651204582,0.00042714656993849824,2.8873654815137095e-06,0,88.58353302483968,22,3
2,Y,2400,0.07573892362294819,0.00028988561551841904,0.0021678676009977624,0.0005250694868261315,0.10711101298711334,0.0004099601690030208,0.0015474145192084176,9.611990313642637e-06,0.001593033609387769,1.6638066977014256e-05,0.9713633849841475,0.011803853177135925,0.00041546144594300897,3.031268269612745e-06,0,130.8448353031689,22,3
2,Y,2421,0.07432934570759393,0.0002732182658087405,0.002342054311753543,0.00047809427993357874,0.10511756878199774,0.00038638897699477814,0.001628366167115645,9.721931721561688e-06,0.001665710090781567,1.8373783078953124e-05,0.9775807783883929,0.012261503433571795,0.0004290592924916817,3.008208957015327e-06,0,81.73628852411397,22,3
2,Y,2453,0.07715139462671185,0.0002742056145550031,0.0024755872696121364,0.0004506886395619569,0.10910854863709463,0.0003877852989825348,0.0015401232499513654,8.99322373524908e-06,0.0015838691499894038,1.671483283786961e-05,0.9723803572799362,0.011727833680703402,0.0004212153506400705,2.879372339536624e-06,0,121.22509383201646,22,3
2,Y,2474,0.07379995465053012,0.0002801115175518747,0.002133419045706025,0.0004949553386343751,0.10436889676929906,0.0003961375070987705,0.0016418703602117846,9.933323347771179e-06,0.0016845945115812379,1.5925387914492677e-05,0.9746383173661474,0.010939074317838625,0.0004295363177878406,3.0677665015454795e-06,0,115.61028611440732,22,3
2,Y,2495,0.07595337986984238,0.0002438826142405527,0.0036224501272535334,0.000436494598503914,0.10741429992000673,0.00034490210068599536,0.001527891996198361,9.69021912281098e-06,0.0015417691676525103,1.789585144572156e-05,0.9909991899271935,0.013107972095568144,0.00041138143833711123,2.924395364672973e-06,0,92.72832705625451,22,3
2,Y,2516,0.07344459695002963,0.00025122299645383747,0.002131989459581933,0.00044112602314997496,0.10386634508975756,0.00035528296876502496,0.0016413192190082625,8.64082971742181e-06,0.0016656888274501265,1.7934617226393102e-05,0.9853696512576304,0.011809884588587435,0.0004273245448750669,2.6828355146752477e-06,0,120.07550526339082,22,3
2,Y,2537,0.07611478567418324,0.0002640268613061634,0.0015095307015002778,0.0005190427335308871,0.1076425621975513,0.0003733903680899764,0.0015543830814190324,8.799837887906235e-06,0.0015748046382161836,1.526721807212847e-05,0.9870323236917291,0.011081041057523342,0.0004194034719812284,2.7846289193036685e-06,0,87.37360739021776,22,3
2,Y,2558,0.07406608527656809,0.00024358928431919108,0.0023347179844706543,0.0004451830203704334,0.1047452623100048,0.00034448726953295594,0.001631560957579099,7.910335023950282e-06,0.0016481426995325625,2.0118750982083197e-05,0.9899391345432853,0.013002359977507582,0.0004283784619279265,2.5096730645502055e-06,0,136.0107198806873,22,3
2,Y,2579,0.07643128735892041,0.0002800820817302816,0.0025715712237593708,0.0004788852467868299,0.10809016317262055,0.00039609587856065387,0.0015392650427675932,9.698204004467286e-06,0.001582435664997273,1.614443748952575e-05,0.9727188768652063,0.011663834802072563,0.00041705133251667846,3.0397679441853506e-06,0,146.3792799853575,22,3
2,Y,2600,0.07482213272485294,0.0002931526644088778,0.0019441395217526757,0.000520576569066162,0.10581447486516682,0.0004145804738528436,0.0015998301862523935,1.0493472772067337e-05,0.0016766640372441396,2.1308151588239885e-05,0.9541745696901601,0.013646098367800804,0.00042433504631646734,3.242005497459688e-06,0,144.10247541754677,22,3
2,Y,2632,0.077349548139036,0.0002735144156872046,0.001955195494101092,0.0004950970553443599,0.10938878002165531,0.0003868077961693972,0.0015160755678578174,8.112838738874934e-06,0.00156217503675564,1.7337931838530864e-05,0.9704902025617033,0.01195768499716243,0.0004157033860179673,2.666319406487815e-06,0,113.88947451896183,22,3
2,Y,2653,0.07450695802803989,0.00027951654705687994,0.003011902319612481,0.0005145870474718709,0.10536875053441697,0.00039529609175553704,0.0015996666978038588,8.862374403666321e-06,0.0016288507040186431,1.6408106372750065e-05,0.9820830686675074,0.011290412115974065,0.0004225044310908893,2.826906844940267e-06,0,89.29411631480326,22,3
2,Y,2674,0.08004099297146809,0.00027571970658719664,0.002675208125276951,0.0005299400095668038,0.11319505780605976,0.0003899265484691439,0.0014375197742415304,7.552288393643086e-06,0.0014469668328664757,1.3098807422786589e-05,0.9934711298072877,0.010398316688771805,0.0004078788885923249,2.5624232532786812e-06,0,53.01308492636166,22,3
2,Y,2695,0.07420249591025045,0.0002628732170555686,0.0026370670375259267,0.00047323103408251525,0.10493817607821032,0.0003717588687446316,0.0016495812321055058,8.678767718616163e-06,0.001694590698824536,1.3116641650929768e-05,0.9734393285940662,0.00911049888376042,0.0004339074956302301,2.752167956629655e-06,0,83.89497506932895,22,3
2,Y,2716,0.08059718415166152,0.0002847310807659587,0.002876321317255457,0.0005046403412558778,0.1139816309163616,0.0004026705560483679,0.001414396399630276,8.7755013521703e-06,0.001428000158600862,1.9471423429299216e-05,0.9904735592019017,0.014837949445189205,0.0004041065996561387,2.885196636095731e-06,0,48.174375967420126,22,3
2,Y,2737,0.07470120372340522,0.0002760682441910483,0.0020737075557952433,0.000483965264159455,0.10564345543123521,0.000390419455075508,0.0016344822860656339,9.291067342582495e-06,0.0016628997386772375,1.9219042246946288e-05,0.9829109043975145,0.012659702197582737,0.0004328254111531321,2.9346143994568824e-06,0,101.89619143375691,22,3
2,Y,2758,0.07620019722171889,0.00030135372359506215,0.0023024354559649856,0.0005150937359560279,0.10776335236645951,0.0004261785229797699,0.0015259454131813564,9.936617612140911e-06,0.0015552160713073807,1.9216127057019806e-05,0.9811790408638087,0.013703950225016684,0.00041219244319548587,3.1403384400209267e-06,0,116.42597420239638,22,3
2,Y,2779,0.0741851674652551,0.0002661432217718659,0.0024419329756026555,0.0004928011928160637,0.10491366995628304,0.0003763833537634431,0.0016166414245773477,8.946626873139973e-06,0.0016597439975458755,1.3573505742960191e-05,0.9740305896377635,0.009618123148946835,0.00042514366911698735,2.8039056502167997e-06,0,96.2677573971301,22,3
2,Y,2818,0.07620058906517783,0.00028593295836973456,0.002628640615776229,0.0005321681476454387,0.10776390651679346,0.0004043702676559402,0.0015540984639644177,9.019034943902086e-06,0.0015819086924577744,1.4127940461081238e-05,0.9824198269938396,0.010463628581812684,0.00041979937904809846,2.901162934563209e-06,0,67.26603373903659,22,3
2,Y,2839,0.07558341325553157,0.00027024571372509694,0.0028652403608186113,0.0005031391326358495,0.10689108811642312,0.000382185153523229,0.0016163943215727556,8.111796091215025e-06,0.0016224027060669213,1.6717607380061593e-05,0.9962966133675089,0.011418879136669004,0.0004330905906595377,2.668653125091126e-06,0,91.96743662064915,22,3
2,Y,2860,0.07688987621421253,0.00029197795111623423,0.0017636759394875907,0.0005455779857021945,0.10873870575132782,0.00041291917838248704,0.0015566174649646982,8.980942714676584e-06,0.001589047154158043,1.813513850485197e-05,0.9795917389182024,0.01252708067810035,0.00042428335327068605,2.930545071767978e-06,0,89.50498927601431,22,3
2,Y,2881,0.07467666092555757,0.00026837017821577946,0.002137492424760133,0.0005106055756851235,0.10560874667366049,0.0003795327457692399,0.0016285750221269877,8.952930397367815e-06,0.001675769892097901,1.644369053450985e-05,0.9718369030297889,0.0109308498374482,0.0004311194260427714,2.8315242925907796e-06,0,92.4900561176514,22,3
2,Y,2902,0.07658817840167728,0.00028142016872767755,0.0024952887767858336,0.0005217383974580925,0.10831204061310218,0.0003979882193400064,0.0015723104141807482,9.196851978892885e-06,0.001607447644409124,1.9333048628603022e-05,0.9781409799873813,0.013081760574535646,0.0004268791697530416,2.9487277031788832e-06,0,140.09346069657758,22,3
2,Y,2923,0.07409770561949822,0.0002710764321276612,0.003014124513775907,0.0004591496591951252,0.10478998022782349,0.00038335996675464834,0.0016528624563860318,8.725899039885394e-06,0.001682421579129542,1.6528428376376104e-05,0.9824306088853166,0.010956869307455725,0.00043415660017213356,2.7885656436767737e-06,0,91.15468515472767,22,3
2,Y,2944,0.07612555296673848,0.00029899097138190065,0.0025454423054706464,0.0005140078739803588,0.10765778944871296,0.0004228370867553899,0.0015493042793535824,8.435990404178767e-06,0.0015932618673223538,1.4281218775802009e-05,0.972410318184137,0.010198388831295532,0.0004180922456521832,2.8069622837560418e-06,0,92.16971812515014,22,3
2,Y,2965,0.07449855633296834,0.00026260649814043913,0.0016660661816228898,0.00046247778621162357,0.10535686874329986,0.000371381671237514,0.0015985963708671743,8.242742821876324e-06,0.001641955932989466,1.575298073080093e-05,0.9735927370210551,0.010604220472613418,0.00042217412466157727,2.6368931440984653e-06,0,127.61493390710758,22,3
2,Y,2997,0.07865195669685122,0.0002745488880191958,0.0019868572862267887,0.0005044042353738604,0.1112306638678684,0.00038827076097119884,0.001516014349385594,9.493462282751457e-06,0.0015235912650694299,2.0899932484194997e-05,0.9950269367792086,0.015004306397675995,0.00042268591422722665,3.030365828809607e-06,0,78.98721023272788,22,3
2,Y,3018,0.07698855297017819,0.00026170320332284994,0.0025255339673381436,0.0005014159356952269,0.10887825575790544,0.0003701042194556581,0.0015865650658652482,6.89270950567164e-06,0.0015940126710013974,9.453522317002637e-06,0.995327762901991,0.007317287473619257,0.0004330010768575689,2.3885376508055094e-06,0,79.22563814719418,22,3
2,Y,3039,0.07602884318734038,0.00029671525481760844,0.0023517440990259877,0.0005239934568958079,0.10752102116707407,0.0004196187375260507,0.0015655073146145545,1.0394549183303116e-05,0.0015892601405792285,1.913388473536198e-05,0.9850541611419155,0.013543524309311555,0.00042192806674315166,3.249581717794514e-06,0,51.209753830152124,22,3
2,Y,3060,0.0747416771435895,0.0002550298783261955,0.0016255536614807418,0.00045003434690173074,0.10570069349097544,0.000360666712739266,0.0016114786910176543,8.312808876431592e-06,0.0016525410858443327,1.2444235032516617e-05,0.9751519673680619,0.00890097814155088,0.0004269650612492054,2.640732150569802e-06,0,104.48649417485994,22,3
2,Y,3081,0.07601125352152274,0.0002800007315241771,0.0029404543942325926,0.0004997308341427294,0.10749614562311716,0.0003959808319958791,0.001582750190498045,8.557460688072545e-06,0.0016300994998628513,1.2588229964956181e-05,0.9709531170527995,0.009153128467044257,0.0004264765940365925,2.7901446870148754e-06,0,109.2863938681055,22,3
2,Y,3102,0.07395665394962596,0.00024852589369121574,0.0016437702124754115,0.0004616266100524801,0.10459050304329476,0.00035146868945901133,0.001652980776425808,1.006295463339389e-05,0.0016926532683212128,2.191574957959866e-05,0.9765619500237327,0.013972020556512794,0.00043336116380872407,3.013444084069967e-06,0,112.10777159213228,22,3
2,Y,3123,0.07712872787171632,0.0002549149321595381,0.0026795844362448606,0.00047506102152726406,0.10907649300476496,0.00036050415431143623,0.0015456804421805992,8.765150501426136e-06,0.0015971516155714608,1.6143936210926804e-05,0.9677731450858877,0.011216487846787334,0.00042261101472991096,2.773844709778086e-06,0,125.89522659432309,22,3
2,Y,3144,0.07409268214326777,0.00026378003860227776,0.002733110654122748,0.00046384125667989635,0.10478287595960811,0.00037304130807463975,0.001615760983527848,9.770300104839906e-06,0.001653580259343668,1.671083598800124e-05,0.9771288538296707,0.01150744579195514,0.00042438240074983263,2.977919838013283e-06,0,144.24140169547331,22,3
