[
    [
        "XscanNumber_YscanNumber",
        "Type",
        "BCID",
        "xsec",
        "xsecErr",
        "SBIL",
        "SBILErr"
    ],
    [
        "1_2",
        "XY",
        "103",
        3291.9408859023397,
        16.07951770810493,
        0.0649510568851243,
        0.00036221537346914985
    ],
    [
        "1_2",
        "XY",
        "124",
        3254.7760112504398,
        19.28735189089091,
        0.08112360463402885,
        0.0005508914558524945
    ],
    [
        "1_2",
        "XY",
        "145",
        3266.179441672265,
        22.48982528110137,
        0.06533571141467168,
        0.0005185875457323985
    ],
    [
        "1_2",
        "XY",
        "166",
        3303.382561518297,
        19.904535957736584,
        0.07382490125615836,
        0.0005111512404174323
    ],
    [
        "1_2",
        "XY",
        "187",
        3276.6227276268055,
        19.412801922396156,
        0.06533770617809223,
        0.00044491155657879063
    ],
    [
        "1_2",
        "XY",
        "208",
        3303.301969455643,
        18.889924961525274,
        0.06837461929511726,
        0.0004473518280316107
    ],
    [
        "1_2",
        "XY",
        "229",
        3266.974076690896,
        21.517012734654003,
        0.06983902908509244,
        0.0005298849852178336
    ],
    [
        "1_2",
        "XY",
        "250",
        3260.496119838274,
        19.191647595124373,
        0.07742534988544127,
        0.0005160884255615267
    ],
    [
        "1_2",
        "XY",
        "282",
        3280.7872054347936,
        14.359321420672238,
        0.0760951068685255,
        0.0003839641237954289
    ],
    [
        "1_2",
        "XY",
        "303",
        3274.9923109993183,
        17.632778070577622,
        0.07939814245699012,
        0.0004932658896577788
    ],
    [
        "1_2",
        "XY",
        "324",
        3283.674413575353,
        19.60059737992463,
        0.07080422772570995,
        0.0004838897047636825
    ],
    [
        "1_2",
        "XY",
        "345",
        3290.9856496769057,
        19.105028232892398,
        0.07957712326363486,
        0.0005371673086253713
    ],
    [
        "1_2",
        "XY",
        "366",
        3298.753481578261,
        20.413611755144025,
        0.07266976774207334,
        0.0005170965694286888
    ],
    [
        "1_2",
        "XY",
        "387",
        3284.7862808414425,
        17.121851902172573,
        0.07955718956597445,
        0.0004770575701325165
    ],
    [
        "1_2",
        "XY",
        "408",
        3280.3383841477003,
        19.882353231406846,
        0.06853883743019011,
        0.00047381919477308584
    ],
    [
        "1_2",
        "XY",
        "429",
        3283.5996981025737,
        19.18502168679579,
        0.07680237706232927,
        0.0005071620367599082
    ],
    [
        "1_2",
        "XY",
        "464",
        3294.7545652357608,
        21.1443384485792,
        0.07444965479825699,
        0.0005427702661079064
    ],
    [
        "1_2",
        "XY",
        "485",
        3301.7775873751425,
        16.295941684631465,
        0.07753100463170065,
        0.0004487679899129224
    ],
    [
        "1_2",
        "XY",
        "506",
        3288.0087184112012,
        17.54970307190863,
        0.06711615945525745,
        0.000419592861324437
    ],
    [
        "1_2",
        "XY",
        "527",
        3251.6213706098315,
        16.25575090111861,
        0.07489726333848672,
        0.000428807410105739
    ],
    [
        "1_2",
        "XY",
        "548",
        3284.0445575026934,
        17.85274691357598,
        0.07296423692265644,
        0.00046291384693129123
    ],
    [
        "1_2",
        "XY",
        "569",
        3291.361935168546,
        15.74215664266568,
        0.08100819216056554,
        0.00044062247945815785
    ],
    [
        "1_2",
        "XY",
        "590",
        3278.2425938244355,
        17.869377390621846,
        0.07070509761622308,
        0.0004480413342453404
    ],
    [
        "1_2",
        "XY",
        "611",
        3281.4031828447683,
        17.437436454789655,
        0.07857719812041127,
        0.0004853058166479282
    ],
    [
        "1_2",
        "XY",
        "643",
        3294.3985663883814,
        19.98468591811064,
        0.06966315434433516,
        0.00048564402879732214
    ],
    [
        "1_2",
        "XY",
        "664",
        3302.113610309182,
        12.924505254899156,
        0.07747781102929246,
        0.00035734211685232683
    ],
    [
        "1_2",
        "XY",
        "685",
        3283.2130029718446,
        18.6884091986987,
        0.06732917305268571,
        0.0004447492760484068
    ],
    [
        "1_2",
        "XY",
        "706",
        3297.548141272151,
        15.745971357039258,
        0.07116808981790065,
        0.00038437623893026855
    ],
    [
        "1_2",
        "XY",
        "727",
        3300.293643918604,
        17.317258455610098,
        0.0695068025322869,
        0.00042839521141551854
    ],
    [
        "1_2",
        "XY",
        "748",
        3293.2647919016076,
        15.950423842569474,
        0.07914054164119382,
        0.0004498859912114683
    ],
    [
        "1_2",
        "XY",
        "769",
        3289.57730371669,
        20.658322856040233,
        0.06432835814064175,
        0.0004651361302808689
    ],
    [
        "1_2",
        "XY",
        "790",
        3265.3886920072214,
        13.80754077853384,
        0.07317261110801486,
        0.0003532030016311991
    ],
    [
        "1_2",
        "XY",
        "822",
        3326.520241339159,
        15.731529530376577,
        0.0668007820553623,
        0.00035903310638301175
    ],
    [
        "1_2",
        "XY",
        "843",
        3303.4410939974755,
        16.840244051177063,
        0.07767375258756662,
        0.00044922279692986465
    ],
    [
        "1_2",
        "XY",
        "864",
        3291.3978795999774,
        19.726503931524295,
        0.07095291307446111,
        0.00048796316683623927
    ],
    [
        "1_2",
        "XY",
        "885",
        3256.337286308721,
        18.73314585035773,
        0.08165327860300513,
        0.0005408650318693842
    ],
    [
        "1_2",
        "XY",
        "906",
        3289.8311809675865,
        18.369500561048106,
        0.06899117909615744,
        0.00044846392164622203
    ],
    [
        "1_2",
        "XY",
        "927",
        3291.3986140673,
        17.09802145189883,
        0.07817393479948011,
        0.00046735331406910855
    ],
    [
        "1_2",
        "XY",
        "948",
        3298.2140448844216,
        18.295897672060324,
        0.06932178054957948,
        0.00044864992110800277
    ],
    [
        "1_2",
        "XY",
        "969",
        3282.5307714239348,
        17.635410769705764,
        0.07674863162628408,
        0.00047181752568660414
    ],
    [
        "1_2",
        "XY",
        "1018",
        3278.208548122988,
        15.707909307414914,
        0.0750282737600709,
        0.00041650512851718177
    ],
    [
        "1_2",
        "XY",
        "1039",
        3276.180761576614,
        16.9191903415788,
        0.07892438753650514,
        0.00047221290254112583
    ],
    [
        "1_2",
        "XY",
        "1060",
        3275.5855570660187,
        20.044421835361675,
        0.07057435924605987,
        0.0004969596512133706
    ],
    [
        "1_2",
        "XY",
        "1081",
        3297.4842294560362,
        18.33020391664197,
        0.07825443697277165,
        0.0004941421280600833
    ],
    [
        "1_2",
        "XY",
        "1102",
        3272.750961457177,
        19.059624964923106,
        0.06896134043837782,
        0.0004645374493199081
    ],
    [
        "1_2",
        "XY",
        "1123",
        3281.994191978768,
        16.75732136455591,
        0.07523881324254728,
        0.0004423616665659095
    ],
    [
        "1_2",
        "XY",
        "1144",
        3279.585985242516,
        21.427400429593234,
        0.07019072775982685,
        0.0005272269521161965
    ],
    [
        "1_2",
        "XY",
        "1165",
        3275.428752476812,
        14.066803898472434,
        0.08104198823074088,
        0.00040065112359036995
    ],
    [
        "1_2",
        "XY",
        "1197",
        3270.3612331578875,
        20.84386667994514,
        0.07324750148632993,
        0.0005460713369429881
    ],
    [
        "1_2",
        "XY",
        "1218",
        3287.3400478836575,
        12.741498684467572,
        0.0785078476734992,
        0.0003483540157123965
    ],
    [
        "1_2",
        "XY",
        "1239",
        3281.516192743818,
        18.86804669614824,
        0.06972533771711381,
        0.0004630790056318973
    ],
    [
        "1_2",
        "XY",
        "1260",
        3280.07301768347,
        12.240135668502589,
        0.07853314344133253,
        0.00033867829928822113
    ],
    [
        "1_2",
        "XY",
        "1281",
        3282.5921536991973,
        20.59153457133885,
        0.07127054774489192,
        0.0005129089197244917
    ],
    [
        "1_2",
        "XY",
        "1302",
        3274.347918489422,
        14.936664942117307,
        0.07943402155450371,
        0.00041444883726636213
    ],
    [
        "1_2",
        "XY",
        "1323",
        3294.301293633873,
        20.75582021717935,
        0.0651575361603099,
        0.000475211516095533
    ],
    [
        "1_2",
        "XY",
        "1344",
        3278.9371260375037,
        13.327603948686086,
        0.07724877410172894,
        0.00035587886637620744
    ],
    [
        "1_2",
        "XY",
        "1376",
        3264.2866449464123,
        22.12860095168033,
        0.073622946229265,
        0.0005721597814136719
    ],
    [
        "1_2",
        "XY",
        "1397",
        3288.212896511536,
        17.897221701998784,
        0.06944602742710876,
        0.0004286457310750119
    ],
    [
        "1_2",
        "XY",
        "1418",
        3284.951057519682,
        18.476526033148716,
        0.07387271539059732,
        0.00047845608434086994
    ],
    [
        "1_2",
        "XY",
        "1439",
        3307.150177302102,
        13.394181759038904,
        0.06658990229870124,
        0.00030576072497519964
    ],
    [
        "1_2",
        "XY",
        "1460",
        3303.699233557865,
        17.453063199420132,
        0.07009743952669054,
        0.0004247561078204055
    ],
    [
        "1_2",
        "XY",
        "1481",
        3291.6234888372464,
        17.769752204994134,
        0.07754586285197344,
        0.00047093974066844213
    ],
    [
        "1_2",
        "XY",
        "1502",
        3294.094464590897,
        19.669393532978862,
        0.0696122588841924,
        0.00047700390353261937
    ],
    [
        "1_2",
        "XY",
        "1523",
        3317.4956166744464,
        18.49590899802131,
        0.06283359380389578,
        0.0004030773910209799
    ],
    [
        "1_2",
        "XY",
        "1555",
        3306.3032430102444,
        20.04068916160983,
        0.06545169540720812,
        0.00045735276649278375
    ],
    [
        "1_2",
        "XY",
        "1576",
        3299.96516719016,
        18.827529089757736,
        0.06843757118631667,
        0.0004506906319797142
    ],
    [
        "1_2",
        "XY",
        "1597",
        3311.8689691771974,
        14.01662964504442,
        0.060965546651542205,
        0.00028989396257076767
    ],
    [
        "1_2",
        "XY",
        "1618",
        3334.2448901616735,
        17.493938019086915,
        0.06644006799110376,
        0.000402392972121959
    ],
    [
        "1_2",
        "XY",
        "1639",
        3288.92438735864,
        17.084612394482757,
        0.07904115293901966,
        0.00047567177203017416
    ],
    [
        "1_2",
        "XY",
        "1660",
        3291.555793719172,
        17.532994639122514,
        0.07593900995811542,
        0.00047336973274363857
    ],
    [
        "1_2",
        "XY",
        "1681",
        3297.528112765359,
        19.484400254293792,
        0.07624634894099894,
        0.0005168664290495785
    ],
    [
        "1_2",
        "XY",
        "1702",
        3267.4821653551967,
        13.196599231033021,
        0.08226565795576475,
        0.0003805170902839958
    ],
    [
        "1_2",
        "XY",
        "1734",
        3304.218688547417,
        13.150680818581032,
        0.07386224237150973,
        0.000343486885010866
    ],
    [
        "1_2",
        "XY",
        "1755",
        3325.0093135296243,
        18.767125030889094,
        0.06119897052961876,
        0.00039743791125712547
    ],
    [
        "1_2",
        "XY",
        "1776",
        3271.921322565528,
        18.57287584397911,
        0.07506010279526597,
        0.0004905855317027913
    ],
    [
        "1_2",
        "XY",
        "1797",
        3285.529076315556,
        18.888356105125673,
        0.08096845655778391,
        0.0005427437462164379
    ],
    [
        "1_2",
        "XY",
        "1818",
        3316.6714650375384,
        13.428535930864298,
        0.0679937976215075,
        0.00031884078532522654
    ],
    [
        "1_2",
        "XY",
        "1839",
        3347.0736876768274,
        14.916203621850382,
        0.061947510695378606,
        0.00031361767738526385
    ],
    [
        "1_2",
        "XY",
        "1860",
        3284.4360174456583,
        19.606265538249176,
        0.07351245368363232,
        0.0005040211396577496
    ],
    [
        "1_2",
        "XY",
        "1881",
        3280.8137882267233,
        19.211535348966173,
        0.0750011732006018,
        0.0005041100423805843
    ],
    [
        "1_2",
        "XY",
        "1916",
        3308.077772584226,
        14.259572243828622,
        0.0685980606158728,
        0.0003432508839327965
    ],
    [
        "1_2",
        "XY",
        "1937",
        3306.100157497847,
        19.800725183293377,
        0.06248652113647065,
        0.00042566719499927233
    ],
    [
        "1_2",
        "XY",
        "1958",
        3297.221479845362,
        17.792985442291098,
        0.07297786707024505,
        0.00045404860662085275
    ],
    [
        "1_2",
        "XY",
        "1979",
        3260.847419585512,
        16.641020957436766,
        0.07534173982694606,
        0.00044424694119701055
    ],
    [
        "1_2",
        "XY",
        "2000",
        3294.8369907197675,
        13.563992092370908,
        0.07730076811211445,
        0.00036922961302044354
    ],
    [
        "1_2",
        "XY",
        "2021",
        3277.052351456438,
        11.247035684993667,
        0.0811022273191573,
        0.0003137503379107058
    ],
    [
        "1_2",
        "XY",
        "2042",
        3300.878284040768,
        13.438962306077594,
        0.07151737733111703,
        0.0003319271397254017
    ],
    [
        "1_2",
        "XY",
        "2063",
        3263.0215540610466,
        18.12994510970903,
        0.08075867059953849,
        0.0005175226097309612
    ],
    [
        "1_2",
        "XY",
        "2095",
        3283.4631056726557,
        19.547957241742967,
        0.07530538711785678,
        0.000524316462148148
    ],
    [
        "1_2",
        "XY",
        "2116",
        3288.8450100487853,
        20.58016009516458,
        0.07673218964932027,
        0.0005391054698722495
    ],
    [
        "1_2",
        "XY",
        "2137",
        3272.2321608176107,
        18.483174409327347,
        0.07477103287475967,
        0.0004883274321997358
    ],
    [
        "1_2",
        "XY",
        "2158",
        3280.4314669253245,
        13.97177008633865,
        0.07826980880139633,
        0.0003834887100804755
    ],
    [
        "1_2",
        "XY",
        "2179",
        3285.6857830384,
        111.94442754535886,
        0.07682453128094588,
        0.0026291188847012404
    ],
    [
        "1_2",
        "XY",
        "2200",
        3278.6462014884496,
        12.885970626905475,
        0.07918976575983284,
        0.0003498339447014706
    ],
    [
        "1_2",
        "XY",
        "2221",
        3279.0419513567113,
        18.189750190634147,
        0.07742680368665474,
        0.0004888190952010428
    ],
    [
        "1_2",
        "XY",
        "2242",
        3278.4783138076195,
        14.315894786342401,
        0.08075117939424865,
        0.00040204156926175986
    ],
    [
        "1_2",
        "XY",
        "2274",
        3291.264306835714,
        15.87458952430407,
        0.07729093183469943,
        0.000425420554569711
    ],
    [
        "1_2",
        "XY",
        "2295",
        3300.7896929661842,
        13.842663347611289,
        0.07187048399512076,
        0.0003491521419103472
    ],
    [
        "1_2",
        "XY",
        "2316",
        3297.189768075033,
        16.215165844194864,
        0.07553484300339046,
        0.0004218509613320515
    ],
    [
        "1_2",
        "XY",
        "2337",
        3329.541719287024,
        15.284479581647227,
        0.06790978760604574,
        0.0003532856196906138
    ],
    [
        "1_2",
        "XY",
        "2358",
        3325.3601380758414,
        13.30293823099143,
        0.06438334886412769,
        0.0002926725067599879
    ],
    [
        "1_2",
        "XY",
        "2379",
        3303.514955635295,
        12.436853015466594,
        0.07103765734038482,
        0.0003085523425186091
    ],
    [
        "1_2",
        "XY",
        "2400",
        3288.907132134326,
        17.511549685941738,
        0.07306033332405179,
        0.0004505535720506218
    ],
    [
        "1_2",
        "XY",
        "2421",
        3268.2819400036547,
        15.04548573267987,
        0.07884396252071366,
        0.0004162295590583284
    ],
    [
        "1_2",
        "XY",
        "2453",
        3284.9144820559063,
        19.909031353710958,
        0.07238302206063708,
        0.000499245359848014
    ],
    [
        "1_2",
        "XY",
        "2474",
        3272.3538886455017,
        14.30503804141641,
        0.08153251306503917,
        0.0004023668673629836
    ],
    [
        "1_2",
        "XY",
        "2495",
        3296.5258898176294,
        18.581095222129925,
        0.07072523124241885,
        0.00046291624358202
    ],
    [
        "1_2",
        "XY",
        "2516",
        3277.854886855798,
        12.945320727099736,
        0.07722822050559776,
        0.0003491641770014587
    ],
    [
        "1_2",
        "XY",
        "2537",
        3282.354776040397,
        20.5876428916733,
        0.0775495868941649,
        0.0005599080671216952
    ],
    [
        "1_2",
        "XY",
        "2558",
        3288.1628942801512,
        17.17414493945216,
        0.08325620527304008,
        0.000504989784056369
    ],
    [
        "1_2",
        "XY",
        "2579",
        3284.8687295082127,
        17.84289543455346,
        0.07981175262117013,
        0.0005035361052880162
    ],
    [
        "1_2",
        "XY",
        "2600",
        3277.31913250763,
        13.280245307273853,
        0.0824171120404945,
        0.00037018907912687686
    ],
    [
        "1_2",
        "XY",
        "2632",
        3317.5272248024407,
        14.57294548036151,
        0.06947527496699894,
        0.00035264681030948317
    ],
    [
        "1_2",
        "XY",
        "2653",
        3287.99218240671,
        14.793435632085226,
        0.07559650434927935,
        0.0003930374731581496
    ],
    [
        "1_2",
        "XY",
        "2674",
        3298.7833986719784,
        18.65861119006666,
        0.06955515493661751,
        0.0004532926279632906
    ],
    [
        "1_2",
        "XY",
        "2695",
        3308.6803083198924,
        12.10591375418496,
        0.08162030652274221,
        0.0003434164929207207
    ],
    [
        "1_2",
        "XY",
        "2716",
        3306.9661497037005,
        17.85258727632988,
        0.06840194144742423,
        0.00042961048375908566
    ],
    [
        "1_2",
        "XY",
        "2737",
        3268.137023562227,
        17.52087312355456,
        0.07945930181707174,
        0.0004869500419997084
    ],
    [
        "1_2",
        "XY",
        "2758",
        3296.1547230780557,
        13.273555114138288,
        0.07432961409797195,
        0.0003412459207570356
    ],
    [
        "1_2",
        "XY",
        "2779",
        3291.277694304468,
        15.548648089515279,
        0.07871900473335998,
        0.00043270059722638234
    ],
    [
        "1_2",
        "XY",
        "2818",
        3269.540997192083,
        20.714780180524027,
        0.07830850265832823,
        0.000566983928650726
    ],
    [
        "1_2",
        "XY",
        "2839",
        3283.0310955913806,
        18.05461212568739,
        0.08145706507328138,
        0.0005169545272868929
    ],
    [
        "1_2",
        "XY",
        "2860",
        3296.7253254579223,
        16.950792739811604,
        0.07662038688851484,
        0.0004523444928563357
    ],
    [
        "1_2",
        "XY",
        "2881",
        3282.6527325666552,
        17.64757762641145,
        0.08114019334422447,
        0.0005086295932613936
    ],
    [
        "1_2",
        "XY",
        "2902",
        3266.215230872053,
        19.658762647270294,
        0.07744020695140606,
        0.00053648077224475
    ],
    [
        "1_2",
        "XY",
        "2923",
        3274.1933173016473,
        15.96958546229601,
        0.08048896337696243,
        0.0004529629889161842
    ],
    [
        "1_2",
        "XY",
        "2944",
        3280.403075273639,
        14.68743590506035,
        0.07457044676561694,
        0.00039042147788888873
    ],
    [
        "1_2",
        "XY",
        "2965",
        3283.2797221286232,
        49.12367201118738,
        0.07345517297714003,
        0.0011231211870382707
    ],
    [
        "1_2",
        "XY",
        "2997",
        3295.720752889999,
        19.197430709959153,
        0.07560025153844864,
        0.0005041240397035977
    ],
    [
        "1_2",
        "XY",
        "3018",
        3302.692787937313,
        16.90791322584438,
        0.07951677059295524,
        0.0004625219577390113
    ],
    [
        "1_2",
        "XY",
        "3039",
        3309.723402380538,
        17.303951031093092,
        0.07110973464716176,
        0.000432068628379225
    ],
    [
        "1_2",
        "XY",
        "3060",
        3285.7318240671234,
        18.9098046220612,
        0.07607405511658041,
        0.0005067429109261751
    ],
    [
        "1_2",
        "XY",
        "3081",
        3287.6951014030024,
        17.930782417396976,
        0.0741178551869073,
        0.00046716965641786275
    ],
    [
        "1_2",
        "XY",
        "3102",
        3280.937585598249,
        19.067207321214536,
        0.0796885067313581,
        0.0005328950708434588
    ],
    [
        "1_2",
        "XY",
        "3123",
        3287.29236425451,
        16.859752843429753,
        0.07786028795976357,
        0.00046684406257340593
    ],
    [
        "1_2",
        "XY",
        "3144",
        3282.1353938786806,
        15.713714913316663,
        0.08182975992712417,
        0.0004495421425282242
    ]
]