XscanNumber_YscanNumber,Type,BCID,xsec,xsecErr,SBIL,SBILErr
1_2,XY,103,3314.966343364668,15.407753426352247,0.06390463747042363,0.00035116528957675696
1_2,XY,124,3280.920943298787,14.665994550977933,0.07931319855169003,0.00041611300573706167
1_2,XY,145,3289.228182564952,16.976710722174378,0.06390984071668017,0.0003895270432290508
1_2,XY,166,3328.2107399930355,15.57635280800036,0.07236957250692712,0.00039636424218223007
1_2,XY,187,3300.4043667665874,15.872010410248418,0.06413416994529603,0.00036264445988551126
1_2,XY,208,3324.826688053138,16.18526113376567,0.06718399796486733,0.00037990669639888583
1_2,XY,229,3296.4985128574417,17.336449673922928,0.06810453434712012,0.00042080680512084426
1_2,XY,250,3293.856412786766,15.264354252720585,0.07567073412453017,0.00040775475514614074
1_2,XY,282,3304.9226175692374,14.92905144511755,0.07494305026438768,0.0004007910548971738
1_2,XY,303,3300.1271000758375,14.49138707792792,0.07785818146548616,0.0004036318028011103
1_2,XY,324,3312.2175688917223,16.376321331307384,0.06927343832290633,0.00039913107406720186
1_2,XY,345,3311.7148012116245,14.915097282010862,0.07806508362787297,0.00041895916503182615
1_2,XY,366,3326.034556733823,16.043300528415525,0.07115773854174494,0.00040535230173721994
1_2,XY,387,3314.7929738930397,14.015541773613515,0.07794010567876496,0.00038962908579502875
1_2,XY,408,3317.0546010142866,15.645860927355606,0.06678742610146432,0.00036956822151617636
1_2,XY,429,3324.135158796531,14.705908143618057,0.07469482914546123,0.0003834731710686221
1_2,XY,464,3301.4486294335543,15.986648738233505,0.07387765517793331,0.0004212343785568309
1_2,XY,485,3307.4958329553256,14.626450562561319,0.07692470789935349,0.00040180825965212757
1_2,XY,506,3288.723499300787,15.430498168724263,0.06680339779391543,0.00037314766046746284
1_2,XY,527,3260.748968742316,13.91289369858606,0.07430477822525278,0.0003678359305436204
1_2,XY,548,3292.0689769126684,15.265420244203815,0.07226786687811784,0.00039585726137471305
1_2,XY,569,3293.692141138387,14.06060356289339,0.08065355951907427,0.0003994626227648616
1_2,XY,590,3294.357205736998,15.211748345906198,0.0697773748901633,0.0003827852594735694
1_2,XY,611,3287.998349175748,14.712614875967422,0.07806725053393569,0.0004139973777537826
1_2,XY,643,3313.0561126153016,15.528848038367512,0.0686913204849951,0.00037908836337439354
1_2,XY,664,3304.6084197815153,14.407365699717111,0.07718524487455666,0.0003995472670750828
1_2,XY,685,3285.2227581059396,16.950295188150612,0.06708688950931532,0.00040415415092110026
1_2,XY,706,3311.6572414789475,15.135519881762722,0.07044368729900856,0.0003795145855464085
1_2,XY,727,3306.584011944403,15.470476306802057,0.06905535401820147,0.0003852695630748695
1_2,XY,748,3299.2728894942716,14.138553095400162,0.07856640996667828,0.00040134219939594063
1_2,XY,769,3301.493008034713,17.21317022331289,0.06370735758182952,0.0003896283754726035
1_2,XY,790,3279.9466679649076,14.812594866727197,0.07243552191114833,0.00039011651534098563
1_2,XY,822,3348.245941897757,15.2331259012215,0.0658506843522,0.00035230651370481066
1_2,XY,843,3309.1194305352346,14.036815192703628,0.07740767242171204,0.0003833979678904232
1_2,XY,864,3303.5574476598763,15.419696390883317,0.07019782340992922,0.00038851368027113277
1_2,XY,885,3280.9955477979465,13.988386687025839,0.08019513754912111,0.00040620700160936033
1_2,XY,906,3298.6840246755155,15.51964762387082,0.06836733483171409,0.00037997054238343795
1_2,XY,927,3299.375898704093,15.26064628131792,0.07770872392247154,0.00041898785527756617
1_2,XY,948,3290.6530371226877,15.780215204261673,0.06906832555860029,0.0003963720993751232
1_2,XY,969,3290.300583440321,14.653906122558773,0.0761972263303403,0.00039469486091904353
1_2,XY,1018,3281.8051030770034,14.158909292016851,0.07458688600806404,0.00037803828304980774
1_2,XY,1039,3284.194694372059,14.715008764130385,0.07835150360660623,0.00041392905102175746
1_2,XY,1060,3285.6068851293317,16.2155373808194,0.06994804172475681,0.00040612153198956455
1_2,XY,1081,3313.8995609264257,14.726596179877433,0.07747945488672373,0.0004029667294082727
1_2,XY,1102,3283.3518941283473,15.543501451098555,0.06823863350602655,0.0003818778564898998
1_2,XY,1123,3277.1497003727213,14.412130859501941,0.07495089353412224,0.000388519509914452
1_2,XY,1144,3303.555324448763,16.672097636165297,0.06893993933635406,0.0004094440687621997
1_2,XY,1165,3289.5517930206966,13.744698682747272,0.08020746230339261,0.00039734774306335134
1_2,XY,1197,3287.2390313967144,15.937125992901194,0.07198450628519493,0.000418456241696531
1_2,XY,1218,3292.3904359557923,14.170185937588847,0.07817134083306894,0.00039297370323066523
1_2,XY,1239,3298.0892383790265,16.317200898453322,0.06890736341161555,0.00040298981286311197
1_2,XY,1260,3283.330681129206,14.698611632634368,0.07827650751030289,0.0004133586798168105
1_2,XY,1281,3302.217196724796,15.665115054802461,0.0703599584625602,0.00039696115118108044
1_2,XY,1302,3291.939335651925,14.92125305078172,0.07841822421848885,0.00042050429550096185
1_2,XY,1323,3304.648535861952,17.11370631333934,0.06450003421300116,0.0003938274155262844
1_2,XY,1344,3296.0625662566517,14.192892147454478,0.07631326103992517,0.00038396347255709385
1_2,XY,1376,3296.2346565404796,15.452247999115604,0.07179381395518525,0.00039768905899521166
1_2,XY,1397,3308.6371542206653,14.597754401237884,0.06855635827228702,0.00035040922880920665
1_2,XY,1418,3301.7631697223405,15.485823966761966,0.07283877142611618,0.0004008466220359243
1_2,XY,1439,3319.0565678015746,14.925623674675185,0.06604663533293909,0.0003469151368539512
1_2,XY,1460,3302.8686080311413,15.342371293656452,0.06977327690338495,0.0003792130331383332
1_2,XY,1481,3318.3317308847218,14.141998460774468,0.07637239976738913,0.0003755476215533026
1_2,XY,1502,3312.238282509743,17.05692147568166,0.06870315541460283,0.00041131070239007933
1_2,XY,1523,3331.7426353246988,15.98015964661025,0.06224970636952757,0.0003492295643213846
1_2,XY,1555,3316.189418279806,15.510632119235849,0.06495252511566794,0.0003576996938766791
1_2,XY,1576,3316.2425608314156,15.62979155463431,0.06759954067902352,0.00037372073176994615
1_2,XY,1597,3325.6407522469085,16.232900911778447,0.06047588631797629,0.0003470444694616668
1_2,XY,1618,3355.2520335815343,16.63177393277374,0.06528996481642133,0.000383760512992562
1_2,XY,1639,3296.5291863049956,14.537404626744209,0.07829797894527217,0.00040597402735047814
1_2,XY,1660,3298.7175105346328,15.539961514745302,0.07535499894837966,0.00042074033033404214
1_2,XY,1681,3322.023752306531,15.803037886860329,0.07507890908792376,0.0004212488507829274
1_2,XY,1702,3282.1393388167035,14.324504664648591,0.08138708615787994,0.00041716939196074305
1_2,XY,1734,3311.9768823898853,15.023677305502769,0.07328199341707199,0.0003939688968286349
1_2,XY,1755,3336.8342342752003,15.375098554529004,0.060640013184075116,0.0003287963344234275
1_2,XY,1776,3293.6623299660178,15.413810488937555,0.0739048477804388,0.000406632218995142
1_2,XY,1797,3301.77904907718,15.403218984649401,0.07954082285290755,0.0004390743542874486
1_2,XY,1818,3325.0741515193213,15.082204561696592,0.06751609637626602,0.00036221592920058766
1_2,XY,1839,3352.4242249642084,16.05674054747884,0.0617083812018644,0.0003445554003058407
1_2,XY,1860,3306.702571483493,15.39807453475604,0.07222778802597121,0.0003962149939482459
1_2,XY,1881,3303.5634907585686,14.66738272560658,0.0737649358111858,0.0003869569210370065
1_2,XY,1916,3317.8030573930473,15.894434549725023,0.06804825280613919,0.000384399500113676
1_2,XY,1937,3317.05204484026,16.297567939985452,0.062018756478139925,0.0003539507589230339
1_2,XY,1958,3311.947312984081,14.925846441982166,0.07208221455990159,0.0003820812569109622
1_2,XY,1979,3270.835336700795,14.441831836564505,0.07468006946319486,0.0003879805135715602
1_2,XY,2000,3301.4945996608812,14.595015298388601,0.0767876217868685,0.00040574828477051483
1_2,XY,2021,3286.962126114538,13.064343424261102,0.08053430917330295,0.00037504582054932175
1_2,XY,2042,3318.637791827322,13.657141519203362,0.07071625163270026,0.0003446788776291129
1_2,XY,2063,3283.653168679649,14.820562959973708,0.0794199996262504,0.0004216044114927172
1_2,XY,2095,3298.2365235697034,16.083470617571503,0.07428342483125867,0.00043134594425261384
1_2,XY,2116,3295.5206707852662,14.974652415276545,0.07594077415581607,0.00040885473371795846
1_2,XY,2137,3288.2537608549314,15.2682688830492,0.07371622353415251,0.00040372406705111005
1_2,XY,2158,3292.21214336381,14.914530584607373,0.07748486000580788,0.0004102434363018724
1_2,XY,2179,3294.230431433344,15.677673970816542,0.0760761598929227,0.00042315311524872447
1_2,XY,2200,3293.661435475482,14.347261662628753,0.07847709247590724,0.0003980215512062829
1_2,XY,2221,3292.447460515525,14.699570663168656,0.07660938588857534,0.000402133841826577
1_2,XY,2242,3310.2441160391177,14.157773274330117,0.0792214068798455,0.00039818754296629566
1_2,XY,2274,3308.2017634375306,13.218548449223709,0.07643690409308784,0.0003566292305052932
1_2,XY,2295,3311.3265005858343,16.006539794207935,0.07118623094130981,0.0004048867253398523
1_2,XY,2316,3320.026128676532,15.817034440066145,0.07439222951895566,0.0004160754614841061
1_2,XY,2337,3344.6370272542376,14.793640551222866,0.06726448239124655,0.0003467709559367447
1_2,XY,2358,3335.044061837304,15.317378240895868,0.0639727176323074,0.0003431567845410698
1_2,XY,2379,3309.551960755528,15.071842355492345,0.07065273992423553,0.000378357286786123
1_2,XY,2400,3303.0623199010815,15.614991523317771,0.07225480647577563,0.00040092145215483944
1_2,XY,2421,3285.727851115803,15.19042072714994,0.07761880439862441,0.00041591035432584305
1_2,XY,2453,3306.394994871205,14.9088224353036,0.071311797739881,0.00037896764559439713
1_2,XY,2474,3299.1267835793133,14.335586013832788,0.08011730070394711,0.0004113460926269558
1_2,XY,2495,3310.239845381431,15.086309274798374,0.06984077338345983,0.00037770421850478054
1_2,XY,2516,3292.2236513922885,14.885603061730317,0.07649484550749053,0.0004057591811625671
1_2,XY,2537,3287.5387355996663,15.285093659574894,0.07642531637829583,0.00041823500828717247
1_2,XY,2558,3305.178204746893,14.785461139547989,0.08223662627971318,0.0004358685869501122
1_2,XY,2579,3306.5510628148054,14.883495666840744,0.07833107349815316,0.00041708862111015
1_2,XY,2600,3303.2820728537404,13.609393515311128,0.0812383199169758,0.00039485754369757544
1_2,XY,2632,3332.6888858262737,15.102194048095027,0.06867933416099574,0.00036967278559765565
1_2,XY,2653,3307.888910536122,15.240750617508477,0.07442015143819204,0.0004053355248785056
1_2,XY,2674,3312.1961662552662,15.263871306109035,0.0688427609727067,0.0003737963986399734
1_2,XY,2695,3313.020893880861,14.211558762530657,0.08131453023672185,0.0004079787531413737
1_2,XY,2716,3315.3025373346595,15.61011919391057,0.06793691261538264,0.0003781459319523258
1_2,XY,2737,3287.9278564950146,14.197863049536615,0.07851717560251524,0.0003973617224048807
1_2,XY,2758,3305.629578996817,14.797003083304938,0.07384289968085712,0.0003845046814420228
1_2,XY,2779,3305.3435088597316,14.262993379395555,0.07769439559777448,0.0004045258994155491
1_2,XY,2818,3301.5166705828165,15.213194835764448,0.07666561107352746,0.0004207303635060855
1_2,XY,2839,3295.8357649671184,14.925625082650557,0.080648828172584,0.00043118530247636855
1_2,XY,2860,3308.763735596108,14.338983334874719,0.07582153863966135,0.0003836982073140343
1_2,XY,2881,3283.8449137954312,15.412321738789402,0.08066283091648448,0.0004494585903324917
1_2,XY,2902,3290.4641438158123,15.325828540267114,0.07615026955926463,0.0004217580139091166
1_2,XY,2923,3277.0597065161414,14.07263326146544,0.07996450159452076,0.0004041802944585147
1_2,XY,2944,3287.4635597570873,15.785244339569724,0.07409210246561337,0.00042653895949012365
1_2,XY,2965,3299.761843060777,15.039839090913667,0.07238897824824068,0.0003868863886274066
1_2,XY,2997,3295.811019175171,14.275396911656664,0.07539668582808494,0.0003858718861168447
1_2,XY,3018,3321.169084880308,14.09139118751439,0.07865429051821246,0.00038854406294345654
1_2,XY,3039,3303.3200497134007,15.604687095008096,0.07081087101267766,0.00039619956763912225
1_2,XY,3060,3301.182109691056,15.051937942757814,0.07520672187728206,0.000409500978066237
1_2,XY,3081,3300.2645933000804,14.962318460771987,0.07334221228229171,0.0003924770279617588
1_2,XY,3102,3306.880125131383,15.726291117943054,0.0782654283308677,0.0004404799176190171
1_2,XY,3123,3298.4124307751486,15.437259837367682,0.07713572444131453,0.00042606486300449
1_2,XY,3144,3303.328983784692,15.248384228440035,0.08051856559355444,0.00043637087646389766
