[
    [
        "XscanNumber_YscanNumber",
        "Type",
        "BCID",
        "xsec",
        "xsecErr",
        "SBIL",
        "SBILErr"
    ],
    [
        "2_1",
        "XY",
        "103",
        304.67853738769287,
        2.0680543563920315,
        0.0692280787406211,
        0.0005514903334855427
    ],
    [
        "2_1",
        "XY",
        "124",
        301.9155845266195,
        2.133056634213945,
        0.07660831393809629,
        0.0006403579810984306
    ],
    [
        "2_1",
        "XY",
        "145",
        300.5667577481414,
        2.3692102166199267,
        0.062486986869077665,
        0.0005774657471359105
    ],
    [
        "2_1",
        "XY",
        "166",
        304.1841665733738,
        2.3049114093397636,
        0.07168182457236022,
        0.0006496299984471264
    ],
    [
        "2_1",
        "XY",
        "187",
        304.32631805973114,
        2.4358386284232356,
        0.06188802635477052,
        0.0005840079444917448
    ],
    [
        "2_1",
        "XY",
        "208",
        306.38462133954056,
        2.176405946620098,
        0.07028045271702235,
        0.0005831050832924486
    ],
    [
        "2_1",
        "XY",
        "229",
        304.15898448127786,
        2.3067613569920216,
        0.06673352363510937,
        0.0005902534113939791
    ],
    [
        "2_1",
        "XY",
        "250",
        302.0293864854132,
        2.135467537368929,
        0.07461696890144823,
        0.0006204012322065718
    ],
    [
        "2_1",
        "XY",
        "282",
        303.79771501307437,
        2.228476124244233,
        0.07038461287693362,
        0.0006082253118986211
    ],
    [
        "2_1",
        "XY",
        "303",
        305.131306642059,
        2.1815913256934483,
        0.07522861028766453,
        0.0006260732740316517
    ],
    [
        "2_1",
        "XY",
        "324",
        301.2174262218663,
        2.2147110851980156,
        0.06789206692022964,
        0.0005922747924117552
    ],
    [
        "2_1",
        "XY",
        "345",
        304.72710541712644,
        2.259143873448856,
        0.07635542132007965,
        0.0006766557416818647
    ],
    [
        "2_1",
        "XY",
        "366",
        300.5909838933069,
        2.2474313605087506,
        0.07028416695775465,
        0.0006171594586257988
    ],
    [
        "2_1",
        "XY",
        "387",
        300.8182299513493,
        2.2090982992669272,
        0.07748505689022286,
        0.0006771160895300883
    ],
    [
        "2_1",
        "XY",
        "408",
        303.09319930532047,
        2.4864253253349053,
        0.06423610059845007,
        0.00062592586290986
    ],
    [
        "2_1",
        "XY",
        "429",
        302.34956305410753,
        2.1649730235653126,
        0.07455045337931485,
        0.0006327422767474909
    ],
    [
        "2_1",
        "XY",
        "464",
        306.2388247831831,
        2.1886634216562064,
        0.06990176724224022,
        0.0005809914432338996
    ],
    [
        "2_1",
        "XY",
        "485",
        300.40031415852957,
        2.056776388133053,
        0.07478254302706198,
        0.0005971691401186546
    ],
    [
        "2_1",
        "XY",
        "506",
        303.0171186967663,
        2.2461190490156517,
        0.0630649972945186,
        0.0005520899813218978
    ],
    [
        "2_1",
        "XY",
        "527",
        300.36275335953906,
        2.0688909213357918,
        0.0710873972495806,
        0.0005833242629335579
    ],
    [
        "2_1",
        "XY",
        "548",
        302.55663353139005,
        2.237287892005726,
        0.06787197622530387,
        0.0005845019042378454
    ],
    [
        "2_1",
        "XY",
        "569",
        304.63075077105185,
        2.124690705306724,
        0.07629723463122329,
        0.0006320180997712887
    ],
    [
        "2_1",
        "XY",
        "590",
        304.53802389946543,
        2.2750182573637394,
        0.06673293044415228,
        0.0005827659274954042
    ],
    [
        "2_1",
        "XY",
        "611",
        300.9957082669182,
        2.219795627857291,
        0.07466523737996897,
        0.0006431133203425735
    ],
    [
        "2_1",
        "XY",
        "643",
        303.5980172262861,
        2.144960490737293,
        0.07018285258813978,
        0.000578610471385482
    ],
    [
        "2_1",
        "XY",
        "664",
        302.26200797344586,
        2.149922902285584,
        0.07412881188224303,
        0.0006188069361436947
    ],
    [
        "2_1",
        "XY",
        "685",
        306.1583405985446,
        2.155751094100546,
        0.061895023062474304,
        0.0005161987102511787
    ],
    [
        "2_1",
        "XY",
        "706",
        304.9845733828582,
        2.1180802392776905,
        0.07009625038609671,
        0.0005705958708877148
    ],
    [
        "2_1",
        "XY",
        "727",
        303.9758737018656,
        2.1636574232533903,
        0.06614301640393011,
        0.0005527961460074826
    ],
    [
        "2_1",
        "XY",
        "748",
        303.0981768148107,
        2.2451405673535545,
        0.07567954872971741,
        0.0006604229703831092
    ],
    [
        "2_1",
        "XY",
        "769",
        302.3104233341038,
        2.457303895434605,
        0.060481566616756584,
        0.0005895551265378891
    ],
    [
        "2_1",
        "XY",
        "790",
        305.2979768764743,
        2.219834783109681,
        0.06838920729475134,
        0.0005845316720482638
    ],
    [
        "2_1",
        "XY",
        "822",
        302.9324691588033,
        2.2573289141898787,
        0.07110214733448937,
        0.0006236763879304198
    ],
    [
        "2_1",
        "XY",
        "843",
        302.94843032083054,
        2.1064509879316384,
        0.07218755594518333,
        0.0005927412183802435
    ],
    [
        "2_1",
        "XY",
        "864",
        304.75614930853726,
        2.2181259822427197,
        0.06686283362741359,
        0.0005674048975837714
    ],
    [
        "2_1",
        "XY",
        "885",
        301.85399275850915,
        2.0957827690488506,
        0.07771454271839737,
        0.0006350914446379496
    ],
    [
        "2_1",
        "XY",
        "906",
        305.7677362963214,
        2.278452883247621,
        0.06461460183996995,
        0.0005630455207915254
    ],
    [
        "2_1",
        "XY",
        "927",
        300.92816056744044,
        2.0861102177523803,
        0.0766364619049753,
        0.0006257100921082006
    ],
    [
        "2_1",
        "XY",
        "948",
        304.0967459016576,
        2.3886434475039375,
        0.0646042488127235,
        0.0005976243306197196
    ],
    [
        "2_1",
        "XY",
        "969",
        300.91479011751176,
        2.2127701728320384,
        0.07352935192913318,
        0.000640539829447888
    ],
    [
        "2_1",
        "XY",
        "1018",
        303.43681471099734,
        2.1182299099909967,
        0.0713591180366403,
        0.0005890093259728684
    ],
    [
        "2_1",
        "XY",
        "1039",
        300.7734708793783,
        2.1893171192084755,
        0.0764905324405343,
        0.000657895734791497
    ],
    [
        "2_1",
        "XY",
        "1060",
        302.0158832360656,
        2.188183506603162,
        0.06728294781538209,
        0.0005676431221819667
    ],
    [
        "2_1",
        "XY",
        "1081",
        304.3037270335223,
        2.0984863103604208,
        0.07347520809752077,
        0.0006032736098675454
    ],
    [
        "2_1",
        "XY",
        "1102",
        302.70259433364254,
        2.266500964520515,
        0.06493070178607824,
        0.0005666705716131767
    ],
    [
        "2_1",
        "XY",
        "1123",
        300.53756817990325,
        2.2449600266145215,
        0.07266183798854346,
        0.0006386458424604531
    ],
    [
        "2_1",
        "XY",
        "1144",
        301.96070613335905,
        2.418804298489144,
        0.06632726158373553,
        0.0006269018789710164
    ],
    [
        "2_1",
        "XY",
        "1165",
        303.69291438144035,
        2.258319327813307,
        0.07605821621173661,
        0.0006639046583001497
    ],
    [
        "2_1",
        "XY",
        "1197",
        302.25177424014714,
        2.135758336241019,
        0.07051927006597195,
        0.0005900742502575504
    ],
    [
        "2_1",
        "XY",
        "1218",
        302.0376563848862,
        2.144967624179963,
        0.07686563858590074,
        0.0006517357116293984
    ],
    [
        "2_1",
        "XY",
        "1239",
        304.9121083290827,
        2.2111031703410506,
        0.06638400178397148,
        0.0005652083852743169
    ],
    [
        "2_1",
        "XY",
        "1260",
        302.94935534480845,
        2.1183596804610207,
        0.07601764919497554,
        0.0006296751296256945
    ],
    [
        "2_1",
        "XY",
        "1281",
        301.22520636624597,
        2.2065660459659413,
        0.06874189314296762,
        0.0006016230763535853
    ],
    [
        "2_1",
        "XY",
        "1302",
        300.04724827525445,
        2.2344160281921446,
        0.07682451974732817,
        0.000682828728652391
    ],
    [
        "2_1",
        "XY",
        "1323",
        300.07060994958283,
        2.4763088408919653,
        0.06263626031199045,
        0.0006195727798756596
    ],
    [
        "2_1",
        "XY",
        "1344",
        304.65533011685585,
        2.025795243880866,
        0.07214679284329406,
        0.0005631411660751405
    ],
    [
        "2_1",
        "XY",
        "1376",
        305.33972940059095,
        2.234465544820494,
        0.06761806506822601,
        0.0005851559868019991
    ],
    [
        "2_1",
        "XY",
        "1397",
        303.15549544405366,
        2.1173544289162547,
        0.07467430104789134,
        0.0006195623815284394
    ],
    [
        "2_1",
        "XY",
        "1418",
        303.0556459263441,
        2.3076101222042116,
        0.06941228182921695,
        0.0006207117150750118
    ],
    [
        "2_1",
        "XY",
        "1439",
        303.3409523999972,
        2.022807136533769,
        0.07375269972594294,
        0.0005735902915717306
    ],
    [
        "2_1",
        "XY",
        "1460",
        305.398690771705,
        2.1592643205233473,
        0.06663934592369772,
        0.0005538963947986589
    ],
    [
        "2_1",
        "XY",
        "1481",
        303.6104606305114,
        2.216758187996595,
        0.07341191795118969,
        0.00063768216577438
    ],
    [
        "2_1",
        "XY",
        "1502",
        301.4534548649654,
        2.4748609640434043,
        0.06593495063859808,
        0.0006399990413118771
    ],
    [
        "2_1",
        "XY",
        "1523",
        303.31710696695666,
        2.185446091341495,
        0.07000095865816354,
        0.0005981772022479836
    ],
    [
        "2_1",
        "XY",
        "1555",
        304.8244768424121,
        2.0112978389359726,
        0.06943513308668942,
        0.0005297827245097483
    ],
    [
        "2_1",
        "XY",
        "1576",
        307.20037985546264,
        2.2949013508566933,
        0.06631411146411945,
        0.0005880616309344961
    ],
    [
        "2_1",
        "XY",
        "1597",
        305.6101505855314,
        2.309325795126824,
        0.06731711385294378,
        0.0005955232854587243
    ],
    [
        "2_1",
        "XY",
        "1618",
        302.4341201727973,
        2.1169695332774725,
        0.07290305191044413,
        0.000601342874708055
    ],
    [
        "2_1",
        "XY",
        "1639",
        304.3817300961213,
        1.9769758070736045,
        0.07498280694388149,
        0.0005719217450479365
    ],
    [
        "2_1",
        "XY",
        "1660",
        302.7558306386316,
        2.2152229710642812,
        0.07895745975778953,
        0.0006910783496355249
    ],
    [
        "2_1",
        "XY",
        "1681",
        305.92785764108953,
        2.201067499615363,
        0.07110965976486314,
        0.0005942485534356145
    ],
    [
        "2_1",
        "XY",
        "1702",
        302.01233639518904,
        2.1292548480859104,
        0.07782622982130058,
        0.0006470254243855843
    ],
    [
        "2_1",
        "XY",
        "1734",
        303.2458141794486,
        2.224497813287217,
        0.07002562193457895,
        0.0006011814471683875
    ],
    [
        "2_1",
        "XY",
        "1755",
        304.8944359760499,
        2.1824756920414385,
        0.06997631697587584,
        0.0005920417718774192
    ],
    [
        "2_1",
        "XY",
        "1776",
        302.46892795774056,
        2.3012621012908596,
        0.06985469526374524,
        0.0006339209158936346
    ],
    [
        "2_1",
        "XY",
        "1797",
        302.51825079417983,
        2.083173332463905,
        0.07705324352188479,
        0.0006252480588984421
    ],
    [
        "2_1",
        "XY",
        "1818",
        302.5980416660097,
        2.1243337839438663,
        0.0727782342668466,
        0.0006017730283536542
    ],
    [
        "2_1",
        "XY",
        "1839",
        304.94035528550654,
        2.132242507447793,
        0.06296951757407471,
        0.000521246725926654
    ],
    [
        "2_1",
        "XY",
        "1860",
        300.77986739132933,
        2.1956388601280667,
        0.07385903782902051,
        0.0006367323698730856
    ],
    [
        "2_1",
        "XY",
        "1881",
        303.21876426710025,
        2.061063464323195,
        0.077892579900172,
        0.000613302472853037
    ],
    [
        "2_1",
        "XY",
        "1916",
        302.90463121429696,
        2.228905660872525,
        0.07084753345592175,
        0.0006101212435597903
    ],
    [
        "2_1",
        "XY",
        "1937",
        303.2483266767136,
        2.1745231421831375,
        0.07002004284810943,
        0.0006045574761626509
    ],
    [
        "2_1",
        "XY",
        "1958",
        303.48986468152293,
        2.2703132138583704,
        0.06830245317746945,
        0.0006017905492680629
    ],
    [
        "2_1",
        "XY",
        "1979",
        35.84163174877732,
        16.56017848151472,
        0.30901160634672753,
        0.14279059049150591
    ],
    [
        "2_1",
        "XY",
        "2000",
        303.04761095904917,
        2.2197298520769655,
        0.07147174704869984,
        0.000628239147283377
    ],
    [
        "2_1",
        "XY",
        "2021",
        302.75242675096234,
        2.26856121484077,
        0.07642450386801865,
        0.0006726297856472751
    ],
    [
        "2_1",
        "XY",
        "2042",
        304.28969514393026,
        2.1806623667144747,
        0.07155939153339613,
        0.0006061648891661928
    ],
    [
        "2_1",
        "XY",
        "2063",
        300.01585078058656,
        2.177165289796552,
        0.07654460357815701,
        0.0006527604805691711
    ],
    [
        "2_1",
        "XY",
        "2095",
        303.16276436269374,
        2.232706053090309,
        0.06961135079737449,
        0.0006022459006583199
    ],
    [
        "2_1",
        "XY",
        "2116",
        308.70423679337586,
        2.212777185773758,
        0.07182166389583947,
        0.0006035061694706107
    ],
    [
        "2_1",
        "XY",
        "2137",
        299.7104810969257,
        2.1766619694112643,
        0.06984076715922252,
        0.0005867113223093699
    ],
    [
        "2_1",
        "XY",
        "2158",
        303.33562607986437,
        2.127507750012562,
        0.07611432708168475,
        0.0006126022277093911
    ],
    [
        "2_1",
        "XY",
        "2179",
        304.5157152289721,
        2.2457858368647545,
        0.0712518360581996,
        0.0006190176500698428
    ],
    [
        "2_1",
        "XY",
        "2200",
        302.09687194044324,
        2.077741880632356,
        0.07678746272033511,
        0.0006317127301757
    ],
    [
        "2_1",
        "XY",
        "2221",
        305.89545937443626,
        2.217570401872754,
        0.07151807903640785,
        0.0006187716398114912
    ],
    [
        "2_1",
        "XY",
        "2242",
        18.231593723144986,
        5.134023060842906,
        0.6370499397139727,
        0.1794366355123693
    ],
    [
        "2_1",
        "XY",
        "2274",
        303.77925898858547,
        2.2876184456974196,
        0.07222248315549958,
        0.0006416318336140855
    ],
    [
        "2_1",
        "XY",
        "2295",
        302.2678120983225,
        2.1801526627683505,
        0.07744143682578568,
        0.0006586586619469366
    ],
    [
        "2_1",
        "XY",
        "2316",
        307.13975028004296,
        2.222122162178641,
        0.06948627821443826,
        0.0005992984949893193
    ],
    [
        "2_1",
        "XY",
        "2337",
        301.9002880070837,
        2.1964877635373647,
        0.07399677707102295,
        0.000641053423243526
    ],
    [
        "2_1",
        "XY",
        "2358",
        306.2941903049752,
        2.2598907352042747,
        0.07039985773683254,
        0.0006114628520007761
    ],
    [
        "2_1",
        "XY",
        "2379",
        304.00869438926264,
        2.184058363389608,
        0.07558187159300063,
        0.0006470186026095312
    ],
    [
        "2_1",
        "XY",
        "2400",
        304.09080298704714,
        2.335279590905806,
        0.0677182788329072,
        0.0006173988641212274
    ],
    [
        "2_1",
        "XY",
        "2421",
        300.6113008352729,
        2.307346246664585,
        0.07509409126907515,
        0.0006811648129657167
    ],
    [
        "2_1",
        "XY",
        "2453",
        301.8121369330875,
        2.3273070645860066,
        0.07396241005686276,
        0.0006865576238460525
    ],
    [
        "2_1",
        "XY",
        "2474",
        302.3818496132283,
        2.3164830237726375,
        0.07780243752770005,
        0.0007114909561625081
    ],
    [
        "2_1",
        "XY",
        "2495",
        304.17921398312035,
        2.2012670989221763,
        0.07049514045443867,
        0.0006052642499709451
    ],
    [
        "2_1",
        "XY",
        "2516",
        300.98037067240864,
        2.2669643293677395,
        0.07665526074442025,
        0.0006880213756201887
    ],
    [
        "2_1",
        "XY",
        "2537",
        304.4368533963873,
        2.286192129205811,
        0.07224479165102583,
        0.000644717195437356
    ],
    [
        "2_1",
        "XY",
        "2558",
        302.7386512399008,
        2.2118837961646496,
        0.07903282798534232,
        0.0006799324814781599
    ],
    [
        "2_1",
        "XY",
        "2579",
        303.9228413396554,
        2.1558863672864406,
        0.07366473163078419,
        0.0006189604114737712
    ],
    [
        "2_1",
        "XY",
        "2600",
        300.9222754696592,
        2.1403687744450246,
        0.07809208149949826,
        0.0006540494492241554
    ],
    [
        "2_1",
        "XY",
        "2632",
        304.0269564847497,
        2.2673000392914733,
        0.07213084032604833,
        0.000631396189821012
    ],
    [
        "2_1",
        "XY",
        "2653",
        304.4891065014767,
        2.2418417986916235,
        0.07464555006943722,
        0.0006538502560703267
    ],
    [
        "2_1",
        "XY",
        "2674",
        303.1191763305925,
        2.2654750243150543,
        0.06803425593537385,
        0.0005995588721859066
    ],
    [
        "2_1",
        "XY",
        "2695",
        303.5396203982648,
        2.2682896072582444,
        0.07870986673223326,
        0.0006998144807852315
    ],
    [
        "2_1",
        "XY",
        "2716",
        303.66854473826004,
        2.1411065176266733,
        0.06632159740652022,
        0.0005445747333954743
    ],
    [
        "2_1",
        "XY",
        "2737",
        301.01179017614567,
        2.2392213592078325,
        0.07631663691595415,
        0.0006703046657326342
    ],
    [
        "2_1",
        "XY",
        "2758",
        302.74019863402384,
        2.259999131276354,
        0.06973673017650057,
        0.0006267738274741643
    ],
    [
        "2_1",
        "XY",
        "2779",
        304.45736321018643,
        2.1453718733829614,
        0.07397832344122282,
        0.0006117713330067072
    ],
    [
        "2_1",
        "XY",
        "2818",
        303.1918762262525,
        2.2498544253082717,
        0.07355805243494035,
        0.0006481974195005723
    ],
    [
        "2_1",
        "XY",
        "2839",
        302.3330903778885,
        2.0694329287675495,
        0.07750872738674495,
        0.0006232835967734426
    ],
    [
        "2_1",
        "XY",
        "2860",
        302.48083829003315,
        2.059860530097855,
        0.07229278425983347,
        0.0005758707810539944
    ],
    [
        "2_1",
        "XY",
        "2881",
        301.1244952399096,
        2.140226033752984,
        0.0781911753845298,
        0.000652178378666337
    ],
    [
        "2_1",
        "XY",
        "2902",
        302.6180038709346,
        2.1777295805993453,
        0.07346321001738819,
        0.0006187322441380673
    ],
    [
        "2_1",
        "XY",
        "2923",
        301.79329359637404,
        2.198874712160658,
        0.07748872197585989,
        0.000675461378591237
    ],
    [
        "2_1",
        "XY",
        "2944",
        305.3784290790435,
        2.162984181381616,
        0.06870453927854588,
        0.0005724052826493491
    ],
    [
        "2_1",
        "XY",
        "2965",
        305.204481690438,
        2.071785176872171,
        0.07370181253734816,
        0.000579148608245701
    ],
    [
        "2_1",
        "XY",
        "2997",
        307.73417014405095,
        2.197544852517575,
        0.06938098184689272,
        0.0005895862200740829
    ],
    [
        "2_1",
        "XY",
        "3018",
        298.88153334034666,
        2.1722557883540934,
        0.07554025449296564,
        0.0006532995285389577
    ],
    [
        "2_1",
        "XY",
        "3039",
        305.20248524839855,
        2.219313892568938,
        0.06759488835539386,
        0.0005733383722936978
    ],
    [
        "2_1",
        "XY",
        "3060",
        301.4627967657253,
        2.19394829445975,
        0.07318275821132424,
        0.0006314304933844003
    ],
    [
        "2_1",
        "XY",
        "3081",
        301.4376204723117,
        2.3564714752915523,
        0.07026985057387089,
        0.000647761883258999
    ],
    [
        "2_1",
        "XY",
        "3102",
        304.2828646498977,
        2.105175833498841,
        0.07582001364808016,
        0.0006162742688755663
    ],
    [
        "2_1",
        "XY",
        "3123",
        301.78256321946395,
        2.0676517696996326,
        0.07348264245425122,
        0.0005931870857695303
    ],
    [
        "2_1",
        "XY",
        "3144",
        304.79990812367816,
        2.2062629311530046,
        0.0772582047096808,
        0.0006659828474454266
    ]
]