XscanNumber_YscanNumber,Type,BCID,xsec,xsecErr,SBIL,SBILErr
2_1,XY,103,138.8388637220063,0.763961810789227,0.06231210673048736,0.00040133006313113024
2_1,XY,124,137.72361569803908,0.813698130017002,0.07740009354986434,0.0005395738362551104
2_1,XY,145,137.25238098638133,0.8709026673062347,0.06336678007227084,0.0004709569193123691
2_1,XY,166,137.09788259284198,0.7490785091373734,0.07189904316713329,0.0004630674924271921
2_1,XY,187,139.91968694308173,0.8477275729435146,0.06192295282699089,0.00044794508841914163
2_1,XY,208,138.99005781236468,0.8054585056316195,0.06553915790333724,0.0004481529244669142
2_1,XY,229,137.20434364808509,0.8174834609056192,0.06731256360114633,0.0004725780267141478
2_1,XY,250,137.38749515320114,0.7775483233055379,0.07474993574531438,0.0004987448161365448
2_1,XY,282,137.9561939893512,0.7725559174172401,0.07360672208397324,0.00048503713005581644
2_1,XY,303,138.52727403809445,0.8078080047244166,0.07605276310801738,0.0005229036866391521
2_1,XY,324,137.11817586190176,0.8169378868547498,0.06852704049721292,0.0004742746205118442
2_1,XY,345,137.55261243799006,0.7318062036586306,0.07820347039574137,0.0004961219873573438
2_1,XY,366,138.57615005310754,0.797232716672522,0.07005416367965034,0.0004767969486644854
2_1,XY,387,138.90494511649828,0.7283953710307564,0.07659882225196459,0.00047201983828575197
2_1,XY,408,138.04895675944536,0.853811879696367,0.06566394990002948,0.0004772896251769929
2_1,XY,429,137.23414915736936,0.7352951766961262,0.07491506115998309,0.0004767751949060345
2_1,XY,464,138.01927111342613,0.8048467923101305,0.07272241692915003,0.000499046796773523
2_1,XY,485,138.02759500509976,0.732737957421834,0.07591746269682266,0.0004734988737134806
2_1,XY,506,138.117661533326,0.8138531969947748,0.06534383003613052,0.0004541673912555147
2_1,XY,527,137.26478593933837,0.8405674868077028,0.07192561051770131,0.0005297250630219394
2_1,XY,548,136.48165817345532,0.7663099952902627,0.07078254019830581,0.00047263690149515475
2_1,XY,569,137.49571776541399,0.7860831552319958,0.07859209426938274,0.00053025379885795
2_1,XY,590,136.35958476108019,0.8401411569766288,0.06904509062745033,0.0005029016738269311
2_1,XY,611,137.16642270024155,0.7444063846506965,0.07726586493999302,0.0004982329569964997
2_1,XY,643,137.90901172772584,0.7350913593167627,0.07175858425926089,0.0004487149081091636
2_1,XY,664,137.76860761565183,0.7892840267093625,0.07489547087010147,0.0005138387069803532
2_1,XY,685,136.43227235545726,0.8042753597012293,0.06602819520403218,0.00046184934611101514
2_1,XY,706,138.03873061777045,0.8320183184758891,0.06858664287287784,0.00048809827790212857
2_1,XY,727,137.6598056165111,0.8352555594027583,0.06777230167897577,0.0004840552561654644
2_1,XY,748,137.40925606423193,0.752566052404229,0.07710288401020639,0.0004991628483608062
2_1,XY,769,136.74467871475488,0.8851340361344778,0.06319927402942754,0.00048346941953635107
2_1,XY,790,136.55975714450332,0.7634006476476908,0.07133873337893025,0.0004705673785972301
2_1,XY,822,138.6399644976235,0.7686973876372402,0.06479322187790597,0.0004201127403174589
2_1,XY,843,136.70592902198527,0.739733187768652,0.07615307964303282,0.0004854121679745469
2_1,XY,864,137.73981010828206,0.8116738781792785,0.06831153253066664,0.0004747485440548497
2_1,XY,885,138.1482941003229,0.7439063685581434,0.07835871922531001,0.0004966364254975754
2_1,XY,906,137.372604659472,0.7940521805121444,0.06677041961748409,0.000460049845586025
2_1,XY,927,136.68434782455734,0.7605009282261865,0.07674281424965727,0.0005030763302863004
2_1,XY,948,137.39368042941146,0.8058174830829798,0.06723726171721987,0.00047397869869473104
2_1,XY,969,137.31903385978669,0.7642004942345615,0.07490096283221072,0.0004950692099164778
2_1,XY,1018,136.861531017247,0.780553881109183,0.07346558020866766,0.0004971328760974312
2_1,XY,1039,137.43436512605228,0.7740641025035858,0.07681787794056613,0.0005121087691951682
2_1,XY,1060,137.19541855976271,0.7782028090066987,0.06899795589407771,0.0004665389518179088
2_1,XY,1081,137.82923398134443,0.789383583358363,0.07580067118555178,0.0005125465877754677
2_1,XY,1102,137.78285308798334,0.8329239784987589,0.06666883858219413,0.00047850144294672443
2_1,XY,1123,137.43012675866532,0.8296858360947127,0.07315296877615543,0.0005244853248156902
2_1,XY,1144,137.3720765776075,0.7794792572793091,0.0679441387577109,0.0004615472044001633
2_1,XY,1165,136.1117384718734,0.7631620156561318,0.07875840571404084,0.0005301780986192158
2_1,XY,1197,137.0264717990003,0.7598566062083013,0.07111931434842494,0.000469383541454849
2_1,XY,1218,137.12228197150333,0.7580842858969401,0.07723533943153991,0.0005036103759874323
2_1,XY,1239,137.4934535074219,0.8106735951202421,0.06811591355966894,0.0004775149110977474
2_1,XY,1260,138.51521624110234,0.813770747141606,0.07645158757409622,0.0005371846314963567
2_1,XY,1281,136.79620522042887,0.7678903228651498,0.0697627033451659,0.0004612872081583698
2_1,XY,1302,137.50064977152164,0.7907654872362908,0.07799236030233427,0.000533220265501896
2_1,XY,1323,136.8995082725262,0.9061316451934196,0.06401657177215993,0.0005051418480043953
2_1,XY,1344,137.42413651701847,0.7097152008553389,0.07481347683772495,0.0004589263991847782
2_1,XY,1376,138.30271079053526,0.782615588535538,0.07016707696779063,0.0004710332714120308
2_1,XY,1397,138.48984575117336,0.8074878745404006,0.06721578111812455,0.0004669552428346284
2_1,XY,1418,138.61324738060938,0.7814973666426465,0.0707284648972332,0.000474051680441143
2_1,XY,1439,139.0936361125472,0.7861612640652376,0.06356894485237866,0.00042085843783897187
2_1,XY,1460,137.8601156954113,0.8057803341206735,0.06855233795061783,0.00047508454351200826
2_1,XY,1481,137.09970485798954,0.7883632551610532,0.07585012334277154,0.0005144140087828332
2_1,XY,1502,138.11511312778444,0.8233220668349817,0.06717518883001782,0.0004689400532633276
2_1,XY,1523,140.55463912053798,0.7566085783953362,0.059946013993061015,0.0003763311526926415
2_1,XY,1555,140.0654615799401,0.8320635865012217,0.06245399560285323,0.00044587710881297937
2_1,XY,1576,139.28734860652983,0.7874676490917216,0.06587982514702734,0.00043735772358565454
2_1,XY,1597,138.69912734099304,0.8032585054049906,0.05886164569383055,0.0003999510032705304
2_1,XY,1618,139.4775187899503,0.7982485780529043,0.06358098855934659,0.0004387172626783792
2_1,XY,1639,137.6452666565779,0.7751648755989358,0.07760950386861709,0.0005183400644508022
2_1,XY,1660,137.0545407134915,0.7408412251124828,0.07948488735655623,0.0005096795734426482
2_1,XY,1681,138.02554230391215,0.8250887811221554,0.07353419583064465,0.0005194172738850876
2_1,XY,1702,137.33682117233235,0.7473295507335497,0.07935975589234366,0.000512581753159756
2_1,XY,1734,138.2796424195122,0.7606132154873408,0.07272540110640557,0.0004639804751602275
2_1,XY,1755,140.04998939637238,0.8372441627737607,0.059544674637804114,0.0004189742280644926
2_1,XY,1776,137.9651217293384,0.8037178872126415,0.07217197217136606,0.0004969160259259682
2_1,XY,1797,138.30075437025647,0.7394237320908597,0.07822247404023619,0.0004974534680310704
2_1,XY,1818,139.43389071387838,0.7869243580507664,0.06511468573868096,0.00043625099801404104
2_1,XY,1839,139.9788584264286,0.7864586306831219,0.06015531656179414,0.00040855124718509374
2_1,XY,1860,137.42782354204851,0.7552833447426449,0.07467096157050444,0.0004840092099741929
2_1,XY,1881,137.0818563171731,0.7638203519250185,0.07925298558345033,0.0005270157734887816
2_1,XY,1916,139.26002475690876,0.7506032205776678,0.07131118445867238,0.00044891592600533907
2_1,XY,1937,138.4895883986988,0.8474046568058381,0.060389469375807116,0.0004354985646451385
2_1,XY,1958,138.24576782089716,0.8445838918881126,0.07018131409030244,0.0005101762884761099
2_1,XY,1979,136.9443457296798,0.7435204833717857,0.0755813102795654,0.0004859531431195183
2_1,XY,2000,139.84347744443556,0.7673703252477196,0.07416762181693301,0.0004830019190222217
2_1,XY,2021,137.15976625392824,0.7943118826101667,0.07835464636729934,0.0005357820311024254
2_1,XY,2042,137.04306413614356,0.8290653615269166,0.07355355657765006,0.0005292133876011471
2_1,XY,2063,136.63302362256096,0.8069271672239106,0.07770073270879381,0.0005465398249913862
2_1,XY,2095,137.390067824497,0.7591699266032511,0.07195809685260415,0.00047822312004277195
2_1,XY,2116,137.4491289879259,0.7412229557887979,0.07473660214885794,0.000471719946508774
2_1,XY,2137,137.08849827286892,0.8163925939772851,0.07221140925588641,0.0005129391295585148
2_1,XY,2158,137.38279258834484,0.7893709780362062,0.07718981501545796,0.0005333764017711562
2_1,XY,2179,136.85313207905406,0.6244276861926118,0.0736756033802097,0.0004175674912991249
2_1,XY,2200,139.26428966918147,0.8146182872043556,0.07777890224162909,0.0005465852935142312
2_1,XY,2221,138.3800657267668,0.7510105861865984,0.0745249533382087,0.0004747271820159057
2_1,XY,2242,137.14186597819915,0.6935497514086169,0.07774860414867256,0.0004576674077617746
2_1,XY,2274,137.06416232365493,0.7655507698107404,0.07448040156821914,0.0004886121251648914
2_1,XY,2295,137.73320116954758,0.7573181379727717,0.07787855039041823,0.0005062780282081232
2_1,XY,2316,137.54434940163344,0.7897186524034899,0.07347929996858495,0.0005002351391243914
2_1,XY,2337,137.83323720564852,0.7905993541495056,0.06747616789531061,0.0004590855252244592
2_1,XY,2358,138.20318372031767,0.8373951695009776,0.06218036333214236,0.0004505432341897696
2_1,XY,2379,137.5213080043666,0.7583208302475565,0.07679179133573721,0.0005115466169931825
2_1,XY,2400,136.6472263329449,0.7561841541366132,0.07113273421870055,0.00046724943023304964
2_1,XY,2421,136.68066080245546,0.7893831940404158,0.07632557947021168,0.0005154927471301174
2_1,XY,2453,137.9188025718849,0.7610462156020649,0.07559725273198964,0.0004992258477274601
2_1,XY,2474,137.66712265868833,0.7679043313513974,0.07987828180601568,0.000530387232485806
2_1,XY,2495,138.17737332504373,0.7470812047226597,0.07229603616741767,0.000460389222945716
2_1,XY,2516,137.79455871222018,0.7770271594734215,0.0776743234457569,0.000513584480604852
2_1,XY,2537,137.59007190825818,0.7900330962370545,0.07412016486423206,0.0005031015548882144
2_1,XY,2558,135.8317288894228,0.7477133536039774,0.08147886658140034,0.0005335840109854929
2_1,XY,2579,137.5635176896942,0.7453713843536035,0.07669768330645947,0.000492366515605754
2_1,XY,2600,137.22094136375628,0.8010157690489247,0.07959272567922207,0.0005525345377609328
2_1,XY,2632,136.95798647274705,0.8185072966192356,0.07278410386027473,0.0005246802349013817
2_1,XY,2653,138.79191562630626,0.7235410601468727,0.07510056763955314,0.00046113642880665567
2_1,XY,2674,137.53681672926515,0.7680132768264099,0.06710296670208753,0.00043869616967755855
2_1,XY,2695,136.59268775994587,0.7571941681737369,0.08049880025119333,0.0005261990278409418
2_1,XY,2716,139.43042432920885,0.7787056096653182,0.06650643684280023,0.00043391941999300446
2_1,XY,2737,137.1673700619537,0.753102220263895,0.0769861137705005,0.0004988712613010443
2_1,XY,2758,136.6001011367986,0.7540837211643301,0.07209304782059836,0.0004717857109488075
2_1,XY,2779,137.05929857330256,0.7791121629766574,0.07717676411471397,0.0005188475135068533
2_1,XY,2818,138.09486555113028,0.8412195361259316,0.0748721394650387,0.0005445482051297374
2_1,XY,2839,136.52263512814758,0.7469852411904625,0.07947720264058244,0.0005150130503493168
2_1,XY,2860,136.91078115107555,0.7936633531778069,0.07444285472733635,0.0005125477978025844
2_1,XY,2881,137.05476330082178,0.8028380185549252,0.07923081829867389,0.0005494133205709027
2_1,XY,2902,137.31979791585943,0.7727457744404156,0.07428693838865531,0.0004955607862868566
2_1,XY,2923,136.69903451538133,0.7891098763083225,0.0786304208165991,0.0005320544777310667
2_1,XY,2944,137.29535241472493,0.7337526473307212,0.07246798572470764,0.0004574139569818611
2_1,XY,2965,137.75576059382522,0.7973830297049672,0.0754768392267285,0.0005219972620627244
2_1,XY,2997,137.7081963828098,0.8050859264908655,0.07276626876135434,0.0005032446298070019
2_1,XY,3018,137.15180343544273,0.7586681531903695,0.07733093785497176,0.0005062885076089864
2_1,XY,3039,137.7080860410119,0.8112117887650054,0.0695622099397219,0.000493933367547043
2_1,XY,3060,137.64892287776533,0.7985427425859712,0.0741721080610059,0.0005085438860791974
2_1,XY,3081,137.10070190762156,0.7027812678124972,0.07312280675437349,0.0004385927032538103
2_1,XY,3102,137.84882385242219,0.7171728705592053,0.07749126642319795,0.000478468743408576
2_1,XY,3123,138.25861924653225,0.7628598858947367,0.07490852468934403,0.0004967184770182525
2_1,XY,3144,136.4078079885182,0.7044374461523363,0.07968032303659463,0.00048689106384815407
