Scan,Type,BCID,sigma,sigmaErr,Mean,MeanErr,CapSigma,CapSigmaErr,peak,peakErr,rate0sep,rate0sepErr,peakRateRatio,peakRateRatioErr,area,areaErr,fitStatus,chi2,ndof,covStatus
1,Y,103,0.0865564757333772,0.0003091776892511201,0.002942127468193243,0.000566565232112139,0.12240934189335972,0.0004372432813221083,0.0013260461853719283,7.0904973001308065e-06,0.0013489357400542131,1.335682551637812e-05,0.983031397269254,0.011062318906492678,0.00040687700663926644,2.616395044518158e-06,0,64.65532159685532,22,3
1,Y,124,0.07487779742296952,0.00025098082494926275,0.0037588486037633696,0.0004769774182315196,0.10589319663618868,0.00035494048653883503,0.0016018161672686927,9.311708787593406e-06,0.0016437996091522732,1.541408264814729e-05,0.9744595134042939,0.010751059077208008,0.0004251778833893701,2.853085162623391e-06,0,143.7332394336993,22,3
1,Y,145,0.07531166632765358,0.00029043775029386284,0.00566104283850207,0.0005049269305418361,0.10650677992548485,0.00041074100549071124,0.0015813852815225438,1.0210456912588828e-05,0.0015970212225502145,2.0083490445836806e-05,0.9902093091770551,0.013997859470446659,0.0004221870241154756,3.1751381861129956e-06,0,90.57852914459036,22,3
1,Y,166,0.07498094437355304,0.0002640791024479153,0.0038729425060720904,0.0004874210820099708,0.10603906845262134,0.00037346424822115587,0.0016002478679358716,8.12064985803539e-06,0.0016351482048926678,1.3142199235975452e-05,0.9786561628772438,0.009302392283855692,0.00042534672694622674,2.627386282935148e-06,0,114.29851300689552,22,3
1,Y,187,0.07666523297840368,0.0003221647947295637,0.003932990254148777,0.0006252575378900859,0.10842101224055156,0.0004556098220256932,0.001574543811336833,1.0557265770450998e-05,0.0015820772788315786,2.278376402629849e-05,0.9952382430393607,0.015809894244266105,0.0004279156214539511,3.386089468156248e-06,0,45.2544336870751,22,3
1,Y,208,0.08126710190390954,0.0003072950116981611,0.0040629244375359865,0.0005531606996702823,0.11492903768726526,0.00043458077319313837,0.0014738652861080353,8.779703820040094e-06,0.0015191362513172903,1.5323541368407635e-05,0.9701995359731563,0.011365534597185901,0.0004245975604355974,2.995840446356349e-06,0,89.67530082585806,22,3
1,Y,229,0.0761522563932366,0.00024154184452626997,0.003947866830399825,0.0004537965066774804,0.10769555379662843,0.00034159175240966455,0.0015582557274387448,8.980296949085403e-06,0.0016096975428246754,1.7882726639208266e-05,0.9680425582959757,0.012115268116065859,0.0004206553723872508,2.7671697889800765e-06,0,163.04857886600195,22,3
1,Y,250,0.07384771632539722,0.00024077189940517705,0.004101325822387858,0.0004613947477753268,0.10443644197765778,0.00034050288557713193,0.0016324403725883222,9.679858908400253e-06,0.0016659258038398126,2.0636725820113383e-05,0.9798998063573363,0.013457573523712709,0.00042734569041480343,2.8918164057300794e-06,0,85.3453228050003,22,3
1,Y,282,0.07586224554402644,0.0002406919322976409,0.005058518231068409,0.00044398203321418704,0.1072854165204401,0.0003403897950091106,0.0015518036683212291,9.120428785405767e-06,0.0015831535870489343,1.903179322351261e-05,0.9801978033059049,0.01311627311495153,0.0004173182715711775,2.787270465535576e-06,0,96.1772189756221,22,3
1,Y,303,0.0744923926669799,0.0002711220413923816,0.005313059456237731,0.0004981934412589164,0.10534815200326508,0.00038342446799538576,0.0016147928603653997,9.489491800546483e-06,0.001650570889036096,2.0750948115122026e-05,0.978323846065412,0.013576835896873269,0.0004264161811487715,2.947552933814948e-06,0,133.58709876495925,22,3
1,Y,324,0.07596081789340198,0.00030624977387669436,0.0038828466793363933,0.0005186752268324178,0.10742481887380195,0.0004331025836901148,0.0015800990258350012,8.940776686979262e-06,0.001578938977954964,2.3768629268915225e-05,1.0007347008948628,0.016093678282066575,0.0004254797247416203,2.9561363222400858e-06,0,134.5204692919634,22,3
1,Y,345,0.07401956107072623,0.00024045825477659488,0.004138406905105379,0.000481866275604229,0.10467946714712462,0.00034005932508962555,0.0016424626474655145,9.062869307540497e-06,0.0016736929816519067,1.5157019566623294e-05,0.9813404641539643,0.010406765388869293,0.0004309699001387875,2.7595527273527443e-06,0,161.93092669586045,22,3
1,Y,366,0.07648773714684266,0.0002760040568669741,0.004420719062073536,0.0005028028199499835,0.10816999522829329,0.0003903286804912698,0.0015843880933281377,9.030686652253452e-06,0.001616669196758602,1.6143999953017695e-05,0.9800323384059104,0.01126854503368896,0.00042959410650236476,2.8980492009063322e-06,0,128.57117303000175,22,3
1,Y,387,0.07483527966896099,0.0002581443432504742,0.0037348307406986857,0.0004935595470393746,0.10583306745182819,0.0003650712312747162,0.0016236827517612893,8.399878024289722e-06,0.0016487222045463322,1.2765546821564836e-05,0.984812812785564,0.009170548633176628,0.00043073731371518327,2.678292524364898e-06,0,86.65499412836408,22,3
1,Y,408,0.076271509808014,0.0002947788447515383,0.003569079122395076,0.0005197141928872336,0.10786420359316595,0.0004168802401482985,0.0015727743315830753,8.985415604921796e-06,0.0016309506212243336,1.793679789511689e-05,0.9643298277187655,0.011951083569464149,0.0004252395873841129,2.933125556240436e-06,0,150.9773923033414,22,3
1,Y,429,0.07419029957662357,0.0002601257844918663,0.004491091118133046,0.0004813659880451228,0.10492092785778395,0.0003678734123513383,0.0016236145574582373,9.243361104986117e-06,0.0016555040540888995,1.8959613225799627e-05,0.9807372887116169,0.012543097798120701,0.00042700699880822093,2.855030550776023e-06,0,135.30320068350565,22,3
1,Y,464,0.07651012530395562,0.00027986899931534305,0.0042647217717123225,0.0005291479592727718,0.10820165686371896,0.0003957945345195446,0.001526475998850937,9.586234277712355e-06,0.0015551126618629139,1.6728188434619833e-05,0.981585473699589,0.012226511743878694,0.00041401285437124753,3.0088964678713005e-06,0,111.11114210205348,22,3
1,Y,485,0.07496757699941677,0.0002680466760478448,0.003353528602137864,0.0005080795975419192,0.10602016413082449,0.0003790752446158896,0.0016169161612078805,9.067114362621667e-06,0.001640085134412852,1.4483296494172835e-05,0.9858733106478244,0.010313065126561206,0.00042970054872235226,2.857752533277705e-06,0,112.57586427334806,22,3
1,Y,506,0.07563197698386522,0.00027743537053598143,0.003975644873546836,0.0005165871549681286,0.10695976759967196,0.0003923528636939899,0.0015864930623620734,1.0285445861296575e-05,0.0016387658544714508,1.999518272300472e-05,0.9681023424019065,0.013376090364645613,0.00042535208120329836,3.1684281031644265e-06,0,77.92646462484976,22,3
1,Y,527,0.07438586939858947,0.00026953242142746227,0.004555242918823213,0.0004484712027921167,0.10519750535239902,0.00038117640588197776,0.0016224459854909893,1.0881201884115385e-05,0.001658007574085695,2.4645495999212072e-05,0.9785516127003726,0.01595769806307431,0.00042782447142710443,3.261264269236389e-06,0,119.2061013040346,22,3
1,Y,548,0.0754016534405192,0.00026551580740757555,0.005470301201940977,0.0004981467527021727,0.1066340409209382,0.00037549605586023604,0.001579824758071313,8.682041578548604e-06,0.0016084897489976216,1.8518958228466208e-05,0.9821789408703587,0.012530249156593776,0.00042227436442829005,2.756169014045511e-06,0,99.19549378791453,22,3
1,Y,569,0.07474051602507213,0.00028234138136268565,0.004105753623032135,0.00048584777342904176,0.10569905142142066,0.00039929101074226425,0.0016322986362008627,9.560131619490583e-06,0.0016845098687609114,1.800913176972966e-05,0.9690050895347654,0.011812353425212734,0.00043247463595310167,3.0141074655861938e-06,0,91.60375274245652,22,3
1,Y,590,0.07514080264091207,0.0002831652859362874,0.0034904295732021457,0.0005111086060906034,0.10626514218237793,0.0004004561877643531,0.0015837825904872263,9.750145247787903e-06,0.001628398683590767,1.8563790088052442e-05,0.9726012471312258,0.012601096172208935,0.0004218677498778731,3.0450727358550884e-06,0,123.83690443809941,22,3
1,Y,611,0.07381996217838542,0.0002597557056398737,0.004327973239776049,0.0005099210320690152,0.1043971916865416,0.0003673500418197029,0.0016527609638425091,9.32752448305307e-06,0.001667203260044767,1.8270947811147824e-05,0.991337411251301,0.012220050441713776,0.0004325026742732782,2.8764518405025083e-06,0,57.91857805184478,22,3
1,Y,643,0.07745718118545712,0.0002907542746851543,0.0042761946583064914,0.0005234584822629673,0.10954099613566359,0.0004111886385776975,0.0015251389898090716,8.213686715841866e-06,0.0015337425684835962,1.4790156468780272e-05,0.9943904675717314,0.010983172082276872,0.00041877046479234345,2.7490789046960898e-06,0,91.8575188221346,22,3
1,Y,664,0.07613920100936701,0.0002726758331207388,0.003710421464565802,0.0004751431958631543,0.10767709069569809,0.0003856218613307316,0.001587045421969139,9.550966701252767e-06,0.001621960392859767,1.6835747033279068e-05,0.9784735983416539,0.011740015839376172,0.00042835378006965863,2.9997875358893264e-06,0,117.84381779921597,22,3
1,Y,685,0.07573215168252831,0.0002908237713754009,0.00424195477357903,0.000545993774787589,0.10710143601712796,0.00041128692173958425,0.0015640836469005227,1.04043365074058e-05,0.0015756302257233508,2.134678040519154e-05,0.9926717711844305,0.014982449167235281,0.0004198993510173731,3.2252095863334357e-06,0,81.68713967146596,22,3
1,Y,706,0.08176099771743692,0.00029772609818445097,0.004162686534314089,0.0005111058781157984,0.11562751184515496,0.0004210482859248743,0.0014611172098111583,8.561542653475518e-06,0.0014912812651219456,1.5159140007518972e-05,0.9797730609132808,0.011495773995366644,0.0004234831848722564,2.921564127283529e-06,0,91.55288215235383,22,3
1,Y,727,0.07593232976244675,0.00026704238170052584,0.004607741416175221,0.0005180058243232644,0.10738453057263841,0.0003776549579292965,0.0015840034296716713,9.334617074743258e-06,0.0016203413850167888,1.6166982776143317e-05,0.977573889254985,0.011328006872949823,0.0004263711145120602,2.9260459129573257e-06,0,97.20952245753972,22,3
1,Y,748,0.07407007003106882,0.0002670243494704695,0.004529097307745262,0.0004714195648475342,0.10475089760386247,0.0003776294565049909,0.0016279738102675982,9.942011921899885e-06,0.0016446922759995118,2.044642130452351e-05,0.9898348973994218,0.013709979791073213,0.00042745962581232236,3.0313929475037905e-06,0,136.23434588304087,22,3
1,Y,769,0.07567382379958892,0.0002865367597881371,0.003760678861184255,0.000532234189943323,0.10701894793401057,0.00040522417181082515,0.0015857168544542938,1.0228321531584566e-05,0.0016295248348030156,1.8954447325271404e-05,0.973116101446826,0.012943063054802662,0.00042537920351326503,3.1816404615278153e-06,0,77.23409981208407,22,3
1,Y,790,0.07438071953719817,0.0002723457416706146,0.0038891021627462997,0.00047258605853184614,0.10519022234857511,0.00038515504152514257,0.0016179242843260405,8.091325349990571e-06,0.0016404912666405694,1.3560748335071477e-05,0.98624376564909,0.00952845206732909,0.0004266026028631591,2.6441511928268647e-06,0,118.0462374032901,22,3
1,Y,822,0.08480519806602603,0.00031239919256981794,0.004679100381000495,0.0005773127986936309,0.11993266126471058,0.0004417991750066408,0.0013653696747957795,7.965582533624183e-06,0.001365457627717642,2.0333080150276065e-05,0.9999355872199348,0.015992051984407753,0.00041046644277366545,2.8320856633854675e-06,0,62.78063195322221,22,3
1,Y,843,0.07779657709521,0.00026421298227219565,0.004352027829998619,0.00041477753315832176,0.11002097443425007,0.0003736535828843812,0.001538626819659713,7.657228756093737e-06,0.0015891976619305877,1.7339967736676423e-05,0.9681783811527633,0.011610888763680329,0.0004243250974033005,2.5565853308548876e-06,0,104.95774073955823,22,3
1,Y,864,0.07495081395117788,0.00029434027703987263,0.004069811605771886,0.0005042494296569155,0.10599645760065834,0.000416260011742442,0.0015960024656732459,9.624829079182933e-06,0.0016165186109838186,2.328714904125727e-05,0.9873084385350277,0.015418879816124878,0.00042404782845541895,3.051676690213462e-06,0,92.957977463303,22,3
1,Y,885,0.07445662144722237,0.00028140836534958216,0.004137303962085277,0.00047866022189559576,0.10529756385914135,0.00039797152684262205,0.0016483929733237975,8.925125551371867e-06,0.0016588228681251986,1.6425353139283938e-05,0.9937124722586029,0.011214522170034096,0.00043507989225626106,2.8728698281810803e-06,0,117.45414994973294,22,3
1,Y,906,0.07520824489845064,0.0002815660143135294,0.0035643558124463415,0.0004794262214489928,0.10636051993766604,0.0003981944761455303,0.0015804599760672697,1.0746616030987559e-05,0.001602391025767514,3.0062318546645155e-05,0.9863135468511877,0.019682020914490228,0.0004213605653079391,3.2706856222038127e-06,0,75.05508751844181,22,3
1,Y,927,0.07393205600738349,0.0002757075095476695,0.003574212310669491,0.0004852060713971979,0.10455571629976901,0.00038990929925042384,0.0016392180201131232,9.593681423127192e-06,0.0016624246378079592,1.7191996718898573e-05,0.9860404994205115,0.011716879427541895,0.0004296100530932876,2.9813769399764725e-06,0,106.53356791932076,22,3
1,Y,948,0.07536130379435742,0.00028408281368715466,0.0044288955696801914,0.0005292723329566048,0.10657697790409926,0.0004017537679534833,0.0016012898670195235,8.946208168701154e-06,0.001643802347541759,1.5732646645783745e-05,0.9741377175998007,0.010795584958772995,0.00042778277249448665,2.8831147786364017e-06,0,94.28676039640368,22,3
1,Y,969,0.07421022559772848,0.00026186542820566994,0.004019940644641631,0.000482499937558432,0.10494910750707465,0.0003703336400850965,0.0016220850874070693,1.0434232421290002e-05,0.0016330334354100712,1.977443550182478e-05,0.993295698810813,0.013619630220103415,0.00042671932905333573,3.130797303300028e-06,0,107.54396183568713,22,3
1,Y,1018,0.07437607799677505,0.0002697773558808487,0.003733001913514868,0.0005081586085446005,0.10518365821915843,0.0003815227955078493,0.0016247931210464782,9.528561865755139e-06,0.0016228570822518905,2.0063940515163062e-05,1.0011929816961462,0.013700050805684897,0.00042838699410106124,2.953967162663998e-06,0,66.73468219214328,22,3
1,Y,1039,0.0737633059296225,0.0002913214680807713,0.004780129106074739,0.0005042678948724995,0.1043170676511479,0.0004119907711702675,0.0016435288141505445,1.057307303937619e-05,0.001669323448953031,1.9383652575737924e-05,0.9845478509160916,0.013069538619020044,0.00042975667136567936,3.244116234772644e-06,0,97.8909288420545,22,3
1,Y,1060,0.07371813769987239,0.00026948296957380425,0.0035388326013711035,0.0004657277743652235,0.1042531901280469,0.00038110647039985013,0.0016292856194134774,8.952518389134482e-06,0.0016220120946729068,2.377552806959177e-05,1.004484260483913,0.01572428919292595,0.00042577142558739906,2.80994924402527e-06,0,91.54744117623703,22,3
1,Y,1081,0.07551648054367252,0.0002734547360116354,0.004594496504616327,0.00047631294508813026,0.10679643096754565,0.00038672339636280917,0.0016305321979789718,8.993860118453281e-06,0.0016660251046985593,2.238612587856613e-05,0.9786960552878288,0.0142155083094398,0.00043649176303549395,2.880110179966005e-06,0,55.275477463322666,22,3
1,Y,1102,0.07444278189903066,0.00030678434879048206,0.004134303881831053,0.00048460414490063606,0.1052779917823915,0.0004338585867832978,0.0016220287465265354,1.150136399054106e-05,0.001668357923255894,2.4433490799402904e-05,0.9722306729967485,0.015819638256525437,0.00042804169283785473,3.5105077839490196e-06,0,87.77061161262371,22,3
1,Y,1123,0.07322951718201853,0.0002731034264060151,0.004281238349418916,0.0005225354504321338,0.10356217636484422,0.00038622656955394907,0.0016731077444007017,1.0372002865490051e-05,0.001718871946945707,1.7052398205780187e-05,0.9733754439204593,0.01138685958086017,0.0004343251839054507,3.1421611753141324e-06,0,107.64298904635207,22,3
1,Y,1144,0.07455584149238521,0.0002721844653096956,0.003329483493361535,0.0005300357160374622,0.10543788219266992,0.00038492696230824075,0.0016056678917135347,9.982770092405296e-06,0.0016390708110942756,1.6642971576034155e-05,0.9796208198238607,0.011663474301564256,0.0004243677101276136,3.0596180603194646e-06,0,104.52096323218372,22,3
1,Y,1165,0.07402216144043337,0.0002498275615785658,0.0038171158413962867,0.0004318485369382127,0.10468314462523165,0.0003533095258390073,0.0015923787919046033,9.337738845307097e-06,0.0016337699873097476,1.8573436281891202e-05,0.9746652247705313,0.012467656945910703,0.0004178429501214196,2.8270894387689344e-06,0,113.68546535487617,22,3
1,Y,1197,0.07421356082553078,0.0002521048236986968,0.004083453019663296,0.00045526576919353325,0.10495382423146626,0.0003565300608143751,0.0016213087141130939,7.933025412717266e-06,0.0016341773498084798,1.4181368387633534e-05,0.9921253126553895,0.009883911795958985,0.0004265342586269508,2.540689260433046e-06,0,82.52323501051407,22,3
1,Y,1218,0.07338303706231765,0.0002659683327623207,0.00509786808799684,0.0005159391472384372,0.10377928626165711,0.00037613602335423435,0.001670638033612047,9.539214153757929e-06,0.0016379977725533763,1.71426406449868e-05,1.0199269264009987,0.012159485832754826,0.00043459325132291473,2.9391930731792456e-06,0,77.80304661047624,22,3
1,Y,1239,0.07392139089627354,0.00028082368378214194,0.004718856188224062,0.0005177523463776398,0.1045406335549931,0.00039714466224027856,0.0016286342223207212,1.015202778379479e-05,0.0016730578523573437,1.997479048829007e-05,0.9734476426060047,0.01311078722219111,0.0004267746533644676,3.1153981968256226e-06,0,83.8065081261331,22,3
1,Y,1260,0.07401521067115309,0.00025875290363580123,0.004069959575541698,0.0004828562374549196,0.10467331475304653,0.00036593186562516866,0.0016601958031213673,1.0395813003411475e-05,0.0016996220291059995,2.1332605570057426e-05,0.9768029448256973,0.013701287453890742,0.00043559734424976647,3.1239267834207087e-06,0,88.62484409907843,22,3
1,Y,1281,0.0743720064411117,0.0002568051975000885,0.0046446321577563385,0.00047812271939063125,0.10517790016991935,0.0003631773931925264,0.0016232800242522692,9.613402455424697e-06,0.0016349671559335052,1.6939294713215453e-05,0.9928517636340143,0.011848481297747267,0.0004279646272809952,2.9338414454404966e-06,0,65.73956001915299,22,3
1,Y,1302,0.072109850656447,0.00025092086014156655,0.004035710998192558,0.0004480547008905716,0.10197872877904579,0.000354855683494526,0.0017185426137059888,1.0470955636550376e-05,0.001738375033971155,1.730819509110383e-05,0.9885914029610395,0.011539720026788122,0.0004392986146316872,3.0823646029578503e-06,0,70.87165756840521,22,3
1,Y,1323,0.07377860721293684,0.00028925503172349165,0.004429866600316711,0.0005242540631800939,0.10433870693353275,0.00040906838884802177,0.0016283359463982487,9.208869962080136e-06,0.0016824280382117,1.576169951087574e-05,0.9678487931816999,0.010591236775092022,0.0004258723014507875,2.9306191437521793e-06,0,112.37958797716085,22,3
1,Y,1344,0.07421455708775572,0.00026445564575798065,0.004157912824020513,0.00046181526507586325,0.10495523315901645,0.0003739967608770711,0.0016121133945138145,9.952805451700234e-06,0.0016652136342039158,2.15226914432119e-05,0.968112055654957,0.013866931945827152,0.00042412084532558167,3.023274162327557e-06,0,112.88616906795325,22,3
1,Y,1376,0.07634822633545603,0.0002681479742393845,0.0038382788956732253,0.0004756445384351543,0.10797269714673263,0.00037921850189220896,0.001545181345462827,8.714314925222105e-06,0.0015818440249181105,1.7729991628394753e-05,0.9768228226817866,0.01225649326538434,0.00041819933771511955,2.778469096389895e-06,0,74.62161832147174,22,3
1,Y,1397,0.08185592307189596,0.0003033112537433543,0.0040102828099795595,0.0005296531267739461,0.11576175656884402,0.0004289468886642389,0.0014253346210897206,8.393959382555091e-06,0.0014360853147611366,1.7643054057783024e-05,0.9925138892787827,0.013522092515193979,0.0004135917588622206,2.877715268206516e-06,0,83.0208837864452,22,3
1,Y,1418,0.07509734257497847,0.00025445842117631084,0.004078744310512059,0.0004650578486984343,0.106203680367713,0.00035985855028758396,0.001600664905612403,8.904626420487149e-06,0.0016098526994473674,2.248363697971072e-05,0.9942927735946783,0.014947648251957562,0.0004261180435435858,2.7756278274845465e-06,0,81.53730356532962,22,3
1,Y,1439,0.08816855130766175,0.00032491404263063404,0.005417841759353828,0.0005306478094736086,0.12468916103408334,0.00045949784569371266,0.0013413661245127977,7.060858774106909e-06,0.0013597988593285338,1.2177526224078357e-05,0.986444513694593,0.010247062066364498,0.00041924314599280527,2.69391944133223e-06,0,68.136199437476,22,3
1,Y,1460,0.07557770696969128,0.000256437056840881,0.0031486298214070583,0.0004698874858721189,0.106883018209597,0.00036265676367941424,0.0015817467423421979,8.155490019954806e-06,0.0016295661689181165,1.8702458425476445e-05,0.9706551182222527,0.012212711133184031,0.0004237752531384104,2.6156574535237484e-06,0,167.0016784955465,22,3
1,Y,1481,0.0741669262391741,0.0002650408776098557,0.004654582521429529,0.00047839354390892335,0.104887872966965,0.0003748244036991255,0.0016356156233936568,8.896726914430224e-06,0.0016581874193111585,1.5226613116914158e-05,0.9863876690568075,0.010527511369975083,0.00043002773122134344,2.7987247756194625e-06,0,111.64382506990077,22,3
1,Y,1502,0.07538512429581558,0.00025415023885228964,0.004396946558086883,0.0004893123034444419,0.10661066518032392,0.00035942271466526954,0.0016002090580409137,8.602890351708879e-06,0.0016380859252527057,1.4076218219876177e-05,0.976877362397245,0.009901878452107318,0.0004276291596209282,2.7136279377220128e-06,0,111.29042886334479,22,3
1,Y,1523,0.08908939396743745,0.00035829540849407603,0.005002387834408082,0.0005902841543575114,0.12599142921234985,0.0005067062260283306,0.0013062289400266709,7.722520584474793e-06,0.0013280336573434685,1.684892893558253e-05,0.9835812012773723,0.013767176764096814,0.00041252496693730247,2.949685931721305e-06,0,68.36512583523384,22,3
1,Y,1555,0.08900035233460593,0.0003424391658780225,0.0044700584260449865,0.0006092223816693132,0.12586550532758367,0.0004842821126724295,0.001309718387172396,7.833791779203662e-06,0.0013261890790797228,1.713822054371497e-05,0.9875804346701782,0.014063134193455753,0.00041321357684225414,2.9387548702905214e-06,0,73.34841049263323,22,3
1,Y,1576,0.08433973942864433,0.00029446558719569104,0.005109131556253045,0.0004974525534702646,0.11927440334700168,0.00041643722706430353,0.0013972000314751809,7.198400203518234e-06,0.0014152874147007213,1.4556942478334396e-05,0.9872199928879003,0.011356671669826861,0.0004177301035701797,2.599789128757719e-06,0,104.86578430973647,22,3
1,Y,1597,0.09052202008145027,0.00032468288879161736,0.0035034255434202455,0.0006103920726915207,0.12801746849259665,0.00045917094479958065,0.0012767869466194202,7.625676324056319e-06,0.0013052650779971893,1.6738099982697473e-05,0.9781821088621583,0.01383753235262004,0.00040971098011005234,2.8543771051057262e-06,0,57.17799809437179,22,3
1,Y,1618,0.08651850906789336,0.0003006649934578233,0.00482718174289941,0.0005343565569163272,0.12235564892011441,0.0004252045114788716,0.0013700946618999022,7.800515206227308e-06,0.0013904120851304849,1.833693615847795e-05,0.9853874808426482,0.014154697374764585,0.0004202082097441814,2.802875023976707e-06,0,95.76589766228763,22,3
1,Y,1639,0.0758510338501293,0.0002759584454243392,0.003512700220124757,0.0004990323904973765,0.10726956079087357,0.00039026417617049614,0.001571995203876359,8.908777548639912e-06,0.0015932719685836187,2.3202307216987234e-05,0.9866458676693005,0.015417853593477027,0.00042268579533735274,2.84656665570423e-06,0,125.3151833827245,22,3
1,Y,1660,0.07777978555877824,0.0002851747574224756,0.004026334662221939,0.0005306565522993083,0.10999722761569519,0.0004032980095933225,0.0015614780202087468,9.72033354115356e-06,0.0016049190254510918,1.9417433764060004e-05,0.9729325875303054,0.013237970678375309,0.00043053409388690557,3.1104248881136523e-06,0,89.26587720176761,22,3
1,Y,1681,0.0753395121627973,0.0002917695874024141,0.0043828671487873,0.0005063654698233987,0.10654615988320071,0.00041262450759249614,0.001581522143466249,1.017398623178594e-05,0.0015973933594239755,2.0778155341919714e-05,0.9900643032825367,0.014367193678850677,0.00042237967604491614,3.1715614361761504e-06,0,80.55000913789212,22,3
1,Y,1702,0.07334830772510499,0.0002694903608217357,0.005560616197307651,0.00045012520135517814,0.10373017156195874,0.0003811169232029177,0.0016290615013543144,8.394730542780944e-06,0.0016618555589455392,1.3256578013348097e-05,0.9802666017424325,0.00930926295931265,0.00042357713714983377,2.6807337262072e-06,0,123.92660965874248,22,3
1,Y,1734,0.07536808039569097,0.0002580645156902044,0.004568014338918783,0.0004676527642325304,0.10658656146561196,0.0003649583380563315,0.0015905257410368143,8.324641344341607e-06,0.0015929055790237453,1.7395289777666335e-05,0.998505976739444,0.012091840046290917,0.00042494535672947845,2.6577875356511163e-06,0,97.03305926617182,22,3
1,Y,1755,0.08864807877805458,0.0003367420124104545,0.003980699802012244,0.000597172946366647,0.12536731528624334,0.0004762251209716739,0.0013258705363053459,7.644988335722675e-06,0.0013233173146080322,1.7617825410730976e-05,1.001929410028214,0.014536369134390706,0.00041665383119200694,2.8769207800813947e-06,0,65.57166490330712,22,3
1,Y,1776,0.07611853968364915,0.00028215658687866897,0.0036796849814484693,0.0005208574729706632,0.10764787116865127,0.0003990296718767161,0.0015665158078123015,8.862004025396779e-06,0.0015866739355746208,1.7620825727584413e-05,0.9872953558318717,0.01230502980377711,0.000422697969474054,2.8588783104529667e-06,0,66.03610094778765,22,3
1,Y,1797,0.07413203151207781,0.00024740152845531397,0.002444503537085367,0.00042333942992614607,0.10483852437065011,0.0003498785968933382,0.001640876326727965,9.990698784247603e-06,0.001654715095170574,2.4859693349066685e-05,0.991636766665755,0.016074872876386887,0.0004312078744719453,2.9939965847725617e-06,0,133.46431233756846,22,3
1,Y,1818,0.08806311242200993,0.00030370701751531793,0.004497774844771022,0.0005159905590150733,0.12454004793199303,0.0004295065831580458,0.0013304400170547376,7.859661062994342e-06,0.001341376705862595,1.6805031337232213e-05,0.9918466686054278,0.013738241483784643,0.0004153309178658908,2.8410927565543896e-06,0,91.90284470832769,22,3
1,Y,1839,0.09384872098575814,0.00030171296970404253,0.004324888469214763,0.0005473410699435725,0.13272213402942767,0.0004266865736993197,0.0012264100700471428,7.025366266136943e-06,0.0012464998090753185,1.4176106611100068e-05,0.9838830789367881,0.012528720864306198,0.00040800830016825686,2.680153375580022e-06,0,63.08462871982014,22,3
1,Y,1860,0.07669383208995717,0.0002748136209200566,0.004051876460180545,0.0004608413777494569,0.10846145749198233,0.00038864514983000253,0.0015597009273216962,8.980566244657671e-06,0.0015720940561030226,2.0368746860279536e-05,0.9921168019602803,0.01406647263074626,0.00042403987779556505,2.8757555109469924e-06,0,98.9391830347217,22,3
1,Y,1881,0.07535049665856562,0.0002509253973205668,0.0026815593247394975,0.0004625790636008779,0.10656169430609208,0.00035486210003460306,0.001608086516295558,8.101710431573346e-06,0.0016372499366615432,1.4053738245224039e-05,0.982187557493237,0.009775762393946676,0.00042953688336770337,2.5940664260798746e-06,0,89.90671992861574,22,3
1,Y,1916,0.07782474113894611,0.0002770284787574645,0.0033408723127851024,0.0005369152691773475,0.11006080440687294,0.0003917774318223932,0.0015117402880190918,7.726998232500578e-06,0.0015355021568547076,1.499169982367808e-05,0.9845250176109884,0.01084986590515206,0.0004170612149362484,2.597750202100527e-06,0,89.5400055794141,22,3
1,Y,1937,0.08906035746945923,0.00031965649659623823,0.004274938596828621,0.0005867338035399784,0.12595036540310522,0.0004520625527870692,0.0012871733729280272,8.441924922869384e-06,0.0013093590630668943,1.715366586768806e-05,0.9830560686028308,0.014402531639220204,0.00040637446723947246,3.0382123799393694e-06,0,102.37723549975875,22,3
1,Y,1958,0.07482941949739244,0.0002913152121178276,0.003899854241051307,0.0005151245198041891,0.1058247799177181,0.0004119819239026268,0.0015937108264536951,9.54983153643492e-06,0.00162086968394867,1.8953499141564743e-05,0.9832442683308061,0.012919184541981514,0.00042275312933048853,3.020905735693495e-06,0,94.98650630758017,22,3
1,Y,1979,0.07426627258369813,0.00025769173707521976,0.004455044912207875,0.0005054261728188532,0.10502836991476305,0.0003644311494832575,0.0015892459542155817,9.713866878368986e-06,0.001616974229087126,1.8136216136061984e-05,0.9828517521350983,0.012554425139982927,0.00041839614441702394,2.940683370504521e-06,0,91.0069845509079,22,3
1,Y,2000,0.0751290108824323,0.00026839103180483463,0.004229245405946089,0.0004664306895304953,0.10624846611761163,0.0003795622371977059,0.0015945660553477268,9.231295697834955e-06,0.0016216608298076235,1.811995872765044e-05,0.9832919597231001,0.012374124846969304,0.00042467345735686064,2.88893898129105e-06,0,114.40800674974001,22,3
1,Y,2021,0.07488714478228391,0.0002731060932639907,0.005048288260553545,0.00046763225618655195,0.10590641579850346,0.0003862303410606671,0.0015865009657760197,9.25294118657383e-06,0.001622749415154194,1.7383672329959473e-05,0.9776623247929318,0.01192479194587782,0.0004211652642510915,2.8970402223972525e-06,0,161.59626507862149,22,3
1,Y,2042,0.07636278389569887,0.0002843030877400489,0.0030528147828917784,0.0005350671635959192,0.10799328464586311,0.0004020652825065252,0.0015389715101716906,1.063180346368611e-05,0.001567800857687443,2.0533045261565303e-05,0.9816116011326358,0.014534806213936921,0.00041659808078654657,3.269350355835054e-06,0,157.3343031893187,22,3
1,Y,2063,0.07421894710687003,0.0002790678909167003,0.0028949799706114087,0.00048215616101278115,0.104961441583587,0.00039466159615725305,0.0016075584592568338,1.0275068091334694e-05,0.0016468354567371769,2.4386445197184602e-05,0.9761500171011854,0.01574396792127173,0.00042294753302082275,3.1364401937252188e-06,0,138.38382385254957,22,3
1,Y,2095,0.07503214793242183,0.00024963834626725055,0.004252291689439281,0.00046743061578178734,0.10611148122001535,0.0003530419349795366,0.0015643152700275619,9.110588282011272e-06,0.0015860286168817871,1.8183114022286657e-05,0.9863096121828402,0.012683003677106423,0.0004160797653000951,2.790794100124675e-06,0,110.9652175310636,22,3
1,Y,2116,0.07402742252987383,0.0002513472912298816,0.004101166628036244,0.0004512035684278037,0.10469058492927119,0.0003554587481230387,0.0016030467914638794,9.199725995683556e-06,0.0016388096216678372,2.553607850703056e-05,0.9781775566050427,0.016242946791758067,0.0004206721486087495,2.805073390520132e-06,0,103.97029830121919,22,3
1,Y,2137,0.07460218374336636,0.00026012099460197085,0.004694415501700664,0.0005089926442419359,0.10550342003251834,0.00036786663842408585,0.0015862471759697508,8.067922785988009e-06,0.0015854821942577744,1.7893292471444818e-05,1.0004824915188244,0.012384840921721233,0.0004194955268048636,2.586853166280876e-06,0,98.39636161712461,22,3
1,Y,2158,0.07427688652244219,0.00025654994625196894,0.0037043590094389236,0.00048711098463579327,0.10504338029088511,0.0003628164134156231,0.001614515168250531,9.380856073808196e-06,0.0016380771680333478,2.1186682714020178e-05,0.9856160623915509,0.013975081569463033,0.00042510944348463157,2.8734931509910226e-06,0,90.28891590088621,22,3
1,Y,2179,0.07548486373387671,0.0002884519104380552,0.004269911527066006,0.0005221273814422294,0.10675171804633343,0.00040793260383392704,0.001557558903759699,9.900379811656167e-06,0.0015941295555602555,2.026474479268958e-05,0.977059172089872,0.01388664607766164,0.00041678231940570824,3.0910978070357686e-06,0,114.91202037396484,22,3
1,Y,2200,0.07487704326794778,0.00028184752989990537,0.004465139474010373,0.0004816929948045669,0.10589213009992882,0.0003985925993058026,0.0016134237584413658,9.647515104921817e-06,0.0016720056678348127,1.887477425599807e-05,0.9649630916207907,0.01232698612252571,0.00042825462962530267,3.025900344744956e-06,0,122.71788765462037,22,3
1,Y,2221,0.07533074920326155,0.00027288541958331346,0.004780375868057728,0.00043441189233947667,0.10653376718697871,0.0003859182613485945,0.0015592447089396038,8.752262636947699e-06,0.001560844429974221,1.870905477476782e-05,0.9989750925820048,0.013222122874986577,0.0004163815693903162,2.7816611594420163e-06,0,117.6164225149756,22,3
1,Y,2242,0.07340482191207025,0.00026318520067234813,0.003835284415846974,0.00047826444597953867,0.1038100946916315,0.00037220008020671935,0.0016285273600031732,8.7830318378423e-06,0.0016428095801950824,1.4848490519920974e-05,0.9913062229706421,0.010433750667937631,0.00042376450868965087,2.7444123025353836e-06,0,136.37240655924438,22,3
1,Y,2274,0.07518424044354027,0.000256281827658291,0.004417555411156676,0.00048194056008507005,0.10632657251197442,0.0003624372364641193,0.0015736970867473942,7.874142270028237e-06,0.0016082577323775053,1.2290552971243227e-05,0.9785105055400419,0.008938171209423678,0.0004194236249854474,2.539342944670735e-06,0,86.9659315665321,22,3
1,Y,2295,0.07562870208271902,0.00025177012783212917,0.003429769286577022,0.0004904488870095476,0.10695513619005559,0.00035605672938060495,0.001603494909401208,7.78123572843289e-06,0.0016422017224070916,1.9182805706226773e-05,0.9764299278963438,0.012350881850790852,0.000429891803502237,2.529827015583194e-06,0,86.3066440465761,22,3
1,Y,2316,0.07434141212655454,0.0002704299644639176,0.0048576049877708674,0.0004707009555566621,0.10513463327534112,0.0003824457234169465,0.0016067005231395826,9.869217366713636e-06,0.0016497347654356382,1.867463666636349e-05,0.9739144478265924,0.01254302780244368,0.00042341932299981935,3.022734958177625e-06,0,130.02514436422013,22,3
1,Y,2337,0.08323825283976093,0.0003037614173803315,0.004658472908705561,0.0005385495844717191,0.1177166660742307,0.0004295835161849393,0.0014001432244785386,8.70913627230777e-06,0.0014574665168837582,2.0396329608652955e-05,0.9606692217343121,0.014712141728942592,0.0004131429545301332,2.9794446980817102e-06,0,85.38094486471937,22,3
1,Y,2358,0.08781616806620855,0.00035227902292618286,0.003836471171035158,0.0006138673516395836,0.12419081587486724,0.0004981977719617503,0.001309166162101233,9.030059621143978e-06,0.0013567970601360427,2.5149914636638423e-05,0.9648946040389903,0.01908366807241554,0.0004075437018696526,3.25190641995581e-06,0,65.34141046914078,22,3
1,Y,2379,0.07570806802874605,0.0002716123825527418,0.004834490053156385,0.0004932518814920036,0.10706737658731758,0.00038411791511455684,0.0015855088834680854,9.674160550120171e-06,0.0016211754508553258,1.7571390944472106e-05,0.9779995636077373,0.012164463392552508,0.00042551588299439945,3.0118814801434167e-06,0,73.37762195379966,22,3
1,Y,2400,0.07433355266696248,0.00027020900594825343,0.003555748181085026,0.0004888585923841309,0.10512351832099309,0.00038213324088737233,0.0015878595691283023,8.348557936697726e-06,0.0016079349135702688,1.2523213801186125e-05,0.9875148277007114,0.009279633390025221,0.0004184098620443536,2.6744779639000345e-06,0,107.10979018488814,22,3
1,Y,2421,0.07368055932328024,0.000296580522869805,0.004879186253517848,0.0004992096400948835,0.10420004627821833,0.0004194281977781822,0.0016201620487602574,9.866598996853053e-06,0.0016568578612799194,2.4268120649924888e-05,0.9778521662133923,0.015511320995507435,0.00042317139283697136,3.089124802953244e-06,0,122.19652490965237,22,3
1,Y,2453,0.07672524543171502,0.00024774878982069756,0.003753324126220008,0.0004598152770393559,0.10850588266593575,0.0003503696986259519,0.0015423929096903227,8.363310268861363e-06,0.001545915584683384,1.62096976152301e-05,0.9977213018434102,0.011777633904769267,0.0004195060596616281,2.647478135220535e-06,0,94.78292530500751,22,3
1,Y,2474,0.07368100431146071,0.00026355294342322004,0.004492380332704426,0.0004615141974920185,0.10420067558653823,0.0003727201469924668,0.001640518435793658,8.899510267617628e-06,0.0016583757292815862,1.5089385941976991e-05,0.9892320581080477,0.010479255484908745,0.00042849088131210317,2.7843061103239762e-06,0,107.72661961079561,22,3
1,Y,2495,0.07559600277570666,0.00027824444016831437,0.004217333895647238,0.00047911261167891115,0.10690889238659851,0.0003934970609409394,0.0015505538067210184,9.377649061902437e-06,0.0015633477030982538,1.7161245312092458e-05,0.9918163461961275,0.01243048425734807,0.00041551873091908234,2.9418286411245972e-06,0,118.40967041426786,22,3
1,Y,2516,0.07343755314639658,0.00026386343369150136,0.0045552574623669165,0.00045418242769534997,0.10385638364712901,0.0003731592465408551,0.0016384986086679047,8.5953731576506e-06,0.001651640848734573,1.5853732083398537e-05,0.9920429189694978,0.010851689662345412,0.0004265492740851388,2.7121682174779204e-06,0,94.93069750467869,22,3
1,Y,2537,0.07503078892291029,0.00026211797741848114,0.004174609975942789,0.0004621572362584383,0.10610955929033272,0.0003706907986070207,0.001581408643107376,8.265760222210888e-06,0.001603416719437536,1.787098733124111e-05,0.9862742629140849,0.0121413302089205,0.00042061867699055773,2.6443550673063623e-06,0,131.4740617332022,22,3
1,Y,2558,0.07302085445936858,0.00023255323423940338,0.004382064209116208,0.0004297058409504401,0.10326708271251095,0.0003288799378350915,0.0016576724878632314,8.857471055872284e-06,0.0016836236248064895,2.0032403415710865e-05,0.9845861411298259,0.012842062022492745,0.00042909215273491315,2.669135463098776e-06,0,134.52734811868572,22,3
1,Y,2579,0.07512685355243737,0.00026510858300300867,0.0037336948811502926,0.0004911787677824445,0.10624541519227426,0.00037492015358436825,0.0015910982396762964,8.112323903258737e-06,0.0016262723722784399,1.3968559380032894e-05,0.9783713151611474,0.00977253718278834,0.00042373772194815413,2.6274445809498187e-06,0,109.70347119499078,22,3
1,Y,2600,0.07316780674845973,0.0002667036268615508,0.00435309087303633,0.00044552354507902176,0.10347490463276543,0.0003771758862416985,0.0016446477246701615,9.66172563352933e-06,0.0016666530874496221,1.85956176239828e-05,0.9867966747578322,0.012443049436181028,0.0004265774143906168,2.949196033366679e-06,0,127.19204661530476,22,3
1,Y,2632,0.07774780963523596,0.00029614678853802584,0.0039860153139537925,0.000553230459073555,0.1099520068309523,0.00041881480480371325,0.0015144825280183694,8.517894425435124e-06,0.0015212808537706302,1.7268754054629648e-05,0.9955311829926666,0.01261178307802141,0.0004174047260633136,2.8353331583732e-06,0,76.0182581084498,22,3
1,Y,2653,0.07413506889276722,0.00023481219345554747,0.0029624728842436434,0.00045741572088578,0.10484281987561517,0.00033207458859541017,0.0016015346024538073,8.818284009324526e-06,0.0016208782966151845,1.3418238275056081e-05,0.9880659182112735,0.00982363837398898,0.0004208864592659165,2.6735334587931235e-06,0,115.1152875256119,22,3
1,Y,2674,0.07941678694191945,0.00030405527343398445,0.004429481891652109,0.0005658591364941924,0.112312297173357,0.0004299990914014007,0.001450106707620137,8.317107728638644e-06,0.001469067574763846,1.7275147800560747e-05,0.987093264142899,0.012914572525893337,0.0004082415514230019,2.8152189896561476e-06,0,81.74288496373549,22,3
1,Y,2695,0.07330551018862387,0.0002473095794913848,0.00396489423346377,0.0004669218077995496,0.103669646705431,0.00034974856142150346,0.0016738486593221495,8.511389172867494e-06,0.0016883730646194467,1.7963374504895493e-05,0.9913973957523594,0.011690693973825064,0.0004349684344704603,2.654311497937421e-06,0,83.29430265251038,22,3
1,Y,2716,0.07970534246813818,0.000288474824088117,0.0036801417401428394,0.000524630089300962,0.11272037631203324,0.00040796500862860796,0.0014551282949898721,7.987729119195898e-06,0.001465763008134143,1.6069492491920683e-05,0.9927445889374651,0.01217177189241229,0.0004111437093819667,2.7033192647752444e-06,0,50.4701980985187,22,3
1,Y,2737,0.07385637375289665,0.0002588474495666103,0.004993864988789053,0.0004838653418403673,0.10444868542904273,0.00036606557376278603,0.0016768996255822073,9.086866132355044e-06,0.0017123636788500748,1.805265242557344e-05,0.9792894151482568,0.011608151190011412,0.00043903584576764375,2.8332998831978476e-06,0,132.50398481289784,22,3
1,Y,2758,0.07531398733942034,0.000270202512553573,0.0030606453712732533,0.0004928965243948593,0.10651006233180382,0.00038212405784054937,0.0015677295691704555,9.84998738808436e-06,0.0016012761527727528,2.0607532690495373e-05,0.9790500947983217,0.014021221101868136,0.00041855421782754085,3.028293377992088e-06,0,118.04091539089669,22,3
1,Y,2779,0.073430553031027,0.0002637238139646218,0.0036187733662407526,0.0004904605663786261,0.10384648398903518,0.00037296179442952715,0.0016501643619082431,9.321222306407731e-06,0.001674538827939385,1.8357530482481226e-05,0.9854440723472886,0.012152927572574029,0.0004295452635798524,2.8752615196868896e-06,0,89.14449868056442,22,3
1,Y,2818,0.07601434407145145,0.0002738929660499926,0.004100058490537026,0.0004823083246840789,0.10750051632074153,0.0003873431472264932,0.0015925209037689803,9.039904742463314e-06,0.001609145863401323,1.8794813433620652e-05,0.9896684570302398,0.012852155466145234,0.0004291267880518299,2.8852270027525204e-06,0,108.12639464200785,22,3
1,Y,2839,0.07449777962570965,0.00025355034944721044,0.003165969809356452,0.00044021213004350466,0.10535577031336063,0.00035857434293268264,0.001642482504253404,8.617941665688002e-06,0.0016744536354325445,2.2643098593399202e-05,0.980906529447809,0.01422797402853451,0.0004337595135008246,2.712766586060125e-06,0,95.27866897055308,22,3
1,Y,2860,0.07514139017990804,0.00025322403721709223,0.0044014466114113485,0.0004845902192853642,0.10626597308799446,0.00035811286775128126,0.0015995645249152334,8.895442788537385e-06,0.0016301378235090373,1.6205612870147788e-05,0.9812449609150276,0.01117736971728575,0.0004260748712473204,2.7705759008156182e-06,0,93.99699319249835,22,3
1,Y,2881,0.07385237569577265,0.0002723802855008914,0.004789491718288473,0.0004876549955578647,0.10444303132243482,0.00038520389387841636,0.0016588081334072593,9.386899466426774e-06,0.0016988838735510494,1.7420793901935477e-05,0.9764105476732657,0.011435767455232787,0.0004342757294640005,2.93336709549356e-06,0,139.95557033228422,22,3
1,Y,2902,0.07534365658539069,0.0002634732325004087,0.004081175855327464,0.00048537323340983995,0.10655202098184047,0.00037260741872435776,0.0016017135261581449,9.942925964080687e-06,0.0016307304346501984,1.7236046207791105e-05,0.9822061894010841,0.012039546705674389,0.00042779575299556897,3.047995330894018e-06,0,117.74799136978795,22,3
1,Y,2923,0.07357573804116851,0.00026290115134220153,0.004471915848372382,0.0004239283125199165,0.10405180659943059,0.00037179837379164304,0.0016470839817970461,9.63744319394283e-06,0.0016941738649754114,2.1289432499827075e-05,0.9722048107624133,0.013476444153480703,0.0004295911272039513,2.945269738675063e-06,0,74.84350638462047,22,3
1,Y,2944,0.07500903440199626,0.00026717859451027464,0.0040398863046769646,0.00044377988937502024,0.10607879375181317,0.0003778475919322122,0.0015643723163054435,9.134538775762549e-06,0.0015978313512539394,1.9410651831804823e-05,0.9790597205880094,0.013196333153376798,0.00041596676122026654,2.845123999242368e-06,0,102.21786633554534,22,3
1,Y,2965,0.07470420952343705,0.0002813998176702652,0.004035381516689282,0.0005026992771582295,0.105647706274406,0.00039795943859860516,0.001602768209681747,1.0215156148738274e-05,0.0016389616989942646,2.0704240528338664e-05,0.9779168181082405,0.013836805688473387,0.0004244443202962267,3.142321456104007e-06,0,130.4585697429131,22,3
1,Y,2997,0.07741558487399951,0.00030623447858058766,0.005184692357646623,0.0005408157573492413,0.10948217006785554,0.0004330809528749202,0.0015538680867071572,8.950119271484813e-06,0.0015745878408743043,1.6631582628186098e-05,0.9868411570130998,0.011872597085542067,0.0004264297330448491,2.9796466930394773e-06,0,69.04129572164848,22,3
1,Y,3018,0.07584880790956483,0.00027342423218901165,0.003991802170641515,0.00048678250493186715,0.10726641283553828,0.0003866802574431505,0.0015962778841701003,9.694363494392313e-06,0.001622898527652486,1.5811286451277644e-05,0.9835968527737269,0.011292158153626563,0.00042920244590604343,3.03120296373594e-06,0,96.04760663762104,22,3
1,Y,3039,0.07510090251408882,0.00026860138219216614,0.0037459187086419875,0.0005174888889615959,0.1062087148818841,0.0003798597175683205,0.0016112269418084777,9.640501285190755e-06,0.0016412709696423233,2.1901250612960708e-05,0.9816946571348953,0.014356413954514643,0.0004289501295785246,2.9901198603201535e-06,0,79.5870457263374,22,3
1,Y,3060,0.07400039928612391,0.0002697001667630212,0.0048091595455205674,0.0005127317340938343,0.10465236829146074,0.00038141363361055003,0.0016429766117536473,9.496561593031612e-06,0.0016707222856600379,1.6100684403692202e-05,0.9833930066387848,0.011050839594329152,0.0004309931584450869,2.945056890247281e-06,0,89.59978611091383,22,3
1,Y,3081,0.07487949495580147,0.0002710773737372302,0.004065647016789155,0.0004595742766760968,0.1058955973101422,0.0003833612983916712,0.0016105406765531604,9.132614127240969e-06,0.001611993271488187,1.7791367578180763e-05,0.9990988827554562,0.012397181730401996,0.00042750336405623294,2.8760712517950737e-06,0,138.12259943012126,22,3
1,Y,3102,0.07298751596834786,0.00025505179527371413,0.00516250122716302,0.00048316238563224384,0.1032199349663604,0.0003606977079836926,0.0017078835626105602,9.41823293048046e-06,0.0017323926809960806,1.73593823026376e-05,0.9858524463567762,0.011275849007508294,0.00044188755848437476,2.8848743456314102e-06,0,125.59347858948924,22,3
1,Y,3123,0.07585334217587988,0.0002663807905060429,0.005405505606349865,0.0004952849113816399,0.10727282525645643,0.00037671932668931207,0.0015752162106037815,8.885090265988342e-06,0.0016006618724330969,1.9224569039895022e-05,0.984103037457476,0.013058021620811265,0.0004235647651364607,2.8143475512481244e-06,0,102.49799042531617,22,3
1,Y,3144,0.07380892844481082,0.00025144061555496347,0.00395884313568117,0.0004957176213193578,0.1043815876308768,0.00035559072864926877,0.0016448304600300127,1.0286934196437023e-05,0.001663785255408834,2.0949163885161303e-05,0.9886074267594326,0.013898771447330684,0.00043036304557340064,3.0649276086784004e-06,0,116.5094757106556,22,3
2,X,103,0.08928156246308723,0.0003203222915811953,0.0033067594692129778,0.0006340359362943184,0.1262631965051586,0.00045300412908455545,0.0013364953602394572,8.141997918033081e-06,0.0013220322838560332,1.4290908875617102e-05,1.0109400326754796,0.01254400740597649,0.0004229939632579022,2.99057706625699e-06,0,32.779286029652596,22,3
2,X,124,0.0855982680538158,0.0003039744340380315,0.0038202887216220423,0.0005788533607172248,0.12105423159735396,0.00042988476723127,0.0016053108447509421,8.861045618118346e-06,0.0016526299222646384,2.157408132994542e-05,0.9713674084704615,0.013767594721548693,0.0004871122473924841,3.197155799852747e-06,0,94.09488152964211,22,3
2,X,145,0.08559897822974231,0.00034720242173695467,0.0012004477071077934,0.0006579073322442113,0.12105523593778089,0.0004910183737091844,0.0015770501444341513,1.1142983546596975e-05,0.0016163213093829583,1.794122188963266e-05,0.9757033674425792,0.012838382586005037,0.00047854084838560017,3.898762000026563e-06,0,76.51194866609629,22,3
2,X,166,0.08457089839631661,0.0002937408297920634,0.002741591715679347,0.0005905423322551823,0.11960131149414799,0.000415412265314663,0.001614041503384501,9.097597692057654e-06,0.0016025268649519561,1.9741445527204206e-05,1.00718530134151,0.013644554059904718,0.00048388323347559465,3.2036714853322988e-06,0,104.74884931709748,22,3
2,X,187,0.08671472318987064,0.0003414266166624432,0.0017598811105051639,0.0005639134261328525,0.1226331375925438,0.000482850151839187,0.0015550886442460717,9.686429148966948e-06,0.0015751141501916042,1.9392643514765787e-05,0.9872863144914947,0.013622458627448786,0.0004780275469587606,3.522562124605315e-06,0,88.0416594558381,22,3
2,X,208,0.08565173509457384,0.0002941076521631753,0.0026458076790233575,0.0005198171664295406,0.12112984541153393,0.0004159310304868713,0.0014840555651456605,8.022198230717335e-06,0.001509214258484928,1.8537135233411975e-05,0.9833299392728214,0.013195821112696,0.0004506000742947949,2.885640196729569e-06,0,101.98739666371547,22,3
2,X,229,0.08597495715595117,0.00031458321008847055,0.002200522115199413,0.0005637662385486687,0.12158695043439194,0.00044488784220197974,0.001556871177998313,1.055137139206381e-05,0.0015822864447065847,2.1529913207196593e-05,0.9839376322831453,0.014957072105083808,0.0004744927475762593,3.6545198108801163e-06,0,101.16310210490083,22,3
2,X,250,0.08431039519967123,0.00031040991776287865,0.0018048677679287323,0.000535460073631618,0.11923290434041056,0.00043898591559538014,0.0016434557971364797,9.19651364048553e-06,0.001661017545401495,2.1015302198091557e-05,0.9894271145337178,0.013688042523495775,0.0004911838565982271,3.290151164818576e-06,0,81.9995561159216,22,3
2,X,282,0.08620992617806449,0.00027126089683828967,0.003451475689645062,0.0005511319878207684,0.12191924681220212,0.0003836208392501983,0.0015880024150944417,8.531995636450272e-06,0.001591171137396715,1.3908394442506633e-05,0.998008559715671,0.010239759614804235,0.00048530343334242637,3.021666955206566e-06,0,39.844025168896636,22,3
2,X,303,0.08462236466143093,0.0003293979136342547,0.0035079076689634283,0.0005684024561738574,0.11967409578427735,0.00046583899687896446,0.0016268169653301879,1.049651463032806e-05,0.0016701936572812524,1.831098023071261e-05,0.9740289446304848,0.012390723305721047,0.0004880100678637247,3.6773644356813906e-06,0,104.57589728424888,22,3
2,X,324,0.08489088008238241,0.0003029390809255822,0.0021667390476949157,0.0005268280411580025,0.12005383393429325,0.000428420556817799,0.001574240573320926,9.809836315583867e-06,0.0016020623641055229,2.2841957639706876e-05,0.9826337654463717,0.01528990147652153,0.0004737367424979965,3.4018764659700853e-06,0,135.51391782992758,22,3
2,X,345,0.0838414335742464,0.00029175689909371365,0.0022413031007815424,0.0005024477603471825,0.11856969244950222,0.0004126065636142484,0.0016360450290567178,9.82056166659716e-06,0.0016858774461310727,1.81820854171759e-05,0.9704412576437774,0.011978028451398033,0.00048624917803546827,3.373775605929497e-06,0,121.59054931131406,22,3
2,X,366,0.08429108643329704,0.00028703989602328855,0.0014681836792705264,0.0004934286973484602,0.11920559762113148,0.00040593571389829775,0.0016231918993143452,8.946865486956395e-06,0.0016502379959492633,2.6499644605705583e-05,0.9836107902609766,0.01669946221371137,0.00048501642948660276,3.142417997665849e-06,0,170.28558365980118,22,3
2,X,387,0.08372946426818176,0.00027458779951756204,0.0015594106919714433,0.00047136800533947144,0.11841134393829611,0.00038832579013992063,0.0016512495607957692,8.502828005061829e-06,0.0016335021444206,2.1120278434297517e-05,1.0108646422263892,0.01406832268452333,0.0004901127037089199,2.992116211181874e-06,0,138.65183236835992,22,3
2,X,408,0.08533543432086799,0.0003207547908236857,0.0012433927196325465,0.0005776799564946616,0.12068252856757,0.00045361577537900155,0.0015734031634434076,9.533784647056103e-06,0.0016430952972495516,1.876971356715061e-05,0.9575848498119344,0.012382478288792114,0.00047596427239924633,3.393856300816268e-06,0,146.2581873482014,22,3
2,X,429,0.08408980828301606,0.0003003180499715925,0.0007942896491978236,0.0005444174214958859,0.11892094733119474,0.00042471385929526706,0.0016455931447684829,1.0096327235048056e-05,0.0016666515675422512,2.27910410655775e-05,0.9873648318677537,0.01479867025492839,0.0004905358627335031,3.4823787046401605e-06,0,88.01626168605965,22,3
2,X,464,0.08608935915837064,0.0003123245204411082,0.0032190825276533176,0.0006194843764323079,0.12174873929777619,0.00044169357266948817,0.001583653317194249,8.74987304729074e-06,0.001586610670816421,1.5750217029566004e-05,0.9981360558853103,0.011339784565447214,0.0004832974701481369,3.194471145359831e-06,0,35.797979114389236,22,3
2,X,485,0.08364854479802686,0.0002531772258842864,0.0037495320250588255,0.0004943347373864725,0.118296906526143,0.0003580466665295545,0.0016439791082823003,8.877979818065077e-06,0.001626011080277587,1.4605334286694302e-05,1.0110503724252886,0.010596517687927609,0.00048748315848526135,3.017832490001587e-06,0,45.00958109622643,22,3
2,X,506,0.08421194255320663,0.0003156676492654275,0.005370653291252284,0.0006149166482598678,0.11909367127252879,0.00044642147079360095,0.0016250729862936689,1.0016354567722566e-05,0.0016123887687765903,1.56928867695588e-05,1.0078667240573145,0.01161085719308948,0.0004851225792081521,3.499666332631389e-06,0,34.201993801860255,22,3
2,X,527,0.08410438237074884,0.00029574749748289593,0.00562947083225528,0.0005854771650653412,0.11894155820372565,0.0004182501219782142,0.001629423514024745,9.614506443078209e-06,0.0016436498752222756,1.6054946042162092e-05,0.9913446522814923,0.01131296318850248,0.0004858000298611552,3.336915136189819e-06,0,39.528241505161375,22,3
2,X,548,0.0838817577154157,0.0003149982269056762,0.0036290288071677192,0.0005497472754316462,0.11862671939683489,0.0004454747646134849,0.0016212397183404325,1.0779643482058075e-05,0.0016473859763857358,2.0946412890875792e-05,0.9841286386917858,0.01412075612769657,0.00048208063820423145,3.681258946284269e-06,0,38.08084878633832,22,3
2,X,569,0.08219082578948439,0.00026115379400712017,0.005258947687154442,0.0005104479102096212,0.11623538053413318,0.0003693272373500589,0.0016734131838898238,9.05079004394536e-06,0.0016605117713794375,1.4251674699658308e-05,1.0077695399290478,0.010223546888677873,0.0004875638100442625,3.0584153782943925e-06,0,49.28684535294325,22,3
2,X,590,0.08397410448932,0.00030487102334282286,0.00461756313581479,0.0005930032056568048,0.11875731745693174,0.0004311527359859846,0.0016358110262372383,1.0950124495834708e-05,0.001637517946914094,2.1970022018190796e-05,0.9989576171179849,0.014978251198347909,0.00048694896200755604,3.708188244374654e-06,0,30.426999766577904,22,3
2,X,611,0.08337291028003686,0.0002723159775638846,0.0037381521071247837,0.0005046400628524248,0.11790710045254338,0.00038511294872173307,0.0016553349704111035,8.873180811381592e-06,0.0016734221607203619,1.4917305144059824e-05,0.9891914958856095,0.010289363465926786,0.0004892330450472078,3.070954369535754e-06,0,63.03765634439969,22,3
2,X,643,0.08625685386832005,0.0002601349084549754,0.002994731517070812,0.0004954440828039147,0.12198561258821239,0.00036788631558370977,0.0015554685662214766,7.710470079470986e-06,0.0015669620502424088,1.3147254515491329e-05,0.9926651165424496,0.009673712354718466,0.00047561964533141476,2.7597041168016465e-06,0,49.18673448581916,22,3
2,X,664,0.08334188613069884,0.00028139177539389756,0.003908135126987701,0.0005618824818465643,0.11786322567978846,0.00039794806510229375,0.0016194909178477539,8.937021207185377e-06,0.0016378795781301862,1.9972560957552678e-05,0.98877288628055,0.013234434598050161,0.00047846125345397733,3.095339753100717e-06,0,76.18853206423209,22,3
2,X,685,0.08491879515387876,0.0003029122393092726,0.0049111337100307805,0.0005682466265227478,0.120093311806998,0.00042838259703997794,0.0015838204933193974,9.67465484128338e-06,0.0015802335030128312,1.9382728260836766e-05,1.002269911566694,0.01373370209324642,0.000476776360126899,3.3725641800392877e-06,0,49.94322603416802,22,3
2,X,706,0.08496646378304214,0.0003215713794633548,0.004469796615073056,0.0005979401542566351,0.12016072542886058,0.0004547706061081014,0.001488410173406013,8.43351502777056e-06,0.0014909441705282353,2.1461340327027085e-05,0.9983004077736026,0.015443210636858327,0.00044830657204896347,3.0547017920315087e-06,0,29.214004891211594,22,3
2,X,727,0.08385818946470264,0.0003027432135226875,0.005487932008284613,0.0006227468243047423,0.11859338885703508,0.00042814355848019847,0.0016208553329953856,9.609809738240378e-06,0.0016048603296682082,1.6025819550757302e-05,1.0099666014739639,0.011728993142060884,0.00048183092199076557,3.3446382344503942e-06,0,45.88568210247323,22,3
2,X,748,0.08290509770506903,0.0002900810639443001,0.003800036366447275,0.000538920235468183,0.11724551356437518,0.0004102365748176462,0.0016672510825200377,9.693448854604838e-06,0.0016630930537540074,1.6697594866836304e-05,1.0025001780607794,0.01163100040381404,0.0004899899534692696,3.324921278775776e-06,0,33.91726836862186,22,3
2,X,769,0.08449275216795901,0.00034287369511640795,0.003972480689520224,0.0006204961899731849,0.11949079603815638,0.0004848966298146018,0.0015886008558385904,1.0493346496446006e-05,0.001572795761314377,2.4448952850270932e-05,1.0100490444550825,0.017059822415210348,0.000475816152301635,3.6886922740616454e-06,0,49.09985891383703,22,3
2,X,790,0.08336909152481348,0.00032460516028206773,0.005432812094554354,0.0005959843242978413,0.11790169991711508,0.0004590610200871925,0.0016605451902683953,1.0772578468041053e-05,0.0016506152616446318,2.214438277370566e-05,1.0060158953176463,0.014991684814184284,0.0004907504427077266,3.7130737550074537e-06,0,45.90777164366479,22,3
2,X,822,0.08860757404290966,0.0003191090834416959,0.0032510877463068737,0.0005942617186003266,0.12531003294046106,0.0004512883936796941,0.0013878205042530912,8.088657812303536e-06,0.0014157770992160195,1.4666761338190635e-05,0.9802535335693668,0.01165177980291323,0.00043592229163679684,2.986598369153629e-06,0,39.65240901510504,22,3
2,X,843,0.08363620752882805,0.00029208272440970246,0.0038671011713366523,0.0005332071155267674,0.11827945899271941,0.00041306735019508434,0.0015733578489142478,1.0234840290226222e-05,0.0015564742756107907,1.991354829820087e-05,1.0108473192059866,0.014508492310819817,0.00046647328276227916,3.4440895915881634e-06,0,30.231494172524517,22,3
2,X,864,0.084764854022161,0.0003143738790923034,0.0055675841754621955,0.0005694726440233346,0.11987560617071569,0.00044459180346817506,0.0016083631469622948,1.0480393318066675e-05,0.0016515106662109266,2.134478744894932e-05,0.9738739082154246,0.014095991079329295,0.0004832867225573029,3.623545153363979e-06,0,65.9977351762594,22,3
2,X,885,0.08334872583615772,0.00026826649223646033,0.003631399749674139,0.00048313501805484775,0.11787289848401106,0.00037938611165105884,0.0016747322989974652,9.758627075899938e-06,0.0016850978869819855,1.9668136330852388e-05,0.9938486730862354,0.012965239881127112,0.0004948223338699142,3.2939365067489783e-06,0,40.253267203118924,22,3
2,X,906,0.08421835903299572,0.00030616938452772603,0.004521468057489101,0.0005765678128538839,0.11910274554526923,0.00043298889598253343,0.001617220237806709,9.382552687606477e-06,0.0016236845272628588,1.8512510989463794e-05,0.9960187528133638,0.012741816991310823,0.00048281513375903514,3.3056266929408423e-06,0,41.30143378907152,22,3
2,X,927,0.08398977928000832,0.000299927405623081,0.004625538496410798,0.0004835326569596091,0.11877948495851054,0.0004241614047595377,0.0016555221590251236,9.814087690817477e-06,0.001645048353421967,2.227185895021604e-05,1.006366867929061,0.014873795125853798,0.0004929085711059152,3.4112089333486944e-06,0,52.418398807273384,22,3
2,X,948,0.08445076940366641,0.0002869496236296008,0.0037165018846380105,0.0005678681134037841,0.11943142344350788,0.0004058080494548366,0.0015979125490969965,9.904013587422883e-06,0.0015941877471348663,1.8591049946074636e-05,1.00233648889149,0.013237417720389935,0.000478367372054088,3.3812706707478503e-06,0,52.683468911520954,22,3
2,X,969,0.0836099532024593,0.0002765922366245524,0.004511083698272761,0.0005306771515718294,0.11824232976829774,0.00039116049228155036,0.00166217135909294,9.085415575868946e-06,0.0016744340348676906,1.7123067654373056e-05,0.992676525011199,0.011510420289543547,0.0004926502494935384,3.1475981471014926e-06,0,33.18776829821112,22,3
2,X,1018,0.08377598556359073,0.00030495178423670425,0.002780391579899439,0.0005690273519861044,0.11847713498520263,0.00043126694913742103,0.001645886263711769,1.1787073716935582e-05,0.0016390857017148997,2.4048527840427526e-05,1.0041489972060365,0.016394180683187976,0.0004887922354077208,3.9267337464644166e-06,0,34.447019863985425,22,3
2,X,1039,0.08302723477214695,0.0002887370464452859,0.0037516300158404814,0.0005287274366185287,0.11741824146110524,0.0004083358470424736,0.0016923886541845242,9.74742333021887e-06,0.0016825854187850944,1.859705484176341e-05,1.0058262928526436,0.012535921947736327,0.0004981104019436486,3.3513031182933843e-06,0,36.23623671114809,22,3
2,X,1060,0.08379090598910555,0.0002824054998466448,0.003706992998888638,0.0005465617880615383,0.11849823565332207,0.0003993816879718781,0.001667449231583419,8.731895903339042e-06,0.001657208169579164,1.8585203625814685e-05,1.0061797076506422,0.012453635645822855,0.0004952841593658599,3.0843969277565995e-06,0,37.33112705055664,22,3
2,X,1081,0.08266228752674083,0.00027120074129595786,0.0031831558597045714,0.0005491864397251843,0.11690212811710121,0.00038353576646638077,0.0016399959264918203,1.001473199919951e-05,0.001619969449402878,1.9814012210558496e-05,1.012362256026695,0.013839770708981732,0.00048056830105185907,3.3313435383097e-06,0,28.476842815837152,22,3
2,X,1102,0.0835046740605931,0.00029328548117575994,0.003283566152448383,0.0005257431666214046,0.11809344257803556,0.0004147683051258788,0.001653945866201843,1.0651984274825793e-05,0.0016348022117511525,2.0510366277553398e-05,1.0117100737404707,0.014267705350597843,0.0004895950386129722,3.5915605862132164e-06,0,48.50917917257602,22,3
2,X,1123,0.08306725189684142,0.0002886418608472297,0.0030546496625353894,0.0005597048507839082,0.11747483422157534,0.00040820123427876,0.0017039935330348647,1.0307157515712692e-05,0.0016969705379111456,2.1890644189476002e-05,1.0041385486470282,0.014306563592380802,0.0005017677183939523,3.500256644178297e-06,0,43.82099698953929,22,3
2,X,1144,0.08343489758856673,0.0002941018972340062,0.0022976880599830333,0.0005501253578704345,0.11799476374496132,0.0004159228917879898,0.001663910615039959,9.732766671680832e-06,0.0016716280107136265,1.5471134656767566e-05,0.9953833056013623,0.010898066518211616,0.0004921331971051423,3.3609418895622415e-06,0,30.80130616578256,22,3
2,X,1165,0.08408726402921217,0.0002937900610341889,0.0038454407943826533,0.0005390784558632776,0.11891734921295916,0.0004154818888049694,0.0016535848810359073,9.840746830428367e-06,0.0016566766202078494,2.1366616443415714e-05,0.998133770263774,0.014177577122789413,0.0004929032103429826,3.4015118300057157e-06,0,17.58885798330944,22,3
2,X,1197,0.08438785984940053,0.00027569225110104405,0.0032621580563767915,0.0005524297466820531,0.11934245589866221,0.00038988772054826537,0.0016518069013039545,1.0225892377020873e-05,0.001627739091790236,1.685039219366304e-05,1.0147860364324408,0.012240251739431746,0.0004941333670465105,3.458870643717779e-06,0,42.77810885343237,22,3
2,X,1218,0.08172422240467445,0.00024666576898146414,0.0030809712163550797,0.00045882140110120134,0.11557550369908576,0.0003488380758667753,0.001737223078402994,7.963822973067086e-06,0.0017497400120577286,1.1105982064076232e-05,0.9928464037122781,0.007773569439468741,0.000503281908656231,2.762329160413983e-06,0,35.790495809208785,22,3
2,X,1239,0.0842172764511257,0.0003216089291820644,0.004973070552467822,0.0006084322097774654,0.11910121454330624,0.00045482370942956374,0.001659502488774997,1.1452422009171799e-05,0.0016444351346443314,2.4671893448464255e-05,1.009162632087598,0.016665652139928676,0.0004954319751515406,3.907594147509229e-06,0,47.06940024351775,22,3
2,X,1260,0.08217407517264959,0.00028274659620983986,0.003209837324705309,0.0005131207302757641,0.1162116915846273,0.0003998640710747847,0.001708947185254568,9.849553915392268e-06,0.0016801521395190403,1.831623582770518e-05,1.017138356139445,0.012542665695393454,0.0004978154810449806,3.3415789872688796e-06,0,38.594149283568946,22,3
2,X,1281,0.0833969715530614,0.00031743795222452227,0.004051203967488108,0.0005935808913620257,0.11794112823118263,0.000448925057247862,0.0016601359106038426,1.1215547785614388e-05,0.001695055016561444,2.3637790199850812e-05,0.9793994262036181,0.015176202648594239,0.0004907935607043163,3.8057595083391106e-06,0,49.137632997210765,22,3
2,X,1302,0.08163347147834646,0.0002491105829805669,0.0037597288124495026,0.0004917436557958823,0.1154471625082748,0.00035229556498178605,0.0017538170924613016,8.929769510201426e-06,0.0017707752321045956,1.905967704174344e-05,0.990423324577937,0.011792975424373115,0.0005075250652285657,3.012694371890713e-06,0,37.636130755392166,22,3
2,X,1323,0.08422254789623734,0.000281469289627434,0.0035015507662559215,0.0005628026302379259,0.11910866949247645,0.000398057686782638,0.0016427849472300975,9.008148862887307e-06,0.0016142839154018277,1.3058669653653346e-05,1.017655526116777,0.009945340985395108,0.0004904717773457193,3.1496203436040523e-06,0,59.81889660802618,22,3
2,X,1344,0.08417830154378889,0.0002738432914700838,0.003748824716977953,0.000554777202366193,0.1190460957007583,0.00038727289676188104,0.0016583236233035925,8.962523578827582e-06,0.0016635845907997963,1.3804972642822495e-05,0.9968375713953479,0.009871794176196106,0.0004948509156862951,3.1215735865967775e-06,0,28.993998431603025,22,3
2,X,1376,0.08509875817306092,0.0002690766956158755,0.0020939372179684915,0.0005626212386323094,0.12034781794945104,0.00038053191225850824,0.0015964320209666245,8.235272774009582e-06,0.00158499134576557,1.3250500521852924e-05,1.0072181310211057,0.009894345234936682,0.00048159124682056525,2.913864131177871e-06,0,28.974385529399107,22,3
2,X,1397,0.08738608124561817,0.0003090095344674386,0.0016668758903365425,0.0005797556088680397,0.1235825812601904,0.000437005474546448,0.00146563140493059,8.789106097163141e-06,0.0014677064259213648,1.68143163122973e-05,0.9985862152306976,0.012912528625593403,0.00045401683675910315,3.1607518981963436e-06,0,55.65455208318442,22,3
2,X,1418,0.08492470693741788,0.00030091294312167393,0.0016243589749070325,0.0005851150735668195,0.12010167233145685,0.000425555165256275,0.001630144476470259,9.176290370564305e-06,0.001652331337919253,1.604481940663325e-05,0.986572389605021,0.011073332999365082,0.0004907553984224486,3.2642421817912724e-06,0,41.14356497102103,22,3
2,X,1439,0.08677638998602677,0.0003503714889188191,0.0018014813840316279,0.0006358906206361211,0.12272034761201589,0.0004955001114978486,0.0013784802383172466,9.050341999567651e-06,0.0013816066179949715,2.0738223440699293e-05,0.9977371419353348,0.016346208622031677,0.00042404022419574935,3.2683470469532207e-06,0,24.239628568832092,22,3
2,X,1460,0.08475990979036847,0.00030061716413123544,0.002725903147516798,0.000525342764388853,0.11986861397105919,0.00042513687059653194,0.0016035208234102462,9.824428362417216e-06,0.0015860824683840767,2.2204419398873465e-05,1.0109946080193017,0.015449523435412515,0.00048180357916063963,3.4108330010585314e-06,0,48.30501225752539,22,3
2,X,1481,0.0836535137731341,0.0002933853835337114,0.0022517460482578025,0.0004996581231947597,0.11830393371813075,0.0004149095883954068,0.0016632595908656997,9.876886091400381e-06,0.0016541809149129545,1.7939195770595517e-05,1.0054883210602288,0.012431995650221938,0.0004932296275938025,3.401609887444761e-06,0,59.44189216762537,22,3
2,X,1502,0.0846289592820043,7.507081669846748e-05,0.001800221276602726,0.000505782038134935,0.11968342198613091,0.00010616616711339733,0.0016133232278702804,7.455769575634843e-06,0.0015895395418576317,1.8619954680426424e-05,1.014962626211144,0.012781123974484917,0.00048399995229117407,2.2775768300075386e-06,0,84.3213972819682,22,3
2,X,1523,0.08904832188619953,0.00030678115101005933,0.00274959813008866,0.0006217633460369942,0.1259333445180283,0.00043385406443885444,0.0013476804152424092,6.886718072835198e-06,0.0013718839745888729,1.1134404581034904e-05,0.9823574297864971,0.009421642250210839,0.00042541969194677577,2.621821687879396e-06,0,54.88533344103939,22,3
2,X,1555,0.08868345290884187,0.00029805889249084563,0.0022784775405396192,0.0005776021162267716,0.1254173418617599,0.0004215189281464582,0.0013368097860021221,7.458442833744577e-06,0.0013257340112742375,1.443532809143622e-05,1.008354447146784,0.012336962528481557,0.0004202591155955405,2.737312289391585e-06,0,37.85419079445167,22,3
2,X,1576,0.08657652144456497,0.00029831896844624973,0.0022912903385457536,0.000528236331909627,0.1224376908099889,0.00042188673108983776,0.001430107641667019,8.23754329534567e-06,0.0014404404611373378,1.5056267481032862e-05,0.9928266250851074,0.011848971777826407,0.0004389082979102558,2.945974615287142e-06,0,52.47914593943972,22,3
2,X,1597,0.0887599611904487,0.00035957452771643103,0.0019640056251983475,0.0006629273615797812,0.12552554091124213,0.0005085151737804772,0.0013039616961323065,8.787876758235297e-06,0.001311281776584231,2.1337972110649352e-05,0.9944176144421127,0.01751464972458572,0.00041028616237378054,3.226174705171206e-06,0,29.954121481812884,22,3
2,X,1618,0.08666930947815549,0.0003027255981164593,0.0035206454091132673,0.0005870723968381125,0.12256891290551852,0.0004281186465338038,0.0013897873036431555,9.176140211513247e-06,0.0013976941761563559,1.737316159574138e-05,0.9943429166064466,0.013995016023841086,0.0004269908890229064,3.1894214651968464e-06,0,35.65978064266914,22,3
2,X,1639,0.08413376299551746,0.0002980389515831909,0.0018585964865868198,0.0005774689201979447,0.11898310868174444,0.00042149072744440685,0.0016152787563035174,9.760923895459243e-06,0.0016128909217636986,1.6527277832532882e-05,1.0014804687084529,0.011913708773438277,0.00048175111351743356,3.3745007610021876e-06,0,47.20263286765016,22,3
2,X,1660,0.0834647535822212,0.00027603714062470353,0.002154805634212599,0.0005044811041109119,0.11803698649610561,0.000390375467990145,0.0015835045590360988,1.0039194890745103e-05,0.0015641032185524342,2.7049821124952258e-05,1.012404130528943,0.018648063855979575,0.00046851917040075756,3.3502094429650876e-06,0,42.182300660538424,22,3
2,X,1681,0.08502758098625805,0.00028687279012613577,0.0031279723153023486,0.000533335452362585,0.12024715820654286,0.0004056993904721917,0.0016055718057860573,9.225820953040929e-06,0.0016297062125717474,1.8308637737692026e-05,0.9851909463193339,0.012431684389640763,0.0004839433081598923,3.2247131931239786e-06,0,38.304314110012804,22,3
2,X,1702,0.08395148571484153,0.00025740322966634965,0.003669323406838406,0.000500742141894817,0.11872532967930005,0.0003640231383927883,0.0016782316514870842,1.0056436092891733e-05,0.0016959441075142087,1.8669387499253e-05,0.9895559907023787,0.01240262055902731,0.0004994421897336823,3.3618200351566944e-06,0,39.00906062337177,22,3
2,X,1734,0.08543486493862217,0.0003208558186682667,0.0017091693232695142,0.0006230693919015267,0.12082314469571309,0.00045375865032698526,0.0016007416249970271,9.305640530254362e-06,0.001600860131501426,1.9002639684576605e-05,0.9999259732302236,0.013216362073942015,0.00048479854474901157,3.3552490320864855e-06,0,39.79325722816061,22,3
2,X,1755,0.0877968880852846,0.00033188408974694914,0.0014409479574410914,0.0006594519171133972,0.12416354986436229,0.0004693549808559849,0.0013465282516076239,8.20791703934752e-06,0.0013419275296891516,1.8766957784473168e-05,1.0034284429052127,0.015308084488043747,0.00041908249871139844,3.005903684764879e-06,0,28.505957348562873,22,3
2,X,1776,0.0847379380270974,0.0002965503837510053,0.0015684537454296924,0.000567669651605172,0.11983754120545198,0.0004193855746276176,0.0016197032849882091,9.838178524824121e-06,0.0016177232036870093,2.274863498846236e-05,1.0012239926439128,0.015336638827007438,0.00048653970434035587,3.4106938383305518e-06,0,55.35894879476677,22,3
2,X,1797,0.0835274303766064,0.0002686527528118553,0.0033862989901963492,0.0005850009639541122,0.1181256248687712,0.0003799323665953924,0.0016748622573065177,9.996115693027077e-06,0.0016491560502377065,1.9035437370946717e-05,1.0155874921994834,0.01319681264714385,0.0004959217421486984,3.3622510278035538e-06,0,38.517430117151136,22,3
2,X,1818,0.0876469198190849,0.0003201956425998831,0.0024016872579900603,0.0006208010223548647,0.12395146270837709,0.00045282502037752304,0.0013602800096576139,8.84868353675865e-06,0.0013412259650219974,1.632550853299677e-05,1.014206438834715,0.013997339639770998,0.00042263932697322854,3.1531787351648015e-06,0,50.59834948864373,22,3
2,X,1839,0.08869357863277944,0.0003539197191553525,0.0021397928658155696,0.0006494589667502593,0.12543166179788123,0.0005005180668207765,0.0012698949953371516,7.965102238929437e-06,0.001293662364013686,2.0573321357770433e-05,0.9816278425208302,0.016781291742280803,0.00039926838392178476,2.9681559855044697e-06,0,23.468803623243872,22,3
2,X,1860,0.08495583929862761,0.0002720709838934798,0.001965568263198418,0.0004811958711843184,0.12014570013890835,0.000384766475350351,0.0015581752805662915,8.46740776566221e-06,0.001563729415238228,1.8408174307428348e-05,0.9964481484981913,0.01291965587440633,0.0004692610164919104,2.959929890006731e-06,0,61.11368545686714,22,3
2,X,1881,0.08316716662615702,0.00028985625247473286,0.004118443969579217,0.0005347131787963449,0.1176161349868543,0.0004099186433884072,0.0016373760647405155,1.0456137659176799e-05,0.0016296558854914202,2.1877354573388558e-05,1.0047373063956795,0.014936416250309179,0.00048273109598957704,3.51190267425143e-06,0,19.75723142471765,22,3
2,X,1916,0.0866998370928161,0.0002757476917801522,0.0032184854918063483,0.0005486276249393578,0.12261208547219848,0.00038996612550856735,0.0015419826858989515,8.929970870239165e-06,0.0015659848650907782,1.8246327865074135e-05,0.9846727898034727,0.012812085941414466,0.0004739174616685062,3.131221124185942e-06,0,58.8612612117207,22,3
2,X,1937,0.08839636786540521,0.0003305715893719231,0.002739398979007154,0.0006412696199750224,0.12501134229977728,0.0004674988250250034,0.001324023105471612,8.492545427828485e-06,0.001310133285005343,1.3799992115894116e-05,1.0106018377101322,0.0124632971434054,0.00041489186226231685,3.0804685236380164e-06,0,39.02066081355117,22,3
2,X,1958,0.08602752870679238,0.0003056145065750561,0.004063904444340386,0.0005795094323266303,0.12166129783458657,0.0004322041800564058,0.0016012528398387437,1.0001323566035247e-05,0.0015867381357519911,2.2640173225090837e-05,1.0091475107074765,0.01571804250221982,0.0004883175041263421,3.5088295553431423e-06,0,45.5163470537087,22,3
2,X,1979,0.08385070798067802,0.0002868412692235238,0.0036253376959601773,0.0005757896436924503,0.11858280844086078,0.0004056548131842197,0.0016759118658793669,8.137566866034563e-06,0.0016410726141527785,2.427816486189726e-05,1.0212295613406324,0.015901098614740476,0.0004981531051443421,2.9588435266964293e-06,0,53.26171422991541,22,3
2,X,2000,0.08528019538754843,0.0002832056562422953,0.004108583232778343,0.000543418877130358,0.12060440891889845,0.0004005132799986266,0.0016259958100960762,9.120184007172701e-06,0.0015881119623389357,1.9402877631064825e-05,1.0238546454252169,0.013764271966543078,0.000491555478611884,3.204133806041795e-06,0,56.34869503989182,22,3
2,X,2021,0.08361783289612727,0.0002740993460703369,0.003995427740461694,0.0005744675672642407,0.11825347333795033,0.000387635012650267,0.0016566892393315635,8.805069172503211e-06,0.0016400294898397197,1.5482086432322594e-05,1.0101582011756824,0.01094350204202734,0.000491071682338187,3.0664669815669634e-06,0,49.961927716689345,22,3
2,X,2042,0.0860394261406481,0.0002999659788768214,0.0035495681184465355,0.0006000190141969481,0.12167812334690276,0.0004242159555781222,0.0015755691942466767,8.119245002056088e-06,0.001582837975164861,1.5238546916572252e-05,0.9954077542791913,0.010869634989806478,0.0004805514786906472,2.989881700387164e-06,0,72.09078322518486,22,3
2,X,2063,0.08445547180850861,0.0002850629373487632,0.004397767316094493,0.0005467756008394039,0.11943807364821146,0.00040313987212853286,0.001662713241148479,9.871315551059909e-06,0.0016623588907554616,2.087437728176248e-05,1.0002131611861842,0.01389276862249442,0.0004977944838343968,3.3995802304424274e-06,0,40.352791447216184,22,3
2,X,2095,0.08559414768097981,0.0002690293778866443,0.003483828957810441,0.0004947226724461731,0.12104840451020726,0.0003804649948840888,0.0015848475130482028,8.12445674491723e-06,0.0015908294165833654,1.9233456607811467e-05,0.9962397580326305,0.013082733170279926,0.00048087974694839054,2.8916133360710915e-06,0,41.91706711083395,22,3
2,X,2116,0.08525361093461442,0.0002616448168050652,0.0032866713094048404,0.00046306671251976936,0.12056681282501092,0.00037002164845034713,0.0016375835141179008,8.279580744379227e-06,0.0016340769279888246,1.701613827154288e-05,1.0021459125142853,0.011600667260520397,0.0004949042373581106,2.9271294108421444e-06,0,54.16276984396004,22,3
2,X,2137,0.08588241433841053,0.00027373233652516657,0.003809600665624971,0.0005511008733186485,0.12145607512672574,0.00038711598277396675,0.0015874592275433932,8.694186646124393e-06,0.0015915818277775792,1.6996925324271448e-05,0.9974097466041425,0.01197066172343288,0.00048329439288088033,3.0625042633694997e-06,0,45.80309561249773,22,3
2,X,2158,0.08398372649765239,0.00027825871944326395,0.003912881416027853,0.0005254506481676612,0.11877092503161268,0.0003935172548852339,0.0016651749082128178,9.861712536439132e-06,0.00167235627706011,2.347868556250727e-05,0.9957058379570193,0.015171874148936445,0.0004957468132704764,3.3642026676250412e-06,0,53.17187140861523,22,3
2,X,2179,0.08504562801497205,0.00025738142145892076,0.00217894121689333,0.0005263958222871068,0.12027268055931073,0.0003639922969300713,0.0016140699617211835,7.823177671294292e-06,0.0016091224353704911,1.214325196486569e-05,1.0030746736494003,0.008996514204221118,0.000486608039416455,2.780535589900823e-06,0,59.75699662631123,22,3
2,X,2200,0.08429924057081707,0.0002853755461316121,0.004519204854492151,0.0005384739971506723,0.11921712931300177,0.0004035819677089547,0.0016631959355235158,9.416547711102913e-06,0.0016830324194616435,1.7484067476219423e-05,0.988213843233945,0.011691642081068045,0.000497017876166564,3.2786269811774066e-06,0,79.61185405508054,22,3
2,X,2221,0.08556352544914719,0.0003157941614457613,0.00417013491890571,0.0005333264817961829,0.12100509813463944,0.00044660038603483443,0.0016284684997028031,9.337941334793631e-06,0.0016438596593535294,1.91011384458989e-05,0.9906371814873911,0.012836229521259101,0.0004939385978779277,3.3683054348856594e-06,0,71.64761082065928,22,3
2,X,2242,0.08447429009871334,0.0002562264576150911,0.0015803647003546544,0.0004989002203681871,0.11946468672943966,0.00036235893139807684,0.0016491984271749698,8.273462517773005e-06,0.0016657616142599877,2.099718283608745e-05,0.990056688218034,0.013431853943135624,0.0004938583427629969,2.8951675649890112e-06,0,30.163166700494653,22,3
2,X,2274,0.08548706017056054,0.0003242911199006907,0.0036088626577060494,0.0006051530604976316,0.12089695990061156,0.0004586168999207163,0.0015868748880270196,1.0017578555335805e-05,0.0015887608790449165,1.9938142717602887e-05,0.9988129170079826,0.014031129811916681,0.00048089249781207457,3.541712599362224e-06,0,20.916960575238637,22,3
2,X,2295,0.08474709572476126,0.00030737446289411905,0.0036173205205931006,0.0006202645232167795,0.11985049214568833,0.00043469313415200883,0.001608289357317146,9.168316595091593e-06,0.001620998564979371,1.4725250769640486e-05,0.9921596428665643,0.010640547450054426,0.0004831633057122328,3.264568809628098e-06,0,33.72291969462847,22,3
2,X,2316,0.08487858212346486,0.0002661825197628179,0.003668612246943817,0.0005191167755828792,0.12003644199400254,0.0003764389295152215,0.0016146075041196272,9.431304339231144e-06,0.0015844744893019334,1.8462132392044654e-05,1.0190176711718277,0.013281937890820364,0.00048581398746784933,3.220869176668162e-06,0,42.49828266997273,22,3
2,X,2337,0.08665235911967618,0.0002754724792991386,0.003708497177282372,0.0005320939825583075,0.12254494147867001,0.0003895769162853835,0.0014436589583199729,8.744197009540486e-06,0.0014392320781689849,2.1076697644594583e-05,1.0030758626201688,0.015896314818437878,0.00044345538503580336,3.0334827944874597e-06,0,46.51795104839587,22,3
2,X,2358,0.08846204473589629,0.0002950183404030777,0.0038628704866522203,0.0005918297103457091,0.12510422342076,0.00041721893814683497,0.0013418512027541752,8.143035335658537e-06,0.0013519020983633438,1.919578491256082e-05,0.9925653672545249,0.015326734804287406,0.00042079082843226006,2.9137698857205395e-06,0,31.042708629363986,22,3
2,X,2379,0.08399271254087597,0.00027635980275411676,0.0032767726755793276,0.0005079203229011715,0.11878363321581153,0.00039083178114962536,0.0016056219326321358,1.015393627783973e-05,0.0015836334050272935,1.9039374904019808e-05,1.0138848596746186,0.013773002069909503,0.00047806817201006093,3.408019421098273e-06,0,21.240520991256457,22,3
2,X,2400,0.08513420950421066,0.0003092069652757682,0.004121978220069029,0.0005909281249437049,0.12039795370276718,0.00043728468387321806,0.0016134714194034902,9.979535966794765e-06,0.001632535060147188,1.848038228298169e-05,0.9883226760581919,0.012748958740530692,0.0004869342428649281,3.4926207737425617e-06,0,52.15827564302103,22,3
2,X,2421,0.08381098670839444,0.00027139128173547653,0.001750399315801419,0.0005431698942470281,0.11852663407888264,0.00038380523134012856,0.0016692209294915537,1.0318452793616978e-05,0.001692998182018431,2.355156936618418e-05,0.9859555357002632,0.015008968291744489,0.0004959292309342984,3.4607785169952827e-06,0,44.29674340905517,22,3
2,X,2453,0.0856242720915581,0.00027362990010314567,0.0035444425784586613,0.0005583113137140527,0.12109100686020557,0.00038697111579666377,0.001575772081545257,8.072347282971377e-06,0.001564731491739642,1.2393679105173325e-05,1.0070559005579547,0.009499454506788652,0.00047829432303969925,2.8878638321581017e-06,0,36.9685599684455,22,3
2,X,2474,0.08375188282927633,0.0002937433096051207,0.003590689420990155,0.0005306140073232906,0.11844304857144494,0.00041541577229992077,0.001676020672919832,1.0218118808239833e-05,0.001660239006291217,2.291240020876237e-05,1.0095056594675902,0.015230744594559701,0.000497598293591838,3.49986656935003e-06,0,37.48913556074684,22,3
2,X,2495,0.08581719645048785,0.00026307958945645055,0.004279907135742365,0.0004952414511374938,0.12136384310511616,0.0003720507233928583,0.0015954772389626603,8.313837996018642e-06,0.0015759530372537092,1.5268563561433922e-05,1.012388822031762,0.011137178052458402,0.0004853665776222219,2.9344029739335204e-06,0,44.70249748306192,22,3
2,X,2516,0.08375244527564381,0.00027010253435917446,0.004679941089811427,0.0005264286463925167,0.11844384399072594,0.0003819826673220894,0.0016885419081414858,9.109474156641656e-06,0.0016825444475576596,2.31352833204977e-05,1.0035645183653437,0.014823298291927672,0.0005013191235044501,3.150956431866358e-06,0,56.993418420517344,22,3
2,X,2537,0.08553310801624456,0.0002861987213242575,0.0038088682477528586,0.000548649322025702,0.12096208138849596,0.00040474611323060294,0.0015882092169590609,9.406223020935176e-06,0.0016061510901344022,2.0521745801967234e-05,0.9888292743531121,0.013925560000811691,0.0004815561097471267,3.275732516035737e-06,0,48.59496025537631,22,3
2,X,2558,0.08310991709068333,0.0002798265191610891,0.0036070219178456625,0.0005551283160929272,0.11753517191734786,0.00039573445850926703,0.0016789673193411887,9.953251135017878e-06,0.0016937784806243458,2.1202586180482095e-05,0.9912555499715066,0.01372958340898098,0.0004946522898595899,3.372348104221806e-06,0,35.77866550729915,22,3
2,X,2579,0.08512182137170612,0.00030499411722893966,0.00432992370011722,0.0005954635132198384,0.12038043423776679,0.0004313268170291762,0.0016028897024193418,1.0041184006612467e-05,0.0015947882488800771,1.7081424319050383e-05,1.0050799556273091,0.012471248942868994,0.00048367036509222344,3.4905168371969096e-06,0,41.77663309440394,22,3
2,X,2600,0.08328114849493924,0.0002519244713249745,0.004501322066867904,0.0004868544420102576,0.11777732969155075,0.00035627500404145085,0.0016849389985753977,9.321776902202736e-06,0.001685780772729733,2.0153874774696187e-05,0.999500662145427,0.013166682684604325,0.0004974344051617681,3.1365255262116058e-06,0,33.76254852978045,22,3
2,X,2632,0.08686164269586931,0.00031009034455996683,0.003051768841845385,0.0006063553579142014,0.12284091315050427,0.0004385339708376512,0.001521664442117154,1.0039754640476939e-05,0.0015274019994083242,2.0357730810445317e-05,0.9962435840116795,0.014816141326404807,0.00046854559860196894,3.5149168186465257e-06,0,35.12483704899361,22,3
2,X,2653,0.0852141472046942,0.0002584069741054672,0.004351410373977961,0.00047329721101139826,0.12051100268293591,0.0003654426473917449,0.0016598911358151353,8.97244486208396e-06,0.0016960575500014486,1.748944356108739e-05,0.9786761869098827,0.011394433675599724,0.0005014137506817161,3.1077341999276175e-06,0,34.11886315891846,22,3
2,X,2674,0.08883861805336615,0.00029242402629211253,0.0039672984141626705,0.0006156420585270872,0.1256367785135537,0.0004135500239460521,0.0014582425878046285,8.197393554895351e-06,0.0014521104382464469,1.726414064745319e-05,1.0042229223044403,0.013206530811358055,0.0004592366114684282,2.991573153915588e-06,0,84.83324055207092,22,3
2,X,2695,0.08233345927732863,0.0002908635685582128,0.003972353920798867,0.0005160988613973822,0.11643709474709107,0.0004113432034552611,0.0017040212875563115,1.0311762907375311e-05,0.0016922039369436888,2.0265342570784792e-05,1.0069834080601219,0.013511503653934193,0.0004973433447831211,3.484958042996958e-06,0,34.68219609621841,22,3
2,X,2716,0.08856337631820492,0.0003130882283948342,0.0022887809302071264,0.0006072764614113926,0.1252475279187576,0.0004427736188153397,0.0014852675456779392,9.155466226302844e-06,0.001494561373457325,1.7302878550073472e-05,0.9937815683287153,0.013034437530800885,0.0004662982529877126,3.313499553177058e-06,0,59.44677671454543,22,3
2,X,2737,0.0820164732851029,0.000244056417469144,0.00393118310974796,0.0004672115740712276,0.11598880885780316,0.00034514789556905345,0.0016862067846826903,9.656958579681462e-06,0.001700188572514611,1.6081881766894212e-05,0.9917763311329393,0.010966612174662858,0.0004902491564606523,3.164051297448415e-06,0,45.85783689586334,22,3
2,X,2758,0.0846250402275134,0.00025582697973897724,0.004052862443689815,0.0004760622524940167,0.1196778796061182,0.00036179398436780863,0.0016231252239584562,8.196637062579956e-06,0.001605163538670992,1.5797564485814298e-05,1.0111899409965015,0.011185469374614477,0.00048691801967715463,2.8658141749818748e-06,0,44.53827953356232,22,3
2,X,2779,0.08382317838087176,0.00027800940174509706,0.0027272840165544253,0.0004969979398694484,0.11854387570744807,0.0003931646664151467,0.0016748474572033998,9.92432109079329e-06,0.0016701380107151398,2.8232524805236296e-05,1.002819794806205,0.017963277179519826,0.0004976732689146734,3.3794759288803047e-06,0,38.69620028920674,22,3
2,X,2818,0.08371094965592463,0.00026844040507340244,0.0035987543111906588,0.0005108099799144303,0.11838516032253998,0.0003796320615437332,0.0016231207313324115,9.054066098263383e-06,0.0016785843729149345,2.0896265459019225e-05,0.966958085350093,0.01319064590085822,0.0004816571655635822,3.0990963884539217e-06,0,79.20601419097578,22,3
2,X,2839,0.08268600026063361,0.0002900348513450571,0.0043526004001177,0.0005452370045452777,0.11693566298697333,0.0004101712203330443,0.001659430991261214,1.0652634982855477e-05,0.0016525030507714212,1.8650214474589133e-05,1.0041923919514453,0.013038425208554156,0.0004864028524352004,3.5581644583380323e-06,0,21.8737844051693,22,3
2,X,2860,0.08325584081870224,0.00029309861529035127,0.0034688289167698347,0.0005555348260372254,0.11774153923258424,0.00041450403685638904,0.001641389904659088,9.879706100810857e-06,0.001660372814072002,1.7793341661191198e-05,0.9885670800846472,0.012150631260362295,0.0004844304134947027,3.3779531498709086e-06,0,41.26469629627255,22,3
2,X,2881,0.08245615895120449,0.00026345025595990093,0.0036016060708708264,0.00047099983449936446,0.11661061828998509,0.00037257492498915523,0.0016935693783105327,9.442751407086335e-06,0.001692995702867649,2.1981690825185602e-05,1.0003388522734653,0.014135237555164258,0.0004950294366469652,3.1811612174098076e-06,0,40.9030600462604,22,3
2,X,2902,0.0834243061480131,0.00030101250843455013,0.004454452808284271,0.0006126049455702224,0.11797978518608532,0.0004256959718720865,0.0016335662614613707,1.053205861533603e-05,0.001648025953728306,1.64536588711706e-05,0.9912260530641381,0.011780372712139086,0.00048309694430111064,3.569252933387615e-06,0,46.03712087831811,22,3
2,X,2923,0.08198493159103618,0.0002781018042162983,0.00411409102238103,0.000564413322684364,0.11594420216627377,0.0003932953432431163,0.0016989962244806003,8.716455088182244e-06,0.00170600755761065,1.3350300607129948e-05,0.9958902098066498,0.009318810083518758,0.0004937775999392596,3.0369109641944475e-06,0,44.43305370047604,22,3
2,X,2944,0.08569139864135307,0.0002509170564999499,0.0027796834619611584,0.0005034780063205393,0.12118593813732093,0.0003548503043329654,0.0015815679745328896,9.313017703875438e-06,0.0015867436593579392,1.733568834104836e-05,0.9967381720452919,0.012370673054190378,0.00048042989709902505,3.159466511653201e-06,0,35.94987870389041,22,3
2,X,2965,0.08486651190627709,0.0002650067161993448,0.003363778509915288,0.0005054166508352481,0.12001937212915481,0.00037477609216907126,0.0016531220814360514,9.58125467146783e-06,0.0016638348879191515,1.7331007288823022e-05,0.9935613764557504,0.011843455060312704,0.0004973317795926548,3.274194066337844e-06,0,29.929887267295804,22,3
2,X,2997,0.0848080326486999,0.00031979351336986785,0.003842396060477374,0.0005966912615605996,0.11993666996997165,0.00045225632376660885,0.0015617515546110293,9.585646474253672e-06,0.0015515801914555156,1.7269859218735837e-05,1.0065554866010322,0.012793949518122823,0.0004695197525616804,3.3822014022064797e-06,0,56.948940611408716,22,3
2,X,3018,0.08279162395353666,0.0002599367912877929,0.004779802041225022,0.000490877246749771,0.11708503744598475,0.0003676061355989413,0.0016431221920763382,8.87614081897794e-06,0.0016606858779327897,2.1008721984336285e-05,0.9894238362053668,0.013610243253813884,0.00048223773923887085,3.013078230180964e-06,0,22.85710112080843,22,3
2,X,3039,0.08429980827620374,0.0003182612136719633,0.004458964303808745,0.0005800235248602071,0.11921793216965904,0.00045008932475221197,0.0016144421475391972,9.3739052807474e-06,0.0016224073712589144,1.7125000604119036e-05,0.9950904909205778,0.011987735575037371,0.00048245188312327964,3.3413463980052762e-06,0,45.41861258885988,22,3
2,X,3060,0.08301850136182112,0.0003219145153562425,0.004022054696520198,0.0005932829231151907,0.1174058905537767,0.00045525587354156016,0.0016830474881676949,1.1104524541415024e-05,0.0017050040731399773,1.9233906885537234e-05,0.9871222683170212,0.012900354518245154,0.000495308967988532,3.790580583820828e-06,0,31.743097592765544,22,3
2,X,3081,0.08350628785742362,0.00030209297613367954,0.004255607184444923,0.0005357094905402315,0.11809572483140018,0.00042722398394590133,0.0016446022474831228,1.0343866339381202e-05,0.0016785802432959503,2.260613025051975e-05,0.9797578960264,0.014562842921782898,0.0004868385829660277,3.5323810993228674e-06,0,93.66360133925185,22,3
2,X,3102,0.08187587625253284,0.0002566867026665867,0.004698341397282238,0.0005246876354683428,0.11578997462751317,0.0003630098161919171,0.0017075961793174815,8.58064908639725e-06,0.001715349330709135,1.6288259677404092e-05,0.9954801326745216,0.010694662723085432,0.0004956168548448984,2.935423143003263e-06,0,35.355664187671444,22,3
2,X,3123,0.08478668577225337,0.0002769683110887199,0.003612314083937659,0.0005613848804871293,0.11990648092778666,0.0003916923418892382,0.0016178956083374564,9.041150925656049e-06,0.0016190307994160432,1.551117524050768e-05,0.9992988452850952,0.011083424525857373,0.00048627628214552196,3.147644884327131e-06,0,25.706472295451803,22,3
2,X,3144,0.08313819371009817,0.00025378433049696054,0.00441473050539284,0.0004273029164968914,0.1175751610960224,0.0003589052421065775,0.0016763606456703945,6.99097111252898e-06,0.0016940787485327828,1.720275816048546e-05,0.9895411574711426,0.010862814701783213,0.0004940523545696885,2.553335296143466e-06,0,66.23221053258638,22,3
