{
    "Fill": "8999",
    "Date": "28Jun2023",
    "Run": [
        369802,
        369802
    ],
    "InputDIPFile": "../output/out_arcBPM/dipfiles/dip_8999_29Jun23_004504_29Jun23_013224.csv",
    "ScanNames": [
        "X1",
        "Y1"
    ],
    "ScanTypes": [
        "NormalX",
        "NormalY"
    ],
    "ScanTimeWindows": [
        [
            1687992418,
            1687993489
        ],
        [
            1687993940,
            1687995020
        ]
    ],
    "BetaStar": 19.2,
    "Angle": 0.0,
    "Offset": [
        0.0,
        0.0
    ],
    "ParticleTypeB1": "proton",
    "ParticleTypeB2": "proton",
    "EnergyB1": 6799,
    "EnergyB2": 6799,
    "Scans": [
        {
            "NumPoints": 19,
            "ScanNumber": 1,
            "ScanName": "X1",
            "ScanType": "NormalX",
            "StartTimes": [
                1687992418,
                1687992475,
                1687992533,
                1687992590,
                1687992647,
                1687992703,
                1687992760,
                1687992817,
                1687992874,
                1687992931,
                1687992989,
                1687993046,
                1687993103,
                1687993159,
                1687993216,
                1687993273,
                1687993330,
                1687993387,
                1687993445
            ],
            "StopTimes": [
                1687992463,
                1687992520,
                1687992577,
                1687992633,
                1687992692,
                1687992749,
                1687992805,
                1687992862,
                1687992919,
                1687992976,
                1687993033,
                1687993089,
                1687993148,
                1687993205,
                1687993261,
                1687993318,
                1687993375,
                1687993432,
                1687993489
            ],
            "XDisplacements": [
                -0.433318,
                -0.385172,
                -0.337025,
                -0.288879,
                -0.240732,
                -0.192586,
                -0.144439,
                -0.096293,
                -0.048146,
                -0.0,
                0.048146,
                0.096293,
                0.144439,
                0.192586,
                0.240732,
                0.288879,
                0.337025,
                0.385172,
                0.433318
            ],
            "YDisplacements": [
                0.0,
                0.0,
                0.0,
                0.0,
                0.0,
                0.0,
                0.0,
                0.0,
                0.0,
                0.0,
                0.0,
                0.0,
                0.0,
                0.0,
                0.0,
                0.0,
                0.0,
                0.0,
                0.0
            ],
            "RelativeDisplacements": [
                -0.433318,
                -0.385172,
                -0.337025,
                -0.288879,
                -0.240732,
                -0.192586,
                -0.144439,
                -0.096293,
                -0.048146,
                -0.0,
                0.048146,
                0.096293,
                0.144439,
                0.192586,
                0.240732,
                0.288879,
                0.337025,
                0.385172,
                0.433318
            ]
        },
        {
            "NumPoints": 19,
            "ScanNumber": 2,
            "ScanName": "Y1",
            "ScanType": "NormalY",
            "StartTimes": [
                1687993940,
                1687993999,
                1687994055,
                1687994112,
                1687994171,
                1687994227,
                1687994286,
                1687994342,
                1687994401,
                1687994458,
                1687994516,
                1687994573,
                1687994631,
                1687994688,
                1687994746,
                1687994803,
                1687994860,
                1687994918,
                1687994976
            ],
            "StopTimes": [
                1687993985,
                1687994042,
                1687994101,
                1687994157,
                1687994214,
                1687994272,
                1687994331,
                1687994388,
                1687994444,
                1687994503,
                1687994560,
                1687994618,
                1687994675,
                1687994733,
                1687994790,
                1687994848,
                1687994905,
                1687994963,
                1687995020
            ],
            "XDisplacements": [
                0.0,
                0.0,
                0.0,
                0.0,
                0.0,
                0.0,
                0.0,
                0.0,
                0.0,
                0.0,
                0.0,
                0.0,
                0.0,
                0.0,
                0.0,
                0.0,
                0.0,
                0.0,
                0.0
            ],
            "YDisplacements": [
                -0.433318,
                -0.385172,
                -0.337025,
                -0.288879,
                -0.240732,
                -0.192586,
                -0.144439,
                -0.096293,
                -0.048146,
                -0.0,
                0.048146,
                0.096293,
                0.144439,
                0.192586,
                0.240732,
                0.288879,
                0.337025,
                0.385172,
                0.433318
            ],
            "RelativeDisplacements": [
                -0.433318,
                -0.385172,
                -0.337025,
                -0.288879,
                -0.240732,
                -0.192586,
                -0.144439,
                -0.096293,
                -0.048146,
                -0.0,
                0.048146,
                0.096293,
                0.144439,
                0.192586,
                0.240732,
                0.288879,
                0.337025,
                0.385172,
                0.433318
            ]
        }
    ],
    "Scan_1": [
        [
            1,
            "X1",
            1,
            1687992418,
            1687992463,
            -0.433318,
            -0.433318,
            0.0
        ],
        [
            1,
            "X1",
            2,
            1687992475,
            1687992520,
            -0.385172,
            -0.385172,
            0.0
        ],
        [
            1,
            "X1",
            3,
            1687992533,
            1687992577,
            -0.337025,
            -0.337025,
            0.0
        ],
        [
            1,
            "X1",
            4,
            1687992590,
            1687992633,
            -0.288879,
            -0.288879,
            0.0
        ],
        [
            1,
            "X1",
            5,
            1687992647,
            1687992692,
            -0.240732,
            -0.240732,
            0.0
        ],
        [
            1,
            "X1",
            6,
            1687992703,
            1687992749,
            -0.192586,
            -0.192586,
            0.0
        ],
        [
            1,
            "X1",
            7,
            1687992760,
            1687992805,
            -0.144439,
            -0.144439,
            0.0
        ],
        [
            1,
            "X1",
            8,
            1687992817,
            1687992862,
            -0.096293,
            -0.096293,
            0.0
        ],
        [
            1,
            "X1",
            9,
            1687992874,
            1687992919,
            -0.048146,
            -0.048146,
            0.0
        ],
        [
            1,
            "X1",
            10,
            1687992931,
            1687992976,
            -0.0,
            -0.0,
            0.0
        ],
        [
            1,
            "X1",
            11,
            1687992989,
            1687993033,
            0.048146,
            0.048146,
            0.0
        ],
        [
            1,
            "X1",
            12,
            1687993046,
            1687993089,
            0.096293,
            0.096293,
            0.0
        ],
        [
            1,
            "X1",
            13,
            1687993103,
            1687993148,
            0.144439,
            0.144439,
            0.0
        ],
        [
            1,
            "X1",
            14,
            1687993159,
            1687993205,
            0.192586,
            0.192586,
            0.0
        ],
        [
            1,
            "X1",
            15,
            1687993216,
            1687993261,
            0.240732,
            0.240732,
            0.0
        ],
        [
            1,
            "X1",
            16,
            1687993273,
            1687993318,
            0.288879,
            0.288879,
            0.0
        ],
        [
            1,
            "X1",
            17,
            1687993330,
            1687993375,
            0.337025,
            0.337025,
            0.0
        ],
        [
            1,
            "X1",
            18,
            1687993387,
            1687993432,
            0.385172,
            0.385172,
            0.0
        ],
        [
            1,
            "X1",
            19,
            1687993445,
            1687993489,
            0.433318,
            0.433318,
            0.0
        ]
    ],
    "Scan_2": [
        [
            2,
            "Y1",
            1,
            1687993940,
            1687993985,
            -0.433318,
            0.0,
            -0.433318
        ],
        [
            2,
            "Y1",
            2,
            1687993999,
            1687994042,
            -0.385172,
            0.0,
            -0.385172
        ],
        [
            2,
            "Y1",
            3,
            1687994055,
            1687994101,
            -0.337025,
            0.0,
            -0.337025
        ],
        [
            2,
            "Y1",
            4,
            1687994112,
            1687994157,
            -0.288879,
            0.0,
            -0.288879
        ],
        [
            2,
            "Y1",
            5,
            1687994171,
            1687994214,
            -0.240732,
            0.0,
            -0.240732
        ],
        [
            2,
            "Y1",
            6,
            1687994227,
            1687994272,
            -0.192586,
            0.0,
            -0.192586
        ],
        [
            2,
            "Y1",
            7,
            1687994286,
            1687994331,
            -0.144439,
            0.0,
            -0.144439
        ],
        [
            2,
            "Y1",
            8,
            1687994342,
            1687994388,
            -0.096293,
            0.0,
            -0.096293
        ],
        [
            2,
            "Y1",
            9,
            1687994401,
            1687994444,
            -0.048146,
            0.0,
            -0.048146
        ],
        [
            2,
            "Y1",
            10,
            1687994458,
            1687994503,
            -0.0,
            0.0,
            -0.0
        ],
        [
            2,
            "Y1",
            11,
            1687994516,
            1687994560,
            0.048146,
            0.0,
            0.048146
        ],
        [
            2,
            "Y1",
            12,
            1687994573,
            1687994618,
            0.096293,
            0.0,
            0.096293
        ],
        [
            2,
            "Y1",
            13,
            1687994631,
            1687994675,
            0.144439,
            0.0,
            0.144439
        ],
        [
            2,
            "Y1",
            14,
            1687994688,
            1687994733,
            0.192586,
            0.0,
            0.192586
        ],
        [
            2,
            "Y1",
            15,
            1687994746,
            1687994790,
            0.240732,
            0.0,
            0.240732
        ],
        [
            2,
            "Y1",
            16,
            1687994803,
            1687994848,
            0.288879,
            0.0,
            0.288879
        ],
        [
            2,
            "Y1",
            17,
            1687994860,
            1687994905,
            0.337025,
            0.0,
            0.337025
        ],
        [
            2,
            "Y1",
            18,
            1687994918,
            1687994963,
            0.385172,
            0.0,
            0.385172
        ],
        [
            2,
            "Y1",
            19,
            1687994976,
            1687995020,
            0.433318,
            0.0,
            0.433318
        ]
    ]
}