1.8069414101080326,1.806713754546786,1.805747236753228,1.8062260996962216,1.806651919324416,1.8067476127816418,1.8069638094054743,1.8072007016430292,1.8077281002994747,1.8081774993257875,1.8086248977523753,1.808921718012357,1.8091367430071148,1.8092031501763608,1.8091242931358127,1.809124923566174,1.809092268208411,1.8092077525292667,1.809335912257849,1.809219337289989,1.8094518167921694,1.8095123048593362,1.8105211419962353,1.8118481006408427,1.7847196701747767
1.815677511964801,1.817763177197583,1.8185618119415239,1.8167488258771105,1.8157571214561141,1.815158614466761,1.8148023972712723,1.8146652178300433,1.814515690180927,1.8145637514135837,1.8145701046656644,1.8146290561815674,1.814834270975215,1.8150659765133639,1.8152227083206829,1.8156050905930021,1.8162816477208872,1.8166133594509308,1.8173566843837508,1.818395791618479,1.8189739431618677,1.8196533937489539,1.8192662293996098,1.817593951131601,1.809651052619879
136
