{
    "Fill": "8999",
    "Date": "28Jun2023",
    "Run": [
        369802,
        369802
    ],
    "InputDIPFile": "../output/out_arcBPM/dipfiles/dip_8999_28Jun23_230012_28Jun23_234708.csv",
    "ScanNames": [
        "X1",
        "Y1"
    ],
    "ScanTypes": [
        "NormalX",
        "NormalY"
    ],
    "ScanTimeWindows": [
        [
            1687986103,
            1687987055
        ],
        [
            1687987783,
            1687988735
        ]
    ],
    "BetaStar": 19.2,
    "Angle": 0.0,
    "Offset": [
        0.0,
        0.0
    ],
    "ParticleTypeB1": "proton",
    "ParticleTypeB2": "proton",
    "EnergyB1": 6799,
    "EnergyB2": 6799,
    "Scans": [
        {
            "NumPoints": 25,
            "ScanNumber": 1,
            "ScanName": "X1",
            "ScanType": "NormalX",
            "StartTimes": [
                1687986103,
                1687986141,
                1687986181,
                1687986219,
                1687986256,
                1687986296,
                1687986334,
                1687986373,
                1687986411,
                1687986449,
                1687986488,
                1687986526,
                1687986564,
                1687986603,
                1687986641,
                1687986679,
                1687986718,
                1687986756,
                1687986794,
                1687986833,
                1687986873,
                1687986911,
                1687986950,
                1687986988,
                1687987026
            ],
            "StopTimes": [
                1687986131,
                1687986170,
                1687986208,
                1687986246,
                1687986286,
                1687986323,
                1687986363,
                1687986401,
                1687986440,
                1687986478,
                1687986516,
                1687986555,
                1687986593,
                1687986631,
                1687986670,
                1687986708,
                1687986746,
                1687986784,
                1687986823,
                1687986863,
                1687986900,
                1687986940,
                1687986978,
                1687987016,
                1687987055
            ],
            "XDisplacements": [
                -0.577758,
                -0.529611,
                -0.481465,
                -0.433318,
                -0.385172,
                -0.337025,
                -0.288879,
                -0.240732,
                -0.192586,
                -0.144439,
                -0.096293,
                -0.048146,
                -0.0,
                0.048146,
                0.096293,
                0.144439,
                0.192586,
                0.240732,
                0.288879,
                0.337025,
                0.385172,
                0.433318,
                0.481465,
                0.529611,
                0.577758
            ],
            "YDisplacements": [
                0.0,
                0.0,
                0.0,
                0.0,
                0.0,
                0.0,
                0.0,
                0.0,
                0.0,
                0.0,
                0.0,
                0.0,
                0.0,
                0.0,
                0.0,
                0.0,
                0.0,
                0.0,
                0.0,
                0.0,
                0.0,
                0.0,
                0.0,
                0.0,
                0.0
            ],
            "RelativeDisplacements": [
                -0.577758,
                -0.529611,
                -0.481465,
                -0.433318,
                -0.385172,
                -0.337025,
                -0.288879,
                -0.240732,
                -0.192586,
                -0.144439,
                -0.096293,
                -0.048146,
                -0.0,
                0.048146,
                0.096293,
                0.144439,
                0.192586,
                0.240732,
                0.288879,
                0.337025,
                0.385172,
                0.433318,
                0.481465,
                0.529611,
                0.577758
            ]
        },
        {
            "NumPoints": 25,
            "ScanNumber": 2,
            "ScanName": "Y1",
            "ScanType": "NormalY",
            "StartTimes": [
                1687987783,
                1687987821,
                1687987860,
                1687987898,
                1687987936,
                1687987976,
                1687988014,
                1687988053,
                1687988091,
                1687988130,
                1687988168,
                1687988206,
                1687988245,
                1687988283,
                1687988322,
                1687988360,
                1687988400,
                1687988438,
                1687988475,
                1687988515,
                1687988553,
                1687988592,
                1687988630,
                1687988668,
                1687988707
            ],
            "StopTimes": [
                1687987811,
                1687987850,
                1687987888,
                1687987928,
                1687987965,
                1687988005,
                1687988043,
                1687988080,
                1687988120,
                1687988158,
                1687988197,
                1687988235,
                1687988273,
                1687988312,
                1687988350,
                1687988389,
                1687988427,
                1687988467,
                1687988504,
                1687988542,
                1687988582,
                1687988620,
                1687988659,
                1687988697,
                1687988735
            ],
            "XDisplacements": [
                0.0,
                0.0,
                0.0,
                0.0,
                0.0,
                0.0,
                0.0,
                0.0,
                0.0,
                0.0,
                0.0,
                0.0,
                0.0,
                0.0,
                0.0,
                0.0,
                0.0,
                0.0,
                0.0,
                0.0,
                0.0,
                0.0,
                0.0,
                0.0,
                0.0
            ],
            "YDisplacements": [
                -0.577758,
                -0.529611,
                -0.481465,
                -0.433318,
                -0.385172,
                -0.337025,
                -0.288879,
                -0.240732,
                -0.192586,
                -0.144439,
                -0.096293,
                -0.048146,
                -0.0,
                0.048146,
                0.096293,
                0.144439,
                0.192586,
                0.240732,
                0.288879,
                0.337025,
                0.385172,
                0.433318,
                0.481465,
                0.529611,
                0.577758
            ],
            "RelativeDisplacements": [
                -0.577758,
                -0.529611,
                -0.481465,
                -0.433318,
                -0.385172,
                -0.337025,
                -0.288879,
                -0.240732,
                -0.192586,
                -0.144439,
                -0.096293,
                -0.048146,
                -0.0,
                0.048146,
                0.096293,
                0.144439,
                0.192586,
                0.240732,
                0.288879,
                0.337025,
                0.385172,
                0.433318,
                0.481465,
                0.529611,
                0.577758
            ]
        }
    ],
    "Scan_1": [
        [
            1,
            "X1",
            1,
            1687986103,
            1687986131,
            -0.577758,
            -0.577758,
            0.0
        ],
        [
            1,
            "X1",
            2,
            1687986141,
            1687986170,
            -0.529611,
            -0.529611,
            0.0
        ],
        [
            1,
            "X1",
            3,
            1687986181,
            1687986208,
            -0.481465,
            -0.481465,
            0.0
        ],
        [
            1,
            "X1",
            4,
            1687986219,
            1687986246,
            -0.433318,
            -0.433318,
            0.0
        ],
        [
            1,
            "X1",
            5,
            1687986256,
            1687986286,
            -0.385172,
            -0.385172,
            0.0
        ],
        [
            1,
            "X1",
            6,
            1687986296,
            1687986323,
            -0.337025,
            -0.337025,
            0.0
        ],
        [
            1,
            "X1",
            7,
            1687986334,
            1687986363,
            -0.288879,
            -0.288879,
            0.0
        ],
        [
            1,
            "X1",
            8,
            1687986373,
            1687986401,
            -0.240732,
            -0.240732,
            0.0
        ],
        [
            1,
            "X1",
            9,
            1687986411,
            1687986440,
            -0.192586,
            -0.192586,
            0.0
        ],
        [
            1,
            "X1",
            10,
            1687986449,
            1687986478,
            -0.144439,
            -0.144439,
            0.0
        ],
        [
            1,
            "X1",
            11,
            1687986488,
            1687986516,
            -0.096293,
            -0.096293,
            0.0
        ],
        [
            1,
            "X1",
            12,
            1687986526,
            1687986555,
            -0.048146,
            -0.048146,
            0.0
        ],
        [
            1,
            "X1",
            13,
            1687986564,
            1687986593,
            -0.0,
            -0.0,
            0.0
        ],
        [
            1,
            "X1",
            14,
            1687986603,
            1687986631,
            0.048146,
            0.048146,
            0.0
        ],
        [
            1,
            "X1",
            15,
            1687986641,
            1687986670,
            0.096293,
            0.096293,
            0.0
        ],
        [
            1,
            "X1",
            16,
            1687986679,
            1687986708,
            0.144439,
            0.144439,
            0.0
        ],
        [
            1,
            "X1",
            17,
            1687986718,
            1687986746,
            0.192586,
            0.192586,
            0.0
        ],
        [
            1,
            "X1",
            18,
            1687986756,
            1687986784,
            0.240732,
            0.240732,
            0.0
        ],
        [
            1,
            "X1",
            19,
            1687986794,
            1687986823,
            0.288879,
            0.288879,
            0.0
        ],
        [
            1,
            "X1",
            20,
            1687986833,
            1687986863,
            0.337025,
            0.337025,
            0.0
        ],
        [
            1,
            "X1",
            21,
            1687986873,
            1687986900,
            0.385172,
            0.385172,
            0.0
        ],
        [
            1,
            "X1",
            22,
            1687986911,
            1687986940,
            0.433318,
            0.433318,
            0.0
        ],
        [
            1,
            "X1",
            23,
            1687986950,
            1687986978,
            0.481465,
            0.481465,
            0.0
        ],
        [
            1,
            "X1",
            24,
            1687986988,
            1687987016,
            0.529611,
            0.529611,
            0.0
        ],
        [
            1,
            "X1",
            25,
            1687987026,
            1687987055,
            0.577758,
            0.577758,
            0.0
        ]
    ],
    "Scan_2": [
        [
            2,
            "Y1",
            1,
            1687987783,
            1687987811,
            -0.577758,
            0.0,
            -0.577758
        ],
        [
            2,
            "Y1",
            2,
            1687987821,
            1687987850,
            -0.529611,
            0.0,
            -0.529611
        ],
        [
            2,
            "Y1",
            3,
            1687987860,
            1687987888,
            -0.481465,
            0.0,
            -0.481465
        ],
        [
            2,
            "Y1",
            4,
            1687987898,
            1687987928,
            -0.433318,
            0.0,
            -0.433318
        ],
        [
            2,
            "Y1",
            5,
            1687987936,
            1687987965,
            -0.385172,
            0.0,
            -0.385172
        ],
        [
            2,
            "Y1",
            6,
            1687987976,
            1687988005,
            -0.337025,
            0.0,
            -0.337025
        ],
        [
            2,
            "Y1",
            7,
            1687988014,
            1687988043,
            -0.288879,
            0.0,
            -0.288879
        ],
        [
            2,
            "Y1",
            8,
            1687988053,
            1687988080,
            -0.240732,
            0.0,
            -0.240732
        ],
        [
            2,
            "Y1",
            9,
            1687988091,
            1687988120,
            -0.192586,
            0.0,
            -0.192586
        ],
        [
            2,
            "Y1",
            10,
            1687988130,
            1687988158,
            -0.144439,
            0.0,
            -0.144439
        ],
        [
            2,
            "Y1",
            11,
            1687988168,
            1687988197,
            -0.096293,
            0.0,
            -0.096293
        ],
        [
            2,
            "Y1",
            12,
            1687988206,
            1687988235,
            -0.048146,
            0.0,
            -0.048146
        ],
        [
            2,
            "Y1",
            13,
            1687988245,
            1687988273,
            -0.0,
            0.0,
            -0.0
        ],
        [
            2,
            "Y1",
            14,
            1687988283,
            1687988312,
            0.048146,
            0.0,
            0.048146
        ],
        [
            2,
            "Y1",
            15,
            1687988322,
            1687988350,
            0.096293,
            0.0,
            0.096293
        ],
        [
            2,
            "Y1",
            16,
            1687988360,
            1687988389,
            0.144439,
            0.0,
            0.144439
        ],
        [
            2,
            "Y1",
            17,
            1687988400,
            1687988427,
            0.192586,
            0.0,
            0.192586
        ],
        [
            2,
            "Y1",
            18,
            1687988438,
            1687988467,
            0.240732,
            0.0,
            0.240732
        ],
        [
            2,
            "Y1",
            19,
            1687988475,
            1687988504,
            0.288879,
            0.0,
            0.288879
        ],
        [
            2,
            "Y1",
            20,
            1687988515,
            1687988542,
            0.337025,
            0.0,
            0.337025
        ],
        [
            2,
            "Y1",
            21,
            1687988553,
            1687988582,
            0.385172,
            0.0,
            0.385172
        ],
        [
            2,
            "Y1",
            22,
            1687988592,
            1687988620,
            0.433318,
            0.0,
            0.433318
        ],
        [
            2,
            "Y1",
            23,
            1687988630,
            1687988659,
            0.481465,
            0.0,
            0.481465
        ],
        [
            2,
            "Y1",
            24,
            1687988668,
            1687988697,
            0.529611,
            0.0,
            0.529611
        ],
        [
            2,
            "Y1",
            25,
            1687988707,
            1687988735,
            0.577758,
            0.0,
            0.577758
        ]
    ]
}