1.757517062768385,1.7542623023228354,1.7507653513150372,1.7503948988748192,1.749405821692848,1.749209967428571,1.749098675286937,1.7489538958753457,1.748859404916227,1.7488407429042832,1.748967460775829,1.7492539066642792,1.7496416367447996,1.7500748993023252,1.7505693728913907,1.7512082756853513,1.7520853052318592,1.7528033119431528,1.753779358393889,1.754411522906064,1.755386902352807,1.7566522845232382,1.7558332163735604,1.7569054759906249,1.7629944569680236
1.7543178693045867,1.7584430537185702,1.7583642778656658,1.7596861093813627,1.7595494385398156,1.7594648531175996,1.7593170261525335,1.7595118535961447,1.7597146944795026,1.7601709825574638,1.7605780245758806,1.7609117913290135,1.7611514776940156,1.7612143996987373,1.7612234096097499,1.7613053941162673,1.7614087595118417,1.7616351386506677,1.762070016127471,1.7622723676691574,1.7633576071733301,1.7623481754522705,1.7640496857959926,1.7602810653781775,1.7624502093774663
136
