Scan,Type,BCID,sigma,sigmaErr,Mean,MeanErr,CapSigma,CapSigmaErr,peak,peakErr,rate0sep,rate0sepErr,peakRateRatio,peakRateRatioErr,area,areaErr,fitStatus,chi2,ndof,covStatus
1,X,103,0.08866898679476716,0.0002537813350959604,-0.001948689962964709,0.0004529438895991076,0.1253968836870406,0.0003589010059698583,0.0013681850866285841,6.406640508007825e-06,0.001394305590483539,1.425023195776303e-05,0.9812662991289475,0.011031339345985065,0.0004300525529599695,2.360135302284748e-06,0,171.08627070962763,16,3
1,X,124,0.08630766722481291,0.00024731587766940445,-0.001280898339671653,0.00043991074842792994,0.12205747352611429,0.0003497574683902771,0.0014706125919155702,6.44103199601434e-06,0.0015102034020865426,1.41163261875292e-05,0.9737844517392342,0.010051934287229282,0.0004499379141370657,2.354945887470815e-06,0,189.81782527516944,16,3
1,X,145,0.08738178549492887,0.0002625148634644688,-0.0026494564158356664,0.0004530945550909488,0.123576506151305,0.0003712520802359731,0.0014232920040513869,6.284181517503039e-06,0.0014654826361645845,1.1678983358473804e-05,0.9712104182799343,0.00884843299754233,0.00044087944982110195,2.3544683798016657e-06,0,195.27548533057762,16,3
1,X,166,0.08578263481667359,0.0002587611095248311,-0.0044439838621055956,0.0004366792928807136,0.12131496557383825,0.000365943470504726,0.0014957677266372537,7.487717144024555e-06,0.0015519114244784548,1.5217077007184602e-05,0.9638228722621401,0.01061102082530431,0.0004548502858129375,2.6583853159625157e-06,0,233.67476204608184,16,3
1,X,187,0.08796105793398326,0.0002722171660359118,-0.003091831467370961,0.0004895165533999762,0.12439572109092467,0.00038497320811875513,0.0014190925049890125,6.3372539192111896e-06,0.0014547260662834515,1.0707588369225263e-05,0.9755049681721343,0.008398429077343453,0.00044249267155941404,2.404165363467314e-06,0,221.0200453871645,16,3
1,X,208,0.08562346574147625,0.0002524475789277707,-0.001935418588044519,0.00044029522365861425,0.12108986650898379,0.0003570147899079057,0.0014593966822634154,6.8057366029393e-06,0.0015148663483546196,1.2751388862555016e-05,0.9633831287153135,0.009270605981797941,0.0004429667100240904,2.4439542975871077e-06,0,210.05655458390584,16,3
1,X,229,0.08706979485714927,0.00026488142368076746,-0.0023200556866065343,0.0004512447547977847,0.12313528476002367,0.0003745989017900353,0.0014330841960538078,6.031442292981546e-06,0.0014658347734329143,1.0028326772139017e-05,0.9776573881499575,0.007852828902856221,0.0004423277231699042,2.297044013899548e-06,0,241.1507963334689,16,3
1,X,250,0.08610374097147676,0.0002488810679757969,-0.002657606827309094,0.00042571625899724745,0.12176907825292238,0.0003519709817492722,0.0014850381579215928,6.288132587559232e-06,0.001553737979331228,1.697844112382063e-05,0.9557841654619234,0.011201012562188348,0.0004532779215042576,2.3238780897856255e-06,0,252.41534277036692,16,3
1,X,282,0.08856133488349006,0.00025855620561219216,-0.0022371766942556755,0.0004631981972201354,0.12524464089409715,0.0003656536926124887,0.0014012311927194554,6.328716905865058e-06,0.0014489785180343115,1.2887330850796824e-05,0.9670475961371531,0.009646453366474371,0.0004399049841625294,2.3658017448672006e-06,0,129.67604660449953,16,3
1,X,303,0.08597887671868847,0.00024768662346546795,-0.0026223523757442496,0.0004483277376168311,0.12159249353317358,0.0003502817821232629,0.001498934975965012,6.796882603511359e-06,0.0015340513640812584,1.2601597802763848e-05,0.9771087272965743,0.009168221827254401,0.0004568561677350328,2.4543162031191466e-06,0,168.67785220598765,16,3
1,X,324,0.08667104502204033,0.00025052167705639594,-0.0034274498180588016,0.00044197747618808546,0.12257136733521856,0.00035429115336160777,0.0014533118548542229,6.44191393183016e-06,0.0014853278470060081,1.3931481234005716e-05,0.9784451680372651,0.01015043522312361,0.00044651677689995246,2.362856372645841e-06,0,170.44061901554028,16,3
1,X,345,0.08504828937176684,0.00021379011041431303,-0.0031963285469578002,0.00037981240835163244,0.12027644428618423,0.00030234487364916296,0.0015155654539396773,6.171119033209225e-06,0.0015588469261473895,1.4192546670991794e-05,0.972234943994995,0.009696647416048806,0.000456925306837411,2.1865060270746013e-06,0,240.9209915481546,16,3
1,X,366,0.08720833153608747,0.00026693973731230084,-0.0035633565507632056,0.00044794970567283576,0.1233312052102642,0.00037750979684336716,0.0014504950789856748,6.58726363311292e-06,0.0014848666722597126,1.2299061303130754e-05,0.9768520676528283,0.009227572038262117,0.0004484140063140276,2.4558024327427935e-06,0,242.23674183404543,16,3
1,X,387,0.0845854088267797,0.00023153985280455934,-0.003196990507508066,0.0003980793573392232,0.11962183234170476,0.00032744680006607796,0.0015172788570510856,6.267540163239721e-06,0.0015615357514755966,1.0569951655348098e-05,0.9716580972400474,0.0077050679964613044,0.00045495222233939625,2.2544891111941194e-06,0,246.27149466453832,16,3
1,X,408,0.08694713620173201,0.000247780850321695,-0.0030361304253383485,0.00044753819461180886,0.12296181922599014,0.000350415039021279,0.001439203013073061,5.992391348206894e-06,0.0014887034990764478,9.357581665837727e-06,0.9667492646896474,0.007288971360067891,0.000443590537821457,2.2381584754788166e-06,0,235.0099514976381,16,3
1,X,429,0.08525409802444223,0.0002399337401953016,-0.0032821308598568904,0.00039216733578564084,0.1205675016740515,0.0003393175494550982,0.0015036479499633242,7.0238255772527296e-06,0.0015565581954419575,1.4130745987540316e-05,0.9660081803342981,0.009862452742894578,0.000454429338855647,2.4782240236040597e-06,0,262.75249458486735,16,3
1,X,464,0.08838246205032177,0.0002382677446734295,-0.0012578152485976477,0.0004426685651654091,0.12499167650749043,0.0003369614759932138,0.0014052163807007365,5.915356395263468e-06,0.0014446332075726362,9.968445890589808e-06,0.9727149932140005,0.007862463896356359,0.0004402650706834988,2.2008057712824893e-06,0,179.3699411536935,16,3
1,X,485,0.0861420593198237,0.00023791652726442346,-0.0016696353137432144,0.0004159919932161439,0.12182326858084236,0.00033646477957005594,0.0014678396729743586,6.292528689854897e-06,0.0015102614763594974,1.1534958959416551e-05,0.9719109544610798,0.00851255293590249,0.0004482278151476895,2.285782830180965e-06,0,184.09786580486906,16,3
1,X,506,0.08703980804929899,0.0002441557593268541,-0.001856087448379067,0.0004564375573819954,0.12309287700966953,0.00034528838617153834,0.0014481799875231398,6.5724662724817456e-06,0.0014770810320150164,1.1709212633891025e-05,0.9804336770526055,0.008955760847294074,0.0004468331632151828,2.384011987581397e-06,0,141.4322898396436,16,3
1,X,527,0.08644527801663741,0.00022910292166582283,-0.001583757627734813,0.0004162821250211397,0.12225208457424142,0.00032400045899910745,0.001486809046402033,6.78312516844468e-06,0.0015174171807981994,1.501021624945589e-05,0.9798287940959877,0.010673587301881171,0.00045561855490370277,2.4039052123091796e-06,0,174.33643574677828,16,3
1,X,548,0.0870027806995862,0.0002457621354303616,-0.0016061136284758102,0.00043382206813147057,0.12304051242952696,0.0003475601450433907,0.0014437103518393773,6.7485259152359435e-06,0.0014810229474987518,1.3295900061042437e-05,0.9748062001858983,0.009866561605202584,0.00044526456637132035,2.431878142686592e-06,0,161.7317168809915,16,3
1,X,569,0.08519770929920835,0.000235256939670823,4.263661434691623e-05,0.00039646443043558796,0.1204877559740608,0.0003327035547248669,0.0014978223336407363,6.76269395763507e-06,0.0015374139568517524,1.42880088542121e-05,0.9742479095922285,0.010066161946468324,0.0004523693293340768,2.394149147124668e-06,0,137.81418774821054,16,3
1,X,590,0.08700084360488837,0.00026817778594837396,-0.0010562927093259122,0.0004495917087146947,0.1230377729639337,0.00037926066201537934,0.0014357173555347423,7.189038948932716e-06,0.0014721650823161477,1.4517035962687586e-05,0.9752420926027789,0.010785683322074474,0.00044278953299437874,2.603606079219813e-06,0,128.9158257563997,16,3
1,X,611,0.0857516510063457,0.0002210226044067008,-0.001562226813825865,0.00040359852346088073,0.12127114784905857,0.0003125731647429797,0.0014977044915208957,5.977169840991893e-06,0.0015256714381819273,1.0221836944001356e-05,0.9816690894506366,0.007655493467708409,0.0004552747396005945,2.162940807297583e-06,0,159.12757714762586,16,3
1,X,643,0.08831165466671938,0.0002417635649663932,-0.0014091234848655151,0.00046140711529280937,0.12489153974528377,0.00034190531246314215,0.0014102845249120333,5.957433672669796e-06,0.0014285936416761145,1.2629981467760434e-05,0.9871838175461849,0.009672645689240731,0.00044149896977070896,2.222414555275827e-06,0,131.10522413370657,16,3
1,X,664,0.0858586614644446,0.00023599005933291363,-0.001993643555123571,0.00043543153018831725,0.12142248349021778,0.0003337403424938379,0.0014697761626357362,6.345790171725768e-06,0.0015032371969472091,1.1930958198992232e-05,0.9777406823225063,0.008834062900500234,0.0004473425871591634,2.2895781161700735e-06,0,136.37711649747916,16,3
1,X,685,0.08886583379928406,0.0002719545147243804,-0.0008012730966798316,0.00048073574851256956,0.1256752673905409,0.0003846017630718124,0.0013817141727446372,7.156294369598574e-06,0.001446408964365586,1.3379058613250531e-05,0.9552721303484697,0.010126995059560199,0.0004352692272733063,2.6185103876227633e-06,0,162.86827270234994,16,3
1,X,706,0.08640324273490153,0.00024233691138341197,-0.0012781695331236889,0.00044830731126006037,0.12219263770871236,0.0003427161467420281,0.001392305532265065,6.379433077050655e-06,0.0014360117585042916,1.4215548773414348e-05,0.9695641585241964,0.010576280883912315,0.0004264513786623706,2.290978772188202e-06,0,105.4490889886163,16,3
1,X,727,0.08747877191883277,0.00025813430534518043,-0.00039355704598475566,0.0004574664260827557,0.12371366566735598,0.0003650570355329119,0.0014308614018356549,6.099065788982503e-06,0.001447774804195165,1.3588004597143412e-05,0.9883176566476355,0.010187609723128916,0.00044371609072093926,2.3003318753371423e-06,0,151.1213688169016,16,3
1,X,748,0.0853763758482864,0.0002325185882114159,-0.001617512087708744,0.000419896136557681,0.12074042863090939,0.00032883094095242926,0.0015083996768192008,6.712667664548978e-06,0.0015334814749931136,1.7462270353232558e-05,0.9836438857704327,0.012026053237625631,0.0004565192321621407,2.3818496518842834e-06,0,210.96925502014,16,3
1,X,769,0.08763153752614243,5.213228205107742e-05,-0.001797288165691517,0.0004915395033255899,0.12392970886107746,7.372618031409317e-05,0.0014266574491666765,5.102188260180003e-06,0.0014663979461388003,1.1838554737349924e-05,0.9728992412484174,0.00859059485987136,0.0004431850195015797,1.6067518754061036e-06,0,187.27220519245404,16,3
1,X,790,0.08609428031117235,0.0002497236907028036,-0.0016264727018140731,0.0004557565362828421,0.12175569885881088,0.00035316263023776884,0.0014930608419633747,7.132281259530641e-06,0.0015263003050584743,1.4887005355436731e-05,0.978222199795848,0.010624098766660114,0.0004556766108346595,2.5466031183735394e-06,0,137.85707387346417,16,3
1,X,822,0.08809937764017205,0.0002649924950264517,-0.002447513664694625,0.00045547186364556125,0.12459133469536032,0.000374755980393493,0.0014008141559365883,5.818367832572412e-06,0.0014220974093567163,1.2538731644502735e-05,0.985033899028228,0.00960055837836429,0.00043748009153774154,2.2435276323973136e-06,0,160.3525856331997,16,3
1,X,843,0.08633682068834476,0.00024477278053673093,-0.0003069036657573108,0.00044203319692616156,0.1220987027496312,0.00034616098593481803,0.0013934569259278016,6.481233909564817e-06,0.0014369897202855507,1.3245589236329818e-05,0.9697055631343706,0.01001183460215349,0.00042647593737638463,2.323073521776562e-06,0,164.22546441846438,16,3
1,X,864,0.08689454464710114,0.0002484131530165565,-0.0005992797075755684,0.00044027487557352145,0.12288744353616488,0.00035130925006787717,0.0014513992901825932,6.286070240349206e-06,0.001502936374128909,1.4693526942059461e-05,0.9657090713662537,0.010326260528768946,0.00044707908156856936,2.320103189696639e-06,0,143.03656696601524,16,3
1,X,885,0.0843521202859339,0.00021733700489586484,-0.0010918330046451377,0.00037033851747229836,0.11929191252329441,0.0003073609399292798,0.0015169256680417362,6.430677819910705e-06,0.0015501512908224183,1.2588475844267476e-05,0.9785662064229521,0.008964381777258628,0.0004535918426953596,2.250204452493079e-06,0,229.48620583436315,16,3
1,X,906,0.08727298061346993,0.0002511856694099582,-0.0003264016663715723,0.00043659266339066084,0.12342263281229338,0.00035523018035332754,0.0014443726830225586,6.890546349601071e-06,0.0014792671230328123,1.2029153514628799e-05,0.9764109946966761,0.009205514682078557,0.00044685230936520226,2.4896764220597356e-06,0,175.83509691105948,16,3
1,X,927,0.08594288697543653,0.0002385931569979896,-0.0011361550644674845,0.0004444929206764811,0.12154159635016037,0.00033742167851597005,0.001497210517156395,6.671046915665395e-06,0.0015418364152055253,1.2292041857015922e-05,0.9710566584048531,0.008868624031197642,0.0004561395601998567,2.3946246303435664e-06,0,152.59528220070396,16,3
1,X,948,0.08738726184105006,0.0002722599994982586,-0.001550137061046964,0.00046403353145216324,0.12358425087426184,0.0003850337837821294,0.0014260193737292944,7.411159300204425e-06,0.0014730167786434862,1.584963211990881e-05,0.9680944537797648,0.011568100440459278,0.0004417519643623262,2.6767581272144456e-06,0,165.46785715732636,16,3
1,X,969,0.0857389996477286,0.00022529255757430716,-0.0007515167188984217,0.00041287675026528307,0.12125325612611981,0.00031861179042330656,0.0015083867586436312,5.860480026772724e-06,0.0015258727030961973,1.0680057654581807e-05,0.9885403648567244,0.007913611542436905,0.0004584543052168482,2.150333779958834e-06,0,236.0804596916932,16,3
1,X,1018,0.0865207128863473,0.00024254300340483678,-0.00174341789003419,0.0004415961832019714,0.12235876559006098,0.000343007604873824,0.0014474605850492116,6.058276675780348e-06,0.0014897591898304244,1.1437168175316945e-05,0.9716070858498764,0.008495718880023958,0.00044394765640952844,2.2363889298533584e-06,0,101.34648757035282,16,3
1,X,1039,0.08476166474333435,0.00021614880272419852,-0.0016677887435163439,0.0003984114108257066,0.11987109584934486,0.0003056805683032682,0.0015236805861779566,5.735540896069801e-06,0.001542937247125699,1.1107763731149588e-05,0.9875194788487898,0.008022450934471582,0.00045782377692767573,2.0815934807547578e-06,0,143.88264041682652,16,3
1,X,1060,0.08577433487818344,0.00024597716143802574,-0.002286953978489607,0.00042535477026804143,0.12130322768825863,0.00034786423773969233,0.0014757663873090213,6.764352601222043e-06,0.0014875304270469836,1.6239917332743344e-05,0.9920915636251447,0.011746904627801811,0.0004487246273177472,2.4261614748623676e-06,0,97.00162789157889,16,3
1,X,1081,0.08480609525731349,0.00022701444173718927,-0.0015906293861105828,0.00039729217899178303,0.11993393008479736,0.0003210469023592899,0.0014656865582241363,5.912764258331104e-06,0.0014991957325241004,1.0752748593249563e-05,0.9776485661124803,0.008045085517119799,0.00044062902789696273,2.1332897357425435e-06,0,102.99928561922881,16,3
1,X,1102,0.08590109406861639,0.00025831513428023494,-0.0015587997199672837,0.0004184332874630419,0.12148249225452434,0.0003653127662653355,0.0014637083376729538,6.784663965328834e-06,0.001512906508230725,1.4938132862573496e-05,0.9674810239164705,0.010552973594986935,0.00044571594822015947,2.462692240397683e-06,0,165.90191159028055,16,3
1,X,1123,0.08471764021383225,0.00023696089094477242,-0.0019343272590229518,0.00042153114204618433,0.1198088357626459,0.0003351133057261091,0.0015365522458135167,6.8546672615557395e-06,0.0015681800779990338,1.3185131806855052e-05,0.9798315049213776,0.009326135713543356,0.00046145155503235854,2.4297397836352004e-06,0,128.2159145522415,16,3
1,X,1144,0.08621815468276418,0.00024783498701310975,-0.0019214347373465125,0.00043389584179433607,0.12193088367514648,0.00035049159986449974,0.0014613872163880034,6.8427792427236455e-06,0.0015156128382339958,1.4190759757594568e-05,0.9642219830301936,0.010094048324265996,0.0004466516672698897,2.4540471083077295e-06,0,103.95768949821202,16,3
1,X,1165,0.08627709694684006,0.00023529930792046586,-0.0024356916705356485,0.0004001315433697139,0.12201424062439958,0.0003327634724781259,0.0014915224414825817,6.277428398093674e-06,0.0015444839198155821,1.1691018460343089e-05,0.9657092717810074,0.008363916381777392,0.0004561737048492946,2.287763706432406e-06,0,186.61189001793184,16,3
1,X,1197,0.08665130812008288,0.00023513059492475644,-0.001665067223743504,0.0004343015482706455,0.12254345514079112,0.000332524876271445,0.0014507984978547918,7.036036036564373e-06,0.0014964407807,1.3864742969763484e-05,0.9694994393136909,0.010138720300333942,0.0004456430651103215,2.4765678027266404e-06,0,96.50634490417052,16,3
1,X,1218,0.08464212051571694,0.00022622837827006488,-0.0017835177798214935,0.00040522425488247904,0.11970203478134489,0.00031993524074319657,0.0015350511531404866,6.672167456096272e-06,0.001564075894954671,1.2442599721007268e-05,0.9814428814434062,0.008897000026500302,0.00046058980346598083,2.350186740032767e-06,0,138.97594774990284,16,3
1,X,1239,0.08599939609104475,0.0002441961968893425,-0.0018465284321735023,0.0004625860420061237,0.12162151230785123,0.00034534557352083883,0.0014796346865101635,7.139167315934919e-06,0.0015207063859618308,1.260422324428538e-05,0.9729916966017803,0.00933147976874878,0.000451081314458424,2.525370132755441e-06,0,113.39985119577236,16,3
1,X,1260,0.08404021369994098,0.00024479044215235026,-0.0017644488222965226,0.00042501064013390435,0.11885080999918973,0.00034618596323116035,0.0015045388436518972,6.8175179330752395e-06,0.001532140208656599,1.3596599156696982e-05,0.9819850919330008,0.00978468416764939,0.00044822438991259667,2.4144678748245947e-06,0,110.74975329989165,16,3
1,X,1281,0.08579241037772824,0.00025196928651111616,-0.002104666037363256,0.0004893899662068071,0.12132879030486154,0.00035633838228549264,0.0014847991390496318,7.014252933275581e-06,0.0015151019173928336,1.2143295145243439e-05,0.9799995115870842,0.009117376561894742,0.0004515662847400337,2.5118750060306637e-06,0,90.55679611721867,16,3
1,X,1302,0.08417678583665361,0.00023198184364456043,-0.0015848160292012206,0.00040066706538374194,0.11904395216717101,0.0003280718695064522,0.00155430393817856,6.722807449504166e-06,0.0015905408277872971,1.694272273318572e-05,0.9772172527886954,0.011234895058389285,0.0004638026420353051,2.3786796610336768e-06,0,135.35494185289326,16,3
1,X,1323,0.0862832415327521,0.0002659769895660075,-0.002105529793830061,0.000476014163046414,0.12202293038113154,0.000376148265923415,0.0014625041729331117,7.627919186613903e-06,0.0015065326405446172,1.4439439622577354e-05,0.9707749660202589,0.010592871969048245,0.0004473304877496523,2.7101551187959953e-06,0,136.44104783976854,16,3
1,X,1344,0.08637220912231834,0.00025358099895459195,-0.0025796700501088845,0.0004339551523630162,0.12214874955290778,0.00035861768788170156,0.0014843136870665394,6.86050544405906e-06,0.0015284859721164904,1.4827899244333662e-05,0.9711006277743028,0.010435290898198198,0.0004544694050402603,2.4885051701463015e-06,0,166.73338760010674,16,3
1,X,1376,0.08740162358594876,0.0002536257840595284,-0.003517025093599616,0.0004520485179560517,0.12360456144867693,0.00035868102358449505,0.0014255155253547352,6.853813977292406e-06,0.0014803772955227835,1.3085942228884578e-05,0.9629406838824326,0.00968964033509847,0.00044166845683153006,2.4803182027904333e-06,0,158.05330813943394,16,3
1,X,1397,0.08600520073337195,0.0002251307412862645,-0.0030320809541273864,0.00040981710272811674,0.12162972131175509,0.00031838294763414376,0.0014930905522938152,6.384155911973152e-06,0.0015251317959548809,1.3608099607697867e-05,0.9789911640777217,0.00968631335111159,0.0004552141918524488,2.282185663215977e-06,0,216.4031010471353,16,3
1,X,1418,0.08670645361321141,0.0002553719756759311,-0.0034490671027005175,0.0004379061997734614,0.12262144264507724,0.0003611505114509139,0.0014508935867504089,6.845227966134484e-06,0.0015244109041543487,1.2323589929917046e-05,0.9517732934056105,0.008908754748011873,0.0004459559025751905,2.4803101668144095e-06,0,210.98202233487652,16,3
1,X,1439,0.08594627555530127,0.0002001760550583115,-0.0032642199098806514,0.00041735116718292294,0.12154638852576227,0.0002830916919258075,0.0014027289478342703,5.680518497863018e-06,0.001452628943453317,1.0990170460988525e-05,0.965648491416934,0.008286558111685901,0.00042737169276276497,1.996518822319279e-06,0,169.24820866132706,16,3
1,X,1460,0.08699096961010218,0.0002701737184521228,-0.00408620077912374,0.00046439057379706815,0.12302380902659227,0.0003820833368317622,0.0014482732370187598,7.248863241403561e-06,0.001487479537725048,1.4574264532757678e-05,0.9736424604762965,0.010712359576808755,0.00044661119886825777,2.6307478468224633e-06,0,125.51487025947192,16,3
1,X,1481,0.08562360959720228,0.0002548707478540136,-0.002806404318775716,0.0004448818772537912,0.12109006995170257,0.0003604416682673195,0.0014996042719928693,7.417528228573873e-06,0.001547429681682267,1.4692065902575082e-05,0.9690936458984004,0.010374806495059872,0.00045517157522829564,2.6276653464133344e-06,0,159.52014093708218,16,3
1,X,1502,0.08792487040563556,0.0002815000824336215,-0.0029841305327943705,0.0005179875557982753,0.12434454419754659,0.0003981012343867718,0.0014314828857859196,7.280840077357072e-06,0.0014722878638869549,1.4733877387832448e-05,0.9722846468398463,0.010914696246273923,0.0004461725309749836,2.681488961840033e-06,0,146.05683497504188,16,3
1,X,1523,0.08697240023344911,0.0002449358310825021,-0.00147905226338265,0.0004270699593240282,0.12299754796228468,0.00034639157422799993,0.0013838304045777096,6.261658198160389e-06,0.001391157956455045,1.4490502496029052e-05,0.9947327678763327,0.011296702892929666,0.00042664755008530147,2.2739048159085264e-06,0,114.30251218351137,16,3
1,X,1555,0.08810368923049185,0.00025243496049446505,-0.0033696543023484763,0.00045092015611401256,0.12459743220486597,0.00035699694474838894,0.001329723361461439,6.017422990506451e-06,0.001357533355626227,1.036428584558212e-05,0.9795143198142934,0.008693228335340471,0.00041529846426456416,2.224383885226341e-06,0,115.8064867085442,16,3
1,X,1576,0.08950218705822224,0.00026578655764068147,-0.003819388070145423,0.00046511575336889856,0.12657520679979162,0.0003758789545119101,0.0012848036022566976,6.311881225071746e-06,0.0013146625791280715,1.3663320021626786e-05,0.9772877258808284,0.01123454948105702,0.0004076386225323604,2.3400518433143557e-06,0,148.77581032150204,16,3
1,X,1597,0.08762820052956974,0.0002452367435938603,-0.0031019683885465756,0.00043187539727559216,0.12392498963526677,0.0003468171287826505,0.0013504560892758227,6.371835550993334e-06,0.001370284544439725,1.490677171788486e-05,0.9855296805000384,0.011686156972819049,0.00041949741876942513,2.3012940445893197e-06,0,133.14896973882026,16,3
1,X,1618,0.08539943817771899,0.0002238164736989707,-0.0019293243433759794,0.00043025209522692124,0.12077304368997288,0.0003165242925876055,0.0014425399041094126,5.468282391971891e-06,0.0014711545756611233,9.37031763827734e-06,0.9805495139497143,0.007267878788132747,0.00043670461473330896,2.012556553977312e-06,0,160.10256983395337,16,3
1,X,1639,0.08651238463344212,0.00026452305829846953,-0.003923223342018586,0.00043923018240127836,0.12234698766185159,0.00037409209660610454,0.0014391776856571364,6.693803842912774e-06,0.0014976600303301085,1.5486872646442002e-05,0.9609508543403661,0.010895816834035276,0.0004413647367060908,2.4567066160266265e-06,0,176.87901763713154,16,3
1,X,1660,0.08512438519438524,0.00022184796201824697,-0.0034898055167979546,0.0004004849937406362,0.12038406003057112,0.00031374039667103615,0.0014650393131666985,5.743825983001284e-06,0.0015134008342322315,1.2059513847922934e-05,0.9680444731021525,0.008596967484404697,0.0004420874629932384,2.0812484231780434e-06,0,187.27814113497496,16,3
1,X,1681,0.0869110288035071,0.000238200732395041,-0.0021949711403850625,0.00042917548659856646,0.12291075565371845,0.00033686670632027127,0.0014404207417556222,6.336955977714414e-06,0.001463971064730892,1.270184771936854e-05,0.9839133958705674,0.009571442557413268,0.0004437814955344536,2.3002355116620513e-06,0,142.8916539446067,16,3
1,X,1702,0.0854805784751634,0.00023662937321186435,-0.0024070161993814602,0.0004126832981092206,0.12088779339907374,0.00033464446885206334,0.001503106265379128,6.293933816235042e-06,0.0015303494690633746,1.221213956146736e-05,0.982198050683861,0.008851410567475466,0.00045547240438682964,2.2862907244120475e-06,0,155.34638942657418,16,3
1,X,1734,0.08735630472855903,0.0002484874292719668,-0.00377263438375347,0.000430305157601493,0.12354047090592513,0.0003514142925556407,0.0014303709603609995,6.809999971176406e-06,0.0014618363047898563,1.3961832728202216e-05,0.9784754665582204,0.010442060810922891,0.0004429430288395264,2.456576748257388e-06,0,144.85838643666202,16,3
1,X,1755,0.08630530665050837,0.0002582352570312491,-0.002850248648242224,0.0004555829283804583,0.12205413516991781,0.00036519980277649466,0.0014230967613105847,6.583079922847486e-06,0.0014681571021284685,1.1955185054922781e-05,0.9693082295126608,0.009077769288611896,0.000435388408293288,2.3986519432997923e-06,0,166.45251123585544,16,3
1,X,1776,0.08697184594489737,0.00024372467630481742,-0.0035725545603904497,0.00043433421448107947,0.12299676407989735,0.00034467874271526533,0.0014542632703221723,6.3212633628418404e-06,0.001481098153453403,1.2480890662170418e-05,0.9818817658582174,0.009310007593055988,0.00044835978826282823,2.318805373908487e-06,0,140.5742631224414,16,3
1,X,1797,0.08449255400410356,0.00024189818845750863,-0.0026417386252612714,0.00041045761351090563,0.11949051579214442,0.0003420956988300916,0.0015299141031385587,6.695216519868401e-06,0.001570924284271895,1.2372377650994184e-05,0.9738942344045919,0.008774798565527056,0.0004582372796329108,2.3963514719091504e-06,0,252.26973961801562,16,3
1,X,1818,0.08733406960955443,0.00024643334353948105,-0.003206224066766821,0.0004391183954324678,0.12350902569906785,0.00034850937665448223,0.0013517629191100418,6.672826798548704e-06,0.0014015141293233049,1.2855677318333582e-05,0.9645018133086646,0.010046871885535073,0.0004184939258566728,2.3795382922399977e-06,0,157.9302145538478,16,3
1,X,1839,0.09031356500716196,0.00025907525289838555,-0.0035252973730054787,0.00046781777777628954,0.12772266849939262,0.00036638773632413635,0.0012066213900863757,5.330938869142863e-06,0.0012381199790196598,9.088922992271107e-06,0.9745593403975077,0.008349889910299889,0.00038630376217633166,2.03492004836994e-06,0,92.98631091773682,16,3
1,X,1860,0.08698279546946802,0.0002416522125351028,-0.0026064549788491916,0.0004233419516546342,0.12301224904604668,0.00034174783634460804,0.001424617381979686,6.465893018028216e-06,0.0014698274445812773,1.2857683133512542e-05,0.9692412447677008,0.009551960489724098,0.00043927504502925277,2.337581520455724e-06,0,206.67021018177414,16,3
1,X,1881,0.08590733774728468,0.00023770271869899383,-0.0013607909570999895,0.0004281953195242405,0.12149132214957614,0.0003361624085970738,0.0014578835391586323,6.416052561462553e-06,0.0015108418092934692,1.3460454135257121e-05,0.9649478391390278,0.009588630860434667,0.0004439744981009777,2.307998911799871e-06,0,191.0804922748242,16,3
1,X,1916,0.08809591429778858,0.0002444479022608683,-0.0011187365678660057,0.00043275506133603103,0.12458643678959047,0.00034570153867097275,0.001414556230540917,6.190859070761828e-06,0.0014528268689015238,1.2783570587172694e-05,0.9736578121042441,0.009568548321548144,0.00044175443180470277,2.2891900233905054e-06,0,183.89983760088361,16,3
1,X,1937,0.08623618989893349,0.00023471456161516967,-0.002231111468807543,0.00041976356576912336,0.12195638932245345,0.00033193651632262844,0.0013918744665088521,6.212206590741535e-06,0.0014128521212817098,1.3593563496849398e-05,0.9851522643758165,0.010448687512836405,0.0004254950970720078,2.224330531241771e-06,0,142.71854882431276,16,3
1,X,1958,0.08713856687477192,0.00024790283583931165,-0.002378373833290075,0.00044891897187215824,0.12323254308005738,0.00035058755259470553,0.001445096159696632,6.379658488082562e-06,0.0014892757285189671,1.5267435136465845e-05,0.9703348627951722,0.010830628211027956,0.00044638756908755347,2.3444119608080844e-06,0,173.37985046640395,16,3
1,X,1979,0.08578446998395883,0.00024309898814727895,-0.0014239390500559216,0.00039387448371401345,0.12131756089230228,0.0003437938860370582,0.0014990652499267893,6.923759813264402e-06,0.0015471186592966556,1.4955519017413637e-05,0.9689400621722757,0.010380667096047576,0.00045586278685861366,2.470220071145299e-06,0,204.92652467036476,16,3
1,X,2000,0.0870994754214094,0.0002479001214303009,-0.002564060594457727,0.0004038431398768522,0.12317725941653923,0.00035058371384066866,0.0014403448170194255,6.380303676144011e-06,0.0014895705474210136,1.1525077842683085e-05,0.9669530721543765,0.008620877259594352,0.0004447202913582993,2.341569107228049e-06,0,217.75488667050473,16,3
1,X,2021,0.0857489535469619,0.0002264384871599052,-0.0018152108056999202,0.00040656300758022055,0.12126733306541404,0.0003202323795847839,0.001490005556494323,5.9472180238578574e-06,0.0015499507764377177,1.1071298734987759e-05,0.9613244363274762,0.007866064960972944,0.00045292015653717547,2.1676239465154005e-06,0,196.72577100691865,16,3
1,X,2042,0.08756991320900263,0.00024274541262739985,-0.0019451293172209857,0.0004229235486621374,0.12384255891600637,0.0003432938547415221,0.0014240996705925282,5.690047245902227e-06,0.0014753209338199938,1.037441335484999e-05,0.9652812740243303,0.0078070282109144505,0.00044207935839779956,2.1498163426548517e-06,0,175.38113572317442,16,3
1,X,2063,0.08586333343898335,0.00024407585615230528,-0.0032764275601404615,0.0004407323149420029,0.12142909065997354,0.0003451753860184148,0.001510703737770645,6.370961907506184e-06,0.0015593364390927037,1.2563224974508049e-05,0.9688119253146195,0.008810147064159496,0.00045982436594467756,2.338573027477768e-06,0,175.27252841928856,16,3
1,X,2095,0.0877974162792031,0.00024448689238141814,-0.0021149290290062694,0.0004300742213298996,0.12416429684336538,0.0003457566790282529,0.0014273832639830235,6.7706443380753916e-06,0.001490950920317491,1.4168340032416829e-05,0.9573643535355737,0.010168124080373655,0.0004442498276194328,2.443543600808053e-06,0,160.04289810580752,16,3
1,X,2116,0.08642531146804808,0.00023160056995031876,-0.001815844698763969,0.00042465707322012343,0.12222384761043259,0.0003275326670770795,0.0014926630392251743,6.446850530951136e-06,0.0015323437755954325,1.3041212698617512e-05,0.9741045469024474,0.009296695227130601,0.00045730680552686704,2.3244141165157314e-06,0,150.7826062181381,16,3
1,X,2137,0.08705580689139185,0.0002525775582072718,-0.0013178489968557988,0.0004528211751140478,0.12311550278913952,0.0003571986083678036,0.001445078547981482,6.366401668229951e-06,0.0014962001352609874,1.111409333713246e-05,0.9658323869416119,0.008341316691350594,0.00044595817677062867,2.352479087914361e-06,0,188.3421148585797,16,3
1,X,2158,0.0850239953197206,0.0002423982114073518,-0.0018921125110096337,0.0004174530049738051,0.12024208730829544,0.00034280283806725764,0.0015184629093164827,6.581682668786154e-06,0.0015489016429981227,1.3439199078772447e-05,0.9803481816813614,0.009508403344396989,0.00045766808555041565,2.3743757332398997e-06,0,204.98375630180345,16,3
1,X,2179,0.08811001204515964,0.0002450004326256211,-0.0021790942023466498,0.00042561481111146016,0.12460637401512153,0.0003464829346064291,0.0014269553908390887,6.064958905512206e-06,0.0014767955352177865,1.2087680059854644e-05,0.9662511544827038,0.008911554915411214,0.000445697901347713,2.2637206381820246e-06,0,192.0680313834901,16,3
1,X,2200,0.08519359059482325,0.00023851835647928677,-0.002068258307889268,0.0003960549732979291,0.12048193124646,0.000337315894607948,0.0015073707272928037,6.250782609441596e-06,0.0015543243394183326,1.438078487685911e-05,0.9697916252517155,0.009832637268731098,0.00045523110798352415,2.2777250863520603e-06,0,166.56915402194784,16,3
1,X,2221,0.08776192324752616,0.00026547625853174577,-0.0014887044918444196,0.000463341194179258,0.12411410211659812,0.000375440125303661,0.001433280852607857,6.943670470989807e-06,0.0014868302176786422,1.3877189454029224e-05,0.9639842098754283,0.010137090185753293,0.00044590502145657645,2.54675855614724e-06,0,212.29595760459586,16,3
1,X,2242,0.08534985754926967,0.00022784813970853015,-0.0011996357273873996,0.00040310771510204023,0.12070292609278888,0.0003222259293372831,0.0015257510914864156,6.416973863551522e-06,0.001567732462965299,1.3285316249599068e-05,0.9732215971343239,0.00920716302204656,0.00046162723350948035,2.2995911814483774e-06,0,181.66756244125023,16,3
1,X,2274,0.08674866053021753,0.0002564610284019705,-0.002511081345359752,0.000438413467133801,0.12268113223953325,0.00036269066458621824,0.001451077183717353,6.840463214892361e-06,0.0015085599954055575,1.2716192225857483e-05,0.9618955746783203,0.009289960695090688,0.00044622944373373256,2.482995887201138e-06,0,156.96961437579662,16,3
1,X,2295,0.08493181700115514,0.00024205037850809832,-0.0010795008996958746,0.0004318406722767093,0.12011172748002341,0.0003423109280636938,0.001489292212430462,6.437627957276745e-06,0.001512775458530421,1.2710678857036559e-05,0.9844767139977458,0.009302253920355526,0.0004483893263395663,2.3215611480568923e-06,0,167.28555904838046,16,3
1,X,2316,0.08688878913638859,0.00024178487022610484,-0.0012248326109095397,0.0004120734365368879,0.1228793040148568,0.00034193544265037623,0.001451578224462131,6.289152788512443e-06,0.0015055008619236777,1.425796572551279e-05,0.9641829248821244,0.010041564478162051,0.0004471045830628577,2.3022662498387213e-06,0,219.66100746233505,16,3
1,X,2337,0.08506942097639537,0.00022980223529919515,-0.002856633930722782,0.00040524231216469746,0.1203063288880446,0.000324989437823775,0.001467873351107321,5.908599330849697e-06,0.0015154900541473292,1.2160523466550478e-05,0.9685799963452751,0.008695124139824874,0.0004426566519011639,2.1458649285168666e-06,0,169.8979199901944,16,3
1,X,2358,0.08709218424998778,0.00024949723242252746,-0.002024326174795954,0.0004270399343770782,0.1231669481430292,0.00035284236986649065,0.0013852955241227477,5.843999455199749e-06,0.0014222047473603514,1.0830552511083849e-05,0.9740478835370869,0.008479797211175389,0.00042768748855275294,2.180926146599219e-06,0,181.19519066430695,16,3
1,X,2379,0.08491800562829967,0.0002341688495449186,-0.0024097746302106635,0.0004248202391676528,0.12009219524921622,0.0003311647629117287,0.0014793020653466528,5.890003103473902e-06,0.0015062525454783236,1.1676520989991896e-05,0.982107595294976,0.008558843463149736,0.0004453091115973403,2.1567632787834553e-06,0,168.47849440073495,16,3
1,X,2400,0.08728007645905082,0.00025997027474631467,-0.0025638596714574586,0.0004533916642938038,0.12343266785335039,0.0003676534883600979,0.0014388014302360661,6.586337298780639e-06,0.0014609166510808872,1.4283973263993133e-05,0.9848620926947074,0.010632523522785884,0.0004451648967027262,2.431221549339497e-06,0,222.28538140839143,16,3
1,X,2421,0.08518453077759232,0.00023879870760874964,-0.0020188103270397956,0.00041257325822082364,0.12046911873005939,0.000337712370977461,0.0015209695414494706,6.321686579679245e-06,0.001536734577971935,1.184903725331705e-05,0.9897412105197309,0.00866956447351227,0.0004592891485186944,2.302583868260142e-06,0,184.94811452801352,16,3
1,X,2453,0.08770364976836269,0.0002428954641478833,-0.00210697828244849,0.00043517784870860104,0.12403169097203848,0.00034350605963684444,0.0014176782629392202,6.24359067192493e-06,0.0014606732091399328,1.5671539617433514e-05,0.9705649792632065,0.011256342915127443,0.0004407580766563999,2.2930521759749247e-06,0,196.6913033729968,16,3
1,X,2474,0.0857225363079111,0.00023685092822900875,-0.0025674644801036944,0.0004218494741643767,0.12122997344766795,0.00033495779496212075,0.0015054682610788747,6.789528207018411e-06,0.0015478904103213966,1.4974542153529265e-05,0.9725935706044503,0.010381209924685645,0.00045747940562542436,2.4196050691289148e-06,0,209.6773581164982,16,3
1,X,2495,0.08741151992637954,0.00024135465827114933,-0.00041914134901459895,0.00044159576295200596,0.12361855698753199,0.0003413270310689831,0.0014333073408159067,6.367092680179912e-06,0.001476273526573835,1.0994796360463374e-05,0.9708955115806722,0.008419475328070383,0.000444132883115346,2.323002858858062e-06,0,191.0235232123376,16,3
1,X,2516,0.08518874370994192,0.00023597945939084672,-0.0012050981577970948,0.0004221472203130898,0.12047507671612556,0.0003337253519120065,0.0015310139151724065,6.270508468225293e-06,0.0015944233249806897,1.1128007071000963e-05,0.9602305054029167,0.007770481748964561,0.0004623451259622093,2.286049628023573e-06,0,223.09939489946007,16,3
1,X,2537,0.08713078524428777,0.00023115228970970364,-0.0016630110879034196,0.0004047388334386702,0.12322153819268933,0.00032689870308105773,0.0014462970225698412,6.783773927484835e-06,0.0014989462644845815,1.4347042498766303e-05,0.9648758310006237,0.010284522503808844,0.0004467186171022913,2.407242224977649e-06,0,223.03888751535922,16,3
1,X,2558,0.08473106212370798,0.00023583582673982015,-0.0024477225456045124,0.00043180422083899573,0.1198278172096251,0.0003335222246689251,0.001546214058672199,6.990139947149163e-06,0.001584863626330545,1.4348321202985876e-05,0.9756133164922007,0.00987255236890445,0.0004644267220889416,2.465608857600801e-06,0,188.61425263894844,16,3
1,X,2579,0.08656094272695063,0.00024201735726615153,-0.0012964654049436915,0.0004287685556325586,0.1224156591762543,0.00034226422897548625,0.0014531348215807219,6.418289373310708e-06,0.001512236516741556,1.0581091421284335e-05,0.9609176907801555,0.007951057352689602,0.00044589522292993317,2.3308761147805315e-06,0,243.13568809220527,16,3
1,X,2600,0.08496261013692148,0.00024477571060382874,-0.0007303943297070053,0.00043083538774612646,0.12015527555025218,0.00034616512967544644,0.001524060901549747,6.5341347497147285e-06,0.0015634228370603805,1.4235562590129127e-05,0.9748232310686701,0.009810862749636825,0.000459023689835052,2.3710320256261664e-06,0,177.61017881234636,16,3
1,X,2632,0.08823134809892626,0.00025229578223794,-0.002345231877905156,0.0004354816141682647,0.12477796910796313,0.0003568001169704238,0.0013995653910834514,6.463532686991739e-06,0.0014298019262674638,1.3819415522757149e-05,0.9788526406150916,0.010485404745046693,0.00043774484609016657,2.377756193781467e-06,0,151.03982495836786,16,3
1,X,2653,0.08633614436232537,0.0002472559856774937,-0.0023075941861916997,0.0004310962047528902,0.12209774628020198,0.0003496727683230394,0.0014930789377739146,6.881204540044247e-06,0.0015449635082405051,1.4318105344705912e-05,0.9664169605367057,0.010002712589816862,0.00045696227819521485,2.479508586730683e-06,0,165.26433547706543,16,3
1,X,2674,0.08700929399956167,0.000240919103756108,-0.0029084464532340933,0.00042170028758478634,0.12304972362668809,0.00034071106396665884,0.001447958216684049,6.398455411850256e-06,0.0014987205995763014,1.1842101301047106e-05,0.9661295221360117,0.00874656257250005,0.00044660811134553417,2.32896045173635e-06,0,275.9718919813332,16,3
1,X,2695,0.08394757676461863,0.00021914213909340866,-0.000981599971998497,0.0003993252727585002,0.11871980158888018,0.0003099137851933498,0.0015525300087490214,6.4450841615170416e-06,0.0015876689082413528,1.26159962309999e-05,0.9778676150235539,0.00876686305455973,0.00046201183392745326,2.2656567365112834e-06,0,152.6142227965829,16,3
1,X,2716,0.08873001952569504,0.0002482986509619342,-0.0027370099479739054,0.00046701699934860783,0.12548319700286747,0.0003511473197093107,0.001393135619869441,6.266957272538891e-06,0.0014417751367430088,1.235677628375477e-05,0.9662641450570126,0.009352821438956712,0.0004381965011677442,2.3214871169115912e-06,0,179.6212705083731,16,3
1,X,2737,0.08415926325277014,0.00022944488456147575,-0.0013357592733212742,0.0004005568690174559,0.11901917149139518,0.0003244840675639682,0.0015394810283230113,6.1403243691786995e-06,0.0015709849390434499,1.0107701991184186e-05,0.9799463954507286,0.007418194530371889,0.0004592838751845362,2.218939177491861e-06,0,211.31989837468092,16,3
1,X,2758,0.087053123416442,0.0002551877783402727,-0.0020544708059149824,0.00045492422779777196,0.12311170778247116,0.0003608900170806728,0.0014463917432163155,6.679752293459231e-06,0.0014947022501512247,1.32670009316681e-05,0.9676788424383376,0.009682186329744229,0.0004463496760750621,2.4415392510158425e-06,0,142.83436021659477,16,3
1,X,2779,0.08565745158863207,0.00021776200370226902,-0.0018836388264703028,0.0003812144899653472,0.1211379297549603,0.000307961979005289,0.001509005937871188,6.620144147234284e-06,0.0015563661513860777,1.3077408183463103e-05,0.9695700054433133,0.009190429747686015,0.00045820627264104213,2.3233159553313616e-06,0,164.48459786450576,16,3
1,X,2818,0.08674731643938265,0.00024620980325935714,-0.001684965335313812,0.00040708779438495884,0.12267923140804549,0.00034819324295859433,0.0014433222280630501,6.189255562868022e-06,0.001477452838848225,1.2185105097568278e-05,0.9768990184405602,0.00908084429773849,0.00044383779386519704,2.2823915294207044e-06,0,174.66066664779447,16,3
1,X,2839,0.08528538448108727,0.0002170370915297212,-0.0017796309232789404,0.0004111385972887459,0.12061174740535752,0.0003069367983793425,0.001502971406931972,5.962503126062854e-06,0.0015283309271526325,1.1638183504131452e-05,0.9834070489773398,0.008443904745420765,0.00045439156638886745,2.1416455370462877e-06,0,217.96088567408697,16,3
1,X,2860,0.08692096373801633,0.0002350223693906909,-0.0013073540610122128,0.00041901869727543943,0.1229248057728427,0.00033237182225337447,0.0014529237315597287,6.050357785526362e-06,0.0014838082934028167,1.2841369911622527e-05,0.9791856117933804,0.009404187497615873,0.00044768473104685267,2.2227881909218775e-06,0,171.62658086115624,16,3
1,X,2881,0.0847491439397948,0.00022150972426233538,-0.0015822833741984802,0.00040098436027401457,0.1198533887591674,0.00031326205624931935,0.0015296426285357784,5.969268142467655e-06,0.0015848708292439994,1.0400449256991059e-05,0.9651528694394828,0.007368920707284703,0.0004595473120472867,2.158413101478835e-06,0,250.81958733542137,16,3
1,X,2902,0.08656479797145954,0.00025270229850352766,-0.0017337920289899188,0.00044107614537613186,0.12242111131532507,0.0003573750177865431,0.0014582975169416775,7.012440524444016e-06,0.0015038898726948404,1.3837163593294959e-05,0.9696837138270867,0.010066977242662839,0.00044749932865661263,2.5173573169047214e-06,0,229.8429511566623,16,3
1,X,2923,0.08427093495167087,0.0002298448790582608,-0.002001254783435712,0.00043199815102738256,0.11917709912251384,0.00032504974520619623,0.0015423457855910571,6.177479443543423e-06,0.0015745746311980244,1.1329199267106233e-05,0.9795317129030296,0.008066208980839252,0.0004607490998086669,2.232661655001131e-06,0,147.43215973378327,16,3
1,X,2944,0.0880875199227699,0.00024513599325625226,-0.0022713862784326266,0.00041806330170608447,0.12457456535059142,0.0003466746462887915,0.0014170764124082865,6.380933276487847e-06,0.0014581410263430565,1.5993666632182985e-05,0.9718376938904477,0.011522924943342042,0.00044249929580465633,2.3423364202546325e-06,0,187.39323522787063,16,3
1,X,2965,0.08640566704691593,0.00024641006303044704,-0.0016809243150778897,0.0004346862719994939,0.12219606620364254,0.00034847645304286745,0.0014789759597875346,7.098300747087767e-06,0.001529996606412495,1.5364460569960565e-05,0.9666530981760851,0.010758973026059555,0.00045301050596577557,2.5290635166087785e-06,0,204.82432909461988,16,3
1,X,2997,0.08643303602946273,0.0002606985102425044,-0.0020907678927993755,0.00047681373990709255,0.12223477178994857,0.000368683368875411,0.0014100701673926803,6.2026712476949e-06,0.0014356308034559047,1.2378344608606176e-05,0.9821955366228602,0.009507160660271729,0.000432041459595667,2.304332230317234e-06,0,121.5464714964039,16,3
1,X,3018,0.08553654774451204,0.00023594314828785353,-0.0006298883383413593,0.0004012594262921802,0.1209669458988627,0.0003336740002576888,0.0014499464630805558,6.304795842196003e-06,0.0014823012239839671,1.3808996005327753e-05,0.9781726140544823,0.010056356388765455,0.00043965155856436777,2.263944686982436e-06,0,133.61449838189833,16,3
1,X,3039,0.08607116484104081,0.00025742515908275753,-0.0016419001483268844,0.0004581967869014411,0.12172300864745023,0.00036405415127088725,0.0014619331493183339,6.682432771459557e-06,0.0014932115325085094,1.5321728952275442e-05,0.979052945608028,0.010997697388076004,0.0004460567608863315,2.4365795818623736e-06,0,129.50083378452038,16,3
1,X,3060,0.08526132550599472,0.0002588914972309133,-0.0013410215290685066,0.00046428396910692656,0.12057772287648483,0.0003661278665670342,0.001510172840108864,6.867015059595536e-06,0.0015489059659403186,1.3302004598864125e-05,0.9749932360755417,0.00947453234891506,0.0004564399692782893,2.4957200952460053e-06,0,133.97455637325947,16,3
1,X,3081,0.08697821203528566,0.00023356851284051663,-0.002391740813543795,0.00043130851928907445,0.12300576709126376,0.00033031575860237306,0.0014492992885658622,6.791420996166663e-06,0.0014976183664692706,1.4076619069832163e-05,0.9677360541341893,0.010163815924818114,0.00044686206374386204,2.413461710212776e-06,0,160.63367666647667,16,3
1,X,3102,0.08415144555222616,0.000228495843982197,-0.0018701908593231897,0.00041699809877008995,0.1190081155932593,0.0003231419215055098,0.001562167308940474,7.322246095118359e-06,0.0016063020293337197,1.4187724596825715e-05,0.9725240212691804,0.009724457981802461,0.0004660087356279399,2.524330810977458e-06,0,176.3098032353914,16,3
1,X,3123,0.0874697415982651,0.0002419204004434563,-0.0019121696375283593,0.00042601952202808295,0.12370089486553659,0.000342127111321866,0.0014263050524845793,6.749400032595394e-06,0.0014709375341806995,1.7344850034332875e-05,0.9696571195859923,0.012320247297685927,0.0004422574893943103,2.4240424765802217e-06,0,203.84337172956083,16,3
1,X,3144,0.08521024736962854,0.00022999982119222982,-0.0016904108060120592,0.0004197144410315258,0.12050548748329504,0.0003252688664734382,0.001512401609500617,6.909359484366701e-06,0.001576527175876713,1.4530512031060417e-05,0.9593247948038476,0.009868465215788966,0.0004568397539614038,2.424119660513002e-06,0,181.93979344541762,16,3
2,Y,103,0.0847166627188004,0.00025416603770256184,0.0008028427046266933,0.00044568569243424994,0.1198074533759147,0.00035944505761359435,0.001355426492694163,6.488104218170409e-06,0.001398674185328442,1.2422019486970232e-05,0.9690795089464503,0.009777155351767668,0.00040705185763848244,2.2995450185258374e-06,0,198.82072766030691,16,3
2,Y,124,0.07970975694532029,0.00023334199212629895,0.001665392966490956,0.000412278855467882,0.11272661932553496,0.00032999540993616794,0.001471119331536783,7.025061557245079e-06,0.001533459198457835,1.6028058302041824e-05,0.9593469020996803,0.011024253919392817,0.00041568496751387906,2.328329395409825e-06,0,267.48896973751727,16,3
2,Y,145,0.08199998369249008,0.0002865114755999204,0.0015113227741586604,0.00047201962330156684,0.11596548905229209,0.0004051884145689355,0.0014162602667211416,7.909775739437784e-06,0.0014707811768820823,1.5194641726498889e-05,0.9629306446003614,0.011308656300391481,0.00041168189616398704,2.7121140743081297e-06,0,164.53963241688066,16,3
2,Y,166,0.07988121034100838,0.0002379058606978382,0.001575188647371531,0.00042613446560961857,0.11296909104303199,0.0003364496947669271,0.0014876918413048836,7.833287640144113e-06,0.0015359133049052628,1.409736210318317e-05,0.9686040459143275,0.010249325122645682,0.0004212719566731181,2.5484115228777206e-06,0,203.02365455771758,16,3
2,Y,187,0.08168114419639015,0.0002846497665218407,0.0011188540412303024,0.0004806312435696369,0.11551458191268738,0.00040255556034152207,0.0014156217543568766,8.336298769129377e-06,0.0014727094700014121,1.6919996640631e-05,0.9612362677042602,0.012409837584322545,0.0004098962760640307,2.80478993308974e-06,0,178.2289396783059,16,3
2,Y,208,0.08121668546520483,0.0002270125290425094,0.0013389907443775372,0.0004457254319084689,0.11485773807588251,0.0003210441974005329,0.0014689447462552152,6.118885124130526e-06,0.0014995396315882164,9.410344687407385e-06,0.979597147892252,0.0073784626940166555,0.0004229174975977785,2.1215208472203203e-06,0,291.56117852768944,16,3
2,Y,229,0.0810343005404568,0.00025883353982783676,0.0013841472271532965,0.0004626137765498247,0.11459980684173143,0.00036604590242156343,0.0014323514390926397,7.451634631201759e-06,0.0014645778663787193,1.320338697858855e-05,0.9779960983803737,0.010179508788249345,0.0004114560083336383,2.5118089293498605e-06,0,183.1581537032175,16,3
2,Y,250,0.07846971742747705,0.00023943745332285636,0.002183866852187971,0.00043044281388546907,0.11097293862152247,0.0003386156938292584,0.0015259143676534719,6.837284706702989e-06,0.0015598137717575337,1.458940196146492e-05,0.978267018333948,0.010145791562914576,0.0004244604038782646,2.301030668026149e-06,0,229.32333517081028,16,3
2,Y,282,0.08241970733740162,0.0002688414142141773,0.0022986021833289144,0.0004561663267351883,0.11655906792337467,0.0003801991741092525,0.0013998698025870354,7.4587140491646605e-06,0.0014438886729752998,1.827031271942605e-05,0.9695136673538977,0.013311016936316786,0.00040900031763852466,2.5551518831126767e-06,0,166.12745430138284,16,3
2,Y,303,0.0791606812279069,0.00023789500454729883,0.0011165528958148186,0.00042454628345475927,0.11195010899919922,0.00033643434185159915,0.001491755930239967,7.845195145376416e-06,0.0015450224887947539,1.4109579250619047e-05,0.9655237649023872,0.010174989386722653,0.00041861253418043676,2.535588547487932e-06,0,187.4133181618615,16,3
2,Y,324,0.08069364270706901,0.0002533292869641451,0.001358656512368728,0.0004484832246333087,0.11411804391362579,0.00035826171337099977,0.0014439108608018856,7.615944236966386e-06,0.0015017817543337472,1.7989080249358614e-05,0.9614651773702394,0.012583991777203216,0.0004130328900074113,2.5352422586184133e-06,0,175.49773752030012,16,3
2,Y,345,0.07882714377036025,0.00023404041281217412,0.0028440203607968183,0.00039887840890379036,0.1114784158031773,0.00033098312594237456,0.001516389622072661,7.343575435144249e-06,0.001543528297601867,1.4977425966079533e-05,0.9824177661197592,0.010654053331435608,0.0004237322568040143,2.40700415789266e-06,0,274.34094701919537,16,3
2,Y,366,0.08069710441107474,0.0002453833162797166,0.0022680056341020057,0.0004590410493752348,0.11412293950237962,0.000347024413862862,0.0014677839550470283,7.577104336890912e-06,0.0015100949848713989,1.76537210995631e-05,0.9719812129380896,0.012421455449816404,0.0004198798365915039,2.515620405699231e-06,0,231.15975963506327,16,3
2,Y,387,0.07897755179212546,0.0002328079309993618,0.0019156101480583081,0.0004052720493300631,0.11169112486744737,0.0003292401334473172,0.0015194658164673254,7.28635237247424e-06,0.00158072894251617,1.2677245000314658e-05,0.9612437500186926,0.008982030877748636,0.00042540200569390543,2.394549920951011e-06,0,207.48837487445925,16,3
2,Y,408,0.08185788346609976,0.00027098770660908243,0.0015115562972177312,0.0004648496739223657,0.11576452898491463,0.0003832344899229456,0.0014334172466835364,7.178807707835804e-06,0.0014799959475010674,1.6227857243274168e-05,0.9685278186766809,0.011675025155598899,0.0004159470694211654,2.497103935127673e-06,0,259.43351360772033,16,3
2,Y,429,0.0795786312734467,0.00024101838868677953,0.0011590617493220158,0.0004337494676118459,0.11254117962199606,0.00034085147406215377,0.0014892619937337754,8.206199742971382e-06,0.0015530592932025845,1.4839857412172738e-05,0.9589215300741983,0.010577102670076399,0.0004201191745641881,2.6416018561124155e-06,0,245.89369988653613,16,3
2,Y,464,0.08315492700891836,0.0002733225729880755,0.0011567780565602075,0.0004684981383905997,0.11759882555415713,0.0003865364896224466,0.0013769355335850465,7.52307486042386e-06,0.0014409678586019686,1.6417996540881474e-05,0.9555629748195449,0.012074488972574769,0.0004058882940420637,2.587998103605698e-06,0,229.1533946538434,16,3
2,Y,485,0.08020106464261544,0.000260036501051923,0.0012397643241685906,0.0004524677592982121,0.11342143333434807,0.0003677471464996751,0.0014707175745076963,7.76481950482126e-06,0.0015102258290454686,1.894430481659009e-05,0.9738395054713483,0.013253765351961115,0.00041813290675239164,2.590631820487154e-06,0,209.9253523157831,16,3
2,Y,506,0.08089500726597458,0.0002599729924695943,0.0023705530715751534,0.00046805431097633477,0.11440281640381134,0.00036765733180121885,0.001447529421304585,7.852925411806356e-06,0.0015061586394716075,1.421691544909335e-05,0.9610736766828288,0.010463329360064317,0.00041510125840256516,2.617414585196089e-06,0,155.20983851225213,16,3
2,Y,527,0.08023560199951763,0.0002480532183449022,0.0021998933117403593,0.0004367399082871086,0.11347027653288766,0.0003508002255736553,0.0014647380596627126,7.460108227939659e-06,0.0015211319682276823,1.4721100763322706e-05,0.9629263537004775,0.010530665430722983,0.0004166122289944589,2.4821757780413853e-06,0,231.03280753491046,16,3
2,Y,548,0.08080797581018995,0.00027365057634005203,0.001995393073268564,0.00046078968926653536,0.11427973533868763,0.0003870003564113156,0.0014439308411522752,7.591665208098016e-06,0.0014946268100178286,1.5586028337903634e-05,0.9660811859350036,0.011282354831028017,0.0004136238310168791,2.5867421986743417e-06,0,179.5064342632857,16,3
2,Y,569,0.07990336799984381,0.00023842103290654457,0.0015328118822650841,0.0004129234704343838,0.11300042670466748,0.00033717825829143733,0.0014760960754830168,7.109395680075182e-06,0.0015405774576151704,1.46397069487294e-05,0.9581446672392757,0.010207694664760226,0.0004181043087707455,2.3688733635279204e-06,0,250.0044188494031,16,3
2,Y,590,0.08216532835602298,0.00025092536946064994,0.001605239561607405,0.00044230315270329257,0.11619932171792635,0.0003548620606347308,0.0014117477018811867,7.487263600684001e-06,0.0014756754692993443,1.4018496682065165e-05,0.9566789793906986,0.010408568345819049,0.00041119764300331116,2.5165133079837213e-06,0,260.47988529114764,16,3
2,Y,611,0.07973374983287357,0.00023353541732770125,0.002622104476120193,0.00041329270036882126,0.11276055039251331,0.00033026895447929583,0.0014760759111710822,7.246354941837738e-06,0.001534798859997529,1.75724785625784e-05,0.9617389937163876,0.011980825317363358,0.0004172110612023866,2.385008412760232e-06,0,296.39066998815485,16,3
2,Y,643,0.08277858983433951,0.00026180842322028633,0.001758831370967423,0.00045835717573641235,0.11706660441784256,0.0003702530228616441,0.001382410607994279,7.910542943717016e-06,0.0014462177832647856,1.6703693455491857e-05,0.9558799677276377,0.012321031760539043,0.0004056579704368539,2.6522564951370472e-06,0,242.54630428785472,16,3
2,Y,664,0.08127933924809788,0.0002540273997725527,0.0017095733357808545,0.00043928393663832756,0.11494634390538383,0.00035924899397271615,0.001436763478219432,7.93503467994671e-06,0.0014995166204779,1.4400104213892732e-05,0.9581510858889524,0.010614423315367584,0.00041397143644921413,2.6270004129388338e-06,0,157.24127515686575,16,3
2,Y,685,0.08348559874511967,0.00025522860711111965,0.0006674610164435403,0.0004619100020297568,0.11806646600818649,0.0003609477576821396,0.0013753790524294546,8.084764786703436e-06,0.0014472736863817633,1.6825812495497574e-05,0.9503240923753351,0.012380288016537875,0.00040704170031472745,2.6969252883257555e-06,0,245.40984416148953,16,3
2,Y,706,0.084740213204216,0.000248566253390464,0.0011666150322908863,0.0004471086522718703,0.1198407587917899,0.00035152576669306157,0.0013907391165789119,6.706722660192529e-06,0.0014271349308102364,1.234283306086561e-05,0.9744972858237999,0.009649755314684655,0.00041777279370973835,2.3580967769290737e-06,0,142.83226792597964,16,3
2,Y,727,0.08108660766596255,0.0002507120164310519,0.001440519388745271,0.0004343141923721464,0.11467378028803044,0.00035456033388669983,0.0014454433970618168,7.29543949923898e-06,0.0014973918136319275,1.4603096983581114e-05,0.9653073991074456,0.010600053023361172,0.0004154848124061003,2.4592377954626076e-06,0,254.4777913472414,16,3
2,Y,748,0.07928812818056612,0.0002472560443386994,0.0005848846859709594,0.000450973092389697,0.112130346208133,0.000349672851282512,0.0014826447068070677,7.781308763247795e-06,0.0015276751161943016,1.4122867234017544e-05,0.9705235695012089,0.010317188876912582,0.00041672560780132165,2.5440403539092266e-06,0,275.321974287765,16,3
2,Y,769,0.08193279321491222,0.00029749476885639644,0.0013227658907150209,0.0005017417502382253,0.11587046736763917,0.00042072113685176493,0.0013997583370755557,7.602715308756654e-06,0.001447483832303505,1.3958921696477153e-05,0.9670286505708325,0.010703011279624046,0.00040655167598553584,2.656139649876352e-06,0,228.935787391317,16,3
2,Y,790,0.07953324146353873,0.0002809169682043053,0.0010196674121984344,0.00044770128044187323,0.11247698873723067,0.0003972765863352601,0.0014641151921526215,8.559060814793054e-06,0.0015142405762428998,1.6692918850408445e-05,0.9668973445324994,0.01206500507861606,0.0004127897093585855,2.8193864489456776e-06,0,241.29871317809747,16,3
2,Y,822,0.08313403613267825,0.00024292326190006102,0.00211861589658872,0.0004530370884130195,0.11756928139364853,0.00034354537159497767,0.0013893584666789984,7.003839437146396e-06,0.0014273268627930955,1.1041045751194349e-05,0.9733989479888315,0.008987472134408127,0.00040944739264353136,2.3857387739049076e-06,0,209.60304712991305,16,3
2,Y,843,0.08492206419890233,0.00025953554512703805,0.0009531036488539948,0.0004688460285361569,0.12009793493480636,0.0003670386878365517,0.0013849477276060642,7.118171692054123e-06,0.0014279241196763941,1.4186895090168647e-05,0.969902888060978,0.010849348588791502,0.00041692588188640555,2.493074251625859e-06,0,113.32983228054829,16,3
2,Y,864,0.08198268593147641,0.00025815426323161876,0.000995389913720097,0.0004828301451215036,0.11594102632406789,0.00036508526024658927,0.0014245867792709195,8.055046928396915e-06,0.0014910090259183126,1.6025379686735533e-05,0.9554514791709704,0.011603558795564291,0.00041401491240830536,2.679500178103572e-06,0,215.96620955527982,16,3
2,Y,885,0.07897398519203404,0.0002452694403444061,0.0007553345440460059,0.00044321419121031607,0.11168608093322652,0.0003468633689707179,0.001508678363451777,8.407950659035656e-06,0.0015695009851974743,1.6293218527273406e-05,0.961247159244029,0.011325888405610813,0.0004223627880031484,2.694672360998161e-06,0,202.45874739800828,16,3
2,Y,906,0.0804493284254606,0.00025646445172264223,0.0013934500058071773,0.00044235379089047235,0.11377253134309373,0.0003626955058927406,0.0014499621207777254,6.942942859624326e-06,0.0014850564168466286,1.130318355481326e-05,0.9763683751871041,0.008779719411554886,0.0004135080911115431,2.3787002414541593e-06,0,197.1631999926718,16,3
2,Y,927,0.07932882996571072,0.00024688431836433446,0.00245789841339124,0.00044165284325136875,0.11218790722469729,0.00034914715136807883,0.0014781119737188662,7.71597600238523e-06,0.001504993359698713,1.289260526204892e-05,0.9821385351592328,0.009852561201635617,0.0004156648646225837,2.526189290238769e-06,0,227.40434791081907,16,3
2,Y,948,0.08107659251566629,0.00023889326377891668,0.0014556838888839898,0.00041177595474982566,0.11465961672665226,0.00033784609359571727,0.0014143855668640843,7.415685376918229e-06,0.0014580169249949417,1.586923134889771e-05,0.9700748616954438,0.011719595545882014,0.00040650719406616767,2.4448441892652598e-06,0,287.558436156308,16,3
2,Y,969,0.07974162256537178,0.00024111941780156527,0.0024333819509630675,0.00043600791780311576,0.1127716841175852,0.00034099435080647833,0.0014718364590650262,8.203791082404769e-06,0.0015460122819326593,1.6752177085587935e-05,0.9520211943110138,0.01160063861534525,0.0004160538613942063,2.638282974639648e-06,0,268.5280967464351,16,3
2,Y,1018,0.08041377711930237,0.00022279617836276988,0.0015811684723320853,0.00038525627134931975,0.1137222542037647,0.0003150813770855243,0.00144380617312026,6.401432106711325e-06,0.0014754466014844033,1.2489111253775153e-05,0.9785553551498842,0.009350599621699467,0.00041157054718624715,2.151778752730812e-06,0,314.86829342571633,16,3
2,Y,1039,0.07892651238296078,0.0002523933476129676,0.0020040688487307115,0.00041377716253759655,0.11161894424279117,0.0003569380952470058,0.0015071014981709898,8.183026065932925e-06,0.0015675250030171817,1.785726083104023e-05,0.9614529243681036,0.012133327956840348,0.00042166771073575744,2.657080226111969e-06,0,190.8356239124715,16,3
2,Y,1060,0.08098440397830793,0.00026878992942678506,0.0024680117735448675,0.0004710467138151343,0.11452924244682472,0.00038012636362466656,0.001459420951590689,8.005310845468142e-06,0.0015361969809579916,1.5197010607957145e-05,0.9500220151979311,0.010746258060645324,0.00041897383207544674,2.686145608801486e-06,0,174.34760231673394,16,3
2,Y,1081,0.08220157160653244,0.00025593187609256344,0.0016162226707575765,0.0004500013665627321,0.1162505774143413,0.0003619423302136937,0.0014488620322790934,7.430071384268078e-06,0.0015117024426557473,1.5088188066809842e-05,0.9584307013050424,0.010754831515965678,0.00042219402685691305,2.532890873782791e-06,0,186.03551219890167,16,3
2,Y,1102,0.08025911130370311,0.000259381295190507,0.003177826740931875,0.0004396983206988452,0.11350352370970873,0.0003668205454843143,0.0014612901840871096,7.777025509618752e-06,0.00153892020096445,1.6280577951317836e-05,0.9495555280717679,0.011245075028204795,0.0004157533387772258,2.5886611228003823e-06,0,227.76124592938777,16,3
2,Y,1123,0.07878328495067363,0.00023187956683813884,0.001986923294823749,0.0004239442769350645,0.11141639006554682,0.00032792722825969456,0.0015151619463310425,7.452797184897519e-06,0.001560083028109638,1.2634703540701774e-05,0.9712059672663533,0.009202619580306722,0.0004231536307834428,2.4255778972013553e-06,0,235.17516385708328,16,3
2,Y,1144,0.08027134606539592,0.0002435180570604758,0.0014170083592213775,0.00043610711637394355,0.1135208262756271,0.00034438653897767013,0.0014545230400734364,6.87275580407469e-06,0.001486007935841629,1.764321147291233e-05,0.978812430937416,0.012507831112507526,0.0004138910951727757,2.3240546699025967e-06,0,218.14231334678055,16,3
2,Y,1165,0.07921267531193568,0.00024714813170109826,0.0008635538402043018,0.00043464122326549153,0.1120236397379959,0.0003495202397668651,0.0014718932595572947,7.863537486071149e-06,0.0015187313982986833,1.3345945239544143e-05,0.9691596955236076,0.009966956309321885,0.0004133100158637352,2.5570728813501903e-06,0,265.1514878861693,16,3
2,Y,1197,0.08073260738667477,0.0002545939853263042,0.0013000587009022828,0.0004504789799302236,0.11417314829197778,0.0003600502669470762,0.0014422861732101022,7.400083404433081e-06,0.001516901654839417,1.560616699150712e-05,0.9508106004161399,0.01093109276373497,0.00041276736315761723,2.4858731119569043e-06,0,237.5483728103671,16,3
2,Y,1218,0.07866630991279691,0.00022942116365818935,0.0008125725726784572,0.00042068935390214665,0.11125096238052246,0.00032445052114082884,0.001527926726576098,7.095851868040438e-06,0.0015600347434042354,1.3045753851727049e-05,0.9794183963120766,0.009368623198062444,0.00042608499306583363,2.3366014979164177e-06,0,237.73852145939426,16,3
2,Y,1239,0.08030249188588529,0.0002350175963418034,0.00222846832974244,0.00044367347085986147,0.1135648731173744,0.0003323650721429039,0.0014677597207863715,7.733576785342722e-06,0.001516468089874572,1.594956500384548e-05,0.9678803863969012,0.011385719903147433,0.000417819706374994,2.518288852570557e-06,0,196.28177093140417,16,3
2,Y,1260,0.08010295443184724,0.00025038587504544175,0.002141642011590644,0.00042384961234240645,0.11328268454367241,0.00035409910031591885,0.0015024991352620607,7.432579707822282e-06,0.0015432938501836273,1.3393669365267379e-05,0.9735664631095934,0.009725411602480135,0.0004266460185562757,2.496574596282108e-06,0,171.83959015852543,16,3
2,Y,1281,0.08066592545061245,0.0002606424998276747,0.0021460675287863504,0.00044209287835632007,0.11407884579363314,0.00036860415818712466,0.00145269969621022,8.023192029551266e-06,0.0015143686991293444,1.6917351929288294e-05,0.9592774184024143,0.011954430907206921,0.00041540421451861795,2.6580430860785204e-06,0,186.51039691998153,16,3
2,Y,1302,0.07837754977722353,0.00023079426906907416,0.0005415999652076025,0.0004201367812889116,0.11084259388052187,0.00032639238543547,0.0015447683156715032,7.759373868270638e-06,0.0016012556801156717,1.4850060378520035e-05,0.96472308254976,0.010174869825161878,0.00042920025142779853,2.4990180828522044e-06,0,226.7250823860562,16,3
2,Y,1323,0.08050840867133074,0.0002760577463012623,0.0018584971419828044,0.0004917649924090377,0.11385608342807163,0.00039040460881739625,0.0014653895715928415,8.062441166095492e-06,0.001530522140167326,1.4680516988385565e-05,0.957444216672773,0.010587199955017392,0.00041821467794793686,2.711262757411479e-06,0,197.06983511052957,16,3
2,Y,1344,0.07963122807773902,0.0002552176114596317,0.0023019075880715808,0.0004384671971123898,0.11261556273596374,0.0003609322074826782,0.001474296363227092,8.061733208864018e-06,0.0015304732473016107,1.6296562603448395e-05,0.9632944357743172,0.011530685561468848,0.0004161722703779068,2.6377933839682952e-06,0,214.61640037421893,16,3
2,Y,1376,0.08245948646436535,0.0002522132641552611,0.0013919252765355811,0.0004474679044205233,0.11661532410422615,0.0003566834187787582,0.0014090274348045665,7.650336642719817e-06,0.0014904058435114937,1.8232143050720162e-05,0.9453984905781136,0.012653023086924039,0.00041187459703729813,2.566705001008842e-06,0,226.8921414523371,16,3
2,Y,1397,0.0796741687607621,0.0002221946513518451,0.0020482339120083326,0.00040212443679695864,0.11267629003227253,0.0003142306894285407,0.001500588173791664,6.9765242895007e-06,0.0015374451078282757,1.563309187898089e-05,0.9760271544987553,0.01091265801112108,0.00042382248409221377,2.2977416129558477e-06,0,222.37177914669832,16,3
2,Y,1418,0.08072887321171351,0.0002456530930753206,0.002488876010047034,0.00044747354057309284,0.1141678673711033,0.00034740593586601864,0.0014497112679127866,6.836923182336666e-06,0.0015082492317408027,1.5662780130758503e-05,0.9611881361540942,0.010962774728547033,0.00041487315807920225,2.328495327179063e-06,0,158.13979355793637,16,3
2,Y,1439,0.08428000249020241,0.00023976851693301604,0.0015664389262139916,0.0004274317561800912,0.11918992255848249,0.0003390838884767544,0.0014032862058478127,6.80282869976305e-06,0.0014446740413770682,1.542388582412109e-05,0.9713514368335957,0.011389527581812912,0.00041925256464189704,2.356575758968249e-06,0,178.40090914554509,16,3
2,Y,1460,0.08100579397105052,0.0002689603352214078,0.0025152530309372288,0.0004898191534774235,0.11455949246466035,0.000380367353810529,0.0014455917336889377,7.309562745806684e-06,0.0015108559193678986,1.2555991528644164e-05,0.9568031704133206,0.009307701246945244,0.000415113322047172,2.5110691442343277e-06,0,251.83200966644404,16,3
2,Y,1481,0.07975736967640717,0.0002355224297210991,0.0015899548957349335,0.000447438352248242,0.11279395389557967,0.0003330790143546425,0.0014829998115500976,7.134523218299181e-06,0.0015303040936769036,1.6206500898810362e-05,0.9690883123672847,0.01127231889046295,0.00041929226504349804,2.366852818339634e-06,0,200.02065842148875,16,3
2,Y,1502,0.08057163317011948,0.00024222034969210047,0.0011007803361672854,0.00041894432108086684,0.1139454963717329,0.0003425513036173222,0.001444657842988287,6.630797999178999e-06,0.0014841818636170253,1.3889492423144426e-05,0.9733698264359488,0.01014574751286446,0.00041262173275035546,2.2639598232544206e-06,0,218.51824121244286,16,3
2,Y,1523,0.08365088963753521,0.0002528692665771794,0.0019077224741410796,0.00047003058578400715,0.1183002226299773,0.0003576111463007847,0.0014079558313658546,6.88893701744634e-06,0.0014374401136749192,1.373463072057284e-05,0.979488340398623,0.010514646098190724,0.00041750773604681384,2.4012364465550283e-06,0,123.6680298155302,16,3
2,Y,1555,0.08672980748268097,0.0002554808025255765,0.0019962083133535117,0.00046272935176153125,0.12265447000401497,0.00036130441585763284,0.0013505059122756924,6.482063238935169e-06,0.0013978270022739886,1.2317512363065472e-05,0.9661466762901888,0.009694596793564084,0.00041521191171009535,2.338295950129223e-06,0,151.52143651141327,16,3
2,Y,1576,0.08884625368047329,0.00028761323382089227,0.0014720469835973722,0.0004742574929321818,0.12564757692096584,0.00040674653598749,0.001280348207992148,6.652822484294698e-06,0.0013264987225762984,1.4260729177085038e-05,0.9652087757050245,0.01152509658211279,0.00040324793297776625,2.468686718971597e-06,0,166.65806154001876,16,3
2,Y,1597,0.08614915133568021,0.00027475604645723164,0.0022597843879880166,0.0004895221093169084,0.1218332982058512,0.00038856372724382915,0.0013547643521457278,6.889822233257167e-06,0.001400975904072144,1.578976089228702e-05,0.9670147418009863,0.011956961892353752,0.00041373255586633103,2.4836103171004385e-06,0,178.51208840175647,16,3
2,Y,1618,0.08352523000221777,0.00026140933875811834,0.002420595028146071,0.00048786506647885067,0.11812251306946853,0.00036968863220271375,0.0014188569513117286,7.33348429265519e-06,0.001460681741899585,1.2889971700452118e-05,0.9713662535868599,0.009934010551121452,0.00042010826379791264,2.538418314847117e-06,0,151.1611354455282,16,3
2,Y,1639,0.08179787902022659,0.0002504455801765275,0.001545431790398039,0.00042720343311011203,0.11567966988375811,0.00035418353612204356,0.0014416907278580085,6.9777211789651446e-06,0.0014951057867902985,1.5638362071702462e-05,0.9642733916193571,0.011113457503806356,0.00041804119459404993,2.3941597810125543e-06,0,163.90643577114247,16,3
2,Y,1660,0.08139699814386411,0.00023472139016885178,0.002408120621278006,0.00039253478341151095,0.11511273871151029,0.0003319461733558571,0.0014723694311263766,6.560154875663806e-06,0.0015177049005851383,1.1705816626482603e-05,0.9701289299116824,0.008641201187689504,0.000424844610206567,2.2547629329220235e-06,0,213.1102007651412,16,3
2,Y,1681,0.08173382303673694,0.0002628439839168185,0.0007513357195807644,0.0004580072957319005,0.1155890810431559,0.00037171752684334036,0.001422460871138597,8.421036489473873e-06,0.0014756279081292731,1.4354196115371557e-05,0.9639698892262897,0.010977054957210866,0.00041214218946487716,2.776648133380381e-06,0,210.0419066658543,16,3
2,Y,1702,0.07903804030310534,0.00023928070416692526,0.0011814627573493483,0.00042364737993909915,0.11177666854004287,0.0003383940170470501,0.001499183574803783,8.114357367447436e-06,0.0015448495946118125,1.4829247878277979e-05,0.9704398279500442,0.01069418911097801,0.0004200450886100595,2.6049762151315923e-06,0,289.7525415090662,16,3
2,Y,1734,0.08113408413526244,0.00024108868786796398,0.002176442763468504,0.00041889753554015925,0.11474092215480791,0.00034095089211760854,0.0014418450548637834,7.081202622856021e-06,0.0014929426414640582,1.3210323367829887e-05,0.9657739117491039,0.009773716416162178,0.0004146931506807168,2.380414415150504e-06,0,240.29208951200096,16,3
2,Y,1755,0.08312844750960646,0.00026823102716032126,0.0011769277172053551,0.00048347510584943564,0.11756137788710541,0.00037933595645939233,0.0014064841117425357,8.10240287548572e-06,0.0014460676874230047,1.6549172100792734e-05,0.972626747679419,0.012461671192591764,0.000414466498728572,2.736667578724995e-06,0,172.20282014936745,16,3
2,Y,1776,0.08109927124504222,0.00024160743477191863,0.002258644548207229,0.00045314453793099033,0.11469168929331308,0.0003416845110246203,0.001451420665490992,7.163014599339966e-06,0.001477032455052541,1.4579904061151928e-05,0.9826599683209819,0.010844673451191512,0.0004172681016233263,2.40540943013199e-06,0,175.95099796892424,16,3
2,Y,1797,0.07858132623182289,0.0002548218682713839,0.0026060556500815775,0.0004386757461562104,0.1111307773063086,0.00036037254209864145,0.0015208600824756346,8.57727479765528e-06,0.001556530280704786,1.994801362593852e-05,0.9770835179557187,0.0136808716459803,0.00042365618146460795,2.7561244536516295e-06,0,189.73064334145616,16,3
2,Y,1818,0.08613128924955901,0.0002688677137831496,0.002236403803632939,0.00045793711920985396,0.12180803740140633,0.0003802363673163778,0.0013563738330853881,7.189222380075823e-06,0.0013756913116704116,1.370895175851225e-05,0.9859579845993448,0.011128552509231863,0.00041413819168152643,2.547466790503575e-06,0,170.417507146846,16,3
2,Y,1839,0.09483628190711084,0.0002973699634491913,0.0006344570569188878,0.0005396780275945251,0.13411875607807433,0.00042054463535223796,0.001196154298339982,5.83058134458212e-06,0.0012206014667528965,9.524804880478053e-06,0.9799712116699727,0.009016413676022225,0.0004021301688288641,2.330698431462054e-06,0,154.14319406680144,16,3
2,Y,1860,0.08211770982439201,0.00025059100767894444,0.0018402066278829742,0.00043927541229660537,0.11613197894467353,0.0003543892016683037,0.0014314309899403441,6.959613710828457e-06,0.0014666300743056207,1.401311261226005e-05,0.9760000255129491,0.010463249994724786,0.00041668913462176174,2.391930868531313e-06,0,213.7577297432448,16,3
2,Y,1881,0.08149652520431559,0.00024014324023704343,0.0026622879743784023,0.00043366619161769375,0.11525349123022388,0.0003396138272554472,0.0014617840460934414,7.423932031941487e-06,0.0015000014930323176,1.6029696516828326e-05,0.9745217274006721,0.011530419587647051,0.00042230599014820934,2.4796172273734927e-06,0,215.61946980492664,16,3
2,Y,1916,0.08129571810359532,0.00022779455628806238,0.0017121120732495833,0.00041570089658510945,0.11496950710496445,0.00032215015093733923,0.001444832832210321,5.776749193324264e-06,0.001442382520404129,1.5738341938549423e-05,1.0016987947174412,0.011640554012590397,0.00041638033051082405,2.032907728132488e-06,0,181.8460145909055,16,3
2,Y,1937,0.08359475400758345,0.00025269922831372464,0.0014781238892875033,0.0004330174969727536,0.11822083486076718,0.0003573706758824846,0.0014245077881930807,6.733151439494535e-06,0.0014569174439487398,1.3300700125788839e-05,0.9777546381297914,0.010051686156523841,0.000422132494496179,2.3684305047706867e-06,0,145.6423072621126,16,3
2,Y,1958,0.08110357731454403,0.00025054661167118087,0.0014259701786664299,0.0004676314032008455,0.11469777899520306,0.0003543264162320092,0.0014244284214342052,7.492282236352213e-06,0.0014584408987805182,1.4127079025716005e-05,0.9766788785375172,0.010765326478407599,0.0004095298600884011,2.498108855659651e-06,0,168.07872606161615,16,3
2,Y,1979,0.07933817915328825,0.0002609410104259167,0.002365448164266692,0.0004528035495748463,0.11220112897256662,0.00036902631592367063,0.0014942465577829362,7.64604335255399e-06,0.0015425182605037805,1.319386175823537e-05,0.9687059116531438,0.009655290797072807,0.0004202516478772673,2.556322447850979e-06,0,232.13008696038307,16,3
2,Y,2000,0.08089569044279882,0.000255705340630271,0.001783731001336135,0.00044705996018953056,0.11440378256174166,0.0003616219606905613,0.0014381167377803636,7.603308168375139e-06,0.0014958591814040296,2.1527236825679607e-05,0.9613984763128115,0.014739823267601081,0.00041240550989449633,2.5403548599082363e-06,0,209.20742378506236,16,3
2,Y,2021,0.0801540196279883,0.00025069168975462396,0.0023685809147983806,0.0004460449764241711,0.11335490163662032,0.0003545315876252175,0.001473402789359,7.904039708534779e-06,0.001536553993467158,1.7109483512153375e-05,0.9589007582052744,0.011851843268473649,0.0004186506080299421,2.59967132225277e-06,0,193.52782787933782,16,3
2,Y,2042,0.08120084891777657,0.00025543202299355605,0.0019642204077164075,0.0004216192909133715,0.1148353418157283,0.0003612354311818833,0.001424241225793993,6.79420511554106e-06,0.001456400858125869,1.4377230055431436e-05,0.9779184198138555,0.010721851459584918,0.0004099671456921809,2.342633536803447e-06,0,206.95264670599312,16,3
2,Y,2063,0.07873141898715391,0.00025118415134898976,0.002764727672669605,0.0004375773380177541,0.11134304051651167,0.00035522803349091747,0.001503798882312407,7.442593783900074e-06,0.0015589384854044423,1.645711440850415e-05,0.9646300328022691,0.011246802879387547,0.00041970367170286515,2.47137889179406e-06,0,237.92146177174038,16,3
2,Y,2095,0.08139658180312356,0.00024962757120982774,0.0015237368411892885,0.000448650976411207,0.11511214991678842,0.000353026696747194,0.0014218568459765332,7.3260767806897e-06,0.0014640802353078478,1.4840165995631113e-05,0.9711604676348653,0.011042649776149367,0.00041026736561882555,2.4600058323751896e-06,0,221.16767888461752,16,3
2,Y,2116,0.07889553482660634,0.0002489799353645192,0.0021604643157201453,0.0004312339762562814,0.11157513536246555,0.0003521108013512797,0.0014860442635690613,7.33922797150922e-06,0.0015593600894943454,1.9610549580661325e-05,0.9529833895203396,0.012875782679452276,0.00041561297964079615,2.4358826875971085e-06,0,240.18916459898824,16,3
2,Y,2137,0.0810063686777511,0.0002641296856950869,0.0020443036192832405,0.0004658553588285739,0.11456030522267069,0.0003735357837353348,0.0014345163527844688,7.5362357664759625e-06,0.0014717666273893423,1.5687304599159525e-05,0.9746900942638242,0.011582413736932112,0.00041193585963497414,2.5470441061373596e-06,0,200.92340837012551,16,3
2,Y,2158,0.07939926332996612,0.00021781574562985086,0.00186267267056002,0.00041347359800932617,0.11228751504367085,0.0003080379815681433,0.001493523593785146,7.20487727523653e-06,0.0015455819288427333,1.3969795911010536e-05,0.966317971188647,0.00990024982882732,0.00042037172103311776,2.332870849589893e-06,0,200.22624324364122,16,3
2,Y,2179,0.0811937899904391,0.00025131546052565375,0.0015684295061018842,0.00045477238217874003,0.11482535898495183,0.0003554137327094198,0.0014274362641777422,7.607644496395766e-06,0.0014637404013901915,1.6878335628790124e-05,0.9751976940870325,0.012387989070365197,0.0004108511168518381,2.532159457582128e-06,0,228.88587687398393,16,3
2,Y,2200,0.07917428144248768,0.00024653820751206914,0.0010315903611787453,0.00041116340983569027,0.11196934260711056,0.00034865767670672065,0.001501266479568266,7.90980993585282e-06,0.0015829440366273997,1.6953609288262823e-05,0.9484014878800423,0.011320103740667218,0.0004213537372529298,2.578739319619522e-06,0,271.3325521492694,16,3
2,Y,2221,0.08145982588485869,0.00024317512760412962,0.002024545309538092,0.0004477469482521798,0.11520159055491808,0.00034390156348956813,0.0014156045456775051,6.766889851450531e-06,0.001446624804861649,9.963506701784527e-06,0.9785568040310836,0.008203955808088885,0.00040878067647962213,2.303795121479155e-06,0,229.22364591848512,16,3
2,Y,2242,0.07894317773354356,0.00024381317669117502,0.0016964990382713505,0.0003880892527560149,0.11164251260760705,0.0003448039011619275,0.001483260518153201,7.695217027395365e-06,0.0015551768822513567,1.732960919429518e-05,0.9537567945364223,0.01172330205254925,0.00041508493642653226,2.506177695219849e-06,0,241.17706106873484,16,3
2,Y,2274,0.08159989906668588,0.0002563265033421102,0.002474634573735588,0.00045469017988581534,0.11539968394838285,0.0003625004174220847,0.0014248046830026796,8.124273256756509e-06,0.001477625819379186,1.692835074040764e-05,0.9642526980215472,0.01233954953578778,0.0004121448595050808,2.6830793218722597e-06,0,188.01365430563132,16,3
2,Y,2295,0.08019199890799021,0.00023678156407419182,0.0021431992953208634,0.00043497250985912855,0.11340861244948819,0.0003348596992336361,0.0014753746101666106,7.57614798251719e-06,0.0015117730536746768,1.2851934360933252e-05,0.9759233415229936,0.009692637172104506,0.0004194095126087793,2.484351083838583e-06,0,167.68592364236113,16,3
2,Y,2316,0.08056730431038453,0.0002227857921622959,0.0020037338502417673,0.00043369745741825305,0.11393937443958613,0.0003150666887799525,0.0014588400851299746,7.106148276359902e-06,0.00152740513868235,1.2205033371081242e-05,0.9551101067975163,0.008938260065524225,0.00041665006411414934,2.333759974382945e-06,0,269.73287593478915,16,3
2,Y,2337,0.08056554617055725,0.0002267905953147462,0.00209826019702295,0.00040855966347080755,0.11393688805439783,0.0003207303357127822,0.0014835220251500762,6.979885710464237e-06,0.0015218777487603636,1.972030887447162e-05,0.9747971059820476,0.013438175841422517,0.00042369007049259045,2.322989114207816e-06,0,270.52191030452036,16,3
2,Y,2358,0.08463478028736447,0.00025612690341179656,0.001706213718224117,0.0004641090449729007,0.11969165413085792,0.00036221814049358647,0.0013868395959503851,7.299049237862002e-06,0.0014262148171110434,1.5499296499681674e-05,0.9723918019303591,0.011741451266766022,0.00041608306115471864,2.526082579643855e-06,0,182.50451668700666,16,3
2,Y,2379,0.08070622234177084,0.00022209830132513748,0.00142972747855463,0.00040519207025654995,0.11413583420363083,0.0003140944299140358,0.0014836780482308423,6.502375202546013e-06,0.0015476151593406854,1.2270408526975001e-05,0.958686685947764,0.0086849708623319,0.00042447451685001655,2.196645437616724e-06,0,230.26023821540304,16,3
2,Y,2400,0.08068494737674277,0.00026458588851587477,0.0004105151555693417,0.00045214232222139225,0.1141057468595491,0.0003741809519516859,0.0014439526783125145,7.78972046261002e-06,0.0015166123123234174,1.4749438713630546e-05,0.9520908320336725,0.010588498049033718,0.0004130003433652204,2.6073528656110443e-06,0,306.23676928557836,16,3
2,Y,2421,0.07831626587308772,0.0002373751631656482,0.0017937895815485201,0.00041643001591931656,0.11075592535213785,0.0003356991751193861,0.0015293414876597824,6.845638092375513e-06,0.0015966222733314168,1.4488365419848065e-05,0.9578605492385809,0.009691959941156916,0.0004245818003414762,2.2952255351520365e-06,0,270.55228607356094,16,3
2,Y,2453,0.08179988465411751,0.000240022735645746,0.002271155225196682,0.00042376744595128786,0.11568250627840782,0.00033944340802810613,0.0014218171361036517,6.828454206828216e-06,0.0014692907487922657,1.3600194856482743e-05,0.9676894360577466,0.01009111631810326,0.00041228863886914256,2.3203877835371325e-06,0,218.38420412864917,16,3
2,Y,2474,0.07949156137228862,0.00023808082674593248,0.0008233808595811932,0.00042358389540359513,0.11241804418690382,0.00033669713412509683,0.0014851557239257205,7.736669556683013e-06,0.0015666913422299285,1.523260790780223e-05,0.9479568080154478,0.010456343893201409,0.000418502399968021,2.5147585452346475e-06,0,259.60983379271073,16,3
2,Y,2495,0.08198284089192198,0.00024565803253143864,0.0013896352613311715,0.0004299268790965474,0.11594124547123164,0.00034741292131185153,0.0014121222777320839,7.461665020895671e-06,0.0014765702507854416,1.4127987942951723e-05,0.9563529246108843,0.01045313801907053,0.0004103932415315444,2.4929317220269487e-06,0,259.92848255576575,16,3
2,Y,2516,0.07844209470700614,0.00023936464961751822,0.0013062285175280176,0.00041759427845651455,0.11093387419560286,0.00033851273384177816,0.0015307978604430904,7.4091715033565905e-06,0.0015947646248128634,1.3218000744259414e-05,0.9598895264075229,0.009213108844517273,0.0004256689391217556,2.4355494834954557e-06,0,230.4960220540767,16,3
2,Y,2537,0.081132910808846,0.00025115369911626775,0.0017499000309908915,0.0004220813240293156,0.1147392628206767,0.0003551849675303975,0.0014325074250868784,7.24928940323785e-06,0.001485171160709068,1.7338785683853544e-05,0.9645402920448265,0.012273018207555721,0.0004120015701876053,2.444107147756778e-06,0,293.6581497480583,16,3
2,Y,2558,0.07807938233657699,0.00022897183323042017,0.0017178267459352274,0.00039130757028691136,0.11042092144210147,0.00032381507195589077,0.001532999404978703,7.620681624456881e-06,0.001591029486153042,1.5212863546127232e-05,0.9635267091657427,0.01038362060605386,0.00042431001972919425,2.4489569993260206e-06,0,267.40253811898907,16,3
2,Y,2579,0.08112913072389531,0.0002380144516304936,0.0017468224990996011,0.0004297251392167131,0.11473391697327251,0.0003366032655366391,0.001443732387386055,6.15239741835412e-06,0.0014908469694206153,1.0585667156233837e-05,0.9683974391732034,0.008019372002836575,0.0004152106206925398,2.1481684525023388e-06,0,243.09151267082024,16,3
2,Y,2600,0.07889049724643747,0.00023728928476579012,0.0011820997111755447,0.0004205156637226844,0.1115680111482692,0.00033557772472159186,0.00151352930247268,7.888878888451198e-06,0.0015683200245961966,1.319710893699537e-05,0.9650640677513355,0.009552497134516214,0.0004232728953210687,2.547192123249299e-06,0,215.37502189185014,16,3
2,Y,2632,0.08171912376599129,0.0002566573606874572,0.0014865265753684447,0.0004475051658112475,0.11556829313511041,0.00036296832036708526,0.0014141461872313476,7.270681033465067e-06,0.0014704594627535728,1.6761537560170345e-05,0.9617036192097582,0.01202581660206559,0.0004096594147338819,2.4681114018597197e-06,0,162.9987705530251,16,3
2,Y,2653,0.07865005836734056,0.00025461585710285156,0.0027183622919073644,0.0004567682626184902,0.11122797922452854,0.00036008119831010266,0.0015031338224516537,8.139177120491033e-06,0.001560966908546459,1.4036327967931295e-05,0.9629504726985799,0.010107654455648691,0.0004190845287371007,2.6439018013658444e-06,0,243.23517400638508,16,3
2,Y,2674,0.08050211949269559,0.00023479663314903,0.0032023337127713805,0.0004262224321177916,0.11384718918634962,0.0003320525829988985,0.00145061028932775,6.678031512724931e-06,0.001505551201563803,1.5170142932884225e-05,0.9635077756379283,0.010673723283692597,0.0004139644057746471,2.256011136970886e-06,0,249.6133326742641,16,3
2,Y,2695,0.0776327412178354,0.00023241111065742576,0.0007294474307514759,0.0004060567772522828,0.1097892755144636,0.0003286789447379257,0.001564708822207663,7.27509404356458e-06,0.0016257844456092074,1.4095577548129923e-05,0.9624331358523618,0.009468450023565831,0.00043060927963917063,2.3812391617515827e-06,0,233.7471866831375,16,3
2,Y,2716,0.08333916173206193,0.00025817857654178043,0.0012814504464676252,0.00048501834716335957,0.11785937279828684,0.00036511964445956613,0.0013789063853026442,7.748499335386215e-06,0.0013917471555554976,1.3961835963000677e-05,0.9907736328386976,0.011392396352529468,0.0004073698118830397,2.61396122876572e-06,0,130.21045861409675,16,3
2,Y,2737,0.0787431153194099,0.0002448238931882665,0.0027884791208718424,0.0004368817765155961,0.11135958162821813,0.0003462332701398285,0.0015244599948928592,7.6058101322472345e-06,0.0015665315307454295,1.3376457137137066e-05,0.973143511619871,0.009624028858472673,0.00042553330539295395,2.501569170993159e-06,0,232.3413878495684,16,3
2,Y,2758,0.08061813077507493,0.0002438573427477111,0.002160250677231998,0.000428743724787194,0.11401125391527878,0.00034486636139807736,0.0014452815895364464,6.914066039146445e-06,0.001498188453800608,1.399099103754822e-05,0.9646861086601307,0.010122087934166992,0.0004130381119742698,2.3377839045077848e-06,0,219.37405774953695,16,3
2,Y,2779,0.0787652509264039,0.00024358699436014382,0.0019219504301341264,0.0004474048938257709,0.1113908861038404,0.000344484031041814,0.0015134389735856609,8.11378399946537e-06,0.0015648569623949397,1.4282483288766667e-05,0.967142051928768,0.010237303828035598,0.0004225756872953094,2.6153983697691253e-06,0,230.47341177270494,16,3
2,Y,2818,0.08034531284351372,0.00022578941134531683,0.001382670502169625,0.0004066520311354824,0.11362543109640633,0.0003193144477647847,0.0014430962880519645,6.614150960363249e-06,0.001485247564589792,1.6953070651249233e-05,0.9716200332235728,0.01195104792602691,0.0004110179489587621,2.2097374971485642e-06,0,212.12746382016314,16,3
2,Y,2839,0.07976468302067606,0.00023713986585361437,0.0015677960337464368,0.0003986621730002556,0.11280429652623103,0.00033536641446951787,0.0014910159875690995,7.488203506843426e-06,0.0015466145487800526,1.6928579813492664e-05,0.9640514430342011,0.011609844578575794,0.00042159735342629746,2.4605303180218035e-06,0,204.22203760925677,16,3
2,Y,2860,0.08103966264778548,0.00024335253182544784,0.0013632481365125299,0.00042432611118882463,0.11460739000663855,0.0003441524509453786,0.0014332101470370423,7.98441926463427e-06,0.0014828127443708929,1.543580617505296e-05,0.9665483065733326,0.01141183451080184,0.00041172992272883247,2.6057457300385785e-06,0,253.84194558566568,16,3
2,Y,2881,0.0782817813705012,0.00024090694060997054,0.0022290305027197186,0.0004271217456688503,0.11070715690088828,0.0003406938626804301,0.0015323829847626225,7.530151789906022e-06,0.0015650389118578684,1.5725471610281825e-05,0.979134111715804,0.010951838667747639,0.0004252388675265563,2.4655835780839034e-06,0,212.69042149090077,16,3
2,Y,2902,0.08061939513241949,0.00025018432000597054,0.0013321317482806205,0.0004316833023914804,0.11401304198658313,0.00035381405844553404,0.0014640431994292628,7.627245155495737e-06,0.0015388648300375723,1.692156009946042e-05,0.9513786856728133,0.011576211511758439,0.0004184064386425475,2.537194012043968e-06,0,247.17368172067287,16,3
2,Y,2923,0.07806406174665842,0.00022507942983786478,0.0016861335014936485,0.00041313917351352866,0.11039925485605506,0.00031831038228791186,0.0015388530792356425,6.992889456433689e-06,0.0015723913147284716,2.0540447323811652e-05,0.9786705540925602,0.013536004319738353,0.00042584664906816094,2.291797757518509e-06,0,229.40008553962073,16,3
2,Y,2944,0.08125093378239599,0.00023338056876771006,0.0014380498317745458,0.0004546839824945213,0.11490617251054269,0.00033004996554564237,0.0014447580483379946,6.448996790925629e-06,0.001477866712422456,1.0607601075001482e-05,0.9775969890882844,0.00826305882460132,0.00041612941443878207,2.208826551536833e-06,0,232.3803198140776,16,3
2,Y,2965,0.07980351210523771,0.00026195544891451794,0.0020488320729691134,0.0004411312084060716,0.11285920914423264,0.0003704609485924437,0.001466680154572779,8.03941803495279e-06,0.0015327470260665663,1.4909123208300427e-05,0.9568964281970702,0.010683916204649944,0.0004149180732261896,2.6509423409909487e-06,0,276.63866892666556,16,3
2,Y,2997,0.08365449519771485,0.00023520113053085583,0.0002858136858534079,0.0004253077375326919,0.1183053216620833,0.000332624628682221,0.0014115333966398574,7.429939722342702e-06,0.0014619731157588683,1.5813278303906216e-05,0.9654988736965734,0.01161416553565921,0.0004185866495730083,2.497945115955907e-06,0,229.96160921865263,16,3
2,Y,3018,0.08137381707935229,0.00023865979229423484,0.0025613032228111905,0.0004253396960842715,0.11507995573568741,0.0003375159150556528,0.0014638752987167732,6.914136819385581e-06,0.001514954129117537,1.1940591704129296e-05,0.9662835795361558,0.00887884803726083,0.0004222733785182611,2.347709450410509e-06,0,201.17280528865956,16,3
2,Y,3039,0.08025327104673394,0.0002587375186004713,0.0016433535317039742,0.00044982897179892577,0.11349526433909518,0.0003659101078995475,0.0014515913768868311,8.971880904767753e-06,0.0015145721028275026,2.0638045567289974e-05,0.9584168189661655,0.014340360492162453,0.0004129638675207472,2.8787925006458166e-06,0,135.215899244297,16,3
2,Y,3060,0.07844360893874319,0.00024095456849565855,0.0023698626193674657,0.0004097574203883887,0.11093601564266198,0.00034076121868231724,0.0015103827798751482,7.343433911778446e-06,0.0015758700144961636,1.6607130268885914e-05,0.9584437586738694,0.011123579933880603,0.0004200002254111419,2.4154223245368205e-06,0,220.96143044205155,16,3
2,Y,3081,0.08123371934029734,0.00026068687224499535,0.0016617807133911641,0.00047951247200355394,0.1148818276130581,0.0003686669102614948,0.0014432380639384569,7.362572021991788e-06,0.0014891448458665207,1.3348209689663831e-05,0.9691723863830378,0.009995734402388264,0.00041560354620509175,2.504777740062299e-06,0,181.97506951472232,16,3
2,Y,3102,0.0783164771520931,0.0002365599627138059,0.0020315851791000237,0.0004039245145607148,0.11075622414577269,0.000334546307584338,0.0015345669999694352,8.25875846963868e-06,0.0015976924503163892,1.7553831635662678e-05,0.9604896109170113,0.011750910745166218,0.0004260336769627347,2.629278889191226e-06,0,220.5970399305754,16,3
2,Y,3123,0.08161453501587351,0.00024100116860451467,0.0016372621422756598,0.0004282437797849861,0.1154203823062222,0.00034082712118826963,0.001427052980967324,6.8793428509895316e-06,0.0014696020475327796,1.4106104792801164e-05,0.9710472187781117,0.010430136347912388,0.0004128692513331586,2.3340275364231382e-06,0,266.1259620244039,16,3
2,Y,3144,0.07874008665659371,0.00023894542142177786,0.00200561536521505,0.0003886597874335254,0.11135529845218761,0.00033791985564163296,0.0015056274356262276,7.322788368797347e-06,0.0015670206499642121,1.5565369077098223e-05,0.9608216941242053,0.010626581708590065,0.00042026027495319437,2.409216264511081e-06,0,285.04571162582715,16,3
