Scan,Type,BCID,sigma,sigmaErr,Mean,MeanErr,CapSigma,CapSigmaErr,peak,peakErr,rate0sep,rate0sepErr,peakRateRatio,peakRateRatioErr,area,areaErr,fitStatus,chi2,ndof,covStatus
1,X,103,0.08983167046803031,8.479408476259534e-05,-0.001454518340381823,0.0001482950222118111,0.1270411667065191,0.00011991694468027614,0.01013142799537428,1.526175239004721e-05,0.010413395605828955,3.49916488373474e-05,0.9729226065034116,0.003582743845908679,0.003226302390511969,5.735346657290569e-06,0,769.3583021520174,16,3
1,X,124,0.0878530162488599,8.1022324201698e-05,-0.0006332098731123391,0.00014954561462027894,0.12424292707452156,0.00011458286974103116,0.010870146959361608,1.6536608645860988e-05,0.011201849196140598,3.564187257296425e-05,0.9703886178995096,0.0034223319900881944,0.003385298932472955,6.02246049043654e-06,0,1019.9645574023398,16,3
1,X,145,0.08828265020335407,9.279273691257031e-05,-0.0021431542618561422,0.0001534517757589383,0.12485052123982321,0.00013122874703147547,0.010528196574281758,1.7620887072525713e-05,0.010887627239924147,3.953477538681624e-05,0.9669872362708761,0.0038663270211495263,0.003294839616126278,6.511795104918985e-06,0,976.590804151188,16,3
1,X,166,0.08708645602280173,7.86373480769516e-05,-0.0017792518031987125,0.0001415941517578208,0.12315884720645431,0.00011121000415947879,0.01099048353492456,1.6558783819373152e-05,0.011310045033269728,3.1503680148464086e-05,0.9717453381127004,0.0030773465652846337,0.003392910074712564,5.959711773901915e-06,0,1533.572510516225,16,3
1,X,187,0.08876607765594906,9.184098518555911e-05,-0.0020155022735340008,0.00016511572252929973,0.12553419089970652,0.0001298827668311242,0.01050436622800914,1.8204415867791003e-05,0.010855423692290783,4.287962779175256e-05,0.9676606391207969,0.00417401924866907,0.0033053832098729687,6.671541885135503e-06,0,1090.0666924110546,16,3
1,X,208,0.0867700116891458,8.191527979421317e-05,-0.002026027163190175,0.0001511759169947106,0.122711327338062,0.00011584569965056302,0.010814981745769834,1.8139230023855297e-05,0.011147340085225891,3.549086349178675e-05,0.9701849645821295,0.003491273234161087,0.0033265984338008044,6.402589518080714e-06,0,1286.5839369157275,16,3
1,X,229,0.08877035044284838,8.637325609309914e-05,-0.002067688134856006,0.00015627781025455244,0.12554023353288868,0.00012215023019318538,0.010569821551979797,1.7694752724114413e-05,0.010981796695685591,4.194000031057191e-05,0.962485633715324,0.004013423582141437,0.0033261399736856222,6.4404193322430015e-06,0,1347.1613195447794,16,3
1,X,250,0.08706676827722558,8.064004718815094e-05,-0.0018585599948559791,0.00014683792463948404,0.12313100452964798,0.00011404224840388943,0.01109440238678781,1.6230724547625356e-05,0.01143455254888356,3.1170575629350936e-05,0.9702524291491439,0.0030017258427471397,0.0034242169297441084,5.9290276157818896e-06,0,1345.223074702644,16,3
1,X,282,0.08910549268730611,7.677662128325608e-05,-0.001562697901390939,0.0001482700643749013,0.12601419624032495,0.00010857853909196358,0.010529872800252492,1.3196902619619432e-05,0.010699541360047339,2.635766710078122e-05,0.9841424455417875,0.0027200899476385286,0.003326078790399154,5.0586316044207e-06,0,760.2457312342741,16,3
1,X,303,0.08735783293432858,8.151564506448885e-05,-0.0012673335790474205,0.00015263432936489873,0.12354263211525052,0.00011528053079579159,0.011066812954387615,1.8487009245848317e-05,0.011432546060114993,3.57321563272352e-05,0.9680094789205949,0.0034305174441612266,0.003427120334641993,6.55759478767057e-06,0,1223.8251379337432,16,3
1,X,324,0.08795316721791178,8.14409622028233e-05,-0.0019781742346824975,0.00014335957364038126,0.12438456193323955,0.00011517491327994733,0.010685794164898179,1.725652493169034e-05,0.011037884329843246,3.771049089265862e-05,0.9681016620193131,0.003658362824167616,0.0033316795220907193,6.20203716704805e-06,0,1410.9990537713643,16,3
1,X,345,0.08625753832366664,7.72375971001371e-05,-0.0018682876839474327,0.00014237533079750032,0.12198658055424638,0.00010923045734412273,0.011193118237025292,1.625319246208129e-05,0.011465515785104505,3.3029545867120065e-05,0.9762420153454326,0.003149399631907312,0.0034225758626038735,5.8387807030047416e-06,0,1222.4745735129131,16,3
1,X,366,0.08768892077401615,8.538012827788838e-05,-0.002023480345588001,0.00014496658692027495,0.12401086102847347,0.00012074573536774436,0.010816393833803731,1.4726426965752964e-05,0.011145059151023005,2.8843522292256995e-05,0.9705102222639074,0.0028380502667447144,0.0033622666196306598,5.627849115254435e-06,0,1417.6590056342684,16,3
1,X,387,0.08624088361664212,8.0016394330476e-05,-0.002635079251966001,0.00014107079351949315,0.12196302724169494,0.00011316027007435281,0.011141628140586897,1.6977652235185254e-05,0.011574984125913448,3.723863591581123e-05,0.9625609866404587,0.0034265182395726295,0.0034061736827189267,6.0767849792571065e-06,0,1466.0719319098803,16,3
1,X,408,0.08825584724108122,9.06520450292223e-05,-0.0020382635697787795,0.000169824914436116,0.12481261612706518,0.0001282013515371827,0.010720926696241504,1.7796407328019916e-05,0.011067799104066413,3.718730966534624e-05,0.9686593147776359,0.0036301852559094626,0.003354136610734605,6.54747383402754e-06,0,1230.7481126891664,16,3
1,X,429,0.08654745310954091,8.337748282950535e-05,-0.0019570134756705464,0.00015333811258251738,0.12239658197636227,0.00011791356701401634,0.011163122094891802,1.856682067223126e-05,0.01146691861095462,4.440201738788043e-05,0.9735066998929779,0.0041026275605216345,0.0034248763686433735,6.582908187604361e-06,0,1049.9463592975153,16,3
1,X,464,0.0890255618500331,7.928407415711018e-05,-0.0012873622810445338,0.00015082614332009633,0.12590115696620163,0.00011212461295317944,0.010494185923085951,1.6366682005598357e-05,0.01073955841591848,3.045303968051075e-05,0.9771524597818817,0.003162252723224951,0.0033118328491165932,5.94791138478614e-06,0,761.3208505638919,16,3
1,X,485,0.08712035534732304,8.091927414063768e-05,-0.0003725285944648707,0.0001469733994069381,0.12320678809094765,0.0001144371349470763,0.010929768716668245,1.7746081278445507e-05,0.011223455517208514,4.7289104683266525e-05,0.9738327647764122,0.004397274507558174,0.003375480023833486,6.313986580940418e-06,0,815.1140615483113,16,3
1,X,506,0.08793773516121227,9.08936442635538e-05,-0.00035304028091248256,0.000171687747294813,0.1243627377093598,0.00012854302445103327,0.010769291118600546,1.8114165993206186e-05,0.011016040738477463,3.362883735648678e-05,0.9776008798682947,0.0034073652281642413,0.0033571235551934945,6.6277045375194065e-06,0,715.277890636178,16,3
1,X,527,0.0867637816133013,8.141636889532578e-05,-0.0004693215859062566,0.00015234666566158974,0.12270251668030807,0.00011514013309094073,0.01109890611888171,1.6011052724647974e-05,0.011286262544890475,2.9741409238118675e-05,0.983399604141445,0.0029543334453788488,0.0034136860896641264,5.874684929385752e-06,0,682.5530247659759,16,3
1,X,548,0.08778243267265666,8.21255945355393e-05,-0.00015787721975896933,0.00015300386588347183,0.12414310682377416,0.00011614312961011342,0.010771558676293034,1.7182314029155306e-05,0.011081024757120897,3.577408562786815e-05,0.9720724312407123,0.0035004259231045773,0.0033519003251899875,6.1985614480292575e-06,0,878.5641119797116,16,3
1,X,569,0.08587420396688605,7.533791121543273e-05,-0.00018506272039870466,0.00013403979504126063,0.1214444639079637,0.00010654389580172507,0.011145974877688558,1.5969286470552923e-05,0.011434384225630322,3.232537313829776e-05,0.9747770109652875,0.0030894212896372393,0.0033930145042296626,5.700273926538559e-06,0,817.8676285399912,16,3
1,X,590,0.08832382255290788,8.287190534080474e-05,-0.00046630377773232304,0.00015763167934049652,0.12490874773495697,0.00011719857247266541,0.010704208821659247,1.5997902492966223e-05,0.010940981337763065,3.3486041969893216e-05,0.9783591152571853,0.0033323108812988553,0.003351485628601561,5.914224734965361e-06,0,869.9499760169741,16,3
1,X,611,0.08682797214433098,7.790143631806784e-05,-0.00029072189336130423,0.00013683649936470268,0.1227932957998662,0.00011016926776935554,0.011054504109763576,1.5495994167663598e-05,0.011280040797805277,3.1087348923935225e-05,0.9800056850782328,0.0030301530679503713,0.003402544828552999,5.66290707156512e-06,0,882.9937157903107,16,3
1,X,643,0.08938745939948821,8.122829922532811e-05,-0.0012898652897624621,0.00015726370450067496,0.12641295738883063,0.000114874162412959,0.010477881869540443,1.4496957787609672e-05,0.010690318755627789,2.6868263188783563e-05,0.9801281055370299,0.0028119765373480926,0.0033201295008556332,5.4958527082187735e-06,0,926.5053190146139,16,3
1,X,664,0.08686725117607157,7.764160978460784e-05,-0.00022844178561150477,0.00015475984545785165,0.1228488447392706,0.00010980181756187202,0.010884911720836901,1.5012402452126286e-05,0.011095885902335286,3.2326755181441126e-05,0.9809862697439974,0.0031620758523318235,0.003351860396065849,5.508736333814785e-06,0,731.3672444551855,16,3
1,X,685,0.0896494630367916,9.119533126972752e-05,-1.5319970739268696e-05,0.00016136098214182554,0.12678348648609616,0.00012896967430675588,0.010283014690128127,1.73532180644975e-05,0.010541322107469307,3.992368545574012e-05,0.9754957286469645,0.0040447080802829905,0.003267932525703549,6.439276387878402e-06,0,800.2641298115813,16,3
1,X,706,0.08719068046169126,8.278906574205004e-05,-8.911384641700595e-05,0.0001481500045985979,0.12330624282146263,0.00011708141958860496,0.010372080270442494,1.5489180166544275e-05,0.010607902178474857,3.1639920624738105e-05,0.9777692229750304,0.0032614799362218464,0.0032058328014367334,5.673225709346563e-06,0,706.8801535324642,16,3
1,X,727,0.08844328716814324,8.563643954979122e-05,-2.794891551604443e-05,0.00016357939353727792,0.12507769621404652,0.00012110821424465845,0.010693075754723797,1.7492933311465436e-05,0.010994879551346244,3.1165416499263346e-05,0.9725505136083558,0.0031829040558283297,0.003352528289298679,6.373105768465192e-06,0,897.1157270065019,16,3
1,X,748,0.0866559443201682,7.580059774814087e-05,-0.0004758419834479377,0.00014501328610042361,0.12255001171782964,0.00010719823337140832,0.011122795379397823,1.679876977806049e-05,0.011399687096282427,3.24870834803838e-05,0.9757105862164497,0.003146949804419602,0.003416781752760366,5.963397963309172e-06,0,874.0768855875226,16,3
1,X,769,0.08863435653026265,8.769999900879901e-05,-0.0002606151951340142,0.00016256547216577516,0.12534790909730975,0.00012402652801835057,0.010577188753375346,1.7196920040781444e-05,0.01085318156622791,3.460649789880957e-05,0.9745703311818373,0.0034881699030636336,0.0033233591912821946,6.3252311081735255e-06,0,744.8733148588426,16,3
1,X,790,0.08737404267691402,7.732928762900643e-05,-0.0004276113208817075,0.0001435799692778894,0.12356555615305742,0.0001093601273335909,0.010996265885683256,1.724110916821719e-05,0.011318328090285212,3.4430283046886345e-05,0.9715450725555137,0.0033249069448225634,0.0034059055069422628,6.1321620636172546e-06,0,809.4486828614333,16,3
1,X,822,0.0893141799904416,7.962482386940437e-05,-0.0011566287651281655,0.00015288434759220778,0.12630932465471423,0.00011260650581768061,0.010387914957276832,1.4514222340312567e-05,0.010615780894775243,2.5741515154427352e-05,0.9785351695031159,0.002738509469242123,0.003288923203386615,5.451112066580242e-06,0,897.899355696505,16,3
1,X,843,0.08730786224718172,7.706146526290629e-05,-0.00020090514440836176,0.00014705094097456028,0.12347196289176632,0.00010898136931114522,0.010371050533321652,1.5569939991365205e-05,0.010543720255394491,2.8686181989034173e-05,0.9836234537819328,0.0030565242546059033,0.003209822647302253,5.589998003812665e-06,0,530.5497186543529,16,3
1,X,864,0.08783041280976298,7.875794822721626e-05,-0.00029996019108358916,0.0001526785035625822,0.12421096098439444,0.00011138055852760731,0.01080326173868998,1.520411957967346e-05,0.010971594364354884,3.23388042016462e-05,0.9846574144035263,0.003216145734938225,0.003363603178330364,5.613038736615333e-06,0,680.2571379172078,16,3
1,X,885,0.08658420317844909,8.362499266158917e-05,-0.0002707137979505551,0.00016032334685471292,0.12244855442223035,0.00011826359877536996,0.011223513076656972,1.7199866943253405e-05,0.011506588311686317,3.297101584689621e-05,0.9753988560847485,0.0031695280213170306,0.0034448666368296762,6.2401781443150254e-06,0,756.1173025927435,16,3
1,X,906,0.08835727153341646,8.570972514358903e-05,-0.00038465260508799395,0.00016406135340196734,0.12495605173683977,0.00012121185572533388,0.01072715391821629,1.7151457744803805e-05,0.010972106931882409,3.661145845605305e-05,0.9776749337946805,0.003617462815945103,0.0033599416904242074,6.28353529585965e-06,0,760.3690774934867,16,3
1,X,927,0.0865457469831643,7.305925284249875e-05,-0.00012008641781968121,0.00013946021446775597,0.12239416914930135,0.00010332138622670684,0.011131690219457984,1.6247704365595996e-05,0.01142034272633188,3.546606486775513e-05,0.974724707148381,0.0033446889726671454,0.0034151656582175364,5.758403523130927e-06,0,991.6555399966251,16,3
1,X,948,0.08827267591076683,8.37784984253228e-05,-0.0008063610626153233,0.00014565632057976207,0.12483641545997126,0.0001184806887083445,0.010629252897924032,1.542256529601507e-05,0.010867567962214738,3.522099105432913e-05,0.9780709846840342,0.00347303016154705,0.003326089752781146,5.766749978319494e-06,0,1020.9569862862851,16,3
1,X,969,0.08669066387609108,8.225859718076106e-05,-0.00045370430833120424,0.00015009783311582738,0.12259911258469536,0.00011633122375481753,0.011093354084143853,1.799028039070168e-05,0.011372515045748948,3.7482977501898575e-05,0.9754530145282644,0.0035831271339513693,0.0034091031036753406,6.405422146369047e-06,0,939.7691076790201,16,3
1,X,1018,0.08736679113549078,7.785281761258053e-05,-0.0011306545294837115,0.00014705807748678526,0.12355530092482858,0.00011010051053667036,0.010828787821367106,1.7233916750870162e-05,0.011049702404311823,4.217966490049998e-05,0.9800071916092046,0.004053057965538552,0.003353753672270147,6.117184043848941e-06,0,515.9305660400665,16,3
1,X,1039,0.08575743701503935,7.376649430819935e-05,-0.0008266545011251238,0.0001379795551448959,0.12127933050102513,0.00010432157669937325,0.011242934367228263,1.5651472463526282e-05,0.01143243931373631,2.8098934107592025e-05,0.9834239271858323,0.002777870786785755,0.003417876770424942,5.593103102205692e-06,0,799.9712589862297,16,3
1,X,1060,0.08691285815705871,0.00010622058250105402,-0.0009628001305253609,0.00015891884518307362,0.12291334275032151,0.00015021858837616087,0.011000072674932134,2.2022728114011002e-05,0.011237707743766276,3.4309081032339346e-05,0.9788537774559976,0.003573717295622431,0.0033891010539466595,7.949495850040323e-06,0,567.860441689768,16,3
1,X,1081,0.08576700598294401,7.64584049779947e-05,-0.0012818919050700483,0.00013441719903949255,0.12129286306521381,0.00010812851327729467,0.010862010833447172,1.5238732356031334e-05,0.011039885159253072,3.2789749802240926e-05,0.9838880275256474,0.0032318633743321163,0.003302443629961878,5.489361280936223e-06,0,659.7327044109984,16,3
1,X,1102,0.08686240064774005,8.195339113813538e-05,-0.0009218043814606143,0.00015229485209436954,0.12284198505631949,0.00011589959723001808,0.011010112022534681,1.785275746231785e-05,0.011254978314307698,3.355096456531222e-05,0.9782437349113561,0.00331962303545443,0.0033902248094126843,6.3600704292165225e-06,0,702.3775300833071,16,3
1,X,1123,0.08580525510484364,8.207824961426934e-05,-0.0010830355261704193,0.00015675197482216334,0.12134695549215313,0.00011607617378034396,0.011392110634802383,1.783164347833356e-05,0.011652956593645972,3.524550302677747e-05,0.9776154697953805,0.0033293852083577957,0.003465157768617609,6.356521960672831e-06,0,499.34635716318735,16,3
1,X,1144,0.08689168842600964,8.047705964803127e-05,-0.0013714711145294662,0.00014997848939620048,0.12288340422956012,0.00011381174921415438,0.010932624676234948,1.8544209118197582e-05,0.011163460941972105,3.8175651563560734e-05,0.9793221594148045,0.0037383320549399905,0.0033675000203739207,6.5080700526108046e-06,0,650.0505535243724,16,3
1,X,1165,0.0871585110421843,7.874800383859195e-05,-0.0008760041244545144,0.00014327046361894765,0.12326074839210222,0.00011136649503834528,0.01110845512116309,1.5526496775730846e-05,0.011402291378420745,2.9893388841984466e-05,0.9742300694215067,0.002894452045335002,0.0034321669047884793,5.712198327125928e-06,0,1097.6127712920686,16,3
1,X,1197,0.08742293920233882,8.136070016401694e-05,-0.0010661410906452429,0.0001599934884837106,0.12363470628246609,0.00011506140561612366,0.010854571350303445,1.7493187127861285e-05,0.011017433570619775,3.3947258444284066e-05,0.985217771518892,0.003425842815903629,0.0033638995078848458,6.26025550542165e-06,0,430.5058645104927,16,3
1,X,1218,0.08534385594818086,7.611612490953428e-05,-0.0007986582972200731,0.00014115518545653393,0.12069443854713313,0.00010764445616234797,0.011381879086387643,1.6222232912261202e-05,0.011547298280598146,3.0446464434673458e-05,0.9856746409254499,0.0029543024343666705,0.0034434292212913806,5.789502013673833e-06,0,497.92530446786566,16,3
1,X,1239,0.08645505154327499,7.911410919401062e-05,-0.0007258190864277347,0.0001428751493117124,0.12226590642816448,0.0001118842461972358,0.011044544990244628,1.7346799178787163e-05,0.011301897537452494,3.684407888025245e-05,0.9772292620460373,0.0035362185475706224,0.0033848788926561036,6.152887283874158e-06,0,583.8461972156543,16,3
1,X,1260,0.08518598253602597,7.763739609077556e-05,-0.001149541692787606,0.00014721671450643292,0.12047117182652556,0.00010979585849890672,0.01125480734530819,1.724485337873606e-05,0.011402366213693784,3.3517756817486065e-05,0.9870589256983887,0.003272010305088658,0.003398686717804693,6.0591328568771965e-06,0,472.96008263424994,16,3
1,X,1281,0.0867564865212175,7.558088717748617e-05,-0.0008110148146250468,0.00015679779515742284,0.12269219986214441,0.0001068875157025917,0.011086337656724874,1.5500680423370466e-05,0.011266908951961242,2.9113878457449815e-05,0.9839733066090913,0.0028909471795170835,0.0034095337153770906,5.616802486888176e-06,0,635.061421427961,16,3
1,X,1302,0.08459101077562263,7.342026918617495e-05,-0.0009734583862731597,0.0001450959496819307,0.11962975469373416,0.00010383194043617205,0.011655985642783216,1.784725336733932e-05,0.011885447581511882,4.0160307368660365e-05,0.9806938748284415,0.003638064849410698,0.0034952492419623614,6.1518347345742664e-06,0,762.9017161503455,16,3
1,X,1323,0.08712988027782474,7.524851128601213e-05,-0.0008911619121737997,0.00014714536844973006,0.1232202583768438,0.00010641746520906326,0.010917536643382918,1.7174248881077075e-05,0.01115837158025656,4.0940694255011117e-05,0.9784166591745546,0.003905902698968193,0.003372070978996369,6.051410439448993e-06,0,763.9286961595063,16,3
1,X,1344,0.08744083791165637,8.005399354870547e-05,-0.00041675971828017313,0.00015005829539702624,0.12366001887993194,0.00011321344339870754,0.011041111189914644,1.7392791880883968e-05,0.011365480199639122,3.767428620573331e-05,0.971460157949615,0.003565323301948287,0.0034224099206191065,6.23562059329571e-06,0,879.110603992467,16,3
1,X,1376,0.08809254105354404,7.96927134801317e-05,-0.0018584011352413788,0.00014824897984329867,0.12458166630183065,0.00011270251622591543,0.010701026837577165,1.4621611938174142e-05,0.010896658461555034,2.897849029963724e-05,0.9820466407506406,0.0029361958700960694,0.003341715882368994,5.476099861161878e-06,0,695.2959390630156,16,3
1,X,1397,0.08672878810785425,8.123492261718754e-05,-0.0016147025299338234,0.0001444326275724683,0.12265302839030989,0.0001148835293035555,0.011059811638046183,1.7101861369437455e-05,0.011383131853579137,3.548306169769419e-05,0.971596550080258,0.003380787592162189,0.0034002898601466123,6.147275027866781e-06,0,1050.9481396313208,16,3
1,X,1418,0.08761863862020454,8.603512915961237e-05,-0.0018395883153772819,0.0001486043698498656,0.12391146705336031,0.00012167204649804475,0.010822093157238977,1.7445446637215713e-05,0.011153377088999217,4.1335157646983266e-05,0.970297432865693,0.003921435492549715,0.00336134199251145,6.3446560085424535e-06,0,911.7735751483508,16,3
1,X,1439,0.08682119690407997,7.796831126557177e-05,-0.0018036684472138103,0.00014975998549353434,0.12278371416321487,0.00011026384322709859,0.010508514052955406,1.539673150177364e-05,0.010680639754872908,2.6629530982773438e-05,0.9838843266070301,0.002845284428851058,0.0032342382573736584,5.557978752765571e-06,0,655.7046319688314,16,3
1,X,1460,0.08786169960422087,7.613895510192026e-05,-0.0016798763797131154,0.00015087696783758995,0.12425520719343996,0.0001076767429300518,0.010828454505586213,1.6913643319270392e-05,0.011091926421417894,3.1781899055058645e-05,0.9762465142824126,0.0031858824085846285,0.003372647934990651,6.024387666984617e-06,0,1166.4488034434548,16,3
1,X,1481,0.08653974408363377,7.298928680156957e-05,-0.002313458262792195,0.00014170787560419408,0.12238567976737169,0.00010322243930271924,0.011169752609280062,1.6937177736275727e-05,0.011467985215187437,3.434922325824686e-05,0.9739943328918478,0.003269878065287488,0.0034266053839782603,5.94558254115703e-06,0,918.6593793662244,16,3
1,X,1502,0.08830622005372521,8.864936989196098e-05,-0.0020530821247440874,0.000147326818833339,0.12488385404188118,0.00012536914119704035,0.010633510515839774,1.8338048246312893e-05,0.01104820801980772,3.8718046934100335e-05,0.9624647270195802,0.0037592040647889966,0.0033286864803517423,6.6422673860313995e-06,0,1118.7058252346706,16,3
1,X,1523,0.08811896456134638,8.130449670926335e-05,-0.0011784753318293565,0.000148659580820392,0.1246190347849302,0.00011498192192815893,0.010272807916062566,1.7161728024352355e-05,0.010564020370001816,3.571617589726274e-05,0.9724335580830388,0.0036671912153703285,0.0032089539512897155,6.124153400713888e-06,0,816.5096522662369,16,3
1,X,1555,0.08871035582230569,8.466935218157752e-05,-0.002290073748417706,0.0001583894489682226,0.12545538832684777,0.00011974054617253094,0.009959977194942522,1.7307746132844876e-05,0.010223531382387196,3.469680181457145e-05,0.974220826680425,0.003714542201922675,0.003132114263398527,6.209706455301358e-06,0,688.4339971716611,16,3
1,X,1576,0.09016391087825504,8.493278142721192e-05,-0.0018905325204176162,0.00016167455042180197,0.12751102560062733,0.00012011309138443282,0.009622118479530881,1.5220022501570451e-05,0.009806214387295611,2.66470293474406e-05,0.9812266078943538,0.0030851837295710594,0.0030754478932168987,5.661949641247525e-06,0,758.9237557622391,16,3
1,X,1597,0.08828399747729786,7.897730423978823e-05,-0.0020968559970819182,0.0001442359407477682,0.12485242657290674,0.00011169077477557465,0.010063303222983171,1.5590373094149344e-05,0.01033976315307826,3.2187813217418205e-05,0.9732624504060536,0.0033842340582144284,0.003149397515510592,5.634158348633319e-06,0,774.310981972284,16,3
1,X,1618,0.08641459451189243,7.874024152148541e-05,-0.002123294845336944,0.00013728608825580395,0.12220869154568992,0.00011135551746421779,0.010564593372874511,1.642207192027215e-05,0.01087189360878947,4.0185432758864696e-05,0.9717344331196802,0.0038964847667929932,0.0032362704988604272,5.831187379852361e-06,0,812.3778241787342,16,3
1,X,1639,0.08747300927309451,7.685305892971138e-05,-0.0020194177879917096,0.00014236913587849494,0.12370551605559776,0.00010868663824825653,0.010766196831839183,1.5789697821839407e-05,0.010998726925769527,3.084038892125084e-05,0.9788584537556309,0.003097481338846366,0.003338422625194441,5.7074698362233595e-06,0,1134.6844502665454,16,3
1,X,1660,0.08590576500691492,3.426440982181667e-05,-0.0020646473720637116,0.0001414630026448279,0.12148909795881513,4.8457193076723026e-05,0.010983866392663562,1.330805806650731e-05,0.011248548940184892,3.2408992061320936e-05,0.9764696274222744,0.003052013833979361,0.003344894952728727,4.266630080291659e-06,0,913.4548847860625,16,3
1,X,1681,0.08786121277291821,7.581085425328619e-05,-0.002234150845382172,0.00014411047741951888,0.12425451871000914,0.00010721273826008737,0.010743746408441864,1.5406799180912645e-05,0.010998064307141306,2.961091730020193e-05,0.9768761218704362,0.002979922507310606,0.0033462460729407786,5.600274026842493e-06,0,952.3864954780533,16,3
1,X,1702,0.08651297512031494,7.855307437654887e-05,-0.0009976394619657866,0.0001466149169455918,0.12234782273639555,0.00011109082314941787,0.011246980455861876,1.4907065291538706e-05,0.011473633766333032,2.7729108702637896e-05,0.9802457255402188,0.0027019112008126074,0.0034492297225274305,5.541581385507037e-06,0,973.654010762453,16,3
1,X,1734,0.08824507484287068,7.845487044903984e-05,-0.0021264248468613805,0.00014717611414206903,0.12479738165541654,0.0001109519418232563,0.010675099882893838,1.5628656610859055e-05,0.010907285558796092,3.3096768602653964e-05,0.9787127902125007,0.003297375958426022,0.0033393916356888862,5.719826014229011e-06,0,1009.3791340167184,16,3
1,X,1755,0.08720627025840791,7.798436970433295e-05,-0.0019199621655891317,0.00014697765635586282,0.12332829012341395,0.00011028655328898518,0.010647916179651277,1.5528714035085298e-05,0.010876483243066554,2.809550351480584e-05,0.9789852052076684,0.0029040565739083253,0.0032916774188297094,5.631135849661776e-06,0,966.0148115158186,16,3
1,X,1776,0.0877099466292153,8.213007203179247e-05,-0.001910726756614063,0.00015252604339246505,0.12404059607805662,0.00011614946174604013,0.010810114178846721,1.6129252715100488e-05,0.011134611320700155,3.0790562337500995e-05,0.9708568954490431,0.003050579146169419,0.00336112032313731,5.920756028276158e-06,0,865.6687927399001,16,3
1,X,1797,0.08598719883336468,7.372947378424645e-05,-0.0017569058815728297,0.00013257343686901346,0.12160426278061631,0.0001042692217723129,0.011297244800852995,1.674675828112288e-05,0.01159779748878038,3.7234011959708895e-05,0.9740853650688298,0.003444511068033831,0.0034435886917714258,5.8971418415451e-06,0,844.7331022708975,16,3
1,X,1818,0.08762614211098735,8.210135936593534e-05,-0.002087553999555249,0.000149270536252211,0.1239220785917905,0.0001161088559045731,0.010162901447125998,1.4669296472195838e-05,0.010350691876495316,3.045323449359926e-05,0.9818572099710785,0.0032176865120571558,0.0031568673808754976,5.432496926464158e-06,0,746.0365172035214,16,3
1,X,1839,0.09069266741717899,7.959578323713915e-05,-0.0017577130566532727,0.00015467686149755314,0.12825880026916703,0.00011256543616167125,0.009026971152331422,1.290351493607237e-05,0.009094103962077736,2.4587348361064e-05,0.9926179852323816,0.003035702108444233,0.0029021453652327655,4.867959644168559e-06,0,256.40081996908987,16,3
1,X,1860,0.08764719200760944,7.827418985416194e-05,-0.002251225596948079,0.0001375716037420905,0.12395184764108003,0.00011069642087552234,0.010659011540647943,1.5909765936410247e-05,0.010944750081128257,3.504075951617904e-05,0.9738926390861126,0.0034402211659267136,0.003311767740339418,5.760425429319396e-06,0,976.2432812091777,16,3
1,X,1881,0.08613190870634754,7.894756601720996e-05,-0.0009158620697160776,0.00014267910894810514,0.12180891344559797,0.00011164871857788361,0.010898915824881561,1.5755692766942337e-05,0.011146565785927374,3.587407008239695e-05,0.9777823981123879,0.0034497702240299574,0.003327762334511106,5.696166137562886e-06,0,937.978840592592,16,3
1,X,1916,0.08851412797375349,7.61131303183093e-05,-0.001161122017850697,0.00014739282129062347,0.12517788024210996,0.00010764022117082384,0.010627657066043973,1.4621729465338134e-05,0.010868996679156421,2.2571835350878806e-05,0.9777955941807152,0.0024357970840315456,0.003334686867806575,5.410319410330008e-06,0,991.3201160586162,16,3
1,X,1937,0.08733832486317594,8.247792628881742e-05,-0.0004664852427798425,0.000148337621233949,0.12351504353645071,0.00011664140195405404,0.010357895146328134,1.6679761411810843e-05,0.010572272262234485,4.141899846183575e-05,0.979722701933043,0.004149860957115726,0.0032068695969185534,5.9866340006961095e-06,0,785.8426162591536,16,3
1,X,1958,0.08908117869978258,8.80958122074695e-05,-0.0014264101944188824,0.0001641765032661606,0.1259798110694138,0.00012458629241207664,0.010592754655057657,1.8766633028728367e-05,0.010953623652399333,4.1397958766689315e-05,0.9670548296350651,0.004036511216685386,0.003345028330429187,6.786976133214459e-06,0,962.2591682305348,16,3
1,X,1979,0.08684438763775225,8.11489090637706e-05,-0.0005391801336338168,0.0001445848243453208,0.12281651081329559,0.00011476188776976537,0.011177604659701875,1.4947472689723248e-05,0.011506966814384829,3.0590238211493835e-05,0.9713771526418918,0.0028906322393106388,0.003441085267206209,5.613744711796673e-06,0,1032.0968054625741,16,3
1,X,2000,0.08824950784798732,8.440664377991426e-05,-0.0008124777842101527,0.00014557636319047443,0.12480365087137457,0.00011936902038794939,0.010703282391425623,1.6282856635396283e-05,0.011040354359442844,3.888392311762954e-05,0.9694690988130356,0.0037193633159539473,0.0033483759039354436,6.016972509891433e-06,0,1099.8750961170895,16,3
1,X,2021,0.08701707549022006,8.590261431424837e-05,-0.0014706616376452622,0.00015068421467448278,0.12306072831631265,0.00012148464220651523,0.010999730102160482,1.7808708348002988e-05,0.011310328318800668,4.303279250828199e-05,0.9725385322259928,0.004021326972647212,0.003393059257325777,6.434078750959746e-06,0,953.0457057896597,16,3
1,X,2042,0.08872506725386844,8.039495485745378e-05,-0.0002668072148906396,0.0001453218957252445,0.12547619343288574,0.00011369563550578388,0.010546485353352035,1.634078888848132e-05,0.01088243374028915,3.748076631385132e-05,0.9691292963546049,0.0036600318325714356,0.0033171035040525216,5.953900896299249e-06,0,1167.6385550476568,16,3
1,X,2063,0.08679306136946019,7.910441666058115e-05,-0.0011890766759922854,0.0001463293155900255,0.12274392450857097,0.00011187053888500609,0.011162623773260015,1.7306935487934672e-05,0.011499148144627597,3.527360061160135e-05,0.9707348433870898,0.003336474988192729,0.003434442316727897,6.176773483375479e-06,0,1192.2321707343956,16,3
1,X,2095,0.08907196728942174,8.477706025477611e-05,-0.0009802297234456907,0.00015024426617158012,0.12596678416795293,0.00011989286839042546,0.010580013619087433,1.6434200256878512e-05,0.01086164815135405,4.06871245584344e-05,0.9740707369321747,0.003950083760255126,0.003340659432508731,6.085785714266709e-06,0,949.2723841346588,16,3
1,X,2116,0.08692685881262249,8.104139967713716e-05,-0.0005641277907053095,0.0001411545720118614,0.12293314266730193,0.00011460984653710593,0.011105660492825646,1.62160071627701e-05,0.011363880920056746,3.761083805658869e-05,0.9772770914225833,0.003535266164527718,0.0034221836412159107,5.928611525675805e-06,0,1033.8314429130653,16,3
1,X,2137,0.08823282797735395,8.029544803091414e-05,-0.0008196557878508508,0.0001502924204873643,0.12478006197210623,0.00011355491160214282,0.010731713674784232,1.556235997325828e-05,0.010981111412059279,3.064152044528726e-05,0.9772884794701963,0.0030732756392960535,0.0033566356919076438,5.74665966268296e-06,0,1022.9721464997788,16,3
1,X,2158,0.08705682001600472,8.410244601003941e-05,-0.0006254312963984525,0.00015612866039981318,0.1231169355637074,0.00011893881977614873,0.011135319722974532,1.7875321616471313e-05,0.011460090515470428,3.9243840768449074e-05,0.9716607131455485,0.003674803351087304,0.003436453111550951,6.4383833377630505e-06,0,1262.2072699856546,16,3
1,X,2179,0.08818517436674435,8.075360412090749e-05,-0.0003935610248515919,0.00014215714476235059,0.12471266958968608,0.00011420284215829524,0.010688114170270765,1.66674732380232e-05,0.011037606484001119,3.435079530275927e-05,0.9683362226913109,0.003370782694343284,0.0033411932415700722,6.0423061036727775e-06,0,1158.7749091831813,16,3
1,X,2200,0.08636010283928879,7.876846382372005e-05,-0.0013274667260831767,0.00014768084745080787,0.12213162868325744,0.0001113954298267994,0.011180396104132122,1.7811068954694306e-05,0.011426840125532158,3.94968186288451e-05,0.9784328809458547,0.0037238604424213945,0.0034227507401511773,6.283113178149415e-06,0,1030.2111123012958,16,3
1,X,2221,0.08832911584287252,8.074065232753363e-05,-0.0012804407074052172,0.00014607711887046893,0.12491623357741455,0.00011418452555644887,0.010736083384175758,1.4914718620168e-05,0.011038432645035602,2.653665161170335e-05,0.9726094029304222,0.002700501266852036,0.0033616670019904005,5.590356343165353e-06,0,1206.5670367403843,16,3
1,X,2242,0.08691349002460382,7.89658702551867e-05,-0.001511922379579688,0.00013820128313488483,0.12291423634597343,0.0001116746046794792,0.011161648479954897,1.642357008133608e-05,0.011506469587574977,3.5972080467535616e-05,0.9700324148084111,0.0033516733461087835,0.0034389072471721007,5.947001747623181e-06,0,1199.0131332932378,16,3
1,X,2274,0.08778765667935079,7.837408181633496e-05,-0.0008603045974282812,0.00014704905883466526,0.12415049468489092,0.0001108376894431995,0.010779534217002113,1.4465273335151389e-05,0.01106602211249284,2.5521901366854702e-05,0.9741110317168714,0.002599235750916972,0.0033545817810207573,5.406796686087356e-06,0,1020.2860469134209,16,3
1,X,2295,0.08604742373983813,7.736065481681899e-05,-0.0013133466612070507,0.000132430582282058,0.12168943366014373,0.00010940448723600893,0.011035699721268694,1.5617018578832852e-05,0.01133049477209955,3.4475147301514456e-05,0.9739821555227434,0.0032683674323455984,0.0033662214187307545,5.643714502871716e-06,0,937.6681932428684,16,3
1,X,2316,0.08782691337476214,7.943290578503353e-05,-0.0010448250352550848,0.0001501738623655338,0.1242060120359556,0.00011233509265989872,0.010838856522143574,1.5894400513804526e-05,0.011107603163735212,2.749846605031191e-05,0.9758051635775882,0.0028077462846669878,0.0033745511814157816,5.814025671978976e-06,0,1077.1731970318413,16,3
1,X,2337,0.08643430498300096,7.506216277590036e-05,-0.0004199598129833583,0.00014385445758390152,0.12223656636125235,0.00010615392861873518,0.010901130277885135,1.658074017368733e-05,0.011202004131354184,3.5183102565428906e-05,0.9731410692282366,0.0033959715160007307,0.00334012412343091,5.8501259238901565e-06,0,971.7227454836585,16,3
1,X,2358,0.08756598153678909,7.203345791714387e-05,-0.001248023064727768,0.00013572109816197033,0.12383699869183917,0.00010187069313105646,0.010365626653336632,1.5309666626585678e-05,0.010534848028798149,2.784973398064981e-05,0.9839369894089661,0.0029795507640816283,0.0032176286078719973,5.439722237445889e-06,0,1149.012223891838,16,3
1,X,2379,0.08631732987442023,8.78667164862738e-05,-0.0007786886586684152,0.00015645551616279743,0.12207113857623741,0.00012426230213608003,0.010996491115110123,1.777104843560188e-05,0.01127638111373943,3.664789386926206e-05,0.975179093735287,0.0035395063287840694,0.0033647829691408927,6.426549828963931e-06,0,898.2512658114905,16,3
1,X,2400,0.08813234262781035,9.15047647745225e-05,-0.0013930498559117236,0.00016308488907223827,0.12463795422796187,0.00012940727936588958,0.01075215779917474,1.754063126879659e-05,0.011082912704545294,3.55342555916848e-05,0.9701563195354859,0.003490025812370842,0.003359200108539189,6.495800052950904e-06,0,1096.2335074486375,16,3
1,X,2421,0.08632292797949548,8.054211760544862e-05,-0.0007663512329285075,0.00015210536050388728,0.12207905549235842,0.00011390375505987427,0.011295162585122096,1.8048692792806993e-05,0.011584394429688989,3.3195576880659415e-05,0.9750326315007337,0.0031990377127690474,0.0034563966963762783,6.395620698859845e-06,0,1077.2820840052193,16,3
1,X,2453,0.08824652380397618,8.504148248948882e-05,-0.0010826204683557145,0.00015007165787951003,0.12479943079586331,0.00012026681790094917,0.010542380123638926,1.6159914177379046e-05,0.010845500881453037,3.715623153745347e-05,0.9720510134914581,0.003648342725507215,0.003297928305167015,5.971270228430816e-06,0,875.8328225490919,16,3
1,X,2474,0.08646877662924612,7.932264535775841e-05,-0.0009678279248089868,0.00014708811199457472,0.1222853166308896,0.00011217916086825319,0.011226217559762225,1.6932470258460796e-05,0.011500911274433551,3.479498995041269e-05,0.976115482667711,0.0032998009376522704,0.003441103227969231,6.074791665113604e-06,0,985.5346806626175,16,3
1,X,2495,0.08818014386240872,8.491369816607678e-05,-0.0011764064302862579,0.00015028166444400922,0.12470555538222905,0.0001200861035777212,0.010683368123922106,1.6024779140343092e-05,0.010941609510736115,3.317937198754935e-05,0.9763982267361472,0.003303256743893455,0.0033395190750549588,5.952602362404172e-06,0,977.0381408606748,16,3
1,X,2516,0.08624933414833974,8.426989187322819e-05,-0.0011391670024315265,0.0001514435438894298,0.12197497809823099,0.00011917562398683357,0.011286202338311664,1.7932405111156887e-05,0.011651002544034787,3.576726278155716e-05,0.968689372065248,0.0033484639627180167,0.0034507104176637795,6.436441138267346e-06,0,1123.690274413593,16,3
1,X,2537,0.08803570884212096,8.046875675927813e-05,-0.0017704487051526812,0.0001403095864894687,0.12450129341765648,0.00011380000715627281,0.01077067703329631,1.5326287101439873e-05,0.01106986144205469,2.833047314919586e-05,0.9729730665262194,0.0028490929601559236,0.0033612963265761235,5.684774413602664e-06,0,1088.9422440423411,16,3
1,X,2558,0.08578948455441056,7.571533538838605e-05,-0.0007925957211041475,0.0001422925368060449,0.12132465256584457,0.00010707765418588311,0.011417379640559422,1.69257393864515e-05,0.011769865880643587,3.171910524641216e-05,0.97005180486688,0.0029836594985965074,0.003472205595028339,5.990537597982592e-06,0,1209.1776105198219,16,3
1,X,2579,0.08819708769792163,7.409630125953265e-05,-0.0003641355254250207,0.00013630369053275148,0.12472951758421003,0.00010478799416291373,0.010650071451886733,1.4420867010312446e-05,0.010905565804189724,3.3086236303100075e-05,0.9765721140112845,0.003244505135274148,0.003329750542094783,5.3060085999652144e-06,0,1127.274988023666,16,3
1,X,2600,0.08600026542619615,7.919883688743284e-05,-0.0013288268863833816,0.00013724466148511095,0.12162274173341259,0.00011200406925038209,0.011256177268942315,1.8257410881919537e-05,0.011602583109117198,3.8325663639093884e-05,0.9701440759426511,0.0035700760575865732,0.003431592007516795,6.400572292318101e-06,0,1167.4117833159996,16,3
1,X,2632,0.08866949462914092,8.01465725069346e-05,-0.0007660444319244773,0.00014510906365033412,0.1253976018732994,0.00011334436981702556,0.01054031096625179,1.6270859587936605e-05,0.010810248234958433,2.7476582224645265e-05,0.9750295032232734,0.0028995066883580147,0.0033130850829769984,5.926575417610548e-06,0,975.9180091252564,16,3
1,X,2653,0.0872360048394986,8.387131631472697e-05,-0.0012089296865703352,0.00016103798753454114,0.12337034117126389,0.00011861195302637073,0.011121987083332906,1.653928137555534e-05,0.011389451778069012,3.489147910005362e-05,0.9765164557567975,0.0033253763631328234,0.003439403162764503,6.090515683673988e-06,0,948.8423330291147,16,3
1,X,2674,0.08918507443012882,8.433245218722575e-05,-0.0010354953211745256,0.00015080861089148144,0.12612674182034211,0.00011926409763135526,0.010506016061219377,1.6598163384397038e-05,0.010889925150459664,3.486883534791676e-05,0.9647463978001647,0.0034446156039763852,0.003321506995900315,6.1156651675862985e-06,0,1086.465228054571,16,3
1,X,2695,0.08486358679519496,7.962136149758924e-05,-0.00033726671798769086,0.00014151155874867974,0.120015235397391,0.00011260160928450169,0.011571772778428307,1.6753318241136548e-05,0.011828391016008069,3.187874841417096e-05,0.9783048905609846,0.002992979683182532,0.0034811778600421493,6.005735321196863e-06,0,831.2086942355361,16,3
1,X,2716,0.09032033083975732,8.444513547579066e-05,-0.0010952970934626832,0.00015247512057448763,0.12773223683160972,0.00011942345586629655,0.010113967157090006,1.6806558079985678e-05,0.01045118069622739,2.9772108084197593e-05,0.9677344073422144,0.003191514787017767,0.003238262053639937,6.174339244835053e-06,0,957.0796056200982,16,3
1,X,2737,0.0852747575989198,7.805456284382788e-05,-0.0002825712922423646,0.00014442234316477492,0.12059671872447053,0.00011038582137884445,0.011375672259749805,1.7131322313088958e-05,0.01159463232622716,3.646660063125294e-05,0.9811153937169645,0.0034212308939548597,0.0034387649923452,6.060181983951329e-06,0,842.3516771809393,16,3
1,X,2758,0.08830572077393899,8.20178247785108e-05,-0.0005577377392631087,0.00014876989417439578,0.12488314795363609,0.00011599072015811007,0.010766473190114255,1.6679491370079314e-05,0.011039962602535383,3.727479192863937e-05,0.9752273243789503,0.0036227810366256602,0.0033702897145595854,6.087735402171603e-06,0,939.7840623782286,16,3
1,X,2779,0.08652294175177891,8.44917211233102e-05,-0.0008088572010508054,0.00015275643014888573,0.12236191768178306,0.00011948933792083061,0.011238899106994412,1.8793535212908865e-05,0.011562422749240813,3.851792170364099e-05,0.9720193899442361,0.0036231402414875972,0.003447148409489506,6.675202041895833e-06,0,854.7813173147734,16,3
1,X,2818,0.08762465277341164,8.175880757158244e-05,-0.0003710814219039637,0.00014463683389988598,0.12391997235039198,0.00011562441451118399,0.010806688322027554,1.4101401461983966e-05,0.011042358591004877,2.4062666559702186e-05,0.978657614943849,0.002485729688318884,0.0033567876453642217,5.38479400604912e-06,0,1011.4919158571557,16,3
1,X,2839,0.08604172910664118,8.271549683213348e-05,-0.0008414007761130783,0.0001476306578271752,0.12168138023264385,0.00011697737743843195,0.011121078556244496,1.6583171089845572e-05,0.011358413995408762,3.284477026665779e-05,0.9791048786159582,0.003185518806411653,0.003392040039069844,6.0180749115121654e-06,0,1095.0173594623907,16,3
1,X,2860,0.08775560791551944,7.979895570657162e-05,-0.0006165305173260375,0.00014825919626896354,0.12410517088842332,0.00011285276542344347,0.010848231011635526,1.652872077960891e-05,0.0111730798327303,3.5510692945328726e-05,0.9709257585233423,0.0034221029798432454,0.003374727697905056,5.987970126246289e-06,0,1146.053660790074,16,3
1,X,2881,0.08611564518890752,8.12163108346028e-05,-2.498132505331455e-05,0.00015204343252107045,0.1217859133586624,0.00011485720826820423,0.01128280221366228,1.7233878243399716e-05,0.011604216559290143,3.322940483982709e-05,0.9723019349056751,0.003155578345335483,0.003444323753935869,6.183059989288953e-06,0,1153.2972931316801,16,3
1,X,2902,0.08764089089098785,8.051200193244703e-05,-0.00021711572235562596,0.00015024177823151248,0.12394293651649568,0.00011386116506667543,0.010833039188497859,1.8861369238660014e-05,0.011199494318109496,4.5611187827073394e-05,0.9672793146544946,0.004284248267005971,0.0033655963641397936,6.625482528707545e-06,0,887.7230938260184,16,3
1,X,2923,0.08541238943585422,7.501226687497356e-05,-0.00022854353998401624,0.00013969786128551439,0.12079135953487752,0.00010608336515893768,0.011441493093045457,1.637569386010287e-05,0.011781235542334786,3.579445842639842e-05,0.9711624092338622,0.0032616479768369485,0.003464244262170484,5.817238672689365e-06,0,1044.3218593550641,16,3
1,X,2944,0.08873016107325524,2.0832067955437535e-05,-0.0009856115036656452,0.00015150039484020916,0.12548339718134682,2.946099303485772e-05,0.010674034638791928,1.2157967043446598e-05,0.010937574416223329,2.9591648432732566e-05,0.9759050985709865,0.002864763228044889,0.003357413324953188,3.904563743969258e-06,0,1121.5265640870193,16,3
1,X,2965,0.08757201470511354,8.12274887852084e-05,-0.0016501290381928941,0.00014628116651442855,0.1238455308803077,0.0001148730162775502,0.010979518943242462,1.676353846964411e-05,0.011322643536168468,4.268007689509274e-05,0.9696957170973416,0.003943674262988253,0.003408423772401373,6.089043076824153e-06,0,1049.6599746844663,16,3
1,X,2997,0.0877936181754329,8.101206209544409e-05,-0.000953634486584275,0.00014763078837704496,0.12415892551350227,0.00011456835693118839,0.010411686896340163,1.5179112781033766e-05,0.010698332929822595,3.414382972718945e-05,0.9732064766199807,0.0034147179649674686,0.003240328040767783,5.590788181421647e-06,0,847.7923028389087,16,3
1,X,3018,0.08618773099236834,7.197394394265609e-05,1.2769052804552927e-05,0.00013631873002306047,0.12188785807957125,0.00010178652766118512,0.010879590803200237,1.4540109142579768e-05,0.011089900146561677,3.058910273229724e-05,0.9810359569895095,0.0030068797150449365,0.0033240147382972564,5.2383377592947266e-06,0,867.6215256051491,16,3
1,X,3039,0.08776107430683404,8.405119787836574e-05,-0.000333041154162177,0.00016049440088041866,0.12411290153315768,0.00011886634397328955,0.01083266862192273,1.778857318204375e-05,0.011047802584299023,3.493265262881119e-05,0.980526990708357,0.003493556696300489,0.003370096377503923,6.406560882838569e-06,0,938.2369579951602,16,3
1,X,3060,0.08583018994232464,7.981190652138535e-05,-0.00047904366055978576,0.00014726549832788858,0.12138221867749432,0.00011287108064139684,0.011323419711163834,1.5840840614306754e-05,0.011516573751106485,2.982926747628795e-05,0.9832281680196688,0.002894392322557243,0.0034452648292241576,5.787354324183084e-06,0,928.2934586356928,16,3
1,X,3081,0.08741299187739549,7.872369425386712e-05,-0.00019816118492217548,0.00014046158569680603,0.1236206386406219,0.00011133211609393179,0.010822949646856532,1.7953395921618152e-05,0.011225028049679491,3.615360346416383e-05,0.9641801872526777,0.003493111456573318,0.0033537181017098652,6.330249831360636e-06,0,1180.6998465796012,16,3
1,X,3102,0.08474127410316414,7.854927536356482e-05,-0.00039665320367003945,0.00014383432675879433,0.11984225912947066,0.0001110854505337322,0.011612569151715003,1.7103768336189094e-05,0.011882186781009515,3.340169493577173e-05,0.9773090901309999,0.0031015467845739056,0.0034884157177784278,6.070782582878127e-06,0,1058.537567758563,16,3
1,X,3123,0.08806199619753602,8.33868158162758e-05,-0.0010639256209998818,0.00014714588309994747,0.12453846935220336,0.00011792676585048456,0.010679543401125867,1.6698744168520525e-05,0.01098354767237139,4.052592050640821e-05,0.9723218507977862,0.0038964203731673406,0.0033338506693708237,6.09424409722868e-06,0,1045.1068731468533,16,3
1,X,3144,0.08587759842526528,7.197784619981742e-05,-0.0007291790921495808,0.00013361396383686805,0.12144926439704051,0.00010179204628618654,0.011370875480753322,1.5193288449953623e-05,0.011662532021280177,2.9212914603836674e-05,0.9749920051670872,0.002767947418811047,0.0034616147009994274,5.45992785358211e-06,0,1317.8225392440845,16,3
2,Y,103,0.08403454339328634,8.769280893563671e-05,-0.0011913240879405044,0.00015321230887248242,0.11884279097461592,0.00012401635971936997,0.010087089762699092,1.6061502286704977e-05,0.010390696758709128,3.3435722488383906e-05,0.9707808818734351,0.0034853515590164987,0.0030048905796707607,5.720609521767453e-06,0,1400.1467259725146,16,3
2,Y,124,0.08027420454639962,7.840113048642869e-05,-0.0012080916155601195,0.0001331500179273283,0.11352486877823031,0.00011087594203929019,0.01082283512725449,1.7664495988364663e-05,0.011297655215197891,3.668870308545218e-05,0.9579718022103683,0.003481792379112248,0.0030797962461979627,5.8579253745285555e-06,0,2228.231510917828,16,3
2,Y,145,0.08200416779503825,8.244607965070253e-05,-0.0011099198311970637,0.00014460345277069782,0.11597140626686209,0.00011659636400651596,0.010500105173396411,1.7443164785288813e-05,0.01083116222899782,3.060604080905681e-05,0.9694347616071076,0.0031776929133905635,0.0030523512365834525,5.926999400616331e-06,0,1425.017436843625,16,3
2,Y,166,0.0795526568254506,8.288228997923299e-05,-0.0007026318627272338,0.0001444391807580523,0.11250444620536482,0.00011721325856917097,0.01107591989310803,1.7636009923651966e-05,0.01146103827799036,3.620352322975161e-05,0.9663976006762052,0.0034185901947963626,0.003123485012757318,5.943515979760488e-06,0,1742.5857478535702,16,3
2,Y,187,0.08174163884243095,8.902345435539495e-05,-0.0017410428179100298,0.0001583756362587863,0.11560013426156923,0.00012589817651870172,0.010494791867705407,1.9044267507498282e-05,0.010790552250215722,3.262843769463695e-05,0.9725908020597925,0.0034298501229330794,0.0030410397908519427,6.4359641224160575e-06,0,1415.7951049420856,16,3
2,Y,208,0.08167685071852507,8.330237518992323e-05,-0.001166770946368089,0.00015263467173707738,0.11550851001806084,0.00011780734877148147,0.01081507941402926,1.748030424893918e-05,0.011152638633294283,3.1013408501156095e-05,0.9697327932551049,0.0031190618526691152,0.0031313645362043107,5.984588264688867e-06,0,1727.5443309472455,16,3
2,Y,229,0.0814241753689472,8.125038769916746e-05,-0.0011062471082622118,0.00014188226768086157,0.11515117311181045,0.00011490540023223472,0.010537606038528954,1.899268406924187e-05,0.010973538970624981,3.543992221170595e-05,0.9602741710524769,0.003551551822357251,0.003041587108555438,6.266171431245068e-06,0,1650.079723219216,16,3
2,Y,250,0.07902705925765603,7.48334027502854e-05,-0.000519098229712319,0.00013702653419876451,0.11176113899663942,0.00010583041308798169,0.011117105636149793,1.8687307248842822e-05,0.011477205746723224,3.2706208139196825e-05,0.9686247577572407,0.0032046982460993763,0.003114386339276559,6.008650807939536e-06,0,2034.8638853338289,16,3
2,Y,282,0.08229232802616096,9.389956730211784e-05,-0.000642601230633124,0.00015618231650466776,0.11637892637385239,0.00013279404157962027,0.010401434595966444,1.7745618393631682e-05,0.010699898692378543,3.091358316464559e-05,0.9721058951123815,0.003261681240885472,0.003034293055647938,6.227831181470789e-06,0,1403.218805240814,16,3
2,Y,303,0.07918523330966651,7.744047881258639e-05,-0.001180579047983131,0.0001420772104366631,0.11198483088620814,0.00010951737541342599,0.011065488667175612,1.6212235483497017e-05,0.011452986992266925,3.075836055591118e-05,0.9661661778405098,0.0029557608013504716,0.0031061307310421226,5.471540420561373e-06,0,1978.7448652139976,16,3
2,Y,324,0.08057097831196995,8.529618448374296e-05,-0.001062006716085778,0.0001479067840721868,0.11394457026245641,0.00012062702091558686,0.01076702578643955,1.6199034155529735e-05,0.011018247752402914,2.7627514407347368e-05,0.9771994629628312,0.002857494166395124,0.0030752421753997557,5.657329820700922e-06,0,1601.4098397418088,16,3
2,Y,345,0.07874939523460671,7.424605347152433e-05,-0.0012375221035967614,0.00013960958516823392,0.11136846276946,0.00010499977577210773,0.011217681336330068,1.7981611797543435e-05,0.011558823664607303,3.842694576747694e-05,0.9704864146927166,0.003581818775009428,0.0031315204921565265,5.823628836123137e-06,0,1616.5187468116214,16,3
2,Y,366,0.08084818565081893,8.106968721867605e-05,-0.0006019972528472134,0.0001513322211315948,0.11433660064064599,0.00011464985116199644,0.0107892012208116,1.7824105185759192e-05,0.011167147696551858,3.6545712788626886e-05,0.9661555048782099,0.003541876800424273,0.003092178121542306,5.9757464499359e-06,0,1392.098908014206,16,3
2,Y,387,0.0792461378240616,7.720349521085004e-05,-0.0012278064313255047,0.0001391828263060849,0.11207096287647544,0.00010918222998979044,0.011208564678953389,1.7367694116049392e-05,0.011499399494735909,3.2220278196357294e-05,0.9747086953613834,0.0031208422391466673,0.0031487127279905326,5.763150067762783e-06,0,1608.75590522628,16,3
2,Y,408,0.08138062243737199,8.440904291926586e-05,-0.0009872587168820567,0.00015131811306227965,0.11508957996529567,0.00011937241328335846,0.010686009198928682,1.706979806971027e-05,0.011067686449074554,3.064520923913098e-05,0.965514269680292,0.003086389888895609,0.0030827725478795127,5.871437766390218e-06,0,1838.9186352830816,16,3
2,Y,429,0.07935301852841457,7.802412611537641e-05,-0.0003050798469620667,0.0001442051327788075,0.1122221150181274,0.00011034277734467413,0.011129762684800325,1.9108066043479734e-05,0.011589408687437429,4.114776685739116e-05,0.960339132475728,0.0037873589763313784,0.0031307925218688826,6.194176686494697e-06,0,1832.4124468858784,16,3
2,Y,464,0.08207764341696933,7.500876121531684e-05,-0.0015582588693140438,0.0001420569350207018,0.11607531648790081,0.00010607840740750607,0.010438415191403183,1.4734426817735718e-05,0.010717142387517883,2.2453695380665732e-05,0.9739923959170935,0.0024605642396581962,0.0030371369656658855,5.107146317256909e-06,0,1517.685939201518,16,3
2,Y,485,0.08012973642484289,7.595777693198521e-05,-0.0008494591860243216,0.00014681127824359434,0.11332056000139423,0.00010742051830492372,0.010935529261534696,1.6780971104253925e-05,0.011206052909915679,2.913796076849037e-05,0.97585914946541,0.0029463569252514087,0.0031062646420474374,5.60281248402691e-06,0,1523.4997728803169,16,3
2,Y,506,0.08140135124570337,8.786596970888925e-05,-0.0010824367159809592,0.00016579388583084747,0.11511889492716976,0.00012426124603337474,0.010664270194371599,1.8256331706249178e-05,0.01098975208492345,3.18076510511267e-05,0.9703831453124069,0.0032630904796157596,0.0030772847609571224,6.227831068872952e-06,0,1616.1680697011886,16,3
2,Y,527,0.07981514212601137,8.722277142001818e-05,-0.0011160734493938307,0.0001496907864279464,0.11287565647734144,0.0001233516262899581,0.01091358266175581,1.9892516788285697e-05,0.011372352389865165,3.9688507825675e-05,0.959659205731419,0.003778405149236411,0.0030878597430832612,6.562394847969421e-06,0,1563.3722863376938,16,3
2,Y,548,0.08046975028179418,8.095848864820361e-05,-0.0010149373643663908,0.00014033427764479394,0.11380141220928952,0.00011449259263551781,0.010749828234011055,1.80030588195862e-05,0.011099258827729894,3.373852861180342e-05,0.9685176641844014,0.003361266674070693,0.0030664727559254145,5.9909368918939965e-06,0,1464.745179847081,16,3
2,Y,569,0.07957628681711196,8.004422883047147e-05,-0.0011051160277691162,0.00014183168904747108,0.11253786406005106,0.00011319963400174826,0.011068277638413731,1.8336457397794874e-05,0.011412233531244759,3.3114457931626235e-05,0.9698607733631339,0.003240582919742029,0.003122256991656365,6.051336071768051e-06,0,1399.703411622976,16,3
2,Y,590,0.08134619174560025,8.476889087805015e-05,-0.0007323674491662454,0.00015605272079237197,0.1150408876140302,0.00011988131514706346,0.010665931044272683,1.7177186364179255e-05,0.011108454018138368,3.479817970587189e-05,0.9601634058940052,0.003381999147127781,0.003075678449846157,5.899807724436449e-06,0,1584.48877827833,16,3
2,Y,611,0.07986479884143602,7.753165433778349e-05,-0.0013637267341891585,0.00014583675868453237,0.11294588167775788,0.00010964631707771622,0.010955251222992644,1.8315211492369868e-05,0.01135463846202783,3.4775308042615895e-05,0.9648260717088601,0.0033665132673796187,0.003101577769939964,5.996088058192917e-06,0,1698.2726783814576,16,3
2,Y,643,0.08227439251882943,8.412120774901469e-05,-0.001009158939062804,0.00015789486984145234,0.11635356173613609,0.00011896535288186127,0.0104248475991198,1.6473294185477817e-05,0.010689457703992798,3.129139015967327e-05,0.9752456941969883,0.00324423937332586,0.003040460257793322,5.722542647500534e-06,0,1351.4597337745724,16,3
2,Y,664,0.08089576094436296,7.093923079832286e-05,-0.0019632943648991157,0.00012583087996144942,0.11440388226600984,0.00010032322229930335,0.010803593054429217,1.6847828076521798e-05,0.011080296479926543,3.80567821746893e-05,0.9750274348706632,0.003677890141498905,0.0030981248380219637,5.542893577403776e-06,0,1717.15871958152,16,3
2,Y,685,0.08261688180222457,9.071668143526307e-05,-0.0010551732909628007,0.00016390749082856223,0.11683791472568095,0.0001282927612192286,0.010328307707448851,1.683905584688055e-05,0.010628152971459234,3.4185389004470263e-05,0.9717876412942508,0.003504364938242994,0.003024843428400798,5.945820905665883e-06,0,1194.957327950119,16,3
2,Y,706,0.08440833937813519,8.312460016065408e-05,-0.0009263370483950512,0.0001434862844736054,0.11937141832594977,0.00011755593691403776,0.010345246219776847,1.709958660218579e-05,0.010608829363531056,3.804698180620277e-05,0.9751543610777356,0.003850806237663736,0.0030955022188756142,5.955821653939001e-06,0,1010.4092248398814,16,3
2,Y,727,0.08138971307757079,8.55138354830636e-05,-0.0014455784974486618,0.00016480374307083353,0.11510243607195547,0.00012093482591069016,0.010649993010578502,1.9211003745459542e-05,0.011031134752925385,4.123371661435465e-05,0.9654485462390161,0.004007027027205676,0.0030727255542666275,6.414412804548056e-06,0,1320.5343376909218,16,3
2,Y,748,0.0794019396838943,8.360323690486518e-05,-0.0008651747712002888,0.00014960874895764703,0.11229129997969378,0.0001182328314891512,0.011060361496400873,1.9852037387466958e-05,0.01151941972167833,3.97248370949794e-05,0.9601491883819844,0.003732723969083551,0.0031131881269302157,6.478291304142736e-06,0,1735.540972991202,16,3
2,Y,769,0.08211017978253987,8.357661574504144e-05,-0.002040964667125373,0.00014971208219287044,0.11612132985736101,0.00011819518348388236,0.01039261812968967,1.83503654083733e-05,0.010894836250538827,3.25339436587751e-05,0.9539031051683481,0.003309233952478544,0.003025010627364305,6.1652171696093765e-06,0,1841.185258421101,16,3
2,Y,790,0.07973222694535181,8.821335971685453e-05,-0.0009370734602019934,0.00015740876387572116,0.11275839670432608,0.00012475252969407213,0.010921322193615935,1.8940599342387665e-05,0.011262616516181287,3.4652185121363415e-05,0.9696967110551082,0.00342483773423208,0.0030868394776415974,6.350021355582151e-06,0,1656.3622007159413,16,3
2,Y,822,0.08308446133928915,8.616841913136154e-05,-0.0011578056908090235,0.0001513315968536403,0.11749917204848581,0.00012186054698382076,0.010311455040961637,1.7180923450136794e-05,0.010659314614426067,3.299750581711379e-05,0.9673656716170433,0.003400845953973889,0.003036999309045476,5.960438620635618e-06,0,1338.6781039083783,16,3
2,Y,843,0.0839946865143231,7.275476928694597e-05,-0.0008155918540858232,0.00013552770500165385,0.11878642483583224,0.00010289078145292452,0.010390182711592023,1.5645681430763013e-05,0.01058786962542041,2.9543909584083117e-05,0.9813289244369083,0.003111532918792596,0.0030937123447010227,5.374294338118355e-06,0,816.9901933608918,16,3
2,Y,864,0.08076417875906171,7.511551318189027e-05,-0.0014233155634093655,0.00015376915295947698,0.11421779695499013,0.00010622937748644423,0.0108367398130858,1.565173988501675e-05,0.011117400203369944,2.9003389065843118e-05,0.974754854089082,0.002906674358998056,0.0031025755063605097,5.329820826615609e-06,0,1321.6766710114043,16,3
2,Y,885,0.07864093441340238,7.617235960108106e-05,-0.000760782848425462,0.00013785672948515268,0.1112150760051267,0.0001077239840258093,0.01122226443565855,1.6828130048300205e-05,0.01155720907051386,3.270194890451962e-05,0.9710185536307498,0.0031095445137714617,0.003128485130494365,5.584846992053453e-06,0,1625.571022832621,16,3
2,Y,906,0.08122653475574373,8.584929130597934e-05,-0.0014972941389878721,0.0001606918856877897,0.11487166707614238,0.00012140923208503462,0.0106512559356842,1.8637908976919316e-05,0.010996762984312973,3.582945451956825e-05,0.9685810225134757,0.003582134470934734,0.003066928690926255,6.269581652070726e-06,0,1364.9193686501194,16,3
2,Y,927,0.07931377004411497,7.949204700288939e-05,-0.0013580306251636464,0.0001390213429387985,0.11216660927932831,0.00011241873097228572,0.011075577815385632,1.7493870228482858e-05,0.011448638058925664,3.60727287307507e-05,0.9674144433931874,0.003409714972656162,0.003114009395321778,5.825211653323703e-06,0,1599.4197437076964,16,3
2,Y,948,0.08079320092431864,8.204428973022835e-05,-0.0014676092498701755,0.00014433841571832718,0.11425884049470592,0.00011602814725175659,0.010662316864239354,1.707460410684936e-05,0.010942880498421322,3.054159964900838e-05,0.9743610803186196,0.0031352880872207597,0.0030537348928503347,5.790579398283046e-06,0,1645.913777725474,16,3
2,Y,969,0.07915969330335101,7.77418864068725e-05,-0.0007782757627078196,0.00012869631181287465,0.11194871186289368,0.00010994363012106767,0.010999527042064448,1.7543993235668487e-05,0.011435551675891643,3.4829818978746664e-05,0.9618711325710311,0.00330701006078576,0.003086619152577937,5.781503120387423e-06,0,1993.0088601263617,16,3
2,Y,1018,0.0809606268362723,8.006248939397132e-05,-5.4394131508518886e-05,0.00014590777134821035,0.11449561649008344,0.00011322545833830633,0.010759992763197048,1.8287249925729905e-05,0.011111713115548453,3.4952174257047485e-05,0.9683468832668792,0.0034621390325160735,0.003088095860913563,6.072204153257148e-06,0,1458.2621447623642,16,3
2,Y,1039,0.07944802805774809,7.06834432706007e-05,-0.0009781981706859155,0.00013854009710619406,0.11235647878306554,9.99614841085128e-05,0.01116747055715495,1.7428669547383424e-05,0.011527290723066241,3.455144524857951e-05,0.9687853655680525,0.0032738412331451967,0.00314516091764683,5.6501005405263905e-06,0,1515.0421746393952,16,3
2,Y,1060,0.08027435353160005,8.454099801214497e-05,-0.00046220616727459863,0.00015129361088749108,0.11352507947512136,0.0001195590259653323,0.010869501819534342,1.8868081167095742e-05,0.011250446644809075,3.7202065267515006e-05,0.9661395820715705,0.0036081979512462043,0.0030930816775698684,6.280086044017622e-06,0,1427.7180408390575,16,3
2,Y,1081,0.08166745443925863,7.894215182832864e-05,-0.0011835131624039008,0.00013578408147080714,0.11549522167248638,0.00011164106175853838,0.010848821959832194,1.728692700671577e-05,0.011148302575184113,3.396432335967982e-05,0.9731366624351804,0.0033457741453259697,0.0031407728854293115,5.853491840689037e-06,0,1124.9849207839125,16,3
2,Y,1102,0.07990101327805968,8.233869637821311e-05,-0.0015796986436701303,0.00014421819336259663,0.11299709662518476,0.00011644450112618943,0.010914507803325486,1.867742478289465e-05,0.011226193110609541,3.5581324608913077e-05,0.9722358858240653,0.0035019452249124053,0.0030914439342646163,6.175399376251314e-06,0,1059.980506869577,16,3
2,Y,1123,0.07826805204068359,8.686103857014379e-05,-0.0011409825272470345,0.00014852164314299034,0.11068774069645793,0.00012284005878770987,0.011295245195186328,1.9724570182969825e-05,0.011621996513331515,3.8774480059367955e-05,0.9718850958378474,0.003659811515709022,0.0031338998965204858,6.484294020087901e-06,0,1444.3706814496745,16,3
2,Y,1144,0.08051897156557059,8.796213991526271e-05,-0.000881588962676876,0.0001553157397650311,0.11387102161636353,0.0001243972512435243,0.010817837088011296,1.8618158252406e-05,0.011192769173329899,3.745281627959244e-05,0.9665022945159997,0.0036367787129388297,0.003087760363859417,6.294394925322034e-06,0,1451.0929681604014,16,3
2,Y,1165,0.07948035675731348,7.376117056056887e-05,-0.001324504434739417,0.0001353123828296916,0.11240219846844479,0.00010431404778327158,0.010963744440947207,1.734091006329617e-05,0.011414504006027231,3.6834262801305965e-05,0.9605099297488521,0.0034518249974424893,0.0030890407939930913,5.664756771047904e-06,0,1981.9648600494083,16,3
2,Y,1197,0.08099637340372905,8.363855035089517e-05,-0.0003809122618940946,0.0001508592214217779,0.11454616977058907,0.00011828277224346095,0.010750157561062835,1.750941301145666e-05,0.011112836509538782,3.623868441734548e-05,0.9673639625522575,0.0035261463878184553,0.003086635419567484,5.952615414948725e-06,0,1310.7860082354923,16,3
2,Y,1218,0.07903650460527496,8.186335128318746e-05,-0.0017174825891800348,0.00013976955293992015,0.11177449673534345,0.00011577226164599663,0.011194041815501262,1.879687235425452e-05,0.011603861277762601,3.506858243571747e-05,0.9646824921074584,0.0033352131234795092,0.0031363143287370414,6.187746885751204e-06,0,1578.9246850814955,16,3
2,Y,1239,0.08025860844753085,8.520780841436232e-05,-0.0013454224878978588,0.00015179252635609414,0.11350281256368999,0.00012050203827967954,0.010893465074889253,1.993988685311194e-05,0.011258458992495857,4.1966120201544266e-05,0.9675804727938446,0.004018072495602084,0.0030992927681671154,6.558254546349957e-06,0,1083.3731892181622,16,3
2,Y,1260,0.07975492069419726,7.980682099564064e-05,-0.0009474034781875903,0.0001439415543890393,0.1127904905117244,0.00011286388862191687,0.01119878806805931,1.8096235629223125e-05,0.011498972561865847,3.745200306565326e-05,0.9738946682243558,0.0035408979900330966,0.003166164283370151,6.017767814290958e-06,0,1123.3841997707295,16,3
2,Y,1281,0.0801698612845822,8.39724874006093e-05,-0.001453945404111686,0.00015184121254752195,0.11337730512222588,0.00011875503054814551,0.01093717167521555,1.818141250969498e-05,0.011279884253262535,3.425686165825348e-05,0.9696173674878037,0.0033569910734372183,0.003108286865326261,6.107228548990797e-06,0,1504.4758549181665,16,3
2,Y,1302,0.07740514826160763,7.482697140781777e-05,-0.0011207494711666253,0.00012674623113895198,0.10946741046906572,0.00010582131779623971,0.011520418135218945,1.828186232965772e-05,0.011905598218467137,3.217021047761463e-05,0.9676471458065226,0.003032253069510451,0.003161134837636908,5.873909462946158e-06,0,2038.4954797329547,16,3
2,Y,1323,0.08063678969454133,9.232725489618336e-05,-0.00012388169526689416,0.0001628418683586961,0.11403764161224739,0.00013057045605086026,0.01080881792493345,1.997596387413996e-05,0.01124767954164039,4.0442711252289856e-05,0.9609820305528605,0.003885058139051039,0.003089700353482938,6.7171745852985235e-06,0,1365.5337010968206,16,3
2,Y,1344,0.07979527972448294,7.94291176514164e-05,-0.0005310979720347464,0.00013965017475264438,0.11284756679971863,0.00011232973542996127,0.01092733608975532,1.7659433565354878e-05,0.011332910664435028,3.349259595264532e-05,0.964212673452683,0.003247799804489985,0.003090981703144672,5.866804947833668e-06,0,2301.2583806814973,16,3
2,Y,1376,0.08144986775214702,8.314339465234683e-05,-0.0007844618184011673,0.00015250955162665535,0.11518750762858132,0.00011758251633908756,0.010618441068409918,1.5890891488220158e-05,0.010884860246170238,2.7414791950946318e-05,0.9755238770425134,0.0028579776441604245,0.0030658865245878713,5.553944846757222e-06,0,1295.8169547874868,16,3
2,Y,1397,0.0799114655899509,8.259082915324257e-05,-0.0011274329493398702,0.00014381967987018413,0.11301187842641947,0.00011680107071615486,0.010974369075848162,1.9176980049029074e-05,0.01145087440023784,4.179792172619677e-05,0.958386992317392,0.0038785017627077866,0.0031088057714976553,6.311493086544951e-06,0,1489.5505375045743,16,3
2,Y,1418,0.08050641631597512,8.645184744009029e-05,-0.0010136635842749831,0.00015819913279081294,0.11385326581210664,0.00012226137514198543,0.010806069039300573,1.9986864164338176e-05,0.011229700009552607,3.8934194887649025e-05,0.9622758426412397,0.0037813405783311497,0.003083920434498638,6.595669366218842e-06,0,1390.2927360554843,16,3
2,Y,1439,0.08349365837192588,8.09062853890537e-05,-0.0011612288715226382,0.00014091725970350702,0.11807786404172349,0.00011441876607842794,0.010523183189704728,1.6335586855937054e-05,0.010787700943159851,2.7539994363468686e-05,0.9754796916554452,0.0029145630154129654,0.003114623480644351,5.6996337696313805e-06,0,1072.2509207732087,16,3
2,Y,1460,0.08036224244451932,8.24398265722149e-05,-0.001800566308407084,0.00014770309512519524,0.11364937316775403,0.00011658752081811219,0.0108158054775368,1.7469941516734136e-05,0.011177484896252584,3.4414761741673244e-05,0.967642146504976,0.0033643894616904165,0.0030811713202960962,5.895690933254596e-06,0,1603.7188393846338,16,3
2,Y,1481,0.07937383800555699,7.990118781206838e-05,-0.001034963781311633,0.00014585368528265196,0.11225155820506372,0.00011299734345354695,0.011091996639579053,1.895655293961699e-05,0.011443302207385101,3.953187291522853e-05,0.9693003329424151,0.003735888721538284,0.003120987590348189,6.1903550049500685e-06,0,1535.3514948863867,16,3
2,Y,1502,0.08083734182865378,8.12470552994098e-05,-0.0009691938295946389,0.0001509680712467494,0.11432126516027208,0.0001149006875073022,0.01077487762826936,1.6055781206290152e-05,0.011060950044976207,2.2772347398197155e-05,0.9741367228363192,0.0024757482526116094,0.0030876587990908808,5.5497161015854356e-06,0,1779.5254758717101,16,3
2,Y,1523,0.08403359533774715,8.70857757309639e-05,-0.000728173438979803,0.00015751186659788895,0.11884145022161452,0.0001231578851285109,0.010353190026265101,1.7919128598910528e-05,0.010603925419564413,4.4015853163743305e-05,0.9763544740859172,0.004390946971075472,0.0030841256431963816,6.2216622552787645e-06,0,1017.7447299146056,16,3
2,Y,1555,0.08639920674774848,8.44129147957269e-05,-0.0007601217811176563,0.0001438058890643173,0.12218692996094294,0.0001193778889435615,0.009976857343459794,1.718641586440593e-05,0.010234968697509778,3.541733167299589e-05,0.9747814222321184,0.003768003993325093,0.00305568406594806,6.0514866755599214e-06,0,1080.955540746173,16,3
2,Y,1576,0.08830704775622215,8.442772761439298e-05,-0.0013192440937881548,0.00015050631103332064,0.12488502458997797,0.00011939883743261603,0.009657073715175437,1.3083331545982214e-05,0.00988441938263236,2.9821927770648712e-05,0.9769995931317538,0.0032312168559962677,0.003023053578511061,5.012741436790519e-06,0,1101.9097248388314,16,3
2,Y,1597,0.08571681759946906,8.215999141595635e-05,-0.0007531122130441607,0.0001512865680370511,0.12122188597262995,0.00011619177414490256,0.010113855878042885,1.6059090862500022e-05,0.010331625128589575,2.78935948081254e-05,0.9789220720035533,0.003066116012511606,0.0030731781117761033,5.6998449224997886e-06,0,988.4919331783278,16,3
2,Y,1618,0.08300973923017667,8.136731292242518e-05,-0.0009292300905865617,0.00013781154978751662,0.11739349902836982,0.00011507075746874929,0.010657852838600346,1.5015698810876257e-05,0.010857227384058256,3.074112162351059e-05,0.9816366979887836,0.003104482326327336,0.003136199641696952,5.382744813691096e-06,0,1102.9423851545998,16,3
2,Y,1639,0.0811275116790967,8.391601802381e-05,-0.0013694187366338627,0.0001473954986768302,0.11473162729816022,0.0001186751707896172,0.010793105510164476,1.7018726921283782e-05,0.011041812720515897,2.718060558509977e-05,0.9774758713404622,0.0028574838902933933,0.0031039842594168493,5.853516583355535e-06,0,1467.1826381645128,16,3
2,Y,1660,0.08129895804264527,7.501819992426298e-05,-0.001264070524038155,0.00013383891905871417,0.11497408907071016,0.00010609175575770902,0.010938889745101548,1.7028765132325645e-05,0.011189263626582591,3.266614609132479e-05,0.9776237391631185,0.0032344983018641154,0.0031525585170427244,5.7050236655106205e-06,0,1343.4233811586655,16,3
2,Y,1681,0.08116751884019599,8.72575391429282e-05,-0.0009698957723568496,0.0001514040796371654,0.1147882059679789,0.0001234007952752303,0.010661849796406778,1.804660583631021e-05,0.01102299169344798,3.44497956070782e-05,0.967237397334168,0.003437750644022262,0.003067748570540331,6.151351314155229e-06,0,1547.5445608571852,16,3
2,Y,1702,0.07898813665029843,8.016669193724207e-05,-0.0012119219791950637,0.00014314154229455443,0.11170609411743138,0.00011337282298823359,0.01113949494123804,1.838957950142621e-05,0.011524009918612129,3.1826405572083116e-05,0.9666335780609605,0.003110178417940874,0.003119121565842733,6.044462586928946e-06,0,1859.5577145652778,16,3
2,Y,1734,0.08129742936306421,8.348226086543788e-05,-0.0009705160228763641,0.0001465769575525255,0.1149719271913141,0.00011806174553347093,0.010623182782888228,1.8354410682312794e-05,0.011029032593897653,3.630234868627481e-05,0.9632016854103794,0.00358064074435486,0.003061515054822604,6.15330909985568e-06,0,1477.7627834639154,16,3
2,Y,1755,0.08229188263728349,8.179499438370146e-05,-0.0011536366397117566,0.00014493251518904378,0.11637829649886133,0.00011567559039166175,0.010618486277871476,1.662015095087071e-05,0.010870128577171295,2.9077853180423286e-05,0.9768501083024629,0.0030275470507205183,0.003097594326607201,5.743377294026431e-06,0,1148.092838765974,16,3
2,Y,1776,0.08089501693081531,8.009015589328865e-05,-0.001194868747059945,0.00013977840733512783,0.11440283007196017,0.00011326458467686429,0.010726598334519584,1.738971673037424e-05,0.011111408060089171,3.602424802305026e-05,0.9653680502517249,0.0034992960521615687,0.0030760169247526265,5.843149500061415e-06,0,1557.8838313998726,16,3
2,Y,1797,0.07884748039557067,7.952751929438839e-05,-0.0010418939489340987,0.00015077075635377515,0.11150717613436278,0.00011246889636801205,0.011301155847642368,1.7898026663450108e-05,0.011620567418667696,3.8665807929473726e-05,0.9725132552036819,0.0035837524639912802,0.00315875262545979,5.9310051676572995e-06,0,1359.2219579392495,16,3
2,Y,1818,0.08598416231567658,8.241738238902251e-05,-0.000969321038939744,0.00014335338520847802,0.12159996849611943,0.00011655577994984512,0.010131956850180465,1.5257862548493045e-05,0.01042064553747597,3.846218459936593e-05,0.9722964679820183,0.0038759112850576295,0.003088280421283623,5.512849678704648e-06,0,1137.1705171803187,16,3
2,Y,1839,0.09435363292280044,9.349696066174289e-05,-0.0011101130546370653,0.0001778139080548353,0.13343618733859697,0.00013222466980850056,0.008959870291518098,1.470998584684533e-05,0.009149315693133138,3.190759622882512e-05,0.9792940359728516,0.0037747375124006933,0.0029968518993411875,5.746857374491224e-06,0,670.9149345189965,16,3
2,Y,1860,0.08184434147645481,8.051555048271197e-05,-0.0017668437233175022,0.00013514555956030316,0.11574537771949722,0.00011386618347458688,0.010598373054799414,1.6605909919995963e-05,0.01093600111603172,3.468886971112909e-05,0.9691269178148348,0.0034286397309707707,0.003074912719718575,5.688810189617466e-06,0,1688.2174149790067,16,3
2,Y,1881,0.0812739340313898,7.368005722371553e-05,-0.0007541379560087737,0.00014305670655828803,0.11493869977460769,0.00010419933620220423,0.010915827096879471,1.669256883573751e-05,0.011213179051383053,2.7573303230492018e-05,0.9734819221969968,0.002818931997587182,0.003144943604917668,5.59087107587206e-06,0,1489.8959542163489,16,3
2,Y,1916,0.08150465046764689,7.877112081425334e-05,-0.0009812384185541258,0.00014355402920862936,0.11526498208782487,0.00011139918737884669,0.010571442862504209,1.683993810089996e-05,0.010963699465079583,3.23377855096587e-05,0.964222240510628,0.0032322705728319604,0.003054369596932388,5.690959875642872e-06,0,1625.2090867652025,16,3
2,Y,1937,0.0838988400933754,8.269670935953907e-05,-0.0011319233235596166,0.00014701249613614445,0.1186508775274231,0.00011695080793988621,0.010456703469439629,1.5924746128221174e-05,0.010655380425143583,3.0321031730557685e-05,0.9813543066716667,0.003167323850098606,0.0031099662874654933,5.641688633706423e-06,0,852.4648789054448,16,3
2,Y,1958,0.08088108187987235,8.808160624582841e-05,-0.0006025189524596497,0.00016925929480431372,0.11438312293392427,0.00012456620214845726,0.010778029851395655,1.5544861121961653e-05,0.011025067251769459,2.1324700522552626e-05,0.9775931162384378,0.0023586723570659467,0.0030902332844670514,5.584804033019905e-06,0,1398.9706300810506,16,3
2,Y,1979,0.07933877060285975,7.891839003218041e-05,-0.0009590710203869216,0.0001465962661638721,0.11220196540857208,0.00011160745750415924,0.011067922464011445,1.8437449565605557e-05,0.011401674895725782,3.637067879581223e-05,0.9707277715978857,0.003493375314637141,0.0031128379077849933,6.0396054257005685e-06,0,1604.802217234726,16,3
2,Y,2000,0.08075365561051173,7.91800982007513e-05,-0.001145536493214355,0.0001400606756137421,0.11420291497559187,0.000111977568745536,0.010776977158494192,1.4825905481890483e-05,0.011104679143931434,2.9033333032601067e-05,0.970489738497638,0.002867174861908964,0.0030850633452211744,5.211806155350684e-06,0,1508.3991817921678,16,3
2,Y,2021,0.07943237741459151,7.243921738933466e-05,-0.0014499070971549465,0.00013060008351592617,0.11233434543125365,0.00010244452367969004,0.01103333938196649,1.6475683245474355e-05,0.011309474381636046,2.7551073444331245e-05,0.9755837459503922,0.0027875837450407255,0.00310677262923077,5.435971943233829e-06,0,1647.4114373127595,16,3
2,Y,2042,0.08198463037014275,7.47844777079837e-05,-0.0006853621847963102,0.0001504770680750208,0.11594377617560103,0.00010576122262961896,0.010529721662150406,1.763365037775904e-05,0.010969451070848242,3.761116908817167e-05,0.9599132713334732,0.0036628692438885266,0.003060231395778024,5.835770342185164e-06,0,1694.1000350915488,16,3
2,Y,2063,0.07899661633810784,7.97018374028109e-05,-0.001507192078817672,0.00014191098562464364,0.11171808620693613,0.0001127154194011104,0.011130118332067422,1.7263154782554223e-05,0.011480824805678693,2.8192136806262998e-05,0.9694528503354739,0.002815687632001647,0.003116830630396233,5.767088708896908e-06,0,1901.0037709723056,16,3
2,Y,2095,0.08106673871554317,7.987676597122809e-05,-0.0010191180574026628,0.00014239419278960354,0.1146456813488772,0.0001129628057550125,0.010574661981729568,1.7119313827879414e-05,0.010926702224215866,3.7124337029889144e-05,0.9677816567833154,0.0036423038559136975,0.0030388840378351148,5.759220720317936e-06,0,1378.9232958023708,16,3
2,Y,2116,0.07918113008998504,8.122133874266455e-05,-0.0012432786813699108,0.00014664486778931098,0.11197902805728521,0.00011486431880397552,0.01101532948683209,1.9751376924742914e-05,0.011350222741794229,3.825627994695391e-05,0.9704945653860182,0.003705157061047073,0.0030918906073957005,6.387082496213054e-06,0,1333.084430143674,16,3
2,Y,2137,0.0807539666473551,8.077732556646456e-05,-0.0012134645605942622,0.00014032355381856848,0.11420335484811417,0.00011423638934832114,0.01064731949814486,1.74124433351966e-05,0.011019295824540663,3.35532890067824e-05,0.966243185379651,0.0033396590706298544,0.003047958731283964,5.843069295756614e-06,0,1680.145046316258,16,3
2,Y,2158,0.07913997370194602,7.873679172493332e-05,-0.001338034299435387,0.00013967216421651937,0.11192082413514215,0.00011135063871514639,0.011064115593953781,1.9379794834668256e-05,0.011446150528958643,3.848113474869237e-05,0.9666232822957974,0.003664334622434052,0.003103970164194554,6.252712406746332e-06,0,1453.3321435917494,16,3
2,Y,2179,0.08144450603191522,8.200347967664986e-05,-0.0006514733097974305,0.0001510891290051532,0.11517992501111185,0.0001159704331205047,0.010635578482930967,1.709654718143064e-05,0.011012526631525344,3.520651380758659e-05,0.9657709659911019,0.0034558561019555354,0.0030706325007244938,5.824323684639507e-06,0,1738.7216176489005,16,3
2,Y,2200,0.07893200895633387,7.069710102857199e-05,-0.0017448468276415464,0.00013148622588752168,0.11162671757140197,9.998079909506741e-05,0.011223846256363024,1.6035571967387442e-05,0.011479137621778482,3.052246937899519e-05,0.9777604055437829,0.0029513503702606114,0.0031405072304273446,5.295668142340835e-06,0,1576.9138096190736,16,3
2,Y,2221,0.08094119652197976,7.735920702494603e-05,-0.00038284980747697314,0.0001335191132794615,0.11446813787608978,0.00010940243974910668,0.010678719429859075,1.5321655083034805e-05,0.011080602927887716,3.117139902631799e-05,0.9637308997855001,0.003043378917319543,0.003064035044887154,5.2822888340620225e-06,0,2063.160568335142,16,3
2,Y,2242,0.07868765283673705,8.021240675967097e-05,-0.0010611463765176962,0.00014368623500069031,0.11128114583301929,0.00011343747351011402,0.011190328285685412,1.8383169586278807e-05,0.011542363397882614,2.8704865008797353e-05,0.9695006039870673,0.0028896069907841356,0.003121435393174353,6.034819933356637e-06,0,1888.8585703361584,16,3
2,Y,2274,0.08132984800744744,8.523324105854995e-05,-0.0013402880682891049,0.00015885740459600556,0.11501777407787461,0.0001205380054700167,0.010685412590500327,1.969532862808819e-05,0.01104359257242409,3.603799515127893e-05,0.9675667153080112,0.003626268327629785,0.0030806771596792373,6.531958756150391e-06,0,1328.7811243285114,16,3
2,Y,2295,0.07983320768591942,7.620229765815831e-05,-0.0009672202198073485,0.00013369573632389384,0.11290120503717527,0.00010776632283215903,0.011032785581442222,1.8956243159580412e-05,0.011352102517635415,3.760763959510109e-05,0.9718715598544732,0.00362691674781341,0.0031222932445470774,6.136896846081909e-06,0,1381.4145868368753,16,3
2,Y,2316,0.080588985004814,8.042166154531654e-05,-0.0015098975043416193,0.00015110175580863533,0.11397003557168994,0.00011373340446596547,0.010810313056524454,1.8160135648050425e-05,0.011184108815112776,3.137541058616612e-05,0.9665779576390368,0.0031605849223790583,0.0030882957864316945,6.034344927188563e-06,0,1535.8721749322344,16,3
2,Y,2337,0.0810054150971531,7.754876560537928e-05,-0.0010509399561840767,0.00013695214799595758,0.1145589566560562,0.00010967051606441958,0.010919146238740803,1.7240030890496576e-05,0.01126798536898211,3.401580232227779e-05,0.9690415705365066,0.0033012933144923847,0.0031355062176572305,5.78952519096719e-06,0,1441.473389059537,16,3
2,Y,2358,0.08388425513783435,8.236061424109561e-05,-0.0013650179792645378,0.00014889005205253835,0.11863025128549032,0.0001164754976651361,0.010388744977983783,1.7270381108758808e-05,0.010665498943947324,3.478368110837237e-05,0.9740514750019642,0.003565596617717184,0.0030892173826223153,5.964364831655676e-06,0,1119.3294227166336,16,3
2,Y,2379,0.08037770277146286,7.302675607384435e-05,-0.0017115644137278936,0.00013613448153070563,0.1136712373717963,0.00010327542885574248,0.011032176539293144,1.6228467798218783e-05,0.011314714770231835,2.7996155698171377e-05,0.9750291335949512,0.002806679651727765,0.003143415024508517,5.434864788937736e-06,0,1528.3635537727034,16,3
2,Y,2400,0.0807692577103355,7.601420015061762e-05,-0.0013598279359045714,0.00014427110176500475,0.11422497967676415,0.0001075003127859464,0.010725255549568805,1.8081677076458988e-05,0.011124908731196427,4.000164237038136e-05,0.9640758237856895,0.0038286294274566517,0.0030708504898123577,5.9291838336928035e-06,0,1422.2901875023988,16,3
2,Y,2421,0.0788193105368213,7.940441249641997e-05,-0.001001539344404406,0.00013542432618938796,0.11146733793806929,0.0001122947970647048,0.011147766611768957,1.819176409278043e-05,0.01157027181950118,3.80520466485414e-05,0.9634835538591142,0.0035373196796170906,0.003114766043143903,5.973467186833018e-06,0,1812.624218801722,16,3
2,Y,2453,0.08210850284876203,8.082681702393848e-05,-0.00137354805229272,0.0001527315429631128,0.11611895831486918,0.00011430638083870237,0.010581794817291195,1.6946000820356092e-05,0.01089406831871672,3.0381444776367998e-05,0.9713354559298092,0.0031237183178422084,0.0030800119507240933,5.789768355706073e-06,0,1391.8779976310773,16,3
2,Y,2474,0.07904876875662924,7.750326623555157e-05,-0.000970795385622266,0.0001379311115342145,0.11179184086451965,0.00010960617023852981,0.01112873015559536,1.8331130492534717e-05,0.011482524607472103,3.548597142501999e-05,0.9691884438334653,0.0033940986833696446,0.003118499321071283,5.977858084377098e-06,0,1740.777436358728,16,3
2,Y,2495,0.08102771403730775,7.953620871635346e-05,-0.0012693233298681896,0.00014123148752037042,0.11459049211964945,0.00011248118506640425,0.01065709616716956,1.8006809896013356e-05,0.011011439203814647,3.607704711872435e-05,0.9678204610599555,0.0035677325041080002,0.0030610991974417065,5.981654359139643e-06,0,1508.2718162255794,16,3
2,Y,2516,0.07808750690200653,7.137095714258558e-05,-0.0012233279542769484,0.00013257420119720844,0.1104324113127203,0.00010093377555059346,0.011311297581458104,1.725136520987418e-05,0.011618687144929021,2.5673938795761578e-05,0.9735435200520846,0.002613903292505915,0.003131114269811733,5.567257022470255e-06,0,1811.669326085142,16,3
2,Y,2537,0.08107100048622122,8.122218063311005e-05,-0.0016075950355073651,0.00015210426453785583,0.11465170840276984,0.00011486550941686158,0.010663642858792234,1.7452087957321092e-05,0.011099148996106084,4.0123370351660176e-05,0.9607622046098635,0.003812500142894762,0.0030646159397476978,5.8806964854374325e-06,0,1647.5842254991612,16,3
2,Y,2558,0.0779305207278555,7.460034549681655e-05,-0.0012689475257499948,0.00013590426450159384,0.11021039933613086,0.00010550082035931663,0.011459138943959583,1.695853336158772e-05,0.011794858009056594,3.2676352124078414e-05,0.97153682860453,0.0030514922140160044,0.00316566165358857,5.579566927708866e-06,0,1867.160473814597,16,3
2,Y,2579,0.08137721308472712,7.914735673809374e-05,-0.0016595732275613252,0.00014625557308495325,0.1150847584125464,0.00011193126532499376,0.010704248734020797,1.6388448853787756e-05,0.01105855512403943,2.8555303326377467e-05,0.9679608786098619,0.002905776320489772,0.003087905043062878,5.600934306830037e-06,0,1697.8149156898714,16,3
2,Y,2600,0.07919472644689811,7.184960155532452e-05,-0.0009307183256166986,0.00014284829679619862,0.11199825620963055,0.00010161068097064296,0.01129411655839758,1.678980811231063e-05,0.011704699244647223,2.9956464927681778e-05,0.9649215517914814,0.0028559500290815066,0.003170687646082599,5.521986854045938e-06,0,2107.7706309062914,16,3
2,Y,2632,0.08158884416892045,7.806385450242837e-05,-0.0012413575452500177,0.00014185172833105705,0.11538404996203233,0.00011039896176845421,0.010550785176305625,1.65757917174869e-05,0.010858225847329135,3.697390460073621e-05,0.9716859203937876,0.003643919296200894,0.0030515500204604195,5.613235095564642e-06,0,1544.7178771232702,16,3
2,Y,2653,0.07887412974874788,7.240179401282507e-05,-0.0012330610351925706,0.00013731244002292565,0.11154486401105446,0.00010239159903308037,0.011121203402668516,1.7135230533091668e-05,0.011477482047333306,3.582128271642899e-05,0.9689584663957224,0.003372567140117416,0.0031095052646254455,5.57685383662241e-06,0,1556.139095027526,16,3
2,Y,2674,0.08216457490766572,8.460440792593829e-05,-0.0002753497813005812,0.0001518220247194615,0.11619825618104096,0.00011964870112540771,0.010445948938676147,1.6247968477653463e-05,0.010688511889991252,2.8954396934400365e-05,0.9773061999825962,0.0030528353577223386,0.00304254803378821,5.675506953376913e-06,0,955.9350015022127,16,3
2,Y,2695,0.07801616960004956,7.669208529498289e-05,-0.000913616741545021,0.00013850430274702766,0.11033152513278965,0.00010845898715083901,0.011458672736269278,1.928170401382748e-05,0.01185985556301721,3.786849916813297e-05,0.9661730427814865,0.00348717203914467,0.003169011912495112,6.175818745532391e-06,0,1692.9892880632267,16,3
2,Y,2716,0.08382775264742712,8.396782104205576e-05,-0.0012312040922753719,0.00015944733022984345,0.11855034469724857,0.00011874843132059221,0.01013320553097938,1.6717530931588153e-05,0.010438179998007823,3.0565776361320293e-05,0.9707827928732164,0.0032628284538858557,0.0030112000346939334,5.81177929965423e-06,0,897.0800060712564,16,3
2,Y,2737,0.07853242441955882,8.296164184721675e-05,-0.0011089368458413,0.00014139763821385254,0.11106161970018014,0.00011732547905707325,0.011274641353088496,1.9595556813253147e-05,0.011604345012737945,3.939032762937731e-05,0.9715879130370962,0.0037051759004183816,0.0031387496179964736,6.383861489201521e-06,0,1484.1578552907395,16,3
2,Y,2758,0.08065504761607566,7.582827260977065e-05,-0.001330129622721339,0.0001281885036558864,0.11406346221250196,0.00010723737153606194,0.010655221972902007,1.797976935176665e-05,0.011035695316855483,4.0575773435322634e-05,0.965523391772845,0.003906021648804997,0.003046484588319318,5.884730825047597e-06,0,1549.1825013551615,16,3
2,Y,2779,0.07883256072207087,7.922433068731053e-05,-0.0011087358408906236,0.00014712454559660714,0.11148607652975318,0.00011204012292792553,0.011198386431414131,1.924708525064474e-05,0.011534555803055652,4.001119549124598e-05,0.9708554557816206,0.003758440761054958,0.0031294355801198296,6.230659981885057e-06,0,1568.689078114425,16,3
2,Y,2818,0.08109214307681416,7.684970517002339e-05,-0.0003809768784289355,0.00014286678704076417,0.11468160854113008,0.00010868189531582084,0.010732212259584305,1.645632119276903e-05,0.011047535966778188,3.0131386013324627e-05,0.9714575532370191,0.0030396009508374443,0.003085126409503384,5.561183652872334e-06,0,1683.1320659874661,16,3
2,Y,2839,0.07986784897748787,7.529328279335914e-05,-0.0008779377985203136,0.00014669308856458363,0.11295019522152949,0.00010648078168196129,0.011131390604625964,1.7806508981683534e-05,0.011455682457989828,3.868814818510722e-05,0.9716916164049497,0.003631114445475094,0.0031515655362837455,5.851786875913981e-06,0,1445.9029636970204,16,3
2,Y,2860,0.08072918963320624,8.347576009505182e-05,-0.0009350500297338099,0.00015590882236600416,0.11416831485866974,0.0001180525520558251,0.010846267668530234,1.7763655966483198e-05,0.011153376249111311,3.160700911188149e-05,0.9724649672241132,0.003182946708915536,0.003103958048708548,6.011975967419066e-06,0,1414.6038200312616,16,3
2,Y,2881,0.07865796099558184,7.972569491238419e-05,-0.0011612763750428973,0.00014382309805225794,0.11123915522856576,0.00011274915901471338,0.011291230601230749,1.8918248659875914e-05,0.011706892388200524,4.132868235604248e-05,0.9644942677196962,0.0037689592917776707,0.0031483926755218107,6.165202042445967e-06,0,1502.1220873973386,16,3
2,Y,2902,0.08065887688060222,8.450231348320437e-05,-0.0017191749138234513,0.00015161180877560962,0.11406887761032936,0.00011950431777985049,0.010874702568094103,1.622461674355283e-05,0.01122429300091976,3.167182703974753e-05,0.9688541244604885,0.0030924595417078393,0.0031093849341825882,5.668567355368168e-06,0,1586.3091755176208,16,3
2,Y,2923,0.07804699970999152,7.778909342260405e-05,-0.0006288944268715889,0.00013046699821492723,0.11037512549239903,0.00011001039092295439,0.011362357431107396,1.869312420770493e-05,0.011678259262232331,3.470146983423522e-05,0.9729495788686104,0.003304619591869853,0.003143616730936668,6.046883405541853e-06,0,1489.3720960882183,16,3
2,Y,2944,0.08101229374020275,8.58272576477967e-05,-0.001576963358121664,0.0001544099485844357,0.11456868452634772,0.00012137807178680404,0.01065361036513865,1.7519162819125254e-05,0.010979847675760612,3.1354108261033044e-05,0.9702876287307545,0.0031973361650764315,0.0030595155864703246,5.984905805224674e-06,0,1561.5565388163236,16,3
2,Y,2965,0.07949536132576433,8.048373402354049e-05,-0.0005011879503000505,0.00013909226948560473,0.11242341813264556,0.00011382118820651987,0.010946938610052574,1.8592719199945693e-05,0.011397280725211777,3.587722085050229e-05,0.9604868805097512,0.003435512526469206,0.003084888007839047,6.0997522892273255e-06,0,1757.0362761252165,16,3
2,Y,2997,0.08383872976447487,8.446040568397872e-05,-0.0006275731283324989,0.00015530286247726068,0.11856586868505326,0.00011944505120181637,0.010388570937255212,1.6277809924732736e-05,0.010693932573193761,3.389595118390587e-05,0.971445337452006,0.003434825387927762,0.0030874890882273574,5.751394895865971e-06,0,1242.1019195519712,16,3
2,Y,3018,0.08109466853374708,7.636708916169996e-05,-0.0012848039154941247,0.0001335773161307864,0.1146851800765758,0.00010799937321143149,0.010896982278897311,1.770602781684348e-05,0.011170599229207727,3.2267163597834865e-05,0.9755056157063633,0.003233039397167728,0.0031325894404801353,5.883067782815427e-06,0,1223.076193005877,16,3
2,Y,3039,0.08018326954779875,8.239370088975777e-05,-0.001244208148942049,0.0001418253999229169,0.11339626726991459,0.0001165222892524076,0.010859273416321246,1.6450163424898763e-05,0.011151417267818818,3.2483679658474805e-05,0.9738020877094563,0.0031972948246312147,0.0030866647411629425,5.650083129633535e-06,0,1330.424864056054,16,3
2,Y,3060,0.07881782770959395,8.660413862072776e-05,-0.0008536033462485338,0.0001542362285176263,0.1114652409036937,0.00012247674739507275,0.01128988746272618,1.8112556722716168e-05,0.011625541698150752,3.238770101650548e-05,0.9711278627577445,0.00312200939828579,0.0031544162843358666,6.133834593708009e-06,0,1377.1427142800394,16,3
2,Y,3081,0.08073545192298355,7.453375868306383e-05,-0.0012904534712087482,0.00014245061441112456,0.11417717107380432,0.0001054066523842323,0.010798960461409846,1.7176977627806596e-05,0.011230388807634328,3.4820077676944374e-05,0.9615838459723495,0.003350853447336256,0.0030906595179155966,5.6840610115735095e-06,0,1825.6800591764077,16,3
2,Y,3102,0.0782013048255069,8.068584491774203e-05,-0.0007310823447784094,0.00014398679136384422,0.11059334587950442,0.00011410701617420305,0.011481587939286369,1.88994657151041e-05,0.011902459563557835,3.763039005067525e-05,0.9646399450446307,0.0034383731984132106,0.0031828845639969017,6.183394445621849e-06,0,1900.035677682871,16,3
2,Y,3123,0.08149033254053448,7.560681771330085e-05,-0.0008084699658683635,0.00014721830023713925,0.11524473348111741,0.00010692418701802042,0.010628170451657598,1.7243022106483515e-05,0.011017188855350052,4.085245033603598e-05,0.9646898670069051,0.0039045385048053893,0.003070220258080142,5.73807611625753e-06,0,1595.1180866824757,16,3
2,Y,3144,0.07881340657305819,7.470253446029405e-05,-0.0012273229831048652,0.000136933629376523,0.11145898847244373,0.00010564533737739135,0.011259101752078761,1.857111114397745e-05,0.011710697128093098,3.6686748790886305e-05,0.9614373618346774,0.0034039198562624594,0.0031456382390260954,5.984178089616066e-06,0,1872.4213043619616,16,3
