XscanNumber_YscanNumber,Type,BCID,xsec,xsecErr,SBIL,SBILErr
1_2,XY,103,130.54332539497662,0.675236132678217,0.06754132048195478,0.0004155730481796662
1_2,XY,124,129.59406792599447,0.69858680784905,0.07477626069960432,0.0004818575175151948
1_2,XY,145,130.0180722128492,0.6079632592629163,0.06074865571308388,0.00034620427557307594
1_2,XY,166,130.10678082339865,0.696707319163547,0.07111203191465554,0.00044935004627169345
1_2,XY,187,128.8708114996922,0.6963581134081898,0.0615086005894565,0.00038904354251631025
1_2,XY,208,129.0042353575155,0.5721291563818057,0.07013007146946153,0.0003801110114032193
1_2,XY,229,129.76526768370985,0.7085761894454705,0.06576146170591503,0.00042563569554185713
1_2,XY,250,130.1482093928379,0.701765169616704,0.07340523094055382,0.0004618772586253278
1_2,XY,282,129.86494688303864,0.7043272589216238,0.06892444360371457,0.0004424276797592723
1_2,XY,303,130.52346231856157,0.6908275423939582,0.07392945343474418,0.00045985559474907324
1_2,XY,324,129.47652279574027,0.7184894668871226,0.06633100580611957,0.0004346615905840814
1_2,XY,345,129.73613618724744,0.632014566345957,0.07631709229162757,0.00043649652065846955
1_2,XY,366,130.25604768591563,0.7235062206437948,0.06797191572960995,0.00044508098480248797
1_2,XY,387,128.8267213628901,0.64729957454042,0.07687792231928434,0.00045736261007817093
1_2,XY,408,130.38282684883538,0.7253095920281093,0.0637535590649063,0.0004202522804347243
1_2,XY,429,130.15845111227372,0.6794090715816486,0.07372897107521391,0.00044889202766449244
1_2,XY,464,130.70719623532202,0.6768168192629437,0.06861336916980697,0.00041544667351591094
1_2,XY,485,129.10542690160796,0.6801697085353736,0.07277816288422324,0.000453252097981142
1_2,XY,506,128.84575413258005,0.7488729175890684,0.06297453843422557,0.00042833387821788576
1_2,XY,527,129.49984040939054,0.7387773183423841,0.06944178956411699,0.0004698549399091879
1_2,XY,548,129.5217335185201,0.7123061572946934,0.06732466993450871,0.00043413408865604347
1_2,XY,569,129.78959739180536,0.667079379838991,0.07560532029915609,0.0004543524435572505
1_2,XY,590,128.99913127467048,0.6878255275062068,0.0655126769257146,0.0004137922759275443
1_2,XY,611,129.75171142674824,0.6659339828315932,0.07348374889566792,0.00044767415341577044
1_2,XY,643,130.81364947765053,0.6852431024139899,0.06728343521413424,0.0004184790720220832
1_2,XY,664,129.1790837350318,0.7045883340255868,0.0724357128210226,0.00046469574459763013
1_2,XY,685,129.64896956820206,0.70089439531137,0.061744667559467704,0.0003911383073540048
1_2,XY,706,129.64556583889183,0.6952046573532902,0.06900827980619144,0.00044007315530819
1_2,XY,727,129.724537264828,0.7146718169522112,0.0648352004307204,0.0004210855668611116
1_2,XY,748,129.62746082615104,0.6496687217521173,0.07368086359662969,0.0004330327506271445
1_2,XY,769,128.41026594623375,0.7729606605758453,0.06019966131989747,0.0004309124558743197
1_2,XY,790,129.0956099766522,0.7082819872181912,0.06804446098840515,0.0004402094816311039
1_2,XY,822,130.379317214823,0.685254724748473,0.06934721667257517,0.0004302919187534858
1_2,XY,843,129.77097250573647,0.6548172125775185,0.0708277331246572,0.00042301493370812046
1_2,XY,864,129.9068085625598,0.698989925788632,0.06575425936392898,0.00041319270123861833
1_2,XY,885,129.2472642595119,0.6225623484309899,0.07695008056761635,0.0004304021436017367
1_2,XY,906,129.75805942766436,0.722632795772227,0.06348950957977366,0.000417984883004666
1_2,XY,927,129.20396949216348,0.6529753979105617,0.07402091674659855,0.0004411426457002972
1_2,XY,948,129.7081461793261,0.6924686930831156,0.06393237869433024,0.0004000530643798625
1_2,XY,969,129.12398721763515,0.707534195447563,0.07233656310266616,0.00046784939778618284
1_2,XY,1018,130.9814479417924,0.6610452813198674,0.06995093133175365,0.00041511102839181734
1_2,XY,1039,128.73150442543246,0.6341590423858064,0.0755679633996088,0.0004404817031757614
1_2,XY,1060,128.80432457847792,0.7277729126825646,0.06697625985417768,0.0004479509139364702
1_2,XY,1081,129.27770296846953,0.6795923630209286,0.07338690060639391,0.0004554700981191489
1_2,XY,1102,130.3157011547797,0.7023479924515149,0.06469928401829973,0.000405320306315541
1_2,XY,1123,129.5063896871206,0.7092797914914168,0.07143122996189921,0.00046500086282886817
1_2,XY,1144,129.80345681004965,0.6697666198533819,0.06532805520880229,0.00040043585439970505
1_2,XY,1165,129.46526865590786,0.6760389814282729,0.07501106388767192,0.00045793607521652603
1_2,XY,1197,129.72777141905965,0.6859187664589522,0.06809997789925444,0.00042015803187751296
1_2,XY,1218,128.5396350183018,0.6667670610651205,0.07561381727082138,0.00046923592178265864
1_2,XY,1239,130.40869287724195,0.7080983236350531,0.06580456928472975,0.00042516896545730353
1_2,XY,1260,128.9599099789239,0.6460785945058448,0.0750747790905641,0.00044303848391260387
1_2,XY,1281,130.47787782843108,0.7152607241154602,0.06674544394375173,0.0004300876501518026
1_2,XY,1302,129.42058755567675,0.6708386060757097,0.07638184934364983,0.0004694480923100868
1_2,XY,1323,130.5550960265029,0.7587919668344141,0.06166370962243989,0.00042319896090506706
1_2,XY,1344,129.04472039901873,0.6784400912648765,0.07087915133373009,0.0004360598156819035
1_2,XY,1376,130.44253453854162,0.716208586579481,0.06666393288859586,0.0004351760613769604
1_2,XY,1397,130.61932166072722,0.7168291313929867,0.0733491968219608,0.00047297318867505866
1_2,XY,1418,130.44571695457222,0.6844223757370688,0.06783073079686168,0.00041539030427646987
1_2,XY,1439,129.61109681251116,0.6775561520523807,0.07197005116993682,0.0004420695568864557
1_2,XY,1460,129.8898671764272,0.7230258044765099,0.06549437115476678,0.00042807613491521154
1_2,XY,1481,129.5536315034934,0.6727291911410423,0.07219664453765261,0.00044190596449125474
1_2,XY,1502,129.70958958364045,0.7668872957896699,0.06432126290109433,0.0004492809244514086
1_2,XY,1523,129.05533025170675,0.6859255627503623,0.06918825224697739,0.0004291003905504952
1_2,XY,1555,130.10374669105138,0.6856721197352695,0.06845220458455305,0.00042744810658333794
1_2,XY,1576,130.04053598161374,0.6967092421629839,0.0652253722710364,0.0004092610673019137
1_2,XY,1597,129.31558179824154,0.5527217181120581,0.06655299005586844,0.000343134619517702
1_2,XY,1618,129.8926870106676,0.6531101312664381,0.07113438569207661,0.0004210513048345905
1_2,XY,1639,129.60104620722862,0.6850896663081322,0.07375421130686627,0.00046401856760758
1_2,XY,1660,129.07896306438485,0.6405205259882123,0.07854583622881298,0.0004552285331471692
1_2,XY,1681,129.51846747379597,0.7210950071963342,0.06987662983115522,0.0004605052046310607
1_2,XY,1702,129.8884627751643,0.6773917459411464,0.07647682011145325,0.00047129447738713783
1_2,XY,1734,129.5188255060593,0.7222202067181579,0.06849596928499463,0.00044926764993379775
1_2,XY,1755,129.67831034600803,0.634382900378484,0.06990416882337325,0.0004029544774919396
1_2,XY,1776,130.060512488939,0.6598543247404831,0.06944367389580144,0.00041484318795642183
1_2,XY,1797,130.17577842236688,0.6617758026694056,0.07571473755646431,0.0004530791621669765
1_2,XY,1818,130.9197577774104,0.6615507757062149,0.07023447573369292,0.00041765689090210483
1_2,XY,1839,130.8211228285162,0.7134869056378593,0.06225553334771945,0.00040246018646470586
1_2,XY,1860,129.40668998266352,0.7027411810918819,0.07189727772655727,0.00045737651060387787
1_2,XY,1881,129.56469132778207,0.6346457399438451,0.0753833106748122,0.0004362509030233034
1_2,XY,1916,129.11953090441128,0.6812355632668614,0.07045446278896789,0.0004412874971877919
1_2,XY,1937,130.45147864076912,0.6758921757822847,0.0688737965665991,0.00042357396933287363
1_2,XY,1958,130.61880363900045,0.6972440460725776,0.06687112853833974,0.000417178270180909
1_2,XY,1979,129.03163626339614,0.6987179253787664,0.07268969330404157,0.0004654903141117206
1_2,XY,2000,130.57550347883077,0.7014399328539627,0.07013929150476338,0.00044642528283831724
1_2,XY,2021,129.2017910790916,0.6591515471205374,0.0756934219136699,0.00045447247389605183
1_2,XY,2042,130.7377998532383,0.6927104639728348,0.0696288988252275,0.00044097393629101184
1_2,XY,2063,130.09775291415662,0.6758531893107956,0.07497127940074441,0.00045392562581207825
1_2,XY,2095,129.53005469874427,0.6716206794363784,0.06910571652808536,0.00042313832597728215
1_2,XY,2116,128.68832178018596,0.6370330589880532,0.07268947230853254,0.00042428187018577764
1_2,XY,2137,129.1042677185417,0.7258265206919448,0.06811148791087897,0.0004560168448431693
1_2,XY,2158,129.47290085735838,0.6965682622581677,0.07463120369079862,0.0004737469832915786
1_2,XY,2179,129.4808492530063,0.6927723007597459,0.06999955148573402,0.00043913975520200484
1_2,XY,2200,129.9070717606181,0.6409156524061917,0.07581469297370338,0.0004358264708039571
1_2,XY,2221,129.87728225042218,0.7228621273297768,0.07070756580747549,0.0004650633010926196
1_2,XY,2242,130.3713327039108,0.6378782114598125,0.07431482256869934,0.0004316904055522742
1_2,XY,2274,129.56951571737503,0.6785042971434915,0.07098554363834156,0.0004378813441366408
1_2,XY,2295,129.40169290345872,0.6920973518935406,0.07622993780205191,0.0004793580302392355
1_2,XY,2316,130.32025179819536,0.6778887811969114,0.06983801488846615,0.00042758891646017604
1_2,XY,2337,130.19048282558617,0.6672548208467282,0.0736813665092208,0.00044207131457439224
1_2,XY,2358,130.52573988166384,0.6955143842882288,0.06903706097914296,0.000433845229385668
1_2,XY,2379,129.69093263027298,0.6654576144428437,0.0748570316637033,0.00045533599009523574
1_2,XY,2400,129.71105768449965,0.7305712197314904,0.06699029402291574,0.00044079812553995354
1_2,XY,2421,129.58594059471784,0.7082125706353224,0.07359673027538222,0.0004745961425740194
1_2,XY,2453,128.93190807646363,0.6884070564736781,0.07279919895183362,0.00045999144688595736
1_2,XY,2474,128.63663551659,0.6858597868919385,0.07723451200900884,0.00048592107363298046
1_2,XY,2495,130.4749109190935,0.6846177446355676,0.06865487733799258,0.0004254717468398423
1_2,XY,2516,129.70405291538327,0.675850708705162,0.07492731020859458,0.00045924297141912505
1_2,XY,2537,128.15932070573572,0.6996020677821791,0.0715946913869544,0.00046415883323311347
1_2,XY,2558,129.54806232027508,0.69504688264503,0.07853803790940499,0.0004980117937316518
1_2,XY,2579,129.79144551110673,0.6586738329853778,0.07238002385298588,0.0004289239692829113
1_2,XY,2600,129.84131734047656,0.6445407297647007,0.07690994478305838,0.0004487161155620892
1_2,XY,2632,129.72324810950087,0.6834508945248046,0.07118202373928277,0.00044110077268467936
1_2,XY,2653,130.44278323875633,0.6910936459196633,0.0728411526481242,0.0004531678587412387
1_2,XY,2674,130.45981269929058,0.680834438799772,0.06857795224052282,0.0004201845863089612
1_2,XY,2695,129.08869973442793,0.6560824450620892,0.07811825149007287,0.0004683841179095431
1_2,XY,2716,130.9306550853412,0.6751015448834774,0.06565534418497238,0.0003970073733517685
1_2,XY,2737,128.89180891884348,0.650463993821734,0.07451898266832391,0.00044623071301357525
1_2,XY,2758,129.24076077639654,0.7362339828033592,0.06809796859775065,0.00046249202920341746
1_2,XY,2779,129.11288088503932,0.5140339048066646,0.07356683525519872,0.00036376363303013414
1_2,XY,2818,129.21923275915495,0.6690494500058927,0.07278966495687633,0.00044076621499710577
1_2,XY,2839,129.0796636980736,0.6706891980653079,0.07681375612648081,0.0004711373015293457
1_2,XY,2860,131.5149144420382,0.6822967873592538,0.07016713049973718,0.000428029057297157
1_2,XY,2881,129.21884029552143,0.6733602960201109,0.07654032823662396,0.0004727162025002887
1_2,XY,2902,130.28697980460092,0.7042164039071228,0.07087767355181501,0.00045424577184204176
1_2,XY,2923,129.01878093211474,0.6623831673987572,0.07645477264115146,0.00046669750990263565
1_2,XY,2944,129.8122084501863,0.6985756995273157,0.06835554924233904,0.0004306867473100868
1_2,XY,2965,128.93954617812736,0.7030052656204979,0.07239150311554383,0.0004663043797750916
1_2,XY,2997,130.00686233385468,0.6923770535736123,0.0692191190190666,0.0004296148939192396
1_2,XY,3018,129.71576604300193,0.6570234208301187,0.07437188695817386,0.00044148595114041776
1_2,XY,3039,129.22398205482742,0.6934280468598131,0.06718372790583212,0.0004191620808769236
1_2,XY,3060,128.1465477694275,0.6733535317255125,0.07285499085618763,0.00044829690657884844
1_2,XY,3081,129.64992873947892,0.6746799525199538,0.0694295364926863,0.0004258527703674093
1_2,XY,3102,129.7899223275382,0.648509888210601,0.07528045047783419,0.00044730919464891847
1_2,XY,3123,129.11764630206707,0.689024687378849,0.07189859677507356,0.0004531776907283738
1_2,XY,3144,129.9107792203283,0.6881911149785238,0.07634401858650593,0.0004817679097882924
