XscanNumber_YscanNumber,Type,BCID,xsec,xsecErr,SBIL,SBILErr
1_2,XY,103,127.84688442886625,0.9472849329130756,0.07073628703018671,0.0005942837292156274
1_2,XY,124,127.22940977431156,0.9150018706866673,0.07871708381013723,0.0006533293869766116
1_2,XY,145,126.99947339413902,0.9850877326685263,0.06414165648390703,0.0005662258121469242
1_2,XY,166,127.16077163071331,0.9568376885515268,0.0750426391712856,0.0006430408628650123
1_2,XY,187,126.46063025531362,0.9435254206092575,0.06435946862150775,0.0005436003000571238
1_2,XY,208,126.86142943182024,0.8895913175571691,0.07341819317216991,0.0005929678478285306
1_2,XY,229,126.01678994169681,1.0407583244050775,0.07044391251071165,0.0006611087198366318
1_2,XY,250,126.88366056091154,0.9147321126955692,0.07781642887816412,0.000637171472590009
1_2,XY,282,127.19458254381722,0.9776302791234613,0.07245106285822298,0.0006349022868152415
1_2,XY,303,127.83045529962835,0.9344317814868826,0.07778899799475593,0.0006474255555201433
1_2,XY,324,126.94706467032434,0.9853790839798714,0.06978646162247344,0.000618441501026925
1_2,XY,345,126.77059156945231,0.8599152857831609,0.0803417027908703,0.0006183676925810074
1_2,XY,366,127.38511130584979,1.0046190821381686,0.07155940202615593,0.0006404640157362801
1_2,XY,387,126.74969538892182,0.8938843591425846,0.0805578844655726,0.0006528803916769574
1_2,XY,408,126.72557632550127,1.0117129284250015,0.06773656945863032,0.0006123204607905147
1_2,XY,429,127.24582547074671,0.8867782533452649,0.07743862784959527,0.000608993602587573
1_2,XY,464,128.0559094798867,0.8914078667561222,0.07166289694809672,0.0005632985442740661
1_2,XY,485,127.34864382749967,0.8833828117858565,0.07536652378614526,0.0005967682961653671
1_2,XY,506,126.66614942548219,0.9821323471250593,0.06582082478342142,0.0005827041304233719
1_2,XY,527,127.76022771758456,0.9415448283919007,0.07252665365642683,0.000618656158539617
1_2,XY,548,127.28870182293213,0.9370517083517815,0.07045056608976598,0.0005937866682531482
1_2,XY,569,127.79833838972908,0.8628150588318577,0.07832052745954522,0.0006008294764433958
1_2,XY,590,125.94568643841663,0.9609073833030893,0.06906823974370135,0.0005988737590860892
1_2,XY,611,126.91732758339468,0.9652681017774078,0.07735825301972335,0.000669147341553175
1_2,XY,643,128.16890511597134,0.9754361163676708,0.07056942946762815,0.0006121165775160306
1_2,XY,664,126.67841752931263,0.9040572875554814,0.07597019759762469,0.0006203303093229643
1_2,XY,685,127.4558293935378,0.939614219094434,0.064207641395697,0.0005343232774322292
1_2,XY,706,127.77136651151315,0.9746972510699666,0.07181471033691912,0.000628203550854614
1_2,XY,727,127.79682746929117,0.9604884370448012,0.06724424671344013,0.0005743873516519853
1_2,XY,748,127.27703126530854,0.857355091477409,0.07709701767200387,0.0005924736396383154
1_2,XY,769,126.29362110186355,1.0263010614158146,0.06332702749886698,0.0005928253344008545
1_2,XY,790,126.79052286700696,0.9559195714257791,0.07170748025672506,0.0006218121246689563
1_2,XY,822,127.93386337873297,0.9787785718259121,0.07260319429630517,0.0006321823339072248
1_2,XY,843,128.3811297923985,0.8196782954877234,0.07293135688837328,0.0005357057627108283
1_2,XY,864,127.11663959789908,0.9325520581432873,0.068685496953037,0.0005681155956037364
1_2,XY,885,127.07232229975116,0.8117794812533619,0.08006540736523185,0.000578063097100923
1_2,XY,906,127.53129842753664,0.9830295300028298,0.06630707267980072,0.0005856632273251048
1_2,XY,927,126.95810478823356,0.8906722234614363,0.07743884126127619,0.0006216860592359927
1_2,XY,948,127.29546260821728,0.9174356379989022,0.06679630766784657,0.0005457432950061495
1_2,XY,969,126.64959008579507,0.9623328894534674,0.07587521733491824,0.000658643084764481
1_2,XY,1018,128.38299364765626,0.9380336648979771,0.0730754899047815,0.0006060922235131726
1_2,XY,1039,126.62718412397602,0.8295750136476301,0.07847136495897435,0.0005868245759725327
1_2,XY,1060,126.49596309698562,0.9679326424599106,0.06979776170897163,0.0006082466823556894
1_2,XY,1081,127.31380961935221,0.9033659013792367,0.07632712879345736,0.0006217392348972336
1_2,XY,1102,128.34275882732854,0.9203541308137313,0.06693117461477757,0.000539542423735326
1_2,XY,1123,127.62176645942958,0.9394272726868774,0.07418194933647616,0.0006275718540496833
1_2,XY,1144,127.34358363324056,0.9342885594065032,0.06844050004913013,0.0005736976515174023
1_2,XY,1165,126.25259243971578,0.9026853830774776,0.07911106087403909,0.0006406924135754198
1_2,XY,1197,126.6982203200114,0.9986793576774136,0.07162270866184636,0.0006378121557757368
1_2,XY,1218,127.27274111537447,0.8871002584308119,0.07804854139949689,0.000630476408395812
1_2,XY,1239,128.16580175131915,0.9814377526069314,0.0684110130715152,0.0005970459051956973
1_2,XY,1260,126.93798509303717,0.8344269797719983,0.07759247037646189,0.0005782555916192166
1_2,XY,1281,127.9854452750536,0.9499346814988904,0.06967582331557715,0.0005876716483654698
1_2,XY,1302,127.0549016150345,0.8584717305220774,0.07966585116288652,0.0006180496023423741
1_2,XY,1323,127.79200107361328,1.0750997953268928,0.06478707180612682,0.0006177390953130828
1_2,XY,1344,126.28389945501604,0.8835339255906274,0.07486509026369584,0.0005982449974194995
1_2,XY,1376,127.84979105026616,0.9856552263065785,0.06987172787520769,0.000617842471246003
1_2,XY,1397,128.10721359058445,0.99302235996393,0.07652777878089138,0.0006710336992802379
1_2,XY,1418,127.27283324281751,0.9213857856550763,0.07170937476664116,0.0005873566351282239
1_2,XY,1439,127.21396731464553,0.923534635859949,0.07528526185666196,0.0006227355023491956
1_2,XY,1460,126.72516058669756,0.9989359557258037,0.06923299282614978,0.000618888406081653
1_2,XY,1481,126.51835208859521,0.9457819298242898,0.07626301828816313,0.0006479635807463556
1_2,XY,1502,126.77382159960332,1.0174056258061768,0.0680023386276504,0.0006246665054414697
1_2,XY,1523,127.10067935430618,0.847813322308051,0.07155638376422067,0.0005409462299609494
1_2,XY,1555,127.73650373083105,0.95068319443541,0.07142232969869038,0.0006064560434205584
1_2,XY,1576,127.66409193144904,0.980532513035372,0.06821954343464856,0.0005935367024816424
1_2,XY,1597,126.86391933665853,0.9220502271521801,0.06940632493281211,0.0005703180254107709
1_2,XY,1618,128.16807511185544,0.8444383267604906,0.07329876811218977,0.0005507256720996579
1_2,XY,1639,126.9818629413607,0.9630462873233939,0.07753064143557183,0.0006742409410981177
1_2,XY,1660,126.19003866206097,0.8691568849405819,0.08244136332600022,0.0006420481421098303
1_2,XY,1681,126.56686864040182,1.042229798483716,0.07392833423315871,0.0006948997045156117
1_2,XY,1702,127.18919176659824,0.8931377242188526,0.08018981860840169,0.0006416462590951161
1_2,XY,1734,127.53404750099737,0.9798111981297333,0.07175192211898945,0.0006341867560893851
1_2,XY,1755,126.91693889415897,0.8648227975420325,0.073298137570101,0.0005670419586002442
1_2,XY,1776,127.3557173959419,0.9051043325352263,0.07252878696172631,0.0005817174657958648
1_2,XY,1797,127.66410889688457,0.8674763638209287,0.07940805012160716,0.0006169962328627376
1_2,XY,1818,128.14134012306565,0.9540612488023039,0.0733854830841898,0.0006164557207724562
1_2,XY,1839,129.24235611028575,0.9792851949947247,0.06432966420383465,0.0005580653452977352
1_2,XY,1860,127.0606246217044,0.8781981193348033,0.07524749916051755,0.0005955996937340089
1_2,XY,1881,128.06750638365256,0.8045392018275129,0.07782963478863034,0.0005623829687707701
1_2,XY,1916,126.07572325219914,0.9646190459862166,0.07454834738088864,0.0006497245688020321
1_2,XY,1937,128.47349751344626,0.9082878444524717,0.07155008307030129,0.0005798678099583265
1_2,XY,1958,128.01541293353034,0.9158090734513962,0.06980799084166975,0.0005637730006705363
1_2,XY,1979,126.58123638926259,0.9363835854675733,0.07615814246533398,0.0006438354291059808
1_2,XY,2000,127.54072495913205,0.9628555784880781,0.07417418115202178,0.0006381626753621206
1_2,XY,2021,126.85677735567593,0.824372808226554,0.07933102465591371,0.0005915793118143306
1_2,XY,2042,127.99619157765497,0.9513993132186717,0.07311436506983876,0.0006220893764844684
1_2,XY,2063,127.1891869540126,0.8888855719522872,0.07871439240749865,0.0006223408506266493
1_2,XY,2095,127.06780380633928,0.8866082100016165,0.07212350296616105,0.0005727523344137068
1_2,XY,2116,126.71104953901168,0.847092999892316,0.07525382623915013,0.0005719949537382718
1_2,XY,2137,126.62082201569937,0.9719512640588464,0.07182236465540759,0.0006355626762492842
1_2,XY,2158,128.46029008340312,0.8676716286225379,0.07684758486793891,0.0005988855681918418
1_2,XY,2179,126.44232558055378,0.9670063974780709,0.07407638946643627,0.0006439655772183015
1_2,XY,2200,126.98173278187716,0.8356079342293409,0.07990868047224543,0.0005959229050211722
1_2,XY,2221,127.25704390652272,0.9770689304276325,0.07458445116211687,0.0006567794346057673
1_2,XY,2242,127.44018022942868,0.8742055315945434,0.07819577395755478,0.0006104624166277328
1_2,XY,2274,127.08091446343978,0.9228650962059202,0.07430665580493526,0.0006149314437126181
1_2,XY,2295,127.35233913210594,0.9150359067848272,0.07928564397769151,0.000650844674135529
1_2,XY,2316,127.63004039897618,0.9407601998912204,0.0731074411953937,0.0006106161693067881
1_2,XY,2337,127.03190437235209,0.919450691618812,0.07766223290595535,0.0006355967314969639
1_2,XY,2358,127.93552743453398,0.9255666079262858,0.07225895050796786,0.0005951402171690068
1_2,XY,2379,126.99240654808787,0.8896380006517207,0.07865716005935762,0.0006301478137899978
1_2,XY,2400,126.4014046851078,1.0118371079516808,0.07104612725634114,0.0006434284907232013
1_2,XY,2421,126.73148677376915,0.9383396087970777,0.07772468872308412,0.0006576474914964253
1_2,XY,2453,126.37565652163012,1.0138051403950852,0.07660814773592604,0.0007019188512416435
1_2,XY,2474,126.7019841671784,0.8859619192656791,0.08070141139269509,0.0006494274662821278
1_2,XY,2495,127.01253566001678,0.9975875558136497,0.0728743138127568,0.0006485752903781368
1_2,XY,2516,127.29581312429464,0.8398204746354895,0.07833727281585465,0.0005917973301089939
1_2,XY,2537,126.61088346655472,0.9113126596130272,0.07444386111489486,0.0006190002186763565
1_2,XY,2558,126.46324615526144,0.9542531636901121,0.08318701862088534,0.0007170462695342417
1_2,XY,2579,127.01908435276322,0.9150794184301917,0.07604785187089075,0.000620647756257845
1_2,XY,2600,127.01239725092233,0.8528555142967625,0.0808393128939425,0.0006167186312310719
1_2,XY,2632,127.58526850017422,0.9286080721676264,0.0743468406790227,0.000618514558896383
1_2,XY,2653,127.101210191865,0.934838607625458,0.07709872219582013,0.0006442394274470548
1_2,XY,2674,128.05429737361843,0.8944377518874165,0.07190304448836522,0.0005741805631709213
1_2,XY,2695,127.18490794094836,0.840290838274505,0.08130910708072055,0.0006168607283344934
1_2,XY,2716,128.46827488439763,0.9447716734051586,0.06835451956005113,0.0005667304559779762
1_2,XY,2737,126.46531163583383,0.9020688752313494,0.07796981588471942,0.0006345687013818007
1_2,XY,2758,126.98860865128576,0.9902922163170692,0.07155191213812373,0.0006434615018153567
1_2,XY,2779,126.56993906194333,0.936655629028151,0.07742941265831235,0.0006533838666866159
1_2,XY,2818,126.95319515329973,0.8757212569339192,0.07595216100854892,0.0005961961920490941
1_2,XY,2839,127.00607488186267,0.8455815863238894,0.07997028225274962,0.000611826513680994
1_2,XY,2860,127.89905406060039,0.9632909009493509,0.07439016970523915,0.0006346603261189512
1_2,XY,2881,126.62593675049045,0.9092490938670611,0.08028237103958043,0.000657724167839255
1_2,XY,2902,127.27290731915171,0.9969967599728778,0.07489556021548688,0.0006690460216366083
1_2,XY,2923,127.1380659906746,0.8655846827282718,0.07950590867109103,0.0006224272261195546
1_2,XY,2944,126.97466598147035,0.9334099263167238,0.07195244801563995,0.0006027640433541884
1_2,XY,2965,126.9037553284581,0.9452519371593796,0.0754327004564202,0.0006422685416978949
1_2,XY,2997,127.6241244130507,0.9201184582533742,0.07225059854770895,0.0005902337896503288
1_2,XY,3018,128.1265131856562,0.8468121089860522,0.0769131491966808,0.00058174211406168
1_2,XY,3039,126.77248267976199,0.904110766139826,0.07023657781354126,0.0005671332958716305
1_2,XY,3060,125.99862364810681,0.8588405222768069,0.07610807596723045,0.0005940016773029235
1_2,XY,3081,127.10483389995599,0.9497200040022253,0.07285485834517808,0.0006200149364260781
1_2,XY,3102,127.8482677415503,0.8469138967796854,0.0783462601507091,0.00059666070591988
1_2,XY,3123,126.6092231023189,0.9322927875789934,0.07586294711314584,0.00064165127884485
1_2,XY,3144,126.84372347603228,0.964690878262609,0.08076154416829956,0.0007015735210757422
