XscanNumber_YscanNumber,Type,BCID,xsec,xsecErr,SBIL,SBILErr
1_2,XY,103,301.2427090137274,2.8414047621747387,0.06769787264569073,0.0007450234061444092
1_2,XY,124,295.1761598398582,3.00814781870175,0.08168643232348038,0.0009524345449736732
1_2,XY,145,296.13568880938726,3.093805732260018,0.06641493466760964,0.0007950685298890635
1_2,XY,166,295.02742405238996,2.900631510912061,0.07690567655895697,0.0008722805163788324
1_2,XY,187,299.61479890683137,2.883851791558571,0.06531301258320382,0.0007125581132722704
1_2,XY,208,300.3668892579465,3.0874376608534226,0.06885285706991692,0.0008107565517488891
1_2,XY,229,294.66635920090283,3.0482342215444187,0.070891962298132,0.0008288285947362143
1_2,XY,250,293.8666156309913,2.8637869554133424,0.07967430882841003,0.0008894401084262224
1_2,XY,282,295.3424043464296,2.7572546781241107,0.07597609857197091,0.0008118908977157945
1_2,XY,303,296.80182742682047,3.0065145039169905,0.07940656541886457,0.0009223811302589103
1_2,XY,324,297.91169356794387,2.9967879662077768,0.07173606169898242,0.0008233995641356204
1_2,XY,345,295.6919235532685,2.563322339412434,0.08134195973555551,0.0008108081603430265
1_2,XY,366,295.80826164819325,2.7086202811319824,0.07339311573094764,0.0007577449183215598
1_2,XY,387,294.4391135966966,2.762078330623857,0.08255581871066452,0.000894153819334535
1_2,XY,408,294.6174387359317,3.0054164765999953,0.07046625098579504,0.0008194535455938763
1_2,XY,429,295.95382251493646,2.8837870437130952,0.07829779583496493,0.0008643567109901444
1_2,XY,464,297.6164905197688,3.0228890665160635,0.07565163034824854,0.000886810647949221
1_2,XY,485,297.2777527980161,2.992117376969291,0.07897768357549002,0.0009131693990907856
1_2,XY,506,296.779122555699,2.9126210391544536,0.06813838476620392,0.000760948551296043
1_2,XY,527,294.273214211012,2.8163849626215827,0.07548489018558296,0.0008285589648485671
1_2,XY,548,299.9359956673369,2.745843285867497,0.07304176674314053,0.0007783742927216391
1_2,XY,569,297.7980454001791,2.0167152906710517,0.08134269153484232,0.0006352163661421573
1_2,XY,590,296.5926053317743,3.5290806128312378,0.07113934642949009,0.0009547194520837766
1_2,XY,611,294.9708627423838,2.7763760943836155,0.07958937462100167,0.000855107190508144
1_2,XY,643,301.25970798553413,2.641700674597917,0.0741080714554123,0.0007468981052175675
1_2,XY,664,297.842456701515,2.9075304104511592,0.07776307872980717,0.0008624198452970441
1_2,XY,685,295.79981553767647,3.1279288172384905,0.06807380068461748,0.0008256795062538378
1_2,XY,706,300.89181945363924,2.4898418903725577,0.07389884151184346,0.0007041966496300333
1_2,XY,727,296.3819807466649,2.9270819259112026,0.07045473061922035,0.0008008423019480401
1_2,XY,748,293.7687485517133,2.9895153118726605,0.08132291412674558,0.0009540986287791882
1_2,XY,769,297.9613718947694,2.9171803740055178,0.06524116045534509,0.0007314283314455088
1_2,XY,790,298.22853500892876,2.734621115462946,0.0728979040333713,0.0007638133669119267
1_2,XY,822,302.45314711247926,2.749119195785382,0.07227011534156826,0.000750149412659018
1_2,XY,843,298.48558868548656,2.2506185388090483,0.07808182858525556,0.00065637831339596
1_2,XY,864,296.7394466052225,3.1366796317955368,0.07196326852817762,0.0008761512225434812
1_2,XY,885,296.42409692536046,2.6467006374630646,0.08267061481747418,0.0008518465738068296
1_2,XY,906,295.37379327377096,2.475146185305758,0.07005916277706885,0.0006771445226277624
1_2,XY,927,297.2737081113604,3.2555418064237007,0.0801141472236195,0.0010029031006984755
1_2,XY,948,298.2833274851755,3.146946938710837,0.06966862906424903,0.0008520377703191592
1_2,XY,969,284.4011328249624,2.071357011866362,0.08295786378607885,0.0007178205693459273
1_2,XY,1018,296.17386062971593,2.738672305156449,0.07682839058318125,0.0008143050842833785
1_2,XY,1039,295.5902452496912,2.9675632134966627,0.08018932511709242,0.0009219208285739212
1_2,XY,1060,295.45585936217185,2.7288005847626615,0.07080369282049032,0.0007458461499912462
1_2,XY,1081,298.4088523840042,2.530330260879798,0.07827901933515469,0.0007511680182713937
1_2,XY,1102,298.24900693939253,2.963777658618414,0.06863310236204657,0.000786987847312556
1_2,XY,1123,297.2303814659021,3.128423792382934,0.0767437609546661,0.000923036692564518
1_2,XY,1144,296.87812305258285,2.71017291580588,0.07050918836858079,0.0007301194303777905
1_2,XY,1165,295.82406174260626,1.8843370575970906,0.08179955785502259,0.0006039929038286383
1_2,XY,1197,300.24512013522195,2.699693828807528,0.0724788982421187,0.0007531665866993501
1_2,XY,1218,298.5610361558745,1.7009833643752366,0.08010461588899463,0.0005385653548877526
1_2,XY,1239,296.42358600679916,2.77890846083986,0.07080158965600436,0.0007555507728641726
1_2,XY,1260,299.49537911125,3.009516987260211,0.07970298544743055,0.000918250054255954
1_2,XY,1281,298.41994797309655,2.4962447273670456,0.07079239522412752,0.0006836271139928521
1_2,XY,1302,296.7041597043167,9.039824544694085,0.08059316701500767,0.0024853255175701413
1_2,XY,1323,297.39797327337493,3.4784507892623315,0.06623675677379934,0.0008849120892343282
1_2,XY,1344,294.82271441426985,2.8400632240701245,0.07823263685968812,0.0008705622231640584
1_2,XY,1376,296.828667811689,2.608904507014199,0.07273021984634598,0.0007164783482451869
1_2,XY,1397,298.8730369857279,3.0123579398912455,0.07584894126487389,0.0008653551830153117
1_2,XY,1418,296.7731495890619,2.601918564961658,0.0738145501159091,0.0007440612523768965
1_2,XY,1439,305.64362189245196,2.838287092463778,0.06570460853696064,0.0007009683230340725
1_2,XY,1460,295.40347668919634,3.118620345460078,0.07170414794695881,0.0008610001461353332
1_2,XY,1481,299.10249754363446,3.1112455850904177,0.07709099794918424,0.0009284923450340128
1_2,XY,1502,297.1489962909667,2.835042571792693,0.06982203154166976,0.0007603338027118142
1_2,XY,1523,302.7379008306912,2.8610472092736856,0.06490131171575475,0.0007051267830974187
1_2,XY,1555,303.5256329610417,3.2328512766807718,0.06546753008802741,0.0008013131181248217
1_2,XY,1576,304.0930317283978,3.20545474484049,0.06909971769814836,0.0008282667910174455
1_2,XY,1597,304.0021685654926,2.5199041870374743,0.060465609900359846,0.0005666491987115991
1_2,XY,1618,303.438380858805,2.703957087947708,0.06825958989121131,0.0007009364789857077
1_2,XY,1639,297.84354293129974,2.717512374490014,0.07999746171922861,0.0008340024963850717
1_2,XY,1660,296.05002108355035,2.575215533875956,0.08504612594328519,0.0008578742846302146
1_2,XY,1681,296.11131210332235,3.0181443525975586,0.0775935403730479,0.0008944329273249163
1_2,XY,1702,296.58239091506687,2.4341837401785207,0.08212659261575307,0.0007912374900689207
1_2,XY,1734,297.0532800128967,2.8834562917453583,0.07502382892541712,0.0008388455339090079
1_2,XY,1755,302.7630837705685,2.811988241868517,0.061900864548429725,0.0006627960899623011
1_2,XY,1776,296.8809389114411,2.8328671013452253,0.07527001401919058,0.0008193745253289243
1_2,XY,1797,295.44311202496743,2.7669445092731997,0.08216049322318833,0.0008794059985540989
1_2,XY,1818,296.8538289805735,3.363002430007099,0.07089522553185741,0.0009200003770596725
1_2,XY,1839,305.2023775995031,2.867340524251626,0.062380667241606756,0.0006693797640047347
1_2,XY,1860,297.03151218024857,3.0068170205530884,0.07880605483555976,0.0009138794112103309
1_2,XY,1881,298.1582963258452,2.7605682998662395,0.08148122105550301,0.0008720272401042784
1_2,XY,1916,297.8002938121191,2.850798968624584,0.0770350829583696,0.000848141030555691
1_2,XY,1937,304.7076239857851,3.1131607621554385,0.06501876307927344,0.0007612147057568354
1_2,XY,1958,297.6898181482882,3.2216736686530547,0.07299245204350543,0.0009004384912585095
1_2,XY,1979,296.9998294356422,2.9522326486553143,0.07894425475612137,0.0008982917753965198
1_2,XY,2000,299.0446062494762,2.830237254577573,0.0770014718673105,0.0008245542540815203
1_2,XY,2021,300.33266573504295,2.7024406697786936,0.08028460868376035,0.0008228619937459851
1_2,XY,2042,294.42400054290243,2.901309008172271,0.07726131579290381,0.0008704469825776372
1_2,XY,2063,298.11590209767377,2.766628731076915,0.08052842380334106,0.0008558510269536152
1_2,XY,2095,297.02694845036746,2.7939497432321474,0.07494765349125714,0.0008019054824904105
1_2,XY,2116,297.48974048395297,2.8256615726958603,0.07708197576085404,0.0008405995154121851
1_2,XY,2137,296.24006655764157,2.904022236525775,0.07568523298581138,0.0008441116857692663
1_2,XY,2158,297.97300753964544,2.665895041400927,0.08066424130517166,0.0008207278113759063
1_2,XY,2179,297.8068520798346,3.0332961092673565,0.07599083249672049,0.0008900220687960724
1_2,XY,2200,296.2303974010637,2.423779015758157,0.08228786903970013,0.0007733314037130925
1_2,XY,2221,298.8945235057668,2.7659847770696606,0.07725772949462612,0.0008283942590164227
1_2,XY,2242,296.68558558956425,2.789563569691869,0.08069775876183263,0.000867819612969835
1_2,XY,2274,298.3058881655444,3.021955440793799,0.07653270632033235,0.0008870621782618477
1_2,XY,2295,296.38825102316713,2.497264349574267,0.08252635900210163,0.0007910728716139779
1_2,XY,2316,299.1087608502965,3.1136987536453455,0.0754839404316382,0.0009108013827623689
1_2,XY,2337,300.55339665186085,2.944316206257825,0.0769391964520434,0.000857180011846637
1_2,XY,2358,302.7810766055498,3.450777981604622,0.06774428177400663,0.0008781583136154189
1_2,XY,2379,296.0503936691533,2.700340455581493,0.08078364879898098,0.0008486302625833916
1_2,XY,2400,299.06232179319244,2.1272690853310547,0.07185492623169741,0.0005981655166285288
1_2,XY,2421,298.32887104403125,2.697937009379941,0.07963483705450883,0.0008193218564161223
1_2,XY,2453,299.5844964457547,2.622433072698748,0.07882186943221448,0.0007888466057717949
1_2,XY,2474,296.7754183699626,2.811065469722896,0.08213072293445206,0.0008973302989277673
1_2,XY,2495,298.8258613999847,2.823449289021234,0.07510065260002341,0.0008160714816614498
1_2,XY,2516,297.1084883265783,2.6018348841525234,0.08033229882511785,0.0007979965347066343
1_2,XY,2537,297.8924391784252,2.7968395871929306,0.0769967218088627,0.0008195990464208937
1_2,XY,2558,295.0752420252765,2.8091219264625895,0.08406048192957184,0.0009140061877197202
1_2,XY,2579,301.1800015475462,2.919242386224783,0.07793408133093081,0.0008662823454217579
1_2,XY,2600,297.35130210248604,2.9646527681979498,0.0820740695400143,0.0009380747281525467
1_2,XY,2632,297.3190839967572,3.0297303745897897,0.07715778517813451,0.0009046845363443478
1_2,XY,2653,296.67936189617416,2.9922433101383548,0.07984848586292108,0.0009223910258720259
1_2,XY,2674,296.28724884096556,3.017602647491745,0.06914876349168499,0.0008100790160028512
1_2,XY,2695,299.15892333794585,2.6514731922400934,0.08199200198696105,0.0008424653952558573
1_2,XY,2716,295.26537716400486,3.4973166686680424,0.06956095251946662,0.0009285015464933179
1_2,XY,2737,295.2265190313312,2.665237602661109,0.08068593358220155,0.0008291039069178343
1_2,XY,2758,293.11830166620484,3.107676366538114,0.07568108631764554,0.0009142542488897951
1_2,XY,2779,297.31276896177025,2.8417744326999905,0.07933644542302334,0.0008791477050718552
1_2,XY,2818,297.8474908111009,2.9168428709494387,0.07786348488596385,0.0008650935403145256
1_2,XY,2839,295.0534056143995,2.850010500173913,0.08317056200807613,0.0009339607642484957
1_2,XY,2860,295.802781120065,3.166600879380246,0.077921121608789,0.0009379764950054756
1_2,XY,2881,296.15696106248305,2.87809334705757,0.08268020716778912,0.0009254474709272879
1_2,XY,2902,298.5451727257474,2.879687476442215,0.0775298945106634,0.0008597337054559759
1_2,XY,2923,296.7030318584172,2.8714602998602627,0.0826697736455792,0.0009323651025024724
1_2,XY,2944,296.6561386668449,2.9422940508754465,0.07495718967214823,0.000849639492472505
1_2,XY,2965,296.5240729516523,2.864625903325111,0.07851156255286362,0.0008716698727522166
1_2,XY,2997,299.35230703267445,2.5372195732705367,0.07565429452765103,0.0007228992334235963
1_2,XY,3018,296.32655259135817,2.9728597187071113,0.0814947620716933,0.0009257804462035745
1_2,XY,3039,293.0157503312172,3.224534063157891,0.0737252731859727,0.0009314617137322818
1_2,XY,3060,298.642725673856,2.938849427234458,0.07750954306444795,0.0008715824031006518
1_2,XY,3081,297.27455117836985,2.88184334138288,0.0755749758924479,0.0008423871125319278
1_2,XY,3102,295.744048858192,2.8989227635841313,0.08202624324687635,0.0009171813006323937
1_2,XY,3123,300.01766335374623,2.8448349274319487,0.07694963011912281,0.0008372834604382126
1_2,XY,3144,297.5786116236532,2.642259406393592,0.08242293048120215,0.0008354038102261991
