Scan,Type,BCID,sigma,sigmaErr,Mean,MeanErr,CapSigma,CapSigmaErr,peak,peakErr,rate0sep,rate0sepErr,peakRateRatio,peakRateRatioErr,area,areaErr,fitStatus,chi2,ndof,covStatus
1,Y,103,0.08324289145947215,0.00030597424923774853,0.00035992998601166564,0.000517790195849967,0.11772322607313701,0.00043271293300894964,0.001385863448073901,8.42513856813865e-06,0.001428221421545504,1.9124938724624758e-05,0.9703421522513179,0.014269978077820185,0.00040895218185431294,2.905260035639459e-06,0,203.16686809035656,22,3
1,Y,124,0.07935823525927513,0.00027727354763156913,0.0011569473676196146,0.000515986894194602,0.11222949258966164,0.00039212401154786747,0.001483994512109,8.658240824334281e-06,0.0015322016076069554,1.713175964133643e-05,0.9685373678903477,0.01221502965659101,0.00041747380330870896,2.8390698425070514e-06,0,168.1747592439409,22,3
1,Y,145,0.0810299245428412,0.0003493337307736761,0.002449532837348642,0.0005679151357034233,0.11459361824655456,0.0004940324998545242,0.0014458030499758209,1.0580858079574755e-05,0.0015108874352877358,1.9310171721640708e-05,0.9569230746170576,0.014093229791279163,0.00041529767815514415,3.5274416999311574e-06,0,126.360146512804,22,3
1,Y,166,0.07855647081771543,0.0002683011299402101,0.0019453024942971792,0.00047873889178511465,0.11109562644257942,0.00037943509676147125,0.0015098123135913978,9.005495330124373e-06,0.0015688229842409042,1.74555419025148e-05,0.9623853862148384,0.012149575855094796,0.00042044564597258497,2.889838211962332e-06,0,199.6095095764108,22,3
1,Y,187,0.08106935479549614,0.0003207989122833156,0.0004883297211168984,0.0005968734488941785,0.11464938104462696,0.00045367817254560183,0.0014373504230451727,8.32142273640446e-06,0.0014693154781556259,1.78178231789845e-05,0.9782449340623719,0.013145375581435222,0.00041307062310001763,2.8966808910762736e-06,0,115.11966703210038,22,3
1,Y,208,0.0802876937114547,0.000261616573877311,0.002884261604643146,0.00047858244160896074,0.11354394533839629,0.000369981706918876,0.0014888566156402432,7.123149588028996e-06,0.0015283424856278407,1.4138334322118176e-05,0.9741642528694235,0.01014564021836808,0.0004237471496198886,2.4528833679561708e-06,0,200.3259142551712,22,3
1,Y,229,0.0800536553627159,0.00032152597148350635,0.001498548544451566,0.0005470968099001154,0.11321296513149448,0.0004547063895271597,0.0014548709353369763,9.356535472848111e-06,0.0014985616791005707,1.7340655835964055e-05,0.9708448812131527,0.012852623692654209,0.0004128673759707579,3.130487192554429e-06,0,137.40869302517228,22,3
1,Y,250,0.07821168172085383,0.000269244947657168,0.002066660044210677,0.0004957357420027723,0.11060802102563938,0.0003807698565772011,0.0015198220978484662,8.100057832315148e-06,0.0015903388636480972,1.4384353211316823e-05,0.9556592828034952,0.010032774101962535,0.00042137552927431154,2.6735156306089375e-06,0,216.94252954920907,22,3
1,Y,282,0.08181063182035465,0.00028153878811367015,0.0028131910052235747,0.0005206546832955167,0.11569770506665744,0.00039815597248443746,0.0014178107089953009,8.201251813856554e-06,0.0014672809411712254,1.4169499011314432e-05,0.966284417122984,0.010877334910277845,0.0004111808983610996,2.767546957399107e-06,0,172.61933848254282,22,3
1,Y,303,0.07830959570444461,0.00029982153273086395,0.0033449350652207622,0.0005194558977140532,0.11074649230917943,0.0004240116778794767,0.0015049646534191566,8.949951231528628e-06,0.0015531122923869232,1.5244631387890381e-05,0.9689992544622963,0.01112075982648791,0.00041777862263122755,2.9548774953395493e-06,0,159.05547848146475,22,3
1,Y,324,0.08044117644673252,0.0003078810533519133,0.00112022058170101,0.0005323116508531381,0.1137610027042163,0.00043540956124799024,0.0014696812250360118,8.244240695543072e-06,0.001522672552038657,1.7130642801671494e-05,0.96519847492378,0.012133815492509033,0.00041908922174762106,2.845983516217561e-06,0,134.25689529740072,22,3
1,Y,345,0.07844369581899845,0.0002886605858075742,0.0006466922843583212,0.00048699949234586477,0.11093613850989725,0.00040822771537163405,0.0015198776488583188,8.37671872752555e-06,0.0015671819845094845,1.8865298970437565e-05,0.9698156716203118,0.012839814534954612,0.0004226409825556256,2.800845832381557e-06,0,201.92775983542685,22,3
1,Y,366,0.07960180762282133,0.00029887627157354436,0.0021792083861743804,0.00044205272755302555,0.11257395592960795,0.00042267487673081083,0.0014786200448265586,8.007638497480012e-06,0.0014947245177880117,1.9093844521917677e-05,0.9892257919303515,0.013725234803629468,0.00041723857294706073,2.749543071520401e-06,0,173.22084263532744,22,3
1,Y,387,0.07828660486613202,0.0002953033181822783,0.0007993589530518199,0.0004996208262293062,0.11071397835382746,0.00041762195758715537,0.0015256407630566894,8.575802761980628e-06,0.001571391018478924,1.7956440368145275e-05,0.9708855053362084,0.012364047726287844,0.0004233939763085801,2.8661465610046953e-06,0,144.20526031572078,22,3
1,Y,408,0.0800778376328656,0.00029099715240416744,0.0020969224553435794,0.0005150532644280566,0.11324716402590917,0.00041153211954192415,0.0014561000709633692,8.145422607205418e-06,0.0015171423353407742,1.4633841485594503e-05,0.9597649719769411,0.010701771666119863,0.00041334100614404183,2.7572746603165487e-06,0,183.16657281613695,22,3
1,Y,429,0.07812497223231375,0.0002555880941286103,0.003023394493563377,0.00045810367786587315,0.11048539529095958,0.0003614561490977719,0.0015340641499921408,8.650319958771485e-06,0.0015701922920764316,1.9666167321991028e-05,0.9769912626201249,0.013419469956585668,0.00042485264746324164,2.769676055223522e-06,0,216.88504325764598,22,3
1,Y,464,0.08132867865558503,0.0002966007657774825,0.0011391463598411852,0.00048243038341422377,0.11501612036461162,0.00041945682557276154,0.001401204445808853,9.431374026403355e-06,0.0014669117543323824,1.960909587882673e-05,0.9552070475067984,0.014296163870784032,0.00040397096801174544,3.0925619973105785e-06,0,164.31928846859282,22,3
1,Y,485,0.07924858683126307,0.000268307276566429,0.002702627488724617,0.0004651652406841172,0.1120744262956741,0.0003794437894036329,0.0014944366391923068,8.957181552978837e-06,0.0015693780560752956,1.9140848090629025e-05,0.9522476967274524,0.012940683774486823,0.00041983047974804625,2.8900325965560796e-06,0,218.55860267922418,22,3
1,Y,506,0.08017086577865314,0.000337639578950409,0.0006978084827131058,0.0005328757896642194,0.11337872569136431,0.00047749447174560977,0.0014633522420720217,9.232545746460993e-06,0.0015171043932013766,2.032328927542119e-05,0.9645692469349932,0.014282834921383134,0.00041588224812065034,3.1547463945592514e-06,0,97.50381864774268,22,3
1,Y,527,0.07913992891448556,0.00027978665589308563,0.001111157544591115,0.0005059878441670149,0.11192076079610813,0.000395678083335016,0.001493307071745719,8.482379810506228e-06,0.0015443039850104993,2.112378673427045e-05,0.9669774126339294,0.01432195103919957,0.0004189379561469742,2.802943762548206e-06,0,118.7999012733288,22,3
1,Y,548,0.08011072930386251,0.00029473101470408176,0.0008086618947800222,0.0005512412812470065,0.11329367987312211,0.0004168125982464965,0.0014718582457461606,9.376540988496594e-06,0.0015174211062349912,2.086739665672206e-05,0.9699734896914142,0.014700719608228276,0.00041798587190203907,3.0749455214333847e-06,0,128.72483728814055,22,3
1,Y,569,0.0789989292269306,0.00029551290314580716,0.00156770551386855,0.0005502150780730797,0.11172135712567755,0.0004179183554850474,0.001517891516388704,8.958356321442105e-06,0.0015523925004240398,1.8947099202124895e-05,0.9777756050574119,0.013255842965916437,0.0004250762792298152,2.970207568600826e-06,0,123.12881610268148,22,3
1,Y,590,0.07962643829260128,0.0003010748438606722,0.002003949196099984,0.0005280421963212104,0.1126087889568611,0.0004257841274771246,0.001471662137632177,8.307961692752852e-06,0.0015281884020073497,1.669188643149014e-05,0.9630109322247684,0.011840487701476086,0.00041540367921311393,2.8224828529571266e-06,0,164.9130140023826,22,3
1,Y,611,0.07859925099080349,0.0003104102699452153,0.0008992621478603504,0.0004905434602272893,0.11115612674356123,0.000438986413656417,0.001499423061779019,9.261964300268564e-06,0.0015440126118487917,1.992960502557733e-05,0.9711209936190991,0.013896313903036887,0.0004177798846730829,3.0629948873314316e-06,0,197.5033061172958,22,3
1,Y,643,0.0809916764830263,0.0002817727948507216,0.001816977175455975,0.0005500747779568378,0.11453952732162986,0.00039848690798566233,0.0014392087657443171,8.126288321127733e-06,0.001484325629140978,1.2734426475098468e-05,0.9696044705346958,0.009958418090917201,0.00041320837585734214,2.7404482660920013e-06,0,149.64828254972198,22,3
1,Y,664,0.07981159233443486,0.00030823024715530067,0.0012210917562918136,0.0005584068596732342,0.11287063631395033,0.0004359033958606373,0.0014771517387508503,9.766105811557496e-06,0.001518414868744967,2.406590912017484e-05,0.9728248643743705,0.016706366227332653,0.00041792275443279346,3.199935729524343e-06,0,127.25120659382091,22,3
1,Y,685,0.08091393127648426,0.0002829186264250643,0.001564861376079625,0.0004902605591795353,0.1144295789961286,0.00040010735853829305,0.0014189749251213187,7.3926611634839466e-06,0.0014506361992363908,1.3812254126980314e-05,0.9781742147812535,0.010616768294309032,0.00040700800908920773,2.553741640118686e-06,0,96.42429422269993,22,3
1,Y,706,0.08388572238660315,0.0002914285999859721,0.001090510107023629,0.0005614617077583703,0.11863232628859854,0.00041214227856356533,0.0014255483134889661,7.2675522127918856e-06,0.0014202769104909915,1.202081726369196e-05,1.0037115318562437,0.009917199189242712,0.0004239112297042383,2.6152210290298595e-06,0,79.45243129937012,22,3
1,Y,727,0.07979760984821377,0.0003199900589757702,0.0019841292570192946,0.0005875343312814417,0.11285086209230077,0.0004525342812281008,0.0014602337438404942,9.22200704110663e-06,0.0015062423464530738,1.6664691419954085e-05,0.9694547144283113,0.012350232320577852,0.0004130638564627703,3.0901192980384724e-06,0,117.03259145441699,22,3
1,Y,748,0.07823778556680584,0.00030536821518378565,0.0014960627105621571,0.0004974843398971892,0.11064493743861481,0.00043185587143057536,0.001505049133056891,8.578241442566423e-06,0.0015681946031178072,1.4904461661481459e-05,0.9597336517193891,0.0106359993568466,0.0004174189484292202,2.8835143187242365e-06,0,224.25993869905966,22,3
1,Y,769,0.08083263864117507,0.00027985969555034836,0.002708971286372338,0.0005381998052044568,0.1143146138487533,0.00039578137700890803,0.0014393622425560276,7.825878770114333e-06,0.0014915228336006819,1.5104655742835563e-05,0.9650286339105292,0.011092274914241572,0.0004124409645944285,2.6585132740173444e-06,0,146.2484073553057,22,3
1,Y,790,0.0782923290150622,0.0003219370484818362,0.001333997905457569,0.0005378851347836287,0.11072207352287755,0.0004552877401933775,0.0014946441581238192,8.729458889259737e-06,0.0015401832261716696,1.792680158731847e-05,0.9704326944521765,0.01263751114840783,0.0004148221647497521,2.962997736047203e-06,0,165.76318020002188,22,3
1,Y,822,0.08192989255360425,0.0003271617241719463,0.0025750312498016743,0.0005465091690607211,0.11586636521307758,0.0004626765474133321,0.0014144274189548725,7.144002488329246e-06,0.0014808903840105114,1.547916136368445e-05,0.9551195917177573,0.011087931005520607,0.00041079768162729786,2.6449835052705176e-06,0,119.68600438532157,22,3
1,Y,843,0.08295520669425956,0.00026331908288532786,0.0022170966010085207,0.00048624139414326083,0.11731637837648523,0.0003723894182480758,0.0014190697047935053,8.512063074759722e-06,0.0014557985873805937,1.7721972880166936e-05,0.974770629051664,0.013228574505145156,0.00041730377202096175,2.8320091250357318e-06,0,115.25023961463377,22,3
1,Y,864,0.07975912135796019,0.0003234194008457253,0.001773609956079067,0.00048499277081875773,0.11279643114738891,0.00045738410301060517,0.0014592349749959492,8.899198614444699e-06,0.0015355681855588387,2.8261494279652526e-05,0.9502899244196639,0.01842486650582806,0.0004125822342504494,3.021578027835407e-06,0,129.2534036640918,22,3
1,Y,885,0.07713234616653317,0.0002964454363721618,-0.0003345919987332666,0.0004944576569941926,0.10908161004636763,0.0004192371566211217,0.0015261063039114493,8.130116912144747e-06,0.0015550142498785403,1.572971039721686e-05,0.9814098514085328,0.011220035583394575,0.00041727874158904087,2.741111079433774e-06,0,170.56586144281766,22,3
1,Y,906,0.07989812360538096,0.00032994927868384256,0.0010874035941031575,0.0005495617805420306,0.11299301001089168,0.00046661874480991017,0.0014513376462596324,8.630941410205728e-06,0.0014893209438941637,1.4658822003831831e-05,0.9744962307887678,0.011206395743902675,0.0004110645004284426,2.976154394607048e-06,0,161.65004380565182,22,3
1,Y,927,0.07794811388490168,0.0003111950672446408,0.001500205999097013,0.000507992280557622,0.11023527981743053,0.0004400962846409784,0.0015210529959837783,9.250661812844947e-06,0.001621617695852116,1.6307475783310616e-05,0.9379849516161738,0.011023492566388949,0.0004202956439229565,3.057673556333294e-06,0,211.5569145056107,22,3
1,Y,948,0.08069639330478838,0.00028844807397581464,0.00020487247779429622,0.000554928572990993,0.11412193384622515,0.00040792717825699487,0.0014475729616613721,7.948085268641017e-06,0.001508230067188058,1.3223309734766066e-05,0.9597825909678522,0.009928760695954322,0.000414094554234944,2.7129971596171313e-06,0,193.48701758341647,22,3
1,Y,969,0.07906819957042352,0.00028259433270365206,0.0012960959926838736,0.0005035847031485925,0.11181932018491547,0.00039964873795927947,0.0015021908298666596,8.33048464359782e-06,0.0015594189944051675,1.7989082467747038e-05,0.9633016112130035,0.012329769473934509,0.0004210482709796548,2.777868687323989e-06,0,198.5475601135918,22,3
1,Y,1018,0.08021871067381618,0.00027859935840182485,0.0009588460317954656,0.0005279139293286978,0.11344638859099421,0.00039399899112030345,0.0014755024234763606,7.71916011349088e-06,0.0015282103656080225,2.0563269694823172e-05,0.9655100218413378,0.013939076760054786,0.00041958556293461184,2.6347431823290673e-06,0,192.32554862626355,22,3
1,Y,1039,0.07783984289955906,0.0002776764011134412,0.0012824448644898699,0.0004809924446564662,0.11008216152154748,0.00039269373240558014,0.0015178494473151855,9.165871795738116e-06,0.0015580112839682833,1.543127708364126e-05,0.9742223711301982,0.011301177304085917,0.0004188278761945478,2.9375229058809814e-06,0,157.20115144824496,22,3
1,Y,1060,0.07866070282986705,0.0002913958959602066,0.002240975825419539,0.0004980407502500583,0.11124303276779768,0.0004120960280867836,0.0015010181566462537,8.17921558223176e-06,0.0015493469623730223,1.4074514987156548e-05,0.9688069832642607,0.010262715216268346,0.00041855130475726535,2.7578652041572376e-06,0,128.58263287947224,22,3
1,Y,1081,0.08057118191439645,0.0002705581792432894,0.0009787237020132144,0.0004864423480485463,0.1139448581997693,0.00038262704649683066,0.0014837094125915423,7.585549149986792e-06,0.0015254375699106952,1.3623427642039144e-05,0.9726451228537686,0.010009175805131049,0.0004237732296945058,2.592107506117958e-06,0,111.80805250435817,22,3
1,Y,1102,0.07900898467298056,0.00032433035398868337,0.0036618396238662435,0.0005544842296884085,0.11173557767385711,0.00045867238530006293,0.0015147737471888098,9.133710561812411e-06,0.0015007570111272035,2.4742650225475965e-05,1.009339777164245,0.017718781356701508,0.000424257162006053,3.0947162230722247e-06,0,138.53664733822322,22,3
1,Y,1123,0.07657562608164276,0.00029832752811008244,0.0032573535029432497,0.0005250639952865232,0.1082942889518701,0.00042189883628251934,0.0015533510607445512,9.868506160303965e-06,0.001608252403921821,1.7924284293902045e-05,0.9658627320914369,0.012390799039499098,0.00042166262359230307,3.142414820983465e-06,0,161.82091562023902,22,3
1,Y,1144,0.07992760281664406,0.000301623019623645,0.0013641396911828621,0.0005094309316912067,0.11303469991126802,0.0004265593650756849,0.0014669131049611487,8.810721277365964e-06,0.0015136711308992277,1.8138495285942804e-05,0.9691095212271761,0.012990069772881262,0.00041562925455868624,2.94822918383017e-06,0,115.55193774783417,22,3
1,Y,1165,0.07807552139346186,0.0002825343848820012,0.0011366553703101416,0.0005229159867230362,0.11041546124398449,0.000399563958936866,0.0015093557622954275,8.264974305935875e-06,0.0015799559915792185,1.4870524394337037e-05,0.9553150659511574,0.010402420187228653,0.0004177451748343617,2.7418829883008963e-06,0,172.51257445581277,22,3
1,Y,1197,0.08024037843678163,0.00030720435827875323,0.0020175666648801593,0.000527702851786852,0.11347703143524623,0.00043445256989793624,0.0014649307451743553,7.403719568532069e-06,0.0015008680482913226,1.303342409626889e-05,0.9760556544874944,0.009806963741826054,0.00041669183836151754,2.641985227615355e-06,0,107.27826019355344,22,3
1,Y,1218,0.07743152726400208,0.0002490958517015125,0.0016841891968379372,0.00042409172074100163,0.10950471601201384,0.0003522747318071562,0.0015432816197718659,8.228755667047738e-06,0.001574237465764596,1.724772230833867e-05,0.9803359742948977,0.011945193752416525,0.00042361169472843863,2.6379496991981144e-06,0,161.89858605172788,22,3
1,Y,1239,0.07927696803608823,0.0002802567025289787,0.0007524998990191783,0.0004889622003296026,0.11211456338045434,0.00039634282966244383,0.0014854877989189216,9.502561845166366e-06,0.001506575112414398,1.9783214724518602e-05,0.9860031449333566,0.014402075386287606,0.00041746594473567093,3.0511610968991026e-06,0,136.12557225311056,22,3
1,Y,1260,0.07939896533361437,0.000291649586635338,0.0011989764287436671,0.0005241053827406931,0.11228709361318867,0.00041245480088020203,0.001522125144939553,9.005859800104431e-06,0.0015637252644379496,2.1886432320268408e-05,0.9733967849439659,0.01479128040770619,0.000428420393217871,2.9835749807163493e-06,0,119.56578390828123,22,3
1,Y,1281,0.07953742214299056,0.00029601518759755685,0.002558774826148599,0.0005151261090700455,0.11248290111081138,0.00041862869296888094,0.0014920256993760086,7.878241141765943e-06,0.0015353584310230312,2.071166948423166e-05,0.9717767976705287,0.014077534374149561,0.0004206808539541753,2.7176102780561e-06,0,130.54183027171672,22,3
1,Y,1302,0.07712902595472931,0.0002730861220217572,0.0009092767053983648,0.0004380721052777507,0.10907691455780466,0.000386202097459043,0.0015519566190894244,8.64141624872844e-06,0.0016068250624131542,1.787499652889989e-05,0.9658528830504253,0.012015311328649306,0.0004243286506697087,2.7999142091632434e-06,0,170.71107318675084,22,3
1,Y,1323,0.07964419103120055,0.0003347855418940113,0.0014859359414612083,0.0005540294065092396,0.11263389512055744,0.0004734582538329368,0.0014719233031349522,1.021745829545939e-05,0.0015488866137315328,2.0196901027041973e-05,0.9503105586204513,0.014038155925422813,0.00041557002878707985,3.3723943914917113e-06,0,151.37638082285372,22,3
1,Y,1344,0.07806846217041788,0.00028499543911419804,0.001533163336056033,0.0004888600294002245,0.11040547799501588,0.0004030444152097745,0.0015069977216316472,8.489336449202076e-06,0.001566518311805216,1.687210669401126e-05,0.9620045359667844,0.011692863509656507,0.0004170548271462288,2.79957122608859e-06,0,177.70565730297074,22,3
1,Y,1376,0.081281033745275,0.0002712813321133027,0.0008185909819738807,0.00048572057894321843,0.11494874028627311,0.0003836497390932725,0.001441122890943131,9.155822162849335e-06,0.0015060069978996185,1.740491623236267e-05,0.9569164638365033,0.012619983407056707,0.00041523616084245495,2.9799739729649834e-06,0,150.2702708720231,22,3
1,Y,1397,0.0788108576595916,0.0002834759560631739,0.0008596519016083111,0.00048381738218665677,0.11145538376444997,0.0004008955416712201,0.0015087308706532364,8.106568829914486e-06,0.0015605881308461327,1.88303047387545e-05,0.9667706942223251,0.01276951669903819,0.0004215050307947387,2.7254155094584566e-06,0,177.15129148059378,22,3
1,Y,1418,0.07932870064403147,0.00030134097895164055,0.0011070941035515643,0.0004971094745875202,0.11218772433622459,0.00042616049933219546,0.0014778098879514082,9.623907940671793e-06,0.0015434448492585824,1.8610603540976876e-05,0.9574750200250414,0.013121291097853859,0.0004155792365853337,3.1331313253115575e-06,0,172.51184583844233,22,3
1,Y,1439,0.0823363200292383,0.0002959715090623834,0.0012119835958338636,0.0005476920957730222,0.11644114046124032,0.00041856692219205405,0.0014451393740802579,8.964118346398884e-06,0.001483836945765215,1.4384201334797199e-05,0.9739206037459859,0.01120849584555168,0.0004217995562516565,3.023986020353145e-06,0,148.5187574589181,22,3
1,Y,1460,0.07971417664446544,0.0002986431187985943,0.001526007942787702,0.0005528328611229484,0.11273286972400764,0.00042234514891437147,0.0014889256792092586,7.673160533763814e-06,0.0015313399707755709,1.1935113799621932e-05,0.9723024982200191,0.009084830950834176,0.00042073972318533963,2.6806810678477945e-06,0,156.916722369209,22,3
1,Y,1481,0.07877354084668008,0.00028767259782996147,0.0012074711728327187,0.0005273104973285277,0.11140260982152594,0.0004068304893742325,0.0015206051855802896,9.283691860068331e-06,0.001592665939630108,1.868783620617575e-05,0.9547546335632981,0.012628539057775548,0.0004246212911084109,3.0208020066016338e-06,0,116.90218133659768,22,3
1,Y,1502,0.08036104496225593,0.0002992804863981949,0.0013829674718035478,0.0005146859600171909,0.11364767967209644,0.00042324652281794384,0.0014361272629308595,8.803870956639426e-06,0.001510567716454966,1.922509826951997e-05,0.9507202141862232,0.013430371607967477,0.00040911314534448326,2.9345153513002227e-06,0,168.7426235627393,22,3
1,Y,1523,0.08354031745881386,0.00029732503832870846,0.0015849146574957297,0.0005403529658462936,0.11814384995520844,0.0004204811016375598,0.0014088619178184293,7.560720755647546e-06,0.0014662777452609788,1.8525965606261605e-05,0.9608424613766949,0.013189648299262162,0.0004172241930809145,2.686700781413931e-06,0,123.36117379723585,22,3
1,Y,1555,0.08448827258961762,0.00031088996612481753,0.0018326998205780724,0.0005753253494923866,0.11948446095771226,0.00043966480649942907,0.0013885242026666236,7.996225406692427e-06,0.0014259002116997377,1.6375050258220073e-05,0.9737877807111339,0.01251028030581052,0.0004158673423017885,2.842043981730946e-06,0,94.75767537270436,22,3
1,Y,1576,0.08749550391135408,0.0002930262771140907,0.0014231229432550008,0.0005503546721417469,0.12373732827810513,0.00041440173522644397,0.001320463840226897,7.639705879936512e-06,0.0013501517469123765,1.7089712217720335e-05,0.9780114296386522,0.013611194887018696,0.0004095596674113164,2.737915636877921e-06,0,96.28464901689834,22,3
1,Y,1597,0.08435364235000144,0.0003084284513126708,0.002321653695815657,0.0005446693660935172,0.11929406504694151,0.0004361836988681089,0.0014015902601395745,7.944888770038189e-06,0.0014678373973792513,1.9738677151576968e-05,0.9548675232297816,0.013934711493522042,0.0004191117559512742,2.8270868001801258e-06,0,102.72457565992549,22,3
1,Y,1618,0.08243677344230407,0.00029168917643543146,0.0029247647427700116,0.0005089067251221731,0.11658320304038461,0.0004125107893124258,0.0014447444880507979,7.939070776940867e-06,0.0014717003323588137,1.83204094673677e-05,0.9816838769990549,0.013358146457905387,0.0004221987697629298,2.7593970255012588e-06,0,168.3759784146488,22,3
1,Y,1639,0.08062762693275739,0.0002849753613303968,0.0009536104124971803,0.0004805130075812479,0.11402468351026374,0.0004030160209356204,0.0014697485673749817,7.622116402715114e-06,0.0015148942466935488,1.6412187608453554e-05,0.9701987914885126,0.01165319930530728,0.0004200798548250189,2.6363827079466744e-06,0,132.70249603411142,22,3
1,Y,1660,0.08038141438018939,0.00027234534683966025,0.0005959892864665103,0.00048080337158287745,0.11367648637919558,0.0003851544831498521,0.0014896154484128658,8.257043746089905e-06,0.0015556226281317836,1.5240813383323073e-05,0.9575686425967018,0.010778991241829737,0.00042445801949433167,2.757516682051536e-06,0,169.34007846630334,22,3
1,Y,1681,0.0802591231774767,0.00026434765419222416,0.0014635396318494736,0.000505904954646943,0.11350354050176037,0.0003738440377401564,0.0014621315084843152,8.937613887260357e-06,0.0015047465548179966,1.6928724431262067e-05,0.9716795853778606,0.012441021579730654,0.00041599276648530796,2.888492974337138e-06,0,119.88257514303362,22,3
1,Y,1702,0.07869345525424168,0.00029470369096085467,0.0022663946771483653,0.0004904517611390448,0.11128935169054888,0.00041677395663825,0.001519246027094986,8.624140760352199e-06,0.00160421165123525,2.1401795550618526e-05,0.9470359013570059,0.013730587406660937,0.0004238104450691756,2.8821732346160655e-06,0,219.70624620836475,22,3
1,Y,1734,0.07968917291182154,0.00032137723846622113,0.002246858489029891,0.0005477533780896127,0.1126975091061927,0.0004544960492769423,0.0014603655214360822,8.022229558929976e-06,0.0014708854868929837,1.4205890512388861e-05,0.9928478691572902,0.011031534724694602,0.000412539770126159,2.8113467094858064e-06,0,170.07880286733197,22,3
1,Y,1755,0.08125661758339711,0.000306840215048254,0.0022139937174707404,0.0005570197255534336,0.11491421061900431,0.0004339375936027179,0.0014505200841042137,8.79830656020454e-06,0.0014679609860901428,1.4925164107754575e-05,0.9881189608230786,0.011698479979026904,0.00041781826254194346,2.9853213307096714e-06,0,93.89471590818037,22,3
1,Y,1776,0.07979313413060922,0.0002880102601469869,0.0032094313897739154,0.0005441959227594708,0.11284453247176307,0.00040730801600247224,0.0014747306750276933,8.417469413786988e-06,0.0014995479037701652,2.109602017620804e-05,0.9834501927680493,0.014930793579045412,0.00041714128013158557,2.81708473128574e-06,0,162.1964173570445,22,3
1,Y,1797,0.07758483293768809,0.0002893406097146157,0.00139489963812755,0.0004993306708553285,0.10972152297492932,0.00040918941440371004,0.0015438209418893803,9.06595636173118e-06,0.0016005759114781739,1.729046943029887e-05,0.9645409073185546,0.011859641640465346,0.0004245987283529959,2.9537324398700407e-06,0,164.06591988528027,22,3
1,Y,1818,0.08478673183867975,0.0003157396481394087,0.0015276307250670167,0.0005359751731347988,0.11990654607555162,0.00044652329257766077,0.001404955516710453,7.835611156290242e-06,0.001438665885339436,1.6168984756869143e-05,0.9765683130652468,0.012252589882888798,0.00042227502993422345,2.83182398210482e-06,0,156.0395304008434,22,3
1,Y,1839,0.09381562357970995,0.0003086995061199661,0.001978178185609746,0.0005944896649662484,0.13267532722891495,0.0004365670282527323,0.0012281806252853117,6.601368457991902e-06,0.0012498711343250926,1.1277831640890307e-05,0.9826458036799983,0.010320484563288443,0.00040845323837818246,2.574132538479058e-06,0,108.61595115780524,22,3
1,Y,1860,0.08095894765097911,0.0003282647802543071,0.0009543369742783489,0.0005373196177140554,0.11449324176346809,0.0004642365042850649,0.0014495787306362574,9.101622879103652e-06,0.0015040306589925488,1.9707347855099813e-05,0.963795998418832,0.014003680643488612,0.00041601749479878433,3.109408488601611e-06,0,185.5257122177237,22,3
1,Y,1881,0.08016790767839407,0.0002474239520522391,0.0013377388057275682,0.0004652110734525027,0.11337454230585908,0.0003499103086482269,0.0014951300735668918,7.892341299073689e-06,0.0015120662272572465,1.4216444824508693e-05,0.9887993307534715,0.010661725833398982,0.00042489777620913964,2.5981393281569663e-06,0,106.7668262985188,22,3
1,Y,1916,0.08149240024866979,0.0002945818891886071,0.002530617480410535,0.0005225798108161809,0.1152476576620054,0.0004166017029200164,0.0014378152592427064,7.937772387300911e-06,0.0014820250612137982,2.0404912804999223e-05,0.9701693290295081,0.014391356861288052,0.0004153604391383929,2.740918979789831e-06,0,149.926312254921,22,3
1,Y,1937,0.08289114742923781,0.0002885266095317291,0.0010810360749168905,0.0004966354369394161,0.11722578489509583,0.00040803824430529767,0.001421737298403903,8.431972264312562e-06,0.0014647887509620307,2.1774752960535957e-05,0.970609104876145,0.015534464970777588,0.0004177653733575843,2.8728689395827427e-06,0,115.63772835391296,22,3
1,Y,1958,0.08031303003246322,0.00030658950747284084,0.00034710240486937556,0.0005660900717041727,0.11357977630718719,0.00043358303954937893,0.0014579485961293086,8.320250179660112e-06,0.0015162123132399427,1.3766175806323875e-05,0.9615728505817682,0.010311802264193414,0.0004150812875715185,2.849906501601156e-06,0,165.41568190158955,22,3
1,Y,1979,0.07843294823956479,0.00030415563065262774,0.0018030769460669078,0.0005401384381881051,0.1109209391372995,0.00043014101794108806,0.0015089387453475214,8.401698402028051e-06,0.0015631540087228135,1.7291864960922667e-05,0.9653167486551187,0.011954875873554113,0.0004195416504016264,2.84671443148511e-06,0,154.36744390098863,22,3
1,Y,2000,0.08037410387772427,0.00032981600917667854,0.0009055995885141794,0.0005838350072514723,0.11366614776746164,0.00046643027326542796,0.0014657945344566247,9.367655771870273e-06,0.0015164563614453474,1.9084673752076688e-05,0.9665919651387551,0.013643205314346856,0.0004176323902862164,3.171851742525555e-06,0,151.2866222369165,22,3
1,Y,2021,0.07837026332375271,0.0002890820147548111,0.000986884216696902,0.0005185905328961536,0.11083228927920186,0.0004088237059043931,0.0015247950097675444,8.303125586475094e-06,0.0015649909609618154,1.635141123141775e-05,0.9743155377909868,0.011479499769416524,0.0004236114593920414,2.786150054645942e-06,0,159.38960655202538,22,3
1,Y,2042,0.08019146162722167,0.0002898709682214514,0.002403706879515585,0.00048681210331512944,0.11340785261973851,0.000409939454596997,0.0014562654851696041,8.266246901073375e-06,0.0014956922519869468,2.2854774410515574e-05,0.9736397866840814,0.015870965947630777,0.0004139745262175359,2.7858691220834157e-06,0,152.36809530539853,22,3
1,Y,2063,0.07787054797593386,0.00033545148369654783,0.001624111327077561,0.00047179457630881126,0.11012558505699044,0.00047440003776183515,0.0015200712333447222,9.645139671063066e-06,0.00157038926310089,2.0854651649697298e-05,0.9679582438962874,0.014246353895322035,0.00041960639953214494,3.218100674398455e-06,0,232.4365515556251,22,3
1,Y,2095,0.07982451150287362,0.0003016761454443946,0.0018850485414718622,0.0005227846028997529,0.112888906777171,0.0004266344963319013,0.0014503481033897806,8.045850028520513e-06,0.0015198401626176094,1.986787648753752e-05,0.954276731897818,0.013551446037920323,0.00041040576514794427,2.7548519395049273e-06,0,193.060110540658,22,3
1,Y,2116,0.07779935945496522,0.000273832992306704,0.0015962557742188255,0.00046827176390631,0.1100249092851513,0.00038725833154534817,0.00151137393505019,7.897079355830454e-06,0.0015243830229913625,1.6765696324984523e-05,0.9914659978857254,0.012072512111807102,0.00041682415795215395,2.6259984165840293e-06,0,155.98688672529067,22,3
1,Y,2137,0.0808264203211894,0.00028037278665782783,0.003245667074870063,0.0005327793690712701,0.1143058198162944,0.0003965069974118385,0.0014473707497988822,8.112112215933444e-06,0.0015024445281611254,1.5193030050217325e-05,0.963343885694303,0.011137757344005406,0.00041470385131255137,2.7334512912983697e-06,0,165.96239508557727,22,3
1,Y,2158,0.07783570840088894,0.00027221721827014024,0.0022163754197701054,0.00046046861706989026,0.11007631445745458,0.0003849732819891094,0.001527979968600384,7.864726057544092e-06,0.001569447283253175,1.3528007324984845e-05,0.9735783959771896,0.009774191030241896,0.0004216008474687192,2.6235759571857883e-06,0,162.85271399119895,22,3
1,Y,2179,0.07960701215860536,0.000282009024785704,0.0017594570261138449,0.0004514874730834351,0.11258131625469958,0.0003988209875635529,0.0014617132243782925,8.454170781143785e-06,0.0015300872370283094,1.9021765120660984e-05,0.9553136507544427,0.013098661609667134,0.00041249475643900243,2.797708159190163e-06,0,226.64256659886834,22,3
1,Y,2200,0.07853383335169015,0.0002828510285561606,0.0010742130976221815,0.0004645830407173135,0.11106361223110872,0.000400011760715302,0.0014994228777150515,9.381676278692984e-06,0.0015526154880575282,2.088059489029756e-05,0.9657399976029958,0.014324716897791781,0.00041743211798314964,3.0136206547565563e-06,0,142.71448649180329,22,3
1,Y,2221,0.0789483401584316,0.000295197653709237,0.0011285435164704724,0.0005350654626082056,0.11164981337889845,0.0004174725254563194,0.0015000644896712978,7.6134780851175504e-06,0.0015477142395303378,1.0782162997367366e-05,0.9692128245369769,0.008353931840287269,0.0004198149169839444,2.6465353112386726e-06,0,184.33851554216704,22,3
1,Y,2242,0.07826557524975518,0.000261793412515606,0.0031633575894676157,0.0004869717255829022,0.11068423798513582,0.0003702317945195044,0.0015212554779103968,9.238485075142334e-06,0.0015629895067945114,2.003958609484844e-05,0.973298586649052,0.013808041986244074,0.00042206357065938403,2.9262473683969263e-06,0,177.37526246045078,22,3
1,Y,2274,0.07958618221087196,0.0002816692271395982,0.0008027917702270416,0.000506018730543233,0.11255185826011149,0.0003983404411239677,0.0014650586190039275,8.594712574979966e-06,0.0014914546581629837,1.780058166085527e-05,0.9823018158717826,0.01306353363549479,0.0004133306448816613,2.83187702872875e-06,0,131.34322824421483,22,3
1,Y,2295,0.08000353091041287,0.0002917341178583806,0.002113638169232068,0.0005027901524821217,0.11314207845124102,0.00041257434608227284,0.0014837213303757252,9.202943334680226e-06,0.0015456982877831227,1.8845356432950283e-05,0.9599035866848981,0.013130710028108497,0.0004207909850824303,3.027632350684196e-06,0,153.99847729475866,22,3
1,Y,2316,0.07925532097367434,0.00029278600264036466,0.0015471447606875098,0.0005038551384378245,0.11208394981120307,0.00041406193580700856,0.0014716584676447502,9.759333040498206e-06,0.0015173907660206499,2.179470834078789e-05,0.969861225334966,0.015343464283336376,0.0004134665637864886,3.138651573966191e-06,0,124.548578401824,22,3
1,Y,2337,0.07931349084446501,0.00030231960129829805,0.001522650680141702,0.0005121676890101053,0.11216621443139674,0.0004275444803272799,0.0014949752111570096,8.30017022070949e-06,0.001553678685541636,1.43981762454692e-05,0.9622164641048921,0.010394846802508252,0.0004203257421989147,2.830708987813592e-06,0,157.497013701557,22,3
1,Y,2358,0.08254617457348985,0.00028816704825416426,0.0016349776674449454,0.0005074940241714125,0.1167379196038465,0.00040752974787006124,0.0014428625304018278,7.142041041928527e-06,0.0014980057180508214,1.1929320381652549e-05,0.9631889338041079,0.009031324933627733,0.0004222083703536332,2.5573617949428713e-06,0,159.43108509736743,22,3
1,Y,2379,0.0802828034535193,0.0002644875441865766,0.0023980101870143575,0.00048747743308159483,0.11353702946930055,0.0003740418720674099,0.0014932754879205434,8.420060001191677e-06,0.001566725021314526,1.9087634859891964e-05,0.9531190653147568,0.012795365619610519,0.00042497892905013344,2.775336267361803e-06,0,138.21890245693925,22,3
1,Y,2400,0.08012884652135312,0.0003210471617712371,0.0025135723841964155,0.000517701284044635,0.11331930148780978,0.00045402925033827257,0.0014516781957159015,9.353992209848927e-06,0.00149133436794569,2.1203774048340747e-05,0.9734089329112593,0.015194872729311852,0.0004123482699253633,3.1287629614029596e-06,0,156.03980304031526,22,3
1,Y,2421,0.07751487755589169,0.00027256115117257673,0.002583687359340822,0.0004760614150988642,0.10962259112523187,0.0003854596765642815,0.001524172441843577,8.093700024112297e-06,0.001559029986041192,1.5029059898901402e-05,0.9776415177965063,0.010759753655346895,0.00041881680785610875,2.6673884780736406e-06,0,168.84735488189946,22,3
1,Y,2453,0.08049072278449285,0.00026517058517052966,0.0018584616668171907,0.0004866481008192459,0.11383107180704288,0.000375007837890573,0.0014542503782034504,7.3570185272615875e-06,0.0014708503125271783,1.0948012689685593e-05,0.9887140559563765,0.008898222601788717,0.0004149444352203631,2.5050575414115093e-06,0,149.27644524763858,22,3
1,Y,2474,0.0784322212246361,0.00027827184249525777,0.0015706952163723686,0.000536120699627734,0.1109199109829273,0.00039353581368334334,0.0015294017360695444,8.512059748701818e-06,0.0015832426414998223,1.6375093627432106e-05,0.9659932697496867,0.011345741179978462,0.0004252271888837359,2.8066234592342766e-06,0,155.95560720151371,22,3
1,Y,2495,0.07986717639568446,0.0002949668041500173,0.0016040884796195295,0.000545253418220487,0.11294924404722129,0.0004171460548788031,0.0014694029991193405,8.771495223606444e-06,0.0015137425584095465,1.7698300135313428e-05,0.9707086525090551,0.012742971916724561,0.0004160199760833704,2.920268219474535e-06,0,133.95128091965373,22,3
1,Y,2516,0.07788086991061349,0.00028467577250177557,0.0015481250607638486,0.0004676662095375816,0.1101401824770043,0.0004025923383510488,0.001537745893993688,8.332270472183903e-06,0.0015679302057537863,1.4274023089822457e-05,0.9807489442774099,0.010390298738829854,0.00042454164847432064,2.774863344216735e-06,0,158.3964948573442,22,3
1,Y,2537,0.07977617255583294,0.00029339092392191427,0.0025020520734471935,0.0005069660314790589,0.11282054518267526,0.00041491742368754414,0.0014629717958095834,8.611374194646258e-06,0.0015264991488838937,1.8174342751642138e-05,0.9583836302032932,0.012728763064305246,0.00041372720741464407,2.8715437254551316e-06,0,145.645427313232,22,3
1,Y,2558,0.07720441568872947,0.00028354728305494714,0.0018557309680007792,0.0004976142522669832,0.10918353174209139,0.0004009964132703492,0.0015416060817152722,9.693242518763527e-06,0.0015927260442441947,1.7454340769168718e-05,0.9679041083595887,0.012228993270250385,0.00042191064929841934,3.072264787690932e-06,0,186.30439212266333,22,3
1,Y,2579,0.08069078304497425,0.0002953725527868038,0.0019588099431601187,0.0004929431614107809,0.11411399974070757,0.0004177198701038609,0.0014532286012446912,8.341726053323426e-06,0.001503855245950769,1.7909226474754512e-05,0.966335427001772,0.012775030084709635,0.0004156835120578259,2.829969853780897e-06,0,152.1919920577275,22,3
1,Y,2600,0.07689501185284789,0.00028465724794234093,0.0012983403997888546,0.0004811321188341231,0.10874596864113739,0.00040256614066785934,0.0015578196478591192,8.673632416185402e-06,0.0016061945043799983,1.645676115812231e-05,0.9698823172480271,0.011309718506248819,0.00042463938994927115,2.839197904703861e-06,0,174.41780862051579,22,3
1,Y,2632,0.07955186735149027,0.00025847891077866557,0.0011736304399167007,0.00045887124424154254,0.11250332972058297,0.00036554438121061406,0.0014543309806877348,7.1183085818438614e-06,0.0014847646827129296,1.1381682545025676e-05,0.9795026764984825,0.008908567775746298,0.0004101271935341938,2.4094378886491868e-06,0,204.4931736696285,22,3
1,Y,2653,0.07812750606005801,0.000286961342597563,0.0010846245830429572,0.00047812438147933073,0.11048897866452023,0.0004058246225782658,0.0015097368797778081,8.752984254725195e-06,0.0015558715471738554,1.558018051211768e-05,0.9703480229586767,0.01122795002160472,0.0004181288725049623,2.869717756966389e-06,0,133.8033892819275,22,3
1,Y,2674,0.08183658343839584,0.00029211818457361107,0.0002373044477297056,0.0005360766819221684,0.11573440619685682,0.00041311749843980783,0.0014251766607274697,6.948347922621033e-06,0.0014409344358056245,1.3028526804752705e-05,0.9890641970331255,0.010160078586606872,0.00041344821709281184,2.498245527608437e-06,0,147.16346943926325,22,3
1,Y,2695,0.07643724198226232,0.00023209067891363043,0.0016975117702319289,0.0004352870064487838,0.10809858428170949,0.0003282257858200355,0.0015570928981985387,7.4457665832583505e-06,0.0015709273335793603,1.1592062189897536e-05,0.9911934593758072,0.00871559506411469,0.00042191451284881546,2.3898928923571182e-06,0,120.21073644926156,22,3
1,Y,2716,0.08311869448466393,0.0002852202748150021,0.0010899812950972735,0.0005035464423073929,0.1175475850269575,0.00040336238090715737,0.001363590967321467,8.383865884801013e-06,0.0013856148645454622,1.564193544214246e-05,0.9841053255218796,0.012650236620028078,0.00040177948803000763,2.8289828950730314e-06,0,90.75243509839962,22,3
1,Y,2737,0.0782876874386769,0.0003062045926044586,0.001586236576976196,0.0005432063568401695,0.11071550934260266,0.0004330386877221537,0.0015452894416804822,8.674148701869867e-06,0.0015866797273259596,1.7774893379520426e-05,0.973913900245494,0.012203361561853173,0.00042885278402992314,2.934024542691569e-06,0,191.73868280767832,22,3
1,Y,2758,0.07937422508166059,0.0002980164049952319,0.000782021263758933,0.000494536466267465,0.11225210561333909,0.00042145884175393,0.0014825134430243535,7.957755594236536e-06,0.0015370436053808243,1.9339982107277948e-05,0.9645226965809078,0.01319437954794466,0.0004171411849656812,2.7324983935148716e-06,0,142.06059441374535,22,3
1,Y,2779,0.07719343046477348,0.0002875239535439002,0.0026090856633542037,0.0004664541388135907,0.10916799628938711,0.00040662027460891537,0.0015344596892459233,8.57077613807048e-06,0.0015800754544347206,1.7144806227421277e-05,0.9711306412230063,0.011851544355919823,0.0004198950522197182,2.8189856383769985e-06,0,182.01896976212888,22,3
1,Y,2818,0.08001559093360343,0.0003273660761929645,0.000974311654720114,0.0004969896337586469,0.11315913389959964,0.0004629655448129544,0.0014448194413357596,9.314857750823435e-06,0.0015061224458405391,1.694452717240753e-05,0.9592974630488509,0.012438983773053088,0.00040981997811398386,3.1292465324653733e-06,0,163.07877382324958,22,3
1,Y,2839,0.07810488001783196,0.00028141855987120617,0.001141785208036704,0.00048573311660120717,0.11045698060874132,0.00039798594407336463,0.0015313458955967156,7.984866518720626e-06,0.0015324513292760778,1.364310573812673e-05,0.9992786500567791,0.010309947854815187,0.000423990768100584,2.687276855592595e-06,0,151.9049131901207,22,3
1,Y,2860,0.07978787159349603,0.00028231269323384094,0.0018169387970697777,0.0005109562653786659,0.1128370901204051,0.00039925043960137296,0.001486774858345871,8.363278238154431e-06,0.0015485969585147385,1.709475189174991e-05,0.9600786377443481,0.011894844942651804,0.00042052035324788073,2.794528154931473e-06,0,179.40535196310464,22,3
1,Y,2881,0.07769916886264043,0.0002840133865790881,0.0026694296723249996,0.0004986084820704578,0.1098832183906634,0.0004016555831956592,0.0015390574025683276,7.925364238265989e-06,0.0016028052085192562,1.2728316805815459e-05,0.960227352885993,0.009088292852330575,0.00042391240284687394,2.6769809038572996e-06,0,168.5937116708579,22,3
1,Y,2902,0.07921659065669338,0.00028346992684513255,0.0012708698679857419,0.0005117552415912729,0.11202917687165359,0.0004008870150692956,0.0014863571351475173,8.18097221546033e-06,0.0015221455160817046,1.608212901837389e-05,0.97648820000711,0.011633039997587158,0.0004173921255484144,2.7401893590655282e-06,0,153.0608730808193,22,3
1,Y,2923,0.077310874987067,0.0002652307759404372,0.0020707136641759925,0.00045847637856081364,0.10933408792564103,0.0003750929604937059,0.0015497499986660411,8.224746935812324e-06,0.0016068763373708926,1.5795277882296347e-05,0.9644488269717635,0.010773839179343358,0.00042472435472724716,2.6840265730193325e-06,0,175.90861031013006,22,3
1,Y,2944,0.08005119064116517,0.0003363769316359445,0.0024914195234807756,0.000543018144982383,0.11320947948884996,0.0004757088187890002,0.0014363835783578645,9.660952430468268e-06,0.0015141609263130248,2.494687471391841e-05,0.9486333674290831,0.016881583923646453,0.000407608431697433,3.232582621414897e-06,0,125.49212482771397,22,3
1,Y,2965,0.07854058386575616,0.00030539252703984545,0.0017236522780575227,0.0005352649266616362,0.11107315889965386,0.0004318902535871416,0.001499233848797268,8.839470581697044e-06,0.0015352183157029775,1.571548474792188e-05,0.9765606842117225,0.0115363035650083,0.0004174153698315315,2.9480848535531055e-06,0,135.276703008313,22,3
1,Y,2997,0.08190155374298923,0.0002931624152969524,0.002266269272711768,0.0004949520764389288,0.1158262880827643,0.00041459426369100383,0.001434201647704788,6.9889016680253464e-06,0.0014644640973715982,1.5961918628062286e-05,0.9793354786087792,0.011692517753234433,0.00041639671044311154,2.5176969788813317e-06,0,97.06129023172092,22,3
1,Y,3018,0.08030440356636945,0.0002706887825786082,0.0014050931201015802,0.000491544895143641,0.11356757664184203,0.00038281174750492974,0.0014784450151439877,8.839849370769979e-06,0.0015470723802073218,2.125018879080165e-05,0.9556404949494752,0.014316148902754084,0.0004208714538834103,2.8887991609511804e-06,0,117.84752513715267,22,3
1,Y,3039,0.07954244995064176,0.0002970989188237494,0.0005174384357184593,0.0005104135251029016,0.11249001150458071,0.00042016132036692966,0.0014724277874598934,9.161903676493757e-06,0.001471940667075626,2.3182433651893355e-05,1.0003309375134224,0.016939774724407268,0.0004151814106651226,3.013087908349989e-06,0,125.56471327315742,22,3
1,Y,3060,0.07814152109183191,0.0002964339048383046,0.001536271328163451,0.0005144055789114703,0.11050879891253196,0.0004192208485695459,0.0015229243918836166,9.020601449412411e-06,0.0015644741436660525,1.7622521211876564e-05,0.973441713977406,0.01238859814968467,0.0004218568791763797,2.9672902873914897e-06,0,174.8617877943683,22,3
1,Y,3081,0.07892386104431129,0.00031788215254377136,0.0014764206175843014,0.0005390794890205502,0.11161519468371461,0.00044955325136375457,0.001492059996960476,9.332019018661667e-06,0.001529857321127143,1.812990909434481e-05,0.9752935625795356,0.013068850775464446,0.000417445267703764,3.1054281101215124e-06,0,128.52287455744607,22,3
1,Y,3102,0.0778020629974493,0.0003133013867995001,0.002114866306950081,0.0005299519769819733,0.11002873267159874,0.000443075070322152,0.0015497652511355278,1.0221818160139939e-05,0.0016044240750671972,2.3467877858299075e-05,0.9659324334625307,0.015498687719750225,0.0004274270111188538,3.3030866117980855e-06,0,159.95103866024087,22,3
1,Y,3123,0.08037589311377831,0.00030483512332948393,0.001580913545958559,0.0004994952920580744,0.11366867812935555,0.0004311019657002313,0.0014466415737206609,8.515012616652693e-06,0.001530806821533512,2.054489541208137e-05,0.9450190274638721,0.013849213929509864,0.000412184527662332,2.8861632415807744e-06,0,218.6890713594712,22,3
1,Y,3144,0.07645667490190307,0.0002538531436260627,0.002335316230201891,0.000456311847881316,0.10812606658022195,0.0003590025585670231,0.001562521917687958,6.22507374639357e-06,0.0015855753924548391,7.885643517525529e-06,0.9854604991496564,0.006279675347326763,0.00042349321494573145,2.1962956587797046e-06,0,219.22897485272532,22,3
2,X,103,0.08943823596329088,0.0003198191121712488,0.0025444165945832484,0.0005561540437528966,0.12648476629401106,0.0004522925259387023,0.0013884410390601926,8.649039944264386e-06,0.0014189677375953445,1.709779925612109e-05,0.9784866859715331,0.01327262111474763,0.00044020563616829333,3.1618659736133593e-06,0,79.08955298973709,22,3
2,X,124,0.08641109931853798,0.00033389396508682424,0.002574698471769604,0.0006017961402924901,0.12220374859584493,0.00047219737382031557,0.0015096788954206436,9.009353636680235e-06,0.0015449461703737153,1.85849900801269e-05,0.9771724894825684,0.013121923542370711,0.0004624438904063944,3.287725984149785e-06,0,99.70340134882527,22,3
2,X,145,0.08734078970590758,0.00030630162263644374,0.0033349472109823254,0.0005627606085340573,0.12351852935047092,0.00043317590890934454,0.0014770376001366338,7.252537370405499e-06,0.0015169221228342362,1.1482674442685615e-05,0.973706941116343,0.00878554723697341,0.0004573130528572843,2.759414455174612e-06,0,112.3048624061635,22,3
2,X,166,0.08559031130509,0.0003243261886018858,0.0015219962942971106,0.0005719013879738266,0.12104297905539352,0.00045866649455356123,0.0015294224578560822,9.888218224723349e-06,0.0015921465830519403,1.962569569518978e-05,0.9606040512453169,0.01337085731568735,0.0004640416913114366,3.4775012997502606e-06,0,101.65020513153694,22,3
2,X,187,0.08749919708006772,0.00033235258596658597,0.0033127998495939962,0.0005994600854620182,0.12374255120738809,0.00047001753456371587,0.0014537729419279184,8.15443724343332e-06,0.001481628666501183,1.3733572739253646e-05,0.9811992537650847,0.01063057911168962,0.0004509263157803532,3.0546748266343816e-06,0,128.1997907554468,22,3
2,X,208,0.0859251959750913,0.00034489770887078026,0.0014151476396698968,0.0005665635017371511,0.12151657749754019,0.0004877590175164648,0.001469113804106618,8.804621455365583e-06,0.0015271552615011136,1.77141501790492e-05,0.961993741659611,0.012560004047208211,0.000447487494305672,3.227793291674323e-06,0,128.6823429403368,22,3
2,X,229,0.08774274879976939,0.0003129744870034941,0.0009435945096897753,0.0005543124340264196,0.12408698535252949,0.0004426127641971034,0.0014565568618377038,8.187854600386698e-06,0.0014982301240347592,1.5493546554513293e-05,0.9721850058088349,0.011442950839534085,0.00045304736764955933,3.016188037131935e-06,0,107.9473874739017,22,3
2,X,250,0.08653072168196832,0.00032047351688651107,0.0022672858741919696,0.000517176867022704,0.12237292016457124,0.0004532179939623071,0.0015232723366534074,8.748818365344839e-06,0.0015763821660981373,1.9114377449841585e-05,0.9663090394024265,0.012964905097832786,0.00046725376877731876,3.1932129593054188e-06,0,153.42359309203147,22,3
2,X,282,0.08820584249425466,0.0003112482565982005,0.002961002711688925,0.00058917553747724,0.12474189873592001,0.0004401715057461564,0.0014375702215381962,7.453774294322707e-06,0.0014833432766909653,1.4558283099361204e-05,0.9691419674245064,0.01075741373329008,0.0004495017144345971,2.8191841526048295e-06,0,99.5105844737344,22,3
2,X,303,0.08623083657409872,0.00033211983071667256,0.004059295286431318,0.0005769808253237004,0.12194881857786832,0.0004696883689325748,0.0015159744441062607,9.701356488088988e-06,0.0015599333046934772,2.0027886383048225e-05,0.9718200384241079,0.013941160336847619,0.00046340360883026434,3.4611869709364897e-06,0,132.97439371405824,22,3
2,X,324,0.08700379391264472,0.00033040332974983166,0.0022884658973070723,0.0005412708000758459,0.1230419453291759,0.0004672608699854419,0.0014656340810749518,9.406900566216812e-06,0.00152112118899745,2.269969713075702e-05,0.9635222306257736,0.01565214509466711,0.0004520314775729986,3.3710860388677007e-06,0,134.7419266517602,22,3
2,X,345,0.08569126180992591,0.0002780163656024781,0.0012610341041142258,0.0005297600632644685,0.12118574462846088,0.0003931745147967014,0.001533932003739055,9.594138195797225e-06,0.0016022556887752913,2.141466041293169e-05,0.9573578140399923,0.014127171829830793,0.0004659588647648309,3.2831483672785385e-06,0,98.56747067961354,22,3
2,X,366,0.08604711380050313,0.00035442894528653476,0.0014542221310111566,0.0006184521046116808,0.12168899533973265,0.0005012382213218092,0.0014971136181992338,1.0008757216134135e-05,0.0015403012850206466,1.7566334875282175e-05,0.9719615459381805,0.012848887560769705,0.00045666318427010867,3.5859084047903747e-06,0,117.87948997697491,22,3
2,X,387,0.08460394846170398,0.0002991699746921451,0.001242326379793129,0.000543212977411165,0.11964805134485612,0.00042309023566444726,0.0015398943417465358,9.150059353326762e-06,0.0015891678016195223,1.6167995133277495e-05,0.9689941742950166,0.011416674357305414,0.0004618346219948094,3.19339809177589e-06,0,121.59166945783619,22,3
2,X,408,0.08677765782442959,0.0003428509359661917,0.0015564863620878384,0.0006031414940391154,0.12272214060628006,0.0004848644435156979,0.0014847388976693035,9.291417567432115e-06,0.0015356131385968954,1.8874421212580056e-05,0.9668704052805408,0.013335585687676937,0.0004567335795545103,3.3801868359413963e-06,0,92.67176103455488,22,3
2,X,429,0.08536367807678395,0.0002997219318491132,0.00033853504352531584,0.0005264963699408657,0.12072247127023872,0.0004238708209616804,0.0015505610517584259,8.023213993601884e-06,0.001586388847139382,1.8625490530323126e-05,0.9774155022297579,0.012540701072209504,0.00046920963562774445,2.934053915858748e-06,0,96.46275905489263,22,3
2,X,464,0.08827089188797596,0.00033678419305210465,0.0034610503090306247,0.0006128180657965571,0.12483389247074483,0.00047628477340716513,0.0014417446555247705,8.593412811448757e-06,0.0014571839133944633,1.7336676119573053e-05,0.98940472940459,0.013165940763714384,0.0004511394408157193,3.1927022003484976e-06,0,80.89475706567778,22,3
2,X,485,0.0857338265151083,0.00027850673999149,0.004145283419955161,0.0005157271208393745,0.12124594021180823,0.00039386800890828244,0.0015081847392809013,8.991868975349833e-06,0.0015369661986816736,1.8494453032846452e-05,0.9812738501175501,0.013177644563256468,0.0004583652465795577,3.112120881182098e-06,0,119.92440195725263,22,3
2,X,506,0.08681880780357493,0.0003155036737275534,0.002350477980144115,0.0005938445932632631,0.12278033546487876,0.00044618957436404205,0.0014743772871939223,9.467501234045678e-06,0.0014713606619905688,1.6535941436066907e-05,1.0020502282555743,0.012970204958640508,0.00045376122516097586,3.3480110971887633e-06,0,74.40723450656635,22,3
2,X,527,0.08561323324671315,0.0003098761348390542,0.003018880839806248,0.0005304534873416487,0.12107539557611291,0.0004382310325451444,0.0015194851899542178,9.16483775385988e-06,0.0015423265613543507,1.8420085099514552e-05,0.9851903144428276,0.0131815357954311,0.00046115009484738305,3.2438292167378913e-06,0,58.167287286897746,22,3
2,X,548,0.0861170709585934,0.0003033764520187571,0.003338045350488333,0.0005680435510009979,0.121787929701489,0.0004290390929495569,0.0015120289881384475,7.830680539333187e-06,0.0015435693088153611,1.5663055412066105e-05,0.9795666313804077,0.011159704466503639,0.00046158777637888453,2.8911619529108874e-06,0,84.06310082692836,22,3
2,X,569,0.08585289954374205,0.00024992781247820195,0.003380321052251032,0.0004608290763140884,0.12141433490381492,0.0003534513020209129,0.0015132629653683118,7.979576285427582e-06,0.0015355491865123117,1.5303639935694614e-05,0.9854864817488403,0.011111607916676904,0.000460547366124968,2.77401369196962e-06,0,79.19393268082094,22,3
2,X,590,0.08662714275939717,0.0003148730077251363,0.0034270314543860844,0.0005899373515486532,0.12250928015996976,0.0004452976779500961,0.0014891290363018706,9.175169102251132e-06,0.0015529196790128267,1.669806877667147e-05,0.9589221235501973,0.011883814322268552,0.0004572895259912804,3.2713013027922873e-06,0,87.2063632629355,22,3
2,X,611,0.08562873024773503,0.00029861717121589323,0.0038703704369454856,0.0005445856164877992,0.12109731164513415,0.0004223084534910049,0.0015260544953855837,7.756949799298777e-06,0.0015394201712752304,1.3819203163738555e-05,0.9913177206983231,0.010226513265954803,0.0004632276544597159,2.855473793005095e-06,0,77.85743606332376,22,3
2,X,643,0.0878129984476428,0.0003108985772093745,0.001583052517169067,0.0005905169919894063,0.124186333357304,0.0004396769844119963,0.0014351919665006976,7.998770594405183e-06,0.001479321569917699,1.5338616338950855e-05,0.9701690259140502,0.011420475106575945,0.00044675943548584635,2.9498528407980727e-06,0,68.67970745301103,22,3
2,X,664,0.08617886959680832,0.00025921505443922416,0.0022246833506125337,0.0004826846523101403,0.12187532617378871,0.000366585445559231,0.001486577359842615,7.63411408965948e-06,0.0014978413997312253,1.5487016282204466e-05,0.9924798180297115,0.011457808194130456,0.0004541436431131848,2.702793773888834e-06,0,68.47973081854929,22,3
2,X,685,0.08796791968162633,0.00035594950243113705,0.0033591621380073167,0.000596164486889029,0.12440542506750307,0.000503388613858069,0.001438183540148534,9.732510967471308e-06,0.001463975511485981,2.015583402613799e-05,0.9823822385449144,0.015070837031102562,0.0004484805031375215,3.536129370831971e-06,0,94.51364626088376,22,3
2,X,706,0.08630850285943069,0.00034523772307915,0.003635937005837426,0.0006199963533748142,0.12205865529192395,0.00048823987022134085,0.0014334121823775755,9.076534290609166e-06,0.001471223243050568,1.8996096641342592e-05,0.9742995763208637,0.014011279033128755,0.00043856059398872523,3.284700435934245e-06,0,68.64033296698561,22,3
2,X,727,0.08694405321948095,0.0003216235092046917,0.002291158803838111,0.0005996980035215964,0.12295745923067813,0.000454844328695303,0.0014795812709709872,8.932812384287569e-06,0.0014964947224908067,1.415915638695243e-05,0.9886979544494028,0.011096829402465303,0.00045601973704273424,3.2288706242054363e-06,0,69.89476155804039,22,3
2,X,748,0.08455360583508884,0.0003121885073170921,0.003899394180261729,0.0005398642505602205,0.1195768561195315,0.0004415012210648439,0.0015546201724998836,8.626323201441218e-06,0.0016124762555234707,1.9175576656965497e-05,0.9641197302438386,0.012652003026772541,0.00046597365538814974,3.105700558610131e-06,0,104.1881750149925,22,3
2,X,769,0.08723998348834507,0.0003430955347279226,0.0035757382011506605,0.0005927516612648903,0.12337596783042248,0.00048521035840187743,0.0014707674347615857,9.278898007978616e-06,0.0014780635512660536,1.8910379507866485e-05,0.9950637328833267,0.014194542211785857,0.0004548461384804545,3.3814602312913954e-06,0,81.20725779360984,22,3
2,X,790,0.08620742622227417,0.0003298205758926506,0.0031986130089884466,0.000594723472901642,0.12191571134081813,0.0004664367315770912,0.0015264834150826288,9.422590577988408e-06,0.0015684589328565208,1.8468115935099296e-05,0.9732377323405943,0.012938794316612223,0.0004664893157288216,3.3877607847262524e-06,0,93.37578449377139,22,3
2,X,822,0.08802634490468036,0.0003064467669106671,0.0034204563757433,0.000553227268000135,0.12448805081033076,0.00043338117391045206,0.001439517926078924,7.565684130588171e-06,0.0014987101630942563,1.6236537928783388e-05,0.9605045468610667,0.011565645592519692,0.00044919475705551586,2.831778582541341e-06,0,55.576350412316124,22,3
2,X,843,0.08641801291779483,0.00032813695984408624,0.003928561959584578,0.0005427660096477258,0.12221352590167878,0.0004640557389273825,0.0014144662021784615,8.285396974361863e-06,0.0014496036068908547,1.9418569870592914e-05,0.9757606806816956,0.014266093078406435,0.00043331306389245226,3.0248086471590672e-06,0,46.3429322060942,22,3
2,X,864,0.0871320239577322,0.0003093439051637365,0.0034413098577164777,0.0006381995774928617,0.12322328999804233,0.0004374783461200127,0.001501055512299841,8.634652737302027e-06,0.001530641016556818,1.7186919962457658e-05,0.9806711672188625,0.012372436511539752,0.0004636384955466832,3.1340904471192643e-06,0,60.44551396043046,22,3
2,X,885,0.08460147419587245,0.00027226068471015893,0.004213923045898461,0.000502890617127985,0.11964455220456027,0.00038503475281809196,0.0015575743399791387,8.585895436801276e-06,0.0015633081327048842,1.8023616568879872e-05,0.9963322696237595,0.012732305631520004,0.00046712342508444817,2.981643001662995e-06,0,79.4746154047228,22,3
2,X,906,0.08702544543649243,0.0003313626416551435,0.003502607017609411,0.0005777190524120966,0.12307256520784737,0.00046861754189247984,0.0014802341492748108,9.640203066758769e-06,0.0015016001418034677,2.1094043342011317e-05,0.985771183730047,0.015263621309101982,0.00045664804862546323,3.444968145783049e-06,0,65.36701570645938,22,3
2,X,927,0.085251529863359,0.0002944512732010907,0.003465904592107936,0.0005235898762451132,0.12056386974581723,0.00041641698401900795,0.0015436932306457619,8.840051666097055e-06,0.0015531868492144284,1.8686907135366566e-05,0.9938876519760207,0.013243210598405457,0.000466517686217164,3.1198488433799426e-06,0,76.36172053820648,22,3
2,X,948,0.08737130188436788,0.0003051941585138135,0.0039146836954329686,0.0005659247379307802,0.12356168008706703,0.00043160971812727933,0.0014601450683033124,8.281207611679053e-06,0.0014716093574908204,1.6110127215120603e-05,0.9922096926544044,0.0122331417256126,0.00045224080443130333,3.0123249458042312e-06,0,50.77603890189941,22,3
2,X,969,0.08560572341584244,0.00028508410343273163,0.0027113600556449916,0.0005349671687789428,0.12106477507144442,0.00040316980549154335,0.001529177815344627,7.647347701804692e-06,0.0015516503786260803,1.4734951283479813e-05,0.9855169930088556,0.010577192703478356,0.00046405101026808883,2.7881614199392335e-06,0,96.38593322183665,22,3
2,X,1018,0.0856638803135699,0.00030692202931029676,0.0021458592785676173,0.0005687794092030182,0.12114702134495614,0.0004340532964416943,0.0015064031366742137,9.381313931684382e-06,0.0015463105971601136,2.074695777609252e-05,0.9741918211262394,0.014410173687531098,0.00045745026766564917,3.2866529343542186e-06,0,57.422108469333054,22,3
2,X,1039,0.0850384551484369,0.00027978073369078,0.002156641517735168,0.00045623257494606736,0.12026253659417563,0.00039566970807619617,0.001537799133047183,8.033043714830954e-06,0.001582553283585545,1.5408975815230224e-05,0.9717202883450698,0.010737058363077617,0.0004635748919028694,2.8618665903179578e-06,0,84.06740955457097,22,3
2,X,1060,0.08572261828284973,0.00029477400544141255,0.002499999964557488,0.0005252140668844242,0.12123008937773794,0.0004168733963302862,0.0015159182971777293,8.182803382777769e-06,0.0015309764090290388,1.6390398921307348e-05,0.9901643736882533,0.011871764455923545,0.0004606553872186279,2.9482719430478546e-06,0,56.42177942265626,22,3
2,X,1081,0.08478508151869407,0.00031019651891896395,0.0038833600063776143,0.0005427318287070186,0.11990421217064562,0.00043868412405612123,0.0014962907906139143,8.618233695858475e-06,0.0015229197575361082,1.806666644896589e-05,0.9825145305322742,0.012956885042825439,0.00044971811021439565,3.068647225398715e-06,0,58.48280248968432,22,3
2,X,1102,0.08625708639800714,0.000330950109781861,0.0019203132088406439,0.0005784400993194393,0.12198594143484953,0.00046803413372237257,0.0015124615535720915,8.884017155220161e-06,0.001512118797887791,2.458258696790783e-05,1.0002266724577322,0.017289578492683477,0.00046247052659060324,3.2446650178497817e-06,0,56.226891118014095,22,3
2,X,1123,0.08433104311884927,0.00027872638483316786,0.003419022618357858,0.0005317657863674979,0.11926210490774691,0.00039417863362228855,0.0015862086659864446,8.811861800120212e-06,0.0016238045950329526,1.4053314754589802e-05,0.9768470115422078,0.01004599408648749,0.0004741903619192659,3.065240876244659e-06,0,80.14449923358518,22,3
2,X,1144,0.086026353429036,0.0003217030120288224,0.0029530883014220657,0.000586938602825604,0.12165963574084393,0.00045495676266743557,0.001515258018012116,9.169281481694017e-06,0.0015166191705258654,1.7442336588426446e-05,0.9991025086981609,0.01298397734730642,0.00046208624049386447,3.287078522339709e-06,0,71.29691232019425,22,3
2,X,1165,0.08528131557451296,0.0002946801747599427,0.003440641741305341,0.0005782396913012898,0.12060599310249609,0.0004167406997079848,0.0015392598227269194,8.095572972709188e-06,0.0015657822709491452,1.4906811077838936e-05,0.9830612156528324,0.010692275412597511,0.00046534039805444874,2.9283533934457536e-06,0,71.92654677745494,22,3
2,X,1197,0.08498119998893129,0.0002737240488035066,0.0018350105524566872,0.0004998841714378486,0.12018156557108695,0.000387104262165594,0.0015090086897490856,8.170826795565597e-06,0.001488835919381632,1.6121322663151894e-05,1.0135493576591248,0.012270544307553024,0.00045458963790935515,2.8640506846206037e-06,0,86.49634207418616,22,3
2,X,1218,0.08453334596386591,0.0002982235050077722,0.0025278874940133163,0.0005054105790830375,0.11954820433487612,0.00042175172540043215,0.0015645048524189121,8.745202760662235e-06,0.0015674894549128058,1.965317174189708e-05,0.9980959345630432,0.013701449197510077,0.000468824075481997,3.0988997177517348e-06,0,71.03793699549799,22,3
2,X,1239,0.0851295899141433,0.00031109866409032217,0.002695738317109365,0.000575829490357052,0.1203914206158413,0.0004399599499926854,0.0015202031589863008,9.869622409964873e-06,0.0015547676433893185,2.119988577960661e-05,0.9777687138332332,0.014766388582162511,0.0004587616478025053,3.417843731570776e-06,0,70.2717093973503,22,3
2,X,1260,0.08362954606923384,0.00026462351394876047,0.0028277727524634927,0.00046163462513355434,0.11827003826621607,0.00037423416234916296,0.0015620740048838135,8.053402176381852e-06,0.0015452390093807036,1.4492336895512045e-05,1.01089475181568,0.010818940015299013,0.0004630909317166637,2.801314230435095e-06,0,80.89730415240534,22,3
2,X,1281,0.08545552487591512,0.00029125327472368586,0.0020572973016898095,0.0005587381581837596,0.12085236225923057,0.00041189433119981356,0.0015168083554979125,9.497685388565087e-06,0.0015379401204010249,2.7514888625416308e-05,0.9862596959252209,0.018694410603655415,0.0004594897103210201,3.275748409826154e-06,0,49.438270532314,22,3
2,X,1302,0.0830506855749559,0.0003161141396077051,0.003270598264721095,0.0005498826031772974,0.11745140590448622,0.0004470529034911186,0.0016186420644512024,8.619232999053313e-06,0.0016678354687300005,1.960606189548381e-05,0.970504641973913,0.012524574282874129,0.00047653957844386697,3.1191746373015326e-06,0,74.0830353708734,22,3
2,X,1323,0.08590736771220134,0.00032162825643301617,0.0031562187925360725,0.0005798403341842767,0.12149136452636766,0.0004548510422899832,0.0015041093268162219,8.873016188856567e-06,0.0015266306249231189,1.89755089006134e-05,0.9852477097346117,0.013555553418792747,0.0004580519626244229,3.200374611996183e-06,0,50.55623455851469,22,3
2,X,1344,0.08572631268035423,0.0002872280366954186,0.0020064880883512537,0.0005168907688230289,0.1212353140447936,0.00040620178498845805,0.0015294238306174813,7.280481822856642e-06,0.0015682778589834311,1.729763228801732e-05,0.9752250354467573,0.011715472783501244,0.00046477946189590105,2.7055694488608024e-06,0,96.29461756654982,22,3
2,X,1376,0.0870922139378416,0.00030465367692024295,0.0029689676770841182,0.0005832328778818765,0.1231669901279947,0.0004308453617274388,0.00147158182529688,7.839842974297378e-06,0.0014849953606727603,1.3375920258095828e-05,0.9909672880258672,0.01037042022864146,0.00045432713716504416,2.895550719417063e-06,0,85.14659465298837,22,3
2,X,1397,0.08459945028283442,0.0002961326556431887,0.0013564786680282936,0.0005281699603336185,0.11964168995929281,0.000418794817872159,0.001548591320781864,7.953526718563993e-06,0.00156787611135737,1.4500311191008412e-05,0.9877000545924445,0.010448668785859462,0.0004644182674451122,2.886541793035048e-06,0,79.85694758222314,22,3
2,X,1418,0.08613232210181877,0.0003012465711783697,0.0013454477717844552,0.0005535827374318075,0.12180949807508001,0.0004260269865788424,0.0015167742797130308,8.594222731695617e-06,0.0015380848588690216,1.4650524410311102e-05,0.9861447312005523,0.010929483452136858,0.000463118407803566,3.083732439017452e-06,0,63.38851279417813,22,3
2,X,1439,0.08533427455448324,0.000320944129684399,0.00196987023501566,0.0005697499418811922,0.12068088841021951,0.00045388354096370653,0.0014561515079185676,8.233155546123669e-06,0.0014879042936806234,1.7570008244040717e-05,0.9786593896550234,0.012812980274675536,0.00044048892852035354,2.991227577764821e-06,0,71.50339081147006,22,3
2,X,1460,0.08607651026665565,0.00032216812324707147,0.0025297426249336653,0.0005598434219864103,0.12173056822085138,0.00045561452926029533,0.0015061044971202676,8.585059696435381e-06,0.0015332204967195796,2.074285380200418e-05,0.9823143509643079,0.014421107936579023,0.0004595626115385572,3.133820567525591e-06,0,99.78624149913897,22,3
2,X,1481,0.08495995541933803,0.00029462224574982937,0.0015936368798599395,0.0005265573223916196,0.12015152121264139,0.00041665877571622767,0.0015291263262715896,9.130151351509134e-06,0.0015454898224697086,1.918992766201033e-05,0.9894120970839071,0.013631856331171662,0.00046053492761648505,3.1799020698767897e-06,0,53.96925754486086,22,3
2,X,1502,0.08689961698287083,0.00035782612381070735,0.0024201941424630844,0.0005968322411829089,0.12289461690220327,0.0005060425572644967,0.0014742814053677192,9.223246396941609e-06,0.0015107916806724518,1.8560482201168818e-05,0.9758336799362822,0.013453295378263579,0.00045415404036993874,3.4014334643487476e-06,0,103.44283705928581,22,3
2,X,1523,0.08663538332878154,0.0003149914894016558,0.0033736287884699105,0.0005339115538024584,0.12252093408495479,0.00044546523634392265,0.0014300016045439836,8.774937519531045e-06,0.001461484946002849,1.8124108299266468e-05,0.978457977589867,0.013538234706920007,0.00043917413856313787,3.1324415133375507e-06,0,75.98249599699929,22,3
2,X,1555,0.08721642397590898,0.00033637318716090705,0.002684190261551715,0.0006038243519664903,0.12334264964841246,0.00047570352330161825,0.0013877213232672033,8.271735961895802e-06,0.0013828438045054507,1.632176639666136e-05,1.0035271653572595,0.013269396730756193,0.000429047592581925,3.046059836182519e-06,0,104.39879842645637,22,3
2,X,1576,0.08890362825508835,0.00033118153922273965,0.0015664906536304575,0.0005709563126129145,0.12572871682252185,0.0004683614243763956,0.0013267876769077916,8.060814331627296e-06,0.0013479541362784626,1.5296531610906047e-05,0.9842973445453351,0.01266982857514441,0.00041814397798522297,2.979928077991101e-06,0,82.79237286596795,22,3
2,X,1597,0.0867140556585373,0.0003202589803997223,0.0033690953790987913,0.0005393481426991115,0.12263219356067889,0.0004529145935530665,0.0013940737949140092,7.662704051146722e-06,0.0014058636773093534,1.7919757324983828e-05,0.9916137797813309,0.01376467977348215,0.00042852897738424565,2.837793904181646e-06,0,79.61313377053168,22,3
2,X,1618,0.08509646431608367,0.00028429764201272036,0.0023855839868495653,0.0005237059206694098,0.12034457394580367,0.00040205758108508016,0.0014644187691864481,9.100414764254894e-06,0.0015018234222281253,1.979623907171754e-05,0.9750938409349196,0.014209941476291817,0.00044175526514423665,3.116792475407907e-06,0,67.39645180247317,22,3
2,X,1639,0.08562712121820765,0.0002849085931069838,0.0007401266239184957,0.0005545392885486601,0.12109503613375427,0.0004029215964085342,0.0015058426090667825,7.62140227621958e-06,0.0015394741252268275,1.5564992117492427e-05,0.9781538931970749,0.011059628998675193,0.00045708382920256143,2.7685472836765192e-06,0,98.37881454138825,22,3
2,X,1660,0.08490792859736242,0.0002716506224676102,0.001224818039125185,0.00047856474958377787,0.1200779441753963,0.00038417199452078776,0.0015079067594660049,7.807798365629849e-06,0.0015397712399891873,1.890201662466482e-05,0.9793057048374236,0.013047478075658286,0.0004538660166645285,2.7624963167756954e-06,0,70.12152067446381,22,3
2,X,1681,0.0869967084607925,0.00033231947205483833,0.0018003647716688235,0.0005823899648341386,0.12303192498707094,0.00046997070442061917,0.0014780108898879106,8.842851253724324e-06,0.0014854883106665924,2.0472988020147792e-05,0.9949663550194304,0.014948980629953553,0.0004558116145317706,3.235533044812187e-06,0,88.82524677280045,22,3
2,X,1702,0.08523336189152511,0.0003269507339018725,0.002974793942329602,0.000581823511231165,0.12053817635364894,0.000462378162111865,0.0015445561168771665,9.876115013100526e-06,0.0015899854044186057,1.934314288182774e-05,0.9714278587619797,0.01335093776276559,0.0004666789827764229,3.4797977148075524e-06,0,88.58519940686713,22,3
2,X,1734,0.08653918635265118,0.00031251761432375875,0.001757001617500626,0.0005754756800408844,0.12238489101665195,0.00044196664865714386,0.0014856631855214698,8.029839380881059e-06,0.0015012995592578622,1.2795154102537668e-05,0.9895847743110496,0.009986941522758861,0.00045576198858777084,2.9625988408789024e-06,0,53.47923718289058,22,3
2,X,1755,0.08647333362518914,0.00031774581322931806,0.0013984831141251428,0.0005585854657425231,0.12229176119635587,0.00044936043845617,0.00144741092197989,8.058550017922532e-06,0.00146153325012841,1.6119424531277522e-05,0.9903373199704631,0.012235344781344352,0.00044368932429435806,2.959765593283629e-06,0,66.88967394442044,22,3
2,X,1776,0.08707085149059189,0.0003368318296879179,0.0015268689709446864,0.0005966134089909574,0.12313677906536868,0.0004763521417835981,0.0014783472213377785,9.58826873248239e-06,0.0015401032416932287,2.0327031175462447e-05,0.9599013762950371,0.01411628477130012,0.00045630389186274373,3.4459487294648144e-06,0,72.1431897448763,22,3
2,X,1797,0.0849634308977076,0.0002841576244587575,0.0022349385761599376,0.0005274664380760037,0.12015643628128736,0.0004018595663612956,0.0015634626680126095,8.275510915199965e-06,0.0015795802467137687,1.3273383980741664e-05,0.9897962900367417,0.009829867068888505,0.00047089544446929973,2.948347955185776e-06,0,124.08931399643767,22,3
2,X,1818,0.08686988577648584,0.0003014036103131069,0.0014645254777074987,0.0005276443116626488,0.12285257062690791,0.0004262490734530111,0.001382081313463107,7.548345801018094e-06,0.0014370181127879617,1.659370378995074e-05,0.9617702805302353,0.012285438869398688,0.00042560603504723495,2.753870158434637e-06,0,102.98238630265826,22,3
2,X,1839,0.0897474259921306,0.00032829261002381027,0.0013141442192834121,0.0006193428163745688,0.12692202702614674,0.00046427586152253397,0.0012353078625263235,7.358577555433432e-06,0.0012358370062500713,1.4456209181220004e-05,0.9995718337280146,0.013121298596226455,0.0003930086772337368,2.7472703622023305e-06,0,40.16597595235587,22,3
2,X,1860,0.08678528080382493,0.0003146728812478307,0.0013241891754606108,0.0005668145375396912,0.12273292112712664,0.00044501465637170057,0.0014689616831612437,7.948470826391669e-06,0.0015074703350181893,1.3450551760460512e-05,0.9744547862983447,0.010168522311527118,0.00045191990735297515,2.943567753931132e-06,0,101.06482421546818,22,3
2,X,1881,0.08454804422021055,0.00029482662046849666,0.002272437759849911,0.0004972059290676456,0.11956899080834194,0.00041694780521517316,0.0014954726496447914,8.750134518634561e-06,0.0015468088558137458,1.8867628394730803e-05,0.9668115384935863,0.01307953155076622,0.00044821560482277386,3.052969084822032e-06,0,78.65302121713988,22,3
2,X,1916,0.08712992362135163,0.0002893036154657676,0.0027817477646126182,0.0005020853655576153,0.12322031967384739,0.0004091370966352592,0.0014729798459602941,7.415546038916519e-06,0.001511094565744468,1.2146522572875094e-05,0.9747767474993229,0.009245392862022337,0.0004549556575194984,2.743721383818729e-06,0,127.31080950930959,22,3
2,X,1937,0.08548170730514423,0.0002888613672815284,0.002560051065412724,0.0005266656118636135,0.12088938980574226,0.0004085116632551733,0.0014478441658130965,7.88860323765997e-06,0.0014728999001825348,1.3867592869704322e-05,0.9829888410160574,0.010692986425181314,0.00043873263461277536,2.812869983557161e-06,0,97.79502893974016,22,3
2,X,1958,0.08723246666734148,0.00037044785924453537,0.0025078384533079837,0.0006395833895913602,0.12336533744021327,0.0005238923866957013,0.0014833488313899898,9.703882322959873e-06,0.0015282796077193065,2.1459618420423953e-05,0.970600421478915,0.01503538058749728,0.0004586975061701556,3.5775572880782747e-06,0,101.62819916565265,22,3
2,X,1979,0.08553742675958412,0.00030423861313352515,0.0034751064514427143,0.0005706790325014198,0.12096818901389916,0.00043025837289101254,0.0015332627400881837,9.11637209860866e-06,0.0015432462677773253,1.775237240399059e-05,0.9935308266103761,0.012865241389305065,0.00046491942835520585,3.22114020916339e-06,0,93.97058262754399,22,3
2,X,2000,0.08688536582384089,0.0003096082606504823,0.0029272357030797583,0.0005648289039736317,0.12287446271982361,0.0004378522012346564,0.0014789825486324023,8.282404580504911e-06,0.0015319797623731084,2.0609009357881517e-05,0.9654060614621887,0.014067508008489535,0.00045552751604151405,3.0236416382391e-06,0,97.2557799005702,22,3
2,X,2021,0.08615983121863806,0.0003140866011839779,0.0027343906846372494,0.0005559971279338017,0.12184840184117474,0.000444185531154051,0.0015264941110860336,8.35589739102153e-06,0.0015500234745627675,1.74822130123133e-05,0.9848199953982173,0.012346527391493669,0.0004662350344732472,3.0662756939981017e-06,0,79.40362811682327,22,3
2,X,2042,0.08703769208277008,0.00029961654640583827,0.0022624269680558504,0.0004983887790448949,0.12308988458110681,0.0004237217834385243,0.0014719027264397126,7.893304673222414e-06,0.001509962110870324,2.09227615726773e-05,0.9747944771881233,0.014483495093331245,0.0004541417282965679,2.8939917292212985e-06,0,112.87403254575715,22,3
2,X,2063,0.08572332253704654,0.0002969882392196663,0.002346218544782371,0.0005406161600469894,0.12123108534357441,0.00042000479576975724,0.0015430166060578891,8.040619233491572e-06,0.001599441250762323,1.538488656622293e-05,0.9647222774343597,0.010553803336889954,0.0004688938401498261,2.934128894885127e-06,0,115.53646615596192,22,3
2,X,2095,0.08821583513664591,0.00029582622606597725,0.003514730932516465,0.000520080909950691,0.12475603046631367,0.0004183614610081543,0.0014613927013886836,8.568012632646214e-06,0.0015027595036783451,2.242568073640176e-05,0.9724727727967071,0.015592036774619535,0.00045700233175144877,3.086685968817463e-06,0,72.73705389696588,22,3
2,X,2116,0.0864730926299356,0.000279570652376866,0.0028540808298979457,0.0005474255550450631,0.12229142037759988,0.0003953726082328579,0.001522835376723561,8.04394569501826e-06,0.0015415323832148036,1.3675382256488768e-05,0.9878711555496156,0.01019957764549554,0.00046680863465609464,2.890986692816728e-06,0,93.21477174397633,22,3
2,X,2137,0.08750698016789402,0.0003090392939243397,0.003952170151537741,0.0005272076733235426,0.12375355815574918,0.00043704756077400653,0.0014824269562604484,7.469946299787371e-06,0.0015177608962898203,1.4846605920241471e-05,0.9767196927291077,0.010747349372681863,0.00045985502052734746,2.829647142010619e-06,0,129.56393662710133,22,3
2,X,2158,0.08684137558411084,0.00031388197986011244,0.003334940242775303,0.0005704107052288259,0.12281225112618532,0.0004438961529026897,0.0015130539190546194,8.97478945821582e-06,0.0015732811920228934,1.9184494328973644e-05,0.9617186849536827,0.013040979677220727,0.00046578557100393877,3.235371261492582e-06,0,131.9502325056684,22,3
2,X,2179,0.08738568497705776,0.00030578479463825843,0.002511028909315312,0.000590175722844323,0.12358202085181791,0.0004324450037448968,0.001483404700821799,7.4497271183591525e-06,0.0015040307497207253,1.305887245863507e-05,0.9862861521263736,0.00989280922222131,0.0004595204862321881,2.812690878905076e-06,0,87.8741644229848,22,3
2,X,2200,0.0849776472571333,0.0003234977195765815,0.003942623045657259,0.0005689847130767437,0.12017654124959476,0.0004574948624219699,0.0015417949530793277,9.165211430114586e-06,0.0015834035541854607,1.6897995683094226e-05,0.9737220489393574,0.01189486588747882,0.0004644470989405048,3.278526939565209e-06,0,105.3910810253169,22,3
2,X,2221,0.08682522981208114,0.0003221730492561327,0.002770583252550154,0.0005838347154732438,0.12278941755640593,0.00045562149568911803,0.001475482209435116,8.89234079350263e-06,0.001491510040003463,1.666998895441989e-05,0.9892539573060402,0.012561484053752774,0.0004541348711624956,3.214108420065235e-06,0,108.61779431297691,22,3
2,X,2242,0.08528633837397076,0.0002894205971819333,0.002536122177208076,0.0005258980378423534,0.1206130964136104,0.0004093025337648104,0.0015548818122324115,8.667372853324065e-06,0.0015999969813333726,1.738336119571127e-05,0.971802966113496,0.01186685551817084,0.0004700908355510659,3.067815102569599e-06,0,84.96720663443644,22,3
2,X,2274,0.0865405488304534,0.0002851880063501557,0.00234206351311986,0.0005261998283089802,0.12238681785123828,0.0004033167464065346,0.0014895195893652956,8.792211849122976e-06,0.001515514420182086,1.7286601381142208e-05,0.9828475199769678,0.012622938040277198,0.0004569522249836896,3.0891422668093468e-06,0,109.0856445883269,22,3
2,X,2295,0.08492474311747762,0.0002736829319937028,0.0032002555666796433,0.0005122631051861752,0.12010172349778803,0.0003870461142155279,0.0015224565467040485,7.931061893350126e-06,0.0015402820488348932,1.4994408634473336e-05,0.9884271181733707,0.01091327914263023,0.00045833611575503034,2.807591297907898e-06,0,82.81492325343754,22,3
2,X,2316,0.08684835418853742,0.0002622495343490622,0.0018113759661239457,0.0005297951962076951,0.12282212036321183,0.0003708768482024727,0.0014970120595424875,8.089133308090212e-06,0.0015277062712975881,1.4960773103617002e-05,0.9799083028381955,0.010960096758248598,0.00046088420404398614,2.852875428445254e-06,0,114.55958045244256,22,3
2,X,2337,0.0852801521243129,0.0003048384059029462,0.0027284089626235654,0.0005513855638070376,0.12060434773544404,0.0004311066079601411,0.0014959314883989025,8.42047581882459e-06,0.0015132131738205363,1.4380085773320673e-05,0.988579477286732,0.010918858823974904,0.00045223544928283733,3.015503349306825e-06,0,83.32187592104584,22,3
2,X,2358,0.08684679556142967,0.00030078135485459874,0.002620784431536644,0.0005399989469945937,0.12281991613161736,0.0004253690713443281,0.001418837047934132,8.328084504864793e-06,0.0014591893727304575,1.7316165425935186e-05,0.9723460672408698,0.012873141324358158,0.00043680867080910136,2.976962062575112e-06,0,99.01277616268325,22,3
2,X,2379,0.0851095351507574,0.00027638426083092464,0.0015660528123820682,0.0005137142940175837,0.12036305889747079,0.0003908663700935566,0.0015112374632273112,9.373804764840864e-06,0.001538922897884991,2.064431588693741e-05,0.9820098624201842,0.0145135045770953,0.000455948573842463,3.1922746439682624e-06,0,101.16769499466658,22,3
2,X,2400,0.08718845542773392,0.00032962258576557413,0.0030634655115973014,0.0005712112180343589,0.1233030961482634,0.0004661567312541637,0.0014822923267241613,8.813868256700834e-06,0.0015068658385619634,1.610154825050615e-05,0.9836923027857256,0.012029038559390182,0.00045813954113359484,3.228142998251469e-06,0,96.87983924427492,22,3
2,X,2421,0.0853857796170548,0.0002596848220498649,0.001918313160132298,0.0005105329992865087,0.1207537275682391,0.0003672497972853628,0.0015473965144861984,7.768042845787386e-06,0.0015698326721208056,1.224070848400514e-05,0.9857079305119211,0.009141160155051396,0.0004683732618219578,2.7491040605489942e-06,0,114.08052098316602,22,3
2,X,2453,0.08746644906686785,0.0002967717602661044,0.0024406011794721127,0.000594501680435654,0.12369623852298006,0.0004196986482976617,0.0014643848168621014,7.674166155542775e-06,0.001493844426123771,1.2204136918741106e-05,0.9802793324749944,0.009514563879950838,0.0004540478723231223,2.8346392105369e-06,0,65.07649365458734,22,3
2,X,2474,0.08522815734136649,0.0003027355092098992,0.0013728309286335564,0.00047516358876969946,0.12053081600822857,0.0004281326629365645,0.0015468363104184793,8.590558365064641e-06,0.0015813128062878014,1.5106173154501832e-05,0.978197548434293,0.010809030786153202,0.0004673393918997293,3.080895656410846e-06,0,112.7786371721004,22,3
2,X,2495,0.08729616337735406,0.0003217687956743386,0.0035979729690483967,0.0005710513530513655,0.12345541819139161,0.00045504979479110697,0.0014765819584283686,8.851326364812248e-06,0.0015285165221269074,1.5064569132067295e-05,0.9660228967454846,0.011143571025392504,0.00045693838965428344,3.2154912874001695e-06,0,90.63397154160634,22,3
2,X,2516,0.08480299974004754,0.0003005320140482036,0.0014562536687195377,0.0005650634480407851,0.1199295523622973,0.00042501645019427103,0.0015707682071437834,8.832629092160986e-06,0.0015913942272048902,1.4271862951368039e-05,0.9870390254605019,0.010448043799390908,0.00047220246437185023,3.138589955763202e-06,0,77.56960685026831,22,3
2,X,2537,0.08653377169778446,0.0002586660632096769,0.0018419545301969257,0.0005020388009397794,0.12237723353830388,0.0003658090547167814,0.0014910094333102557,7.97874816264305e-06,0.001547156297127411,1.6671975256517156e-05,0.9637096368858126,0.011594809363396394,0.0004573734562413856,2.8034803059054405e-06,0,138.12359692358004,22,3
2,X,2558,0.08469717474661054,0.0003043743278255536,0.002009491964966773,0.0005193606519108488,0.11977989322134064,0.00043045030244909244,0.0015722078141601297,8.238382798347816e-06,0.0015801998845064063,1.352474225990206e-05,0.9949423674658899,0.009984787283106682,0.0004720454395366749,2.999335640434294e-06,0,92.24409947899376,22,3
2,X,2579,0.08682891323725277,0.00028112500614572533,0.001572844676583975,0.0005074752902829486,0.12279462670623964,0.00039757079641350446,0.0014770279932294725,8.104880468455018e-06,0.001488965229714891,1.4600171752928056e-05,0.9919828641749383,0.0111464537955582,0.00045462993012617266,2.89656632014775e-06,0,118.50978189200063,22,3
2,X,2600,0.08514584499519941,0.0002869602391619008,0.0021481473918331636,0.0005254945711706583,0.12041440877192833,0.00040582306208458707,0.001547052724325159,8.160725687810475e-06,0.0015572296542017278,1.804697561258029e-05,0.993464721244481,0.012649981359965212,0.0004669533621534541,2.9229998368479393e-06,0,122.89961562326538,22,3
2,X,2632,0.08730251310504028,0.00030958100755572435,0.0035463300748186997,0.0005428015707475245,0.12346439806240284,0.000437813659538433,0.0014550670650912904,7.993757899415901e-06,0.0014645434569715164,1.3812203933035739e-05,0.9935294566814549,0.01084386957555472,0.0004503132111019991,2.9445040410407568e-06,0,80.14524995821323,22,3
2,X,2653,0.0862060375156637,0.0002941722115210502,0.0028086236760571583,0.0005241390784619067,0.12191374741309546,0.000416022331206356,0.001529904278750422,9.20296917882079e-06,0.0015418952997608428,1.9755667427961666e-05,0.9922231937458524,0.014044332579069882,0.0004675271911969627,3.2333686087535462e-06,0,156.5064891179069,22,3
2,X,2674,0.08940247009997246,0.00030749990215707027,0.0026085176295993044,0.0005498091811233903,0.12643418572503617,0.00043487053205892856,0.001394425124036226,7.4079957990088224e-06,0.0014432243410029814,1.675181568755224e-05,0.9661873656226988,0.012333598752496532,0.0004419260975162854,2.7968608782022334e-06,0,119.87660336624361,22,3
2,X,2695,0.08353557037383685,0.00027694422929732673,0.002985156106422683,0.0005057256875058496,0.1181371365632522,0.00039165828509324374,0.001591759688827863,7.606668523510422e-06,0.001629310835080747,1.5088198594477069e-05,0.9769527425679808,0.010180635227620126,0.00047136124941612415,2.741517760142985e-06,0,60.790476706817515,22,3
2,X,2716,0.08992494601262867,0.0003453117000125265,0.002626331600646219,0.0006132001909329304,0.12717307824672786,0.0004883444894038247,0.0013802183535044656,8.364726865408659e-06,0.0014154590024115894,1.934886708918837e-05,0.9751030239328144,0.014580609736764236,0.00043997998028980767,3.15666834200393e-06,0,84.96554303181449,22,3
2,X,2737,0.08391706783006865,0.00033226624187867844,0.004433882581517158,0.0005462592390482672,0.11867665543986605,0.00046989542558356634,0.0015693479307635145,9.693185549499199e-06,0.0016061171335619157,1.8578561679372132e-05,0.97710677382735,0.012812929074112099,0.0004668468918788972,3.4251205686095585e-06,0,107.02041720724459,22,3
2,X,2758,0.08719995407987524,0.0002979318145406476,0.003368166898742671,0.0005561725953439422,0.12331935769807068,0.00042133921278580955,0.0014811410643068511,8.897511488528942e-06,0.001531499148570187,1.869864515980717e-05,0.9671184379629918,0.013159751588558616,0.00045784408843997204,3.1640956511659735e-06,0,116.0428684224669,22,3
2,X,2779,0.08468885428763254,0.00026179714061281276,0.002235918123499678,0.0005006501388245027,0.11976812631540878,0.000370237066845136,0.0015734077280941466,7.887544384455868e-06,0.0015971966487928072,1.282610406053542e-05,0.9851058285674211,0.009325658249062577,0.0004723592980277739,2.7819725843492544e-06,0,74.73071133967096,22,3
2,X,2818,0.08715718765602011,0.0003011898637869369,0.002610580136826029,0.0005637681922225988,0.12325887684144055,0.00042594679021679127,0.0014756771963647585,8.005794459853029e-06,0.0015389289737727408,1.8242670816215597e-05,0.9588988325738529,0.012500780265039714,0.00045593140346372984,2.9326830165671026e-06,0,110.6624258273084,22,3
2,X,2839,0.0847084038965091,0.00033472778636282495,0.003725972571818528,0.0005484954882074674,0.11979577363742111,0.00047337657517743104,0.001514153966135836,9.239508884153865e-06,0.0015503603195363795,2.0389221898301526e-05,0.976646491177373,0.0141594104620523,0.0004546754121846659,3.3054036784122244e-06,0,89.60605178519846,22,3
2,X,2860,0.08658981160672524,0.0003071564762969559,0.003701390288739306,0.0005597903552017325,0.12245648593756209,0.0004343848545498852,0.0014933822086809075,8.486635645351274e-06,0.0015217282083869158,1.7490637704504996e-05,0.9813724950685799,0.012583207525129144,0.0004583979849233403,3.070841947223559e-06,0,70.07451457969847,22,3
2,X,2881,0.0844549068861116,0.00033130431844917825,0.0027802586771185803,0.0005356321286629388,0.11943727472729593,0.0004685350604236027,0.0015581905050803635,7.763402130893619e-06,0.0015837930191433117,1.974871157007111e-05,0.983834684359957,0.01321073143644917,0.0004664986304421772,2.9582152989786323e-06,0,83.46731483547303,22,3
2,X,2902,0.08652766495313277,0.00029494795099181985,0.004150510303763181,0.0005325026205682866,0.12236859729719551,0.00041711939248678664,0.0015053843153965587,7.511678166223082e-06,0.0015354296722421181,1.523669848746194e-05,0.9804319550489827,0.010889987170390449,0.00046175042385308,2.7903699066179638e-06,0,108.33706162047832,22,3
2,X,2923,0.08432695308761669,0.0003001450681810298,0.003074873493802359,0.0004945935165253968,0.11925632073010728,0.0004244692261010097,0.0015561015963991192,8.373806467691504e-06,0.0016082636419717845,2.2240266738388563e-05,0.9675662346574515,0.014357596063686256,0.00046516741941233174,3.001203109535951e-06,0,97.67841453020624,22,3
2,X,2944,0.08756044039125054,0.00033288362577108146,0.0031857779284117176,0.0005867799048844804,0.12382916232866747,0.0004707685382573934,0.0014581691962638897,1.014393823479716e-05,0.0015175480092343863,2.174349154175493e-05,0.9608718718556696,0.015304352494613834,0.00045260650218656375,3.5881168185032378e-06,0,97.67862449834668,22,3
2,X,2965,0.08572359100879404,0.0002891913454728368,0.0008096360677553747,0.0004695575879208986,0.12123146501996085,0.000408978322888609,0.0015136311824655027,8.623973109845933e-06,0.001559295724916017,1.9830906814323062e-05,0.970714636280444,0.013527665147006448,0.00045996560095245686,3.0456071765731723e-06,0,146.90095992954278,22,3
2,X,2997,0.08646404341702671,0.0002697589517989262,0.003134206058026247,0.0004966744800471701,0.1222786228579753,0.0003814967682055914,0.001428307914563642,7.117291813783336e-06,0.001462285849954205,1.4427072175231413e-05,0.9767638212517566,0.010796251302157682,0.00043778645029613557,2.573807673797333e-06,0,95.56499064283216,22,3
2,X,3018,0.08455831202414117,0.0002974179214077627,0.004052422941678342,0.0005228752397230526,0.11958351167591641,0.00042061245814767334,0.00152016690004545,7.64574993312415e-06,0.0015462916911125166,1.6327515160478066e-05,0.9831048752203599,0.011498202247987876,0.0004556721740749188,2.7966475272491515e-06,0,95.82665719138912,22,3
2,X,3039,0.08667325092096098,0.00034003748704179417,0.0051075580599635895,0.0005737975481724119,0.12257448694738937,0.0004808856258897709,0.0014928538217058678,9.28451837555972e-06,0.0015284487356155335,1.6091299610436828e-05,0.9767117384572724,0.011942900560507815,0.0004586773582858105,3.372803583094342e-06,0,99.07254851399726,22,3
2,X,3060,0.084165982181179,0.00031913636917671353,0.004491289534387912,0.00055681091131178,0.1190286734910756,0.0004513269815362153,0.0015587482632632402,1.0431121783508073e-05,0.0015898387242213171,1.7633510988206032e-05,0.9804442674062398,0.012700499084595194,0.0004650691270327312,3.57710564280925e-06,0,102.97978947139283,22,3
2,X,3081,0.08604821961069939,0.00030729955752562313,0.003752789004522528,0.0005910733676073142,0.12169055919150962,0.00043458720196398737,0.001492767789110567,8.390663161828302e-06,0.001513922597850646,1.5966815161063998e-05,0.9860264925233873,0.01178399120401302,0.00045534343167926106,3.0323296715270746e-06,0,77.30799591392768,22,3
2,X,3102,0.083843411592541,0.00030588509575161035,0.004001709550189728,0.0005234111887497696,0.11857248978980106,0.00043258685093972016,0.0016099686993546304,9.144115684489124e-06,0.001637187246828701,1.6786169437279425e-05,0.9833748109589823,0.011526224407338827,0.0004785103172670405,3.230169615352784e-06,0,91.31499760667676,22,3
2,X,3123,0.08683005441304176,0.00031178374799301247,0.0031267907684888363,0.0006203680823462372,0.12279624057251748,0.0004409288049392335,0.0014843370073615893,7.372737908267479e-06,0.001490766818423911,1.771816459988891e-05,0.9956869102646653,0.012825860004957574,0.000456885652890076,2.8002547538940308e-06,0,71.80243721954778,22,3
2,X,3144,0.08468385898832806,0.0002803746810827156,0.0016286911175892368,0.0005028397074449523,0.11976106189538427,0.0003965096765332077,0.0015459578009552717,9.125109408209516e-06,0.0015682044834954261,2.15333913760779e-05,0.9858139147194835,0.014734114693932892,0.00046409106525774883,3.140833088828245e-06,0,85.42889421009056,22,3
