XscanNumber_YscanNumber,Type,BCID,xsec,xsecErr,SBIL,SBILErr
1_2,XY,103,296.48477280597626,3.0739526720621275,0.07205381709827932,0.0008502206434090421
1_2,XY,124,295.6114751642009,3.0911152909536916,0.08061160908937323,0.0009566725860253903
1_2,XY,145,294.3875752448047,3.15685450610664,0.06560772588711894,0.0008013970125592322
1_2,XY,166,295.9423677995314,3.0917645771099447,0.07614888477084658,0.0009015339611077723
1_2,XY,187,293.25005014037976,3.4141653046295457,0.06650485424554714,0.000884948648810969
1_2,XY,208,291.2331375684052,3.3116519075022,0.07602373429456656,0.0009935110359174156
1_2,XY,229,293.7832211275935,3.0930390341985237,0.07124695471061632,0.000863889653686091
1_2,XY,250,295.4097774797294,3.114776361729051,0.07914909139103553,0.0009510419146032261
1_2,XY,282,295.74873782067175,3.065335312325065,0.07406227640627361,0.0008759590634418686
1_2,XY,303,293.33793253759876,2.9259083902243472,0.0805918253042492,0.000918172543238978
1_2,XY,324,292.17100554730285,3.337881790613473,0.07320551430991519,0.0009467741892683103
1_2,XY,345,290.6747025542717,2.9953974431620325,0.0842434676958822,0.0009886406534478386
1_2,XY,366,294.8112455536647,3.396422280096224,0.0739308092109746,0.0009662328339578422
1_2,XY,387,292.32402222669083,3.2589659059556593,0.08422761689988713,0.0010793040275252383
1_2,XY,408,295.63080808373593,3.4334094665823924,0.06927546858136915,0.0009078190301360967
1_2,XY,429,295.47843540588116,3.0146627199095852,0.07899832254255348,0.0009073167832591424
1_2,XY,464,292.9534073986089,3.2853837874839997,0.0746885814789193,0.0009465984446329796
1_2,XY,485,294.4050063489402,3.0235297431063417,0.07747429483305569,0.0009112529803752725
1_2,XY,506,295.8904845486652,3.1686897742265465,0.06608392366717863,0.0007963884016064617
1_2,XY,527,292.1475087890304,3.2057589635243606,0.07614245281833128,0.0009524858184562148
1_2,XY,548,294.51955913547533,3.136631010672572,0.07325009869040103,0.0008824228167936938
1_2,XY,569,293.13424972316426,2.821589507465836,0.08241969871742558,0.0009022008307681892
1_2,XY,590,295.86241718290563,3.1201163784450197,0.0698225840059752,0.0008394418440521372
1_2,XY,611,292.9356424645328,3.032803189602245,0.07886319920832996,0.0009360242941611806
1_2,XY,643,295.2946712486265,3.275881453977536,0.0729156718238383,0.0009262300444474875
1_2,XY,664,294.2840330201998,3.3152551355102218,0.07719662509146331,0.000996961166157808
1_2,XY,685,294.4652800717651,3.364303885771658,0.0659659004489631,0.0008573826028769596
1_2,XY,706,294.6856697638086,3.0501251936674647,0.07299790117386079,0.0008639016001803835
1_2,XY,727,293.7776438536957,3.417395389077629,0.07004915584223614,0.0009260430403510028
1_2,XY,748,293.7064606244279,2.8515637568567866,0.08035207895963384,0.0008841103612198016
1_2,XY,769,288.3913939193668,3.394560016714575,0.06520553352609654,0.0008630683985626637
1_2,XY,790,296.74231446749405,3.362511935390203,0.07168842675964736,0.0009332994422789345
1_2,XY,822,294.8468208250857,3.1951913507394707,0.0747553036058991,0.0009249257545864369
1_2,XY,843,293.8634047623177,3.1018332973378606,0.07569793374332635,0.0009102731743962865
1_2,XY,864,291.9925680673292,3.1344447337085235,0.07160951264411512,0.0008737119389148336
1_2,XY,885,293.8537975181924,2.9507796395971506,0.08297344865240101,0.0009469985193608108
1_2,XY,906,293.07229370444827,3.3151285053742434,0.06864382188702275,0.0008847514671422951
1_2,XY,927,291.25154621944495,3.319931775711468,0.08098098484318894,0.0010417670875672174
1_2,XY,948,294.30180181787415,3.1081820200921118,0.06894583737791035,0.0008201272143441266
1_2,XY,969,292.3807926694942,3.3919425708929976,0.07792961135445187,0.001038354077735032
1_2,XY,1018,292.7341697755536,3.0357937458586646,0.07676954127849782,0.0008999479332324654
1_2,XY,1039,295.58429241968724,2.9446766526545423,0.08104957553612256,0.000917904742229666
1_2,XY,1060,293.19344140647985,3.072494446613037,0.07245288950000917,0.0008558536873978254
1_2,XY,1081,295.4144077518759,2.88359411721063,0.07832388379849453,0.000872363889989711
1_2,XY,1102,292.66533954316895,3.056093697859319,0.06932672021863727,0.0008167251895109825
1_2,XY,1123,295.06225712639684,3.096776523676686,0.07728659647587004,0.000916141727404005
1_2,XY,1144,291.0713821611266,3.8424375555877814,0.07274598572686881,0.001088096913559747
1_2,XY,1165,292.37043273871916,2.8026486667818142,0.08160582216698718,0.000888837542675011
1_2,XY,1197,296.24012574106746,3.3441943357824484,0.07340500674783947,0.0009552099308409465
1_2,XY,1218,294.3855711230983,3.1510639036200483,0.08110701916041178,0.000996981390578448
1_2,XY,1239,296.8117296779923,3.566368077631186,0.07083675726902314,0.0009648847298574821
1_2,XY,1260,294.5653406576372,3.175184830979699,0.0810756969946668,0.0009986447925273449
1_2,XY,1281,294.47738260908056,3.5921809060945447,0.07386616657559042,0.001021224972855298
1_2,XY,1302,292.5128855852418,2.8633631687176657,0.08254815611116431,0.0009187407458765915
1_2,XY,1323,295.969863577923,3.22190515670941,0.06662236267171927,0.0008197251080851328
1_2,XY,1344,293.0955044680153,3.0752215814174666,0.07769791138426266,0.0009286847740624159
1_2,XY,1376,300.2776484862569,2.964129452726396,0.06976049947501292,0.00077684756244163
1_2,XY,1397,297.6901263203276,2.9249128528250123,0.07901454232638726,0.0008873353452662856
1_2,XY,1418,294.6469459956924,3.3607748983746437,0.07306334810256973,0.0009448578174216536
1_2,XY,1439,295.2002546407161,3.3103666416125157,0.07678583787694693,0.0009838467580284536
1_2,XY,1460,293.2544594664051,3.0907715429206557,0.07067912580611597,0.0008429883674272191
1_2,XY,1481,291.12663828367977,3.174542605046867,0.07995286302388958,0.0009912899744165806
1_2,XY,1502,294.7019690909498,3.617170489559896,0.07011700435298142,0.000983188951631085
1_2,XY,1523,296.93634665589127,3.0305875209905353,0.0725698493139916,0.0008327797350957087
1_2,XY,1555,290.7956035928282,3.0328821623318287,0.07385408695777261,0.0008734571574435491
1_2,XY,1576,296.99562788124234,2.890558080101469,0.06908623888991039,0.0007671309592689916
1_2,XY,1597,295.1469462101283,3.123488856937399,0.07169268809214364,0.0008544445591704248
1_2,XY,1618,297.45506542768607,3.2238574199756234,0.07524420944375189,0.0009235797310312893
1_2,XY,1639,293.6116037894737,3.4766599018993727,0.08053120229076155,0.0010829815889335827
1_2,XY,1660,295.5801480780102,2.9301862229955677,0.08347325850038978,0.0009371183820081747
1_2,XY,1681,298.34749553812594,3.29500691707395,0.07505187595578743,0.0009406355021026864
1_2,XY,1702,296.4333615113832,2.828152924758295,0.08150648544855597,0.0008765693161102277
1_2,XY,1734,294.8150074290404,3.2752239932293388,0.07442576616852353,0.0009208431249238995
1_2,XY,1755,294.50811496554934,2.984809678342424,0.07447275355110965,0.0008537713129875495
1_2,XY,1776,295.8281365601932,3.082299817271057,0.07499934137402331,0.0008910957840299136
1_2,XY,1797,296.9912402485394,2.9598168352129273,0.08175422563741876,0.0009224124404559368
1_2,XY,1818,295.41218211985296,3.084106054982779,0.07489047724394612,0.0008868906449096964
1_2,XY,1839,307.76573514209196,3.0893792759472065,0.07207966316053722,0.0008162181405507723
1_2,XY,1860,291.43174849898224,3.2285403456622714,0.07762628677700459,0.000980748875336963
1_2,XY,1881,293.63397288082916,2.975858758297584,0.08198369703872255,0.0009408316207692211
1_2,XY,1916,293.7617797459974,3.3615246703135564,0.07604099171804156,0.0009799496769990366
1_2,XY,1937,296.408151146843,2.9170528193635623,0.07254459671063158,0.0008139616195681537
1_2,XY,1958,298.34988925802435,2.9670056252541506,0.07105389243155259,0.0008035266230498573
1_2,XY,1979,295.00684474325635,3.274038734830692,0.07807911382531013,0.0009855805500827517
1_2,XY,2000,293.08200196154786,2.8325674282190327,0.07741351492979572,0.0008400274766177077
1_2,XY,2021,291.4641438446786,3.0396217008921202,0.0824230387881987,0.000979077794544262
1_2,XY,2042,294.9832319911918,3.1200526123087164,0.07482082105777822,0.0009009398970898238
1_2,XY,2063,288.65958300279374,2.7960335271094134,0.08301406083848999,0.0009162990241421252
1_2,XY,2095,292.1834962356554,3.246454873648859,0.07510543162829403,0.0009506207368096339
1_2,XY,2116,289.0060814198506,2.85708461314416,0.07910702769122162,0.0008844568250040366
1_2,XY,2137,294.32098182741333,3.429902698958209,0.07382237984517685,0.0009840322848988794
1_2,XY,2158,292.2702295165989,3.0893130337370587,0.08136126886355051,0.0009772369173541911
1_2,XY,2179,295.28008916351473,2.774604293255253,0.07526333568352898,0.0008026039883633789
1_2,XY,2200,296.3509847155623,2.866603588192975,0.08159036536431298,0.0009025940782361673
1_2,XY,2221,295.0316187785221,3.0629100765138952,0.07628799618488837,0.0008962426478578522
1_2,XY,2242,291.38020948657316,3.3331500646294576,0.08239364148331088,0.0010691795860616905
1_2,XY,2274,294.77269560288363,3.2030715470087494,0.07646385383570053,0.0009422513186344537
1_2,XY,2295,298.9748365152737,2.7138534790241104,0.08085762921507673,0.0008312958750812696
1_2,XY,2316,291.1129811569851,3.1572022778710127,0.07621557693948056,0.0009420430624082344
1_2,XY,2337,296.9730364738328,2.7665518107619915,0.07882248157082514,0.0008350698043389541
1_2,XY,2358,292.4553644678762,3.360723979416109,0.07483721900984464,0.000981120080364176
1_2,XY,2379,296.2277269951172,2.6867398381659,0.08104798228143024,0.0008266337290199154
1_2,XY,2400,293.55358411453585,2.9238797502639287,0.07260536231377848,0.0008168085126472602
1_2,XY,2421,295.64739195563004,3.3056763740587427,0.0791311187678959,0.001012791267429953
1_2,XY,2453,295.3065650255251,3.1529051185858052,0.07814010855165394,0.0009516573927567112
1_2,XY,2474,294.78919958420414,2.966455326577494,0.0826255120740383,0.0009448658398610922
1_2,XY,2495,293.90334147940274,3.33537176576791,0.07637637909198532,0.0009871115013048285
1_2,XY,2516,291.98343229627,3.0037996959696325,0.08237073163918025,0.0009759040054996048
1_2,XY,2537,294.15329763696343,2.9769141365088987,0.07727092112556919,0.0008827768313842901
1_2,XY,2558,292.1387662266477,3.2418042541825076,0.0851965165284929,0.0010730846728512057
1_2,XY,2579,290.9236102300631,2.7250130030354667,0.07923482023480526,0.0008410056295607666
1_2,XY,2600,292.948478450585,2.9918319719727373,0.08415397264239952,0.0009818350156039584
1_2,XY,2632,294.7259447018745,3.1891480401680607,0.07743223803379523,0.0009523050414878899
1_2,XY,2653,291.9492343057858,2.600480773944843,0.08091974058805136,0.0008178799584806954
1_2,XY,2674,295.7226036948696,3.165029958663729,0.07690705217392232,0.0009285838089518121
1_2,XY,2695,295.4459366590393,3.143530048619382,0.08440931716552791,0.0010202558321584759
1_2,XY,2716,293.16419979967105,3.1137063770424045,0.07579239953085125,0.0009104750471332338
1_2,XY,2737,292.90390842663777,2.805703770796263,0.08069665154507238,0.0008681691864543823
1_2,XY,2758,295.249336742666,2.724501625411433,0.07286292235659365,0.0007687713043535712
1_2,XY,2779,296.3931273211194,2.9437243860631934,0.0778314616879203,0.0008808373263531386
1_2,XY,2818,294.73164894604855,3.467138159250005,0.07741627027815583,0.0010261829000126014
1_2,XY,2839,296.79336688865965,2.8617298454010016,0.08104429380964845,0.0008875827625474509
1_2,XY,2860,293.03491181712974,2.9624229350264395,0.07739299453030977,0.0008886970793910013
1_2,XY,2881,295.10791920907866,2.918973637907663,0.08259583470823278,0.0009317891022730096
1_2,XY,2902,292.1084516616489,2.9411260628601053,0.0776667310253656,0.0009024081352691378
1_2,XY,2923,294.3902621390582,3.193989459401514,0.08346940522635321,0.0010267268693899209
1_2,XY,2944,292.2196821014597,3.1217303687692253,0.07473545919812882,0.0009056734671380148
1_2,XY,2965,292.167640506769,3.440981670757271,0.07969247542368936,0.0010456233150887362
1_2,XY,2997,295.0895931752907,3.162351141804736,0.07435857951341408,0.0008954652625805432
1_2,XY,3018,295.2900341375251,2.7854120206120028,0.07881012207255884,0.0008424463054815318
1_2,XY,3039,294.36085481832663,3.0725893159022166,0.0720913372021878,0.0008616989734110057
1_2,XY,3060,295.0874139895594,3.0276632611067558,0.07819446197991038,0.0009045146484511924
1_2,XY,3081,295.10278921342865,3.3183582941964507,0.07531593167428713,0.0009438291821871062
1_2,XY,3102,295.8461221672171,2.69595293751497,0.08225143011495917,0.0008494828022804594
1_2,XY,3123,291.99077036426416,3.059929076801278,0.07798393465643873,0.0009165424106359966
1_2,XY,3144,295.8463083373047,2.889082148194763,0.08301431418038153,0.0009277825852619955
