Scan,Type,BCID,sigma,sigmaErr,Mean,MeanErr,CapSigma,CapSigmaErr,peak,peakErr,rate0sep,rate0sepErr,peakRateRatio,peakRateRatioErr,area,areaErr,fitStatus,chi2,ndof,covStatus
1,X,103,0.0896408241255201,0.00035658019261042664,0.004451885010778135,0.0005837486661675621,0.12677126922061188,0.0005042805444632759,0.003134903755065981,1.910064099453475e-05,0.0032413210257432375,4.1617239996486685e-05,0.9671685495413541,0.013745316339648327,0.0009961735003727356,7.248617497715595e-06,0,90.45981239036368,22,3
1,X,124,0.08727251140514761,0.00037262649254953055,0.005135985158535818,0.0006706943222704743,0.12342196925152038,0.0005269734394630632,0.0034247960053609464,2.2701460125766283e-05,0.003546557506390296,5.829336677437539e-05,0.9656676930206387,0.01711439390007611,0.0010595394071569821,8.354119239796774e-06,0,88.21785636099774,22,3
1,X,145,0.0886085744731664,0.0003754276582975586,0.0016052444466124786,0.0006787331919765098,0.12531144776249836,0.0005309348860543794,0.003301132155912235,2.289862548505163e-05,0.0033725750460162325,4.199642686724381e-05,0.9788165158286433,0.013952066507967778,0.0010369160403265545,8.428277750825618e-06,0,94.48762650517284,22,3
1,X,166,0.08680725450181064,0.00034675707636595767,0.002565063302486234,0.000589473707466596,0.12276399662883353,0.0004903885602455804,0.0034287239006616406,2.2058599978414164e-05,0.003550168923275035,4.536898068062865e-05,0.9657917622406088,0.013817988920970907,0.0010550996223275082,7.98997491236969e-06,0,119.60700398703175,22,3
1,X,187,0.089523833915701,0.0004014366736189961,0.003298668733939581,0.0006929419164450191,0.12660582007922083,0.000567717188265926,0.0032450900175106257,2.3458084984260766e-05,0.0034021954265874917,4.531611468003953e-05,0.9538223442871276,0.014455020032506047,0.0010298414158670117,8.76048817400596e-06,0,191.14774645075926,22,3
1,X,208,0.0867308666272965,0.0003822187895147979,0.004739716030453598,0.0005935479402713026,0.12265596786069477,0.0005405389959256546,0.0033134132905669024,2.495446119953368e-05,0.0035287964729261573,6.20321299273009e-05,0.9389641244510046,0.017956976334526465,0.0010187185817156956,8.889298740840772e-06,0,152.39770046120887,22,3
1,X,229,0.08760174148277287,0.00037515828502592214,0.0031693383818890528,0.0006332140734563228,0.12388757089243918,0.0005305539347202903,0.0033502410458183273,2.1458692320235524e-05,0.0034796015875228465,3.611068447750054e-05,0.9628231743058228,0.011741893270089544,0.0010403841494386942,8.01607236387734e-06,0,146.49022484639772,22,3
1,X,250,0.08784536440966847,0.00032180119833066974,0.004007743285560686,0.0005976739970720775,0.12423210573975996,0.00045509561906714735,0.003437990273709348,2.2063865086621087e-05,0.003656813666531574,4.216735936683353e-05,0.9401600921520903,0.012407064788893644,0.0010706029222722418,7.911309803423198e-06,0,171.16056559429154,22,3
1,X,282,0.08920641116799337,0.00033653004007051047,0.005432647226758689,0.0006255392380236092,0.12615691652440697,0.00047592534681367704,0.0032530566030487527,2.016625771794963e-05,0.0033641134806889164,3.474587241684395e-05,0.9669877730707761,0.011648304067761673,0.0010287091904799734,7.4651544133047995e-06,0,103.82971088577042,22,3
1,X,303,0.08677902474481353,0.0003530101234648763,0.0036133008405702226,0.0005845318511902555,0.1227240737236257,0.0004992317042590289,0.0034638704721468476,2.2542961807210358e-05,0.0036936057891281187,4.530157560625786e-05,0.937801885177492,0.013020977168607898,0.0010655684194843572,8.178012708362685e-06,0,138.7301508669631,22,3
1,X,324,0.08826925609233587,0.00035561488819151743,0.0030691358744211516,0.0006606439683213896,0.12483157910636533,0.0005029153978622358,0.0033171266161535593,2.3529963886742793e-05,0.003484928675668411,4.602419189423098e-05,0.9518492126721454,0.014269255239406874,0.0010379500342092994,8.467297414766526e-06,0,155.94073473093553,22,3
1,X,345,0.08624651804772544,0.00034422818562120533,0.002618518723824492,0.0006067977861114928,0.12197099553054924,0.0004868121686565918,0.003510198777175889,2.2039235713229087e-05,0.003671226327998693,4.933575523202012e-05,0.9561379396321269,0.014182279001086203,0.001073193944074929,7.984372487848973e-06,0,164.6765038136602,22,3
1,X,366,0.08789345847217724,0.0003529905240020884,0.003988337523066977,0.0006247081886756608,0.12430012101522947,0.000499203986432939,0.003366795961827208,2.02094423670071e-05,0.00347336143361922,4.3588536871199823e-05,0.9693192102726346,0.013484267304461362,0.0010490067512212598,7.576131428600282e-06,0,119.12821622841237,22,3
1,X,387,0.08606438394178523,0.0003415497046348068,0.0037833259588678204,0.0005967582210930775,0.1217134190077579,0.00048302422451906857,0.0034862987999115013,2.624269039340185e-05,0.003671775615818377,5.01258044474289e-05,0.9494857977955343,0.014801903155842695,0.0010636359379930696,9.050955197256935e-06,0,159.09033178601348,22,3
1,X,408,0.08827418728142881,0.00035440178294213957,0.0037112105837806544,0.0006704688265610249,0.12483855286085921,0.0005011998079659796,0.003343777823509571,2.3323967445351132e-05,0.00349981075651986,3.904202432736153e-05,0.9554167514001686,0.012570167181041453,0.0010463478179227582,8.421232885472174e-06,0,98.65868121254519,22,3
1,X,429,0.08659208719070582,0.0003265783918497221,0.00421477771165298,0.0005906825319281678,0.12245970409928975,0.0004618515909318721,0.0035194639907073205,1.809124520086713e-05,0.0036047015426823644,5.1734760868989676e-05,0.9763537838110125,0.014884310301933627,0.00108033803400442,6.887695032822041e-06,0,103.18288326721975,22,3
1,X,464,0.08876822835551341,0.0003694342169818106,0.004944062020848498,0.0006689128043081472,0.12553723244819903,0.0005224588800603613,0.0032644983128597206,2.0962879058084537e-05,0.003364505769945355,4.600469630958254e-05,0.9702757361931174,0.014657296049650406,0.0010272565823703868,7.860743602731505e-06,0,83.82630454307966,22,3
1,X,485,0.08775662385256472,0.0003380777294643682,0.004399213479045822,0.0006351675643064457,0.12410660764037129,0.00047811411014481164,0.003400881675376456,2.101861361751993e-05,0.003417120411971657,4.433621147238124e-05,0.9952478301501142,0.014303211645260057,0.0010579773276790008,7.704950450577557e-06,0,83.0823185557297,22,3
1,X,506,0.0881192545351749,0.0003624339633265331,0.0046731927951972774,0.0007156054860441977,0.12461944486985121,0.000512559026401016,0.003309878216064728,2.1235074106305303e-05,0.0033985936556492073,4.040470724985657e-05,0.9738964264124325,0.013156648315150907,0.0010339219634924377,7.879373606711356e-06,0,70.83580257344333,22,3
1,X,527,0.08683949711606173,0.00035591635841836184,0.005170201642901075,0.0006297878923812054,0.12280959457119378,0.0005033417411456909,0.003441909858902295,2.187890270498048e-05,0.003565390010958075,4.713162012824079e-05,0.9653670000543366,0.014160125787804137,0.0010595506545384142,8.01378468906341e-06,0,110.34077317671554,22,3
1,X,548,0.08671073710457877,0.0003163293332747486,0.006183886235133571,0.000600864519807744,0.12262750041666326,0.00044735723329358823,0.003402356450044533,2.2779607323937543e-05,0.003524406961015082,3.7683403484329984e-05,0.9653699154721347,0.012178509931089997,0.0010458216325821515,7.973998675652915e-06,0,132.01230535912018,22,3
1,X,569,0.0860116642007442,0.0003141566324438002,0.005405490820384057,0.0005949935724988549,0.12163886203497287,0.0004442845703114817,0.003484736211915644,2.1119573939234997e-05,0.003663401845471671,4.376680653904137e-05,0.9512295835694695,0.012743017495270315,0.0010625079569980787,7.518434410363992e-06,0,129.54394889854262,22,3
1,X,590,0.08838176220724006,0.0003872305417359243,0.0036015860054657953,0.0006596182236002544,0.12499068677991276,0.000547626683888025,0.0033273408128671176,2.2838524932498803e-05,0.003509532852631219,4.0161710427300034e-05,0.9480865267787689,0.012651510328464568,0.001042473144066383,8.488908335234767e-06,0,127.11227357240908,22,3
1,X,611,0.086722159499785,0.0003311457265149807,0.0046996351215226155,0.0006183103304440509,0.1226436541228787,0.00046831077755937756,0.0034469423742525544,2.186781949894197e-05,0.0035475844250035687,4.096394065469936e-05,0.9716308229223007,0.012801248870016409,0.0010596660948143674,7.846436644122063e-06,0,147.56375918911434,22,3
1,X,643,0.08962705953015528,0.0003490518861127993,0.005538178610535025,0.0006362334791603713,0.12675180314316636,0.0004936339113126298,0.0032047370460581764,2.216846843259662e-05,0.003287831618944648,4.1390370669129087e-05,0.9747266336853516,0.014001239763287604,0.001018207944213976,8.082902559753276e-06,0,93.84426428231428,22,3
1,X,664,0.08722833732193226,0.0003412724578442654,0.004721258032939816,0.0006106441318234649,0.12335949766393184,0.00048263213834776053,0.003362504289364383,2.0611154965951776e-05,0.0034922498355070843,6.346285957311624e-05,0.9628475761317168,0.018465912875979328,0.001039741487443798,7.560870344830085e-06,0,85.72411305445331,22,3
1,X,685,0.08981421996688121,0.0004002680856360149,0.005591060647497777,0.0006857182654671447,0.12701648797112386,0.0005660645552915677,0.003210182138194122,2.1156265456169736e-05,0.003347107867690441,4.4806221164342277e-05,0.9590913305131096,0.014310483424033911,0.0010220678052242518,8.131342353475624e-06,0,111.452836074951,22,3
1,X,706,0.08717274453456215,0.00033704968906323677,0.005630185164076922,0.0006254501061264746,0.1232808775900629,0.00047666024146686414,0.003184007741440204,2.2186562574852596e-05,0.003274393203563024,4.597618105176839e-05,0.9723962711550747,0.015242388169844972,0.0009839199500823147,7.840814287786264e-06,0,111.607180025059,22,3
1,X,727,0.08834208755040888,0.00038207397061436744,0.005144751399764769,0.0006908603708702004,0.12493457834213961,0.0005403341910725779,0.0033176298511236814,2.1610534420771496e-05,0.0034001345157233724,4.323854009042528e-05,0.9757348821882894,0.013941234862395896,0.0010389640479528978,8.123562034194494e-06,0,90.60913571402918,22,3
1,X,748,0.08651214572243805,0.00029926324079152574,0.005823010349778974,0.000560633165362548,0.12234664979066945,0.00042322213384710095,0.0034880138018808567,2.1435792162894296e-05,0.0035131200541328954,4.6802541365680044e-05,0.9928535740694363,0.014566529138573045,0.001069695602718087,7.543742268217808e-06,0,125.62100918295666,22,3
1,X,769,0.08937452444250507,0.0004157085993117739,0.0056349681673976,0.000782501860981368,0.12639466459723636,0.0005879007391418334,0.003219349092509461,2.2561270499672503e-05,0.003371731348374392,4.523396760234462e-05,0.9548059319914681,0.014451739025209707,0.00101996847353382,8.579084545792934e-06,0,143.39001775925493,22,3
1,X,790,0.08807376014294263,0.0003505548847256138,0.005530131747663475,0.0006495603724067107,0.12455510608334441,0.0004957594723351,0.00340912689189612,2.56180431183131e-05,0.0034512206879510655,5.5273634474824714e-05,0.9878032151922641,0.01747519396298917,0.0010643749297377769,9.05098895688227e-06,0,82.52551309483867,22,3
1,X,822,0.08971688284921082,0.00036551326879140334,0.004772417014439504,0.0006445394730640716,0.12687883249919207,0.0005169138219521252,0.003190666348756455,2.076482507398088e-05,0.0032743483865639612,4.282736249259071e-05,0.9744431477875448,0.014235925129988076,0.0010147533643646992,7.791298456517783e-06,0,115.6219992421096,22,3
1,X,843,0.08734175185483141,0.00035572387737047077,0.005638118015033041,0.00062639631108249,0.12351989003452801,0.0005030695318372636,0.0031898737406047145,2.062019497596172e-05,0.00327741458159809,3.989098094629847e-05,0.9732896651266224,0.013413458289055985,0.000987643759561033,7.545901799364526e-06,0,104.23939402731177,22,3
1,X,864,0.08867410015506702,0.0003619292940758712,0.00434350646255339,0.0006782634054077841,0.12540411507052596,0.0005118453163022174,0.003323498614611191,2.443808126556675e-05,0.0034088908759476156,4.628836702758844e-05,0.9749501335056122,0.01505500862904373,0.0010447135417285258,8.786006813423996e-06,0,135.3866475820409,22,3
1,X,885,0.0860764633093537,0.00033359897575456547,0.005674473552720145,0.0006070619496266413,0.12173050181319811,0.00047178019590587983,0.003535174720916129,2.225942941216854e-05,0.003690984087428936,4.275072321337004e-05,0.9577864973616452,0.012626819820521258,0.0010786988843133598,7.97559052107721e-06,0,131.91463248148082,22,3
1,X,906,0.0892446027977625,0.00033234098136985,0.005318764433322562,0.0006578991246833592,0.1262109276451956,0.00047000112318562604,0.0033073988859909343,2.1635808103632166e-05,0.003365138604614719,3.766813073012513e-05,0.9828418007672538,0.012742515813793013,0.0010463415436277313,7.876159494275475e-06,0,98.888754371374,22,3
1,X,927,0.08698603885376321,0.0003501648184517811,0.004991974582358419,0.0006394662453565013,0.12301683588410495,0.0004952078353204215,0.0034812970427937815,2.187757548171454e-05,0.0036835373977954704,4.9730567731961954e-05,0.9450961580781762,0.014074105419597095,0.0010734839800540842,8.01149431487891e-06,0,121.85012181623671,22,3
1,X,948,0.08798430689012005,0.0003906395381185663,0.0058291408854554225,0.0006367430367055952,0.12442860008000434,0.0005524477328064381,0.003330995241087677,2.1168715151926795e-05,0.0034943845520188626,5.045753563932828e-05,0.9532423210728801,0.015038561841035346,0.0010389249149141016,8.05414463028037e-06,0,102.38301962749279,22,3
1,X,969,0.08704457804230298,0.00038540027918066274,0.004826798709179448,0.0006616435985140651,0.1230996227984682,0.0005450383017596705,0.0034228324569579222,2.5919796400555367e-05,0.0036318996258031806,6.450199007613578e-05,0.9424358626653885,0.01819552412508603,0.0010561662803197864,9.264711492914294e-06,0,122.26745042569803,22,3
1,X,1018,0.08705215655505916,0.0003365226700011636,0.0032063973679446528,0.0006255402825084964,0.1231103404339906,0.00047591492396165114,0.00336425209491641,2.1975460293278762e-05,0.00347743374969623,3.736733232071761e-05,0.9674525345623891,0.012165958827584466,0.0010381808122572659,7.880042730486734e-06,0,104.91968419305081,22,3
1,X,1039,0.08535889902106185,0.0003204352464111668,0.004203429487180647,0.0005647681826714043,0.12071571266482117,0.00045316387133703673,0.003524516009765395,2.01622911606452e-05,0.0036027316379803097,4.500978980588208e-05,0.97828990996988,0.01344236275869976,0.0010664812500928232,7.297212003135411e-06,0,124.14374426057017,22,3
1,X,1060,0.08662521603998966,0.0003117839325795585,0.004354415842325785,0.0005805688313479008,0.12250655536725275,0.00044092906598403037,0.003438659964819895,2.1168272695771063e-05,0.0035368554839662536,4.9508247452354174e-05,0.9722364909758084,0.014867105482534618,0.001055938184705506,7.529835740687783e-06,0,83.03274207317743,22,3
1,X,1081,0.08612282507391454,0.0003295066486868744,0.004885791147599011,0.0006156679126281654,0.12179606724941561,0.00046599277146508467,0.003344066501244161,2.2021764775332667e-05,0.0034330163052768386,4.884057240509735e-05,0.9740898975935668,0.015270739813400583,0.0010209350286518016,7.775534309353646e-06,0,94.28338689892551,22,3
1,X,1102,0.08736122505456498,0.0003471572112325413,0.004611204434695992,0.0006504174518462527,0.12354742929769402,0.0004909544364006813,0.003363151409311777,2.1612291250647466e-05,0.003491350299857634,4.488093695796599e-05,0.9632810003192507,0.013843938860323245,0.0010415258832462788,7.869365212185149e-06,0,71.68917366486616,22,3
1,X,1123,0.08649828706833916,0.00034648813190933805,0.004509740652571846,0.0006008331825779865,0.12232705069408656,0.0004900082153475038,0.0035043450972843545,2.0465909833036468e-05,0.0036796452863541436,4.12609493447564e-05,0.9523594870081948,0.012040678161735187,0.0010745318844964857,7.609718725030379e-06,0,109.7274455140069,22,3
1,X,1144,0.08803758672519955,0.0003629184060561799,0.0043655228097631464,0.0006178863561948622,0.12450394914537477,0.0005132441318794756,0.003333444016564386,2.2020499881075358e-05,0.0035030338395633594,4.295660993393183e-05,0.9515877291610427,0.013254487430834691,0.0010403182733594151,8.100584786453149e-06,0,89.37942209814513,22,3
1,X,1165,0.08766842274429915,0.00034236718472763753,0.004409436802691383,0.0005764663804730876,0.12398187243684577,0.0004841803159533198,0.003409437635181062,2.08053710267305e-05,0.0034662403597545354,4.813328654573465e-05,0.9836125834685348,0.014919412631896807,0.0010595729826907599,7.676524403560576e-06,0,171.23279949232102,22,3
1,X,1197,0.08705886842308606,0.00036443565521910237,0.003354693096963312,0.0006314675746493633,0.1231198324487831,0.0005153898462231798,0.003367445454870182,2.314632522983352e-05,0.003430818482595873,4.886626836408467e-05,0.9815283064239118,0.0155229912748035,0.0010392463786160883,8.363774848863799e-06,0,106.3803740621342,22,3
1,X,1218,0.08558677379062027,0.0003138941077796555,0.004265590770396276,0.0005534479829569078,0.12103797625445334,0.00044391330437099086,0.0035269417770553615,2.325875720829497e-05,0.0036723995062696337,5.08008987326176e-05,0.9603916379560714,0.014717671496276993,0.0010700643076299345,8.074530571706525e-06,0,81.05448296112527,22,3
1,X,1239,0.08755755649244239,0.000398763666729338,0.0041910902437310585,0.0007150026840581641,0.12382508387986046,0.0005639369856702547,0.0034125420752680845,2.423215669913399e-05,0.0035005526802310643,6.21120478092303e-05,0.9748580829935773,0.018631133017015935,0.001059196604301824,8.935289378585452e-06,0,72.85879867816267,22,3
1,X,1260,0.08543880920784923,0.0003277490853166811,0.0041130446315018636,0.0006086335578452186,0.12082872273474765,0.00046350720151022706,0.0034635669317494215,2.332033517791167e-05,0.003550650472140826,5.231281759735266e-05,0.975473919194615,0.015801597088362155,0.0010490198432928208,8.129006825728413e-06,0,64.42978813594762,22,3
1,X,1281,0.08770624525694246,0.0003429097075938996,0.004949903963565486,0.0006473881746845863,0.12403536154718897,0.00048494755914868515,0.0034133135517377265,2.2909305606854436e-05,0.0035534393303236988,6.178061574644764e-05,0.9605661542072234,0.017901759403751657,0.0010612351742655458,8.243123016964346e-06,0,82.60212469005471,22,3
1,X,1302,0.08486082189423631,0.0003351985501996822,0.005787636050973993,0.0006014815556357187,0.12001132523695668,0.0004740423357801893,0.0035797966593864032,2.1721047221134542e-05,0.003705257057323066,4.739261107277806e-05,0.9661398936711549,0.013677524113586368,0.001076887966699079,7.796775773841416e-06,0,106.32110350358396,22,3
1,X,1323,0.08757027801940212,0.00037122788832997687,0.003485449639503113,0.0006806484779583704,0.12384307483582102,0.0005249955144073781,0.003379627817373938,2.0362187357348568e-05,0.0034385840519427667,3.560511192065244e-05,0.9828545024119685,0.011774490758553698,0.001049132973028346,7.728855724228893e-06,0,95.8690995719444,22,3
1,X,1344,0.08718686705829289,0.00034383020563743725,0.003747403679349632,0.0006220037372481079,0.12330084985465783,0.00048624933996599395,0.0034542418302822243,2.2247920041091986e-05,0.0035747519276541437,5.566293421948553e-05,0.9662885425867854,0.016282562857680462,0.0010676004379599406,8.062701512214526e-06,0,110.04266573646649,22,3
1,X,1376,0.08937273434262424,0.0003596178563947711,0.004559934215204595,0.0007055345878251593,0.1263921330137069,0.0005085764497850254,0.0032812831161323267,1.932424004641681e-05,0.0033194540515633975,3.098770553678406e-05,0.9885008393434176,0.01091067953165127,0.0010395698637219156,7.414838383953351e-06,0,73.71455635602196,22,3
1,X,1397,0.08649875551795591,0.000325127420833917,0.0030784372146544507,0.0005693642329780515,0.12232771318188784,0.00045979960804271025,0.0034649191038459825,2.1210979316196542e-05,0.0035334612060409333,4.77633548127073e-05,0.9806019938530048,0.014551144691685334,0.0010624485073560356,7.632098595639002e-06,0,117.38692563007608,22,3
1,X,1418,0.0881127276301885,0.0003958929617953334,0.0027301056676395695,0.0006919527832544442,0.12461021443229914,0.0005598771958190141,0.003356010343880243,2.3293459151376745e-05,0.0035099799717802065,5.580374708618308e-05,0.9561337588425404,0.016586654488469302,0.0010482548206400366,8.667125593871818e-06,0,129.16581436579582,22,3
1,X,1439,0.08816753497555097,0.00031363639563122364,0.0036490528095311416,0.000608873399994737,0.1246877237234284,0.00044354884435549025,0.003188067190400625,2.0803766523218593e-05,0.003342205584869509,4.940963946635762e-05,0.9538812348448331,0.015414420563846443,0.0009964169269008174,7.405497265218713e-06,0,130.53542328823616,22,3
1,X,1460,0.08820484289221932,0.00034935497911753614,0.003710159564219233,0.000628476611235077,0.12474048508516467,0.000494062549550589,0.0033393622425770806,2.1663288122258415e-05,0.003468683578589557,3.733779567300286e-05,0.9627174594965329,0.012099395560642915,0.0010441451971322626,7.936312829272659e-06,0,141.28105239377064,22,3
1,X,1481,0.08626346165542696,0.00034731902832113484,0.00409268289343003,0.0006060831061370448,0.12199495741035626,0.000491183280321994,0.0034799894511071063,2.3272093833539304e-05,0.0035971443243165984,5.291043425833448e-05,0.9674311446395052,0.01563161464556781,0.0010641668876237161,8.306783857748792e-06,0,141.40342047754612,22,3
1,X,1502,0.08819049521534904,0.00039448278284926776,0.0054154536345521346,0.0006526859645669328,0.12472019440594617,0.000557882901628115,0.003317897538538334,2.4521415226516983e-05,0.003451865692135324,5.4559739073516604e-05,0.9611896390110944,0.01677123618478265,0.0010372649036074072,8.96079798954798e-06,0,151.97054839081318,22,3
1,X,1523,0.08847330708957751,0.0003278250523989686,0.003413351406885053,0.0006313265263477228,0.12512015079408023,0.00046361463518829193,0.0031958646253692205,1.8915480037991224e-05,0.0033489398410144347,3.643762404605825e-05,0.9542914406014394,0.011819868102474186,0.0010023180883242065,6.999101792102954e-06,0,113.22953789316989,22,3
1,X,1555,0.08918824612995772,0.0003600950947643955,0.003997611633136712,0.000624105881668949,0.12613122728125592,0.0005092513667598331,0.003059663629917376,1.760410177287181e-05,0.0031950421231435808,4.39787028331917e-05,0.957628573268071,0.014286655023302506,0.0009673557997436943,6.799429404576375e-06,0,157.1267083739591,22,3
1,X,1576,0.09002681903082954,0.0003304214480235062,0.005340250942544191,0.000620678547874214,0.1273171484507074,0.0004672864930937992,0.002995254041951072,1.922827383603584e-05,0.0029596054670844615,3.9225280957845196e-05,1.0120450429163885,0.01490380620182688,0.0009558956827612712,7.0685747455637315e-06,0,121.06206475662047,22,3
1,X,1597,0.08886236634888163,0.00037299063690578605,0.004336276101971187,0.000667025492896922,0.12567036367515494,0.0005274884173503414,0.0031007574391537507,2.108347797579238e-05,0.0032419666603679706,5.3065293976620825e-05,0.9564433456579123,0.016952320926274318,0.000976766149365738,7.805015927980539e-06,0,140.87121254220176,22,3
1,X,1618,0.0866675504640964,0.0003498628587702015,0.003703850032312996,0.0006207298562609897,0.12256642528397976,0.0004947807998434417,0.0033149739985704843,1.8841508900372903e-05,0.003395517818006438,4.0722402529699935e-05,0.9762793707019207,0.012956843818567834,0.001018454380180722,7.100107222292268e-06,0,135.21684381134952,22,3
1,X,1639,0.08805061383325127,0.00035980487531944683,0.003944204447647643,0.0006591940130277029,0.12452237225826002,0.0005088409344847222,0.003307397932277781,2.255273226950641e-05,0.003458819600847234,4.7165741436702846e-05,0.9562215767100538,0.014578776960525954,0.0010323424133307638,8.206650775234872e-06,0,106.6107263417253,22,3
1,X,1660,0.08631732383747635,0.00029946706815535445,0.0033327607097795786,0.0005815459457425933,0.12207113003870951,0.0004235103892694103,0.0034230607453501136,1.956977097907616e-05,0.0035372763478640056,3.964754743515631e-05,0.9677108624597958,0.012176052967452097,0.001047411903685842,7.004444240451205e-06,0,153.04377582207456,22,3
1,X,1681,0.08852682737863059,0.00035987856343529684,0.004826986091566549,0.0006302018486545497,0.1251958399127212,0.0005089451452175431,0.0033359642452206882,2.0647545914223844e-05,0.003427870031017839,4.5302176017719254e-05,0.9731886608985986,0.014202113612783092,0.0010468904052459795,7.75223549628626e-06,0,148.91347539078313,22,3
1,X,1702,0.08736748588027896,0.00033110361830640593,0.0038299332772123358,0.0006242428661241109,0.12355628344233038,0.0004682512275597239,0.0034824868803410894,1.9654868071577363e-05,0.003491004954636304,3.5839242715601924e-05,0.9975599936391091,0.011686703968637031,0.001078559874974022,7.3323226952671524e-06,0,142.05062959235903,22,3
1,X,1734,0.08836307288116646,0.00035781342019419423,0.002815545324394507,0.0006601675701872992,0.12496425608150785,0.0005060245916377326,0.0033687608192988316,2.086913717144624e-05,0.0034783100077487978,3.5050313527300284e-05,0.9685050532569213,0.011456196765720425,0.0010552270601065566,7.809682784673297e-06,0,132.53560239111746,22,3
1,X,1755,0.08750549930909941,0.0003412405965234309,0.004103206899952148,0.0005848710815437564,0.1237514639051579,0.00048258707963572123,0.0032928713869585366,1.7559040869746964e-05,0.0033817170968393623,4.7288584307761496e-05,0.973727633821332,0.014572641119567563,0.001021445142834911,6.747893617658662e-06,0,130.62574124429608,22,3
1,X,1776,0.08785024727175832,0.00035804237890284165,0.005516874904150009,0.0006087350976337361,0.1242390111495506,0.0005063483881487252,0.003372056936563202,2.136328590162835e-05,0.0035128468889630074,4.214708810372611e-05,0.9599214093725085,0.013024149139665526,0.0010501294044768553,7.910732659212127e-06,0,143.08996766269368,22,3
1,X,1797,0.08534422810893641,0.0003050348099618732,0.003587497998975539,0.0005681131888938007,0.120694964861921,0.00043138436524398083,0.0035920210527311193,1.9469743166630712e-05,0.003704756987873253,3.491276101615558e-05,0.9695699514135068,0.010540556136142172,0.0010867207514491009,7.055661882159714e-06,0,122.66325708508484,22,3
1,X,1818,0.08915624075374616,0.0003542193371278337,0.004937109173171656,0.0006513556314645026,0.1260859648441487,0.0005009417906209901,0.0030846795655266952,1.821089684815404e-05,0.0031611452778975064,3.402137352384804e-05,0.975810756656629,0.011978311216508976,0.0009749149647991684,6.93753644982224e-06,0,101.92899117421501,22,3
1,X,1839,0.08694193416350192,0.00033343105718579904,0.0023615249397755493,0.0005863645088708033,0.12295446243297314,0.00047154272318855606,0.00330481836343945,1.71037133105852e-05,0.0034127003367118275,3.751836080110684e-05,0.9683880907702775,0.011766894823447633,0.0010185487607541543,6.5609582999495874e-06,0,135.5154368632075,22,3
1,X,1860,0.08919754508276108,0.0004056940366820825,0.0031289297851623938,0.0006748970872434093,0.1261443779864263,0.0005737380088496891,0.003217106792857353,2.2734345116794354e-05,0.0034064427899738133,5.237007498091289e-05,0.9444182659771263,0.015979741090112642,0.0010172397242341532,8.5487504897874e-06,0,157.85034697618542,22,3
1,X,1881,0.08634278063944059,0.00032660020433329786,0.005367173451815547,0.0005844485999817675,0.12210713139330198,0.00046188243844197396,0.003355377898382725,2.2534510005547845e-05,0.00350601369195933,4.059430082328645e-05,0.9570350241580424,0.012810154785011975,0.0010270046320979757,7.916059933738462e-06,0,155.77053088177493,22,3
1,X,1916,0.0895670004616875,0.0003763108466459535,0.00479964897978858,0.0007005517503010392,0.12666686679399575,0.0005321839029948094,0.0032677014958857695,2.278388705436041e-05,0.0034452861142484936,4.318983023405975e-05,0.9484557704428969,0.013605112894852826,0.0010375172811600967,8.445875541846104e-06,0,99.71460848806454,22,3
1,X,1937,0.08749490755616648,0.00035677588756987034,0.004730433891321489,0.0006379685960843479,0.12373648490451084,0.0005045572989290092,0.003187472932044006,2.1250795019759025e-05,0.003312917297054465,4.4141863555825585e-05,0.9621347731432981,0.01433490255766731,0.0009886309767481432,7.726261255946898e-06,0,122.75868609978298,22,3
1,X,1958,0.08914839194971493,0.0003623592639698687,0.004506227601019745,0.0006521550229000541,0.1260748649590393,0.0005124533855577207,0.0033282890311123413,2.0837153780007395e-05,0.0034686244595220107,3.593294166359618e-05,0.959541475288735,0.011614534069999818,0.0010518152894697125,7.851147773606568e-06,0,147.13331689084276,22,3
1,X,1979,0.08773536252180898,0.0003421509469724642,0.005135022064190471,0.0006273477882547404,0.12407653957806242,0.00048387450958725653,0.003432110473264664,2.2615926546088232e-05,0.003523485182231562,4.920499967796948e-05,0.9740669523948368,0.015041030027409906,0.0010674335910041996,8.173372858552093e-06,0,99.92596907055216,22,3
1,X,2000,0.088409003793459,0.00033785919443861953,0.004611798129170693,0.0006555246676901102,0.12502921220060415,0.00047780505494754433,0.003366291901315037,1.9684754529883106e-05,0.003555647551395949,3.281548304426602e-05,0.9467451013229443,0.010343860506534823,0.001055001801351265,7.369830621293387e-06,0,178.50159584835143,22,3
1,X,2021,0.08664379300415574,0.00035093715984190035,0.004623400879190756,0.0006053494657979241,0.12253282716192415,0.0004963000909891102,0.003441275223777011,2.2416092230230753e-05,0.003547393462198752,4.3434249370456404e-05,0.9700855742244147,0.013454008522737556,0.0010569678946723293,8.107437340505194e-06,0,176.83820842630388,22,3
1,X,2042,0.08860173297433928,0.00035257154643902964,0.004897074083231485,0.0006116430005959013,0.12530177242207008,0.0004986114626809313,0.003283987455847488,1.8738155292899094e-05,0.0033666322759814044,4.5927949794822594e-05,0.9754517828622004,0.014424306417439803,0.0010314510871484383,7.175236834739929e-06,0,133.2657116628481,22,3
1,X,2063,0.08597876235124846,0.0003246554337770813,0.005860895923230571,0.0005445118924075657,0.12159233179318885,0.00045913211754566863,0.0034416619374084594,2.1781717704871435e-05,0.003576189799499652,3.81243092845358e-05,0.9623823483557795,0.011931307788152165,0.001048973048913909,7.730605577297081e-06,0,177.50503226834553,22,3
1,X,2095,0.08907499537887982,0.0003632525147941305,0.0053482701725022916,0.0006699977965618094,0.12597106653313261,0.0005137166329879927,0.0032884806103888223,2.4301194852354852e-05,0.0034212236310535078,4.893267196732079e-05,0.9612001333500056,0.015474299905983308,0.0010383793097772625,8.764288660904712e-06,0,104.2626186371216,22,3
1,X,2116,0.08676196719294733,0.00034975225673221854,0.004214841515042986,0.0006230221682416262,0.12269995070243567,0.0004946243849413001,0.003434762566230381,2.0680453283947054e-05,0.003554352866455056,3.6798922824504965e-05,0.9663538470382799,0.011573687572043198,0.0010564064483888824,7.654529716913601e-06,0,188.3369500157158,22,3
1,X,2137,0.08814609525527572,0.00039526663179655856,0.0040504867679861676,0.0006476348639351598,0.12465740338024167,0.0005589914314402256,0.003315021835484754,2.3744190392446914e-05,0.0034910391361374533,4.4398173666008024e-05,0.949580255680706,0.013860103680518343,0.0010358441169597526,8.753412810177264e-06,0,166.94109393342342,22,3
1,X,2158,0.0866811524174384,0.000326252131019132,0.005065474565838698,0.0005500351112491925,0.12258566135087079,0.0004613901884403804,0.0034672122237975555,2.2551970307358033e-05,0.0036193750949895342,6.25399342163999e-05,0.9579588002905185,0.017686670165042474,0.0010653934776488543,8.006269370695265e-06,0,153.94705530692588,22,3
1,X,2179,0.08789568732326958,0.0003263562090948931,0.005551624523765579,0.0005825589035007625,0.12430327308667277,0.00046153737706666753,0.0033518396883054475,1.8961590248877183e-05,0.0034815080864992864,3.0267765127866934e-05,0.962755106415903,0.00998603753020663,0.0010443732454202012,7.0670017768715596e-06,0,178.31953813796395,22,3
1,X,2200,0.08596858081442686,0.00029471590667898675,0.003569985191056158,0.0005319934092649434,0.12157793292572994,0.0004167912322725065,0.003496769381514682,2.0005112011243805e-05,0.0036515479089459556,4.875362161810588e-05,0.9576128997097147,0.013909885400254009,0.0010656428616559626,7.1073329182755465e-06,0,138.37628016130003,22,3
1,X,2221,0.08860557419644194,0.00036749275729702893,0.00392604868692302,0.000628825515998721,0.12530720473046375,0.0005197132414433425,0.0032924447948673844,2.034619518105307e-05,0.003488257944647476,4.45054324277238e-05,0.9438650601855418,0.013380636413006644,0.0010341522426729364,7.696627763749033e-06,0,172.35426215482678,22,3
1,X,2242,0.08735684410596938,0.0003485257671994523,0.004397722870177732,0.0005952545167498164,0.12354123370077408,0.0004928898668099535,0.0034299912376164884,2.4796688503659336e-05,0.0036485689053038094,5.7718506481855e-05,0.9400922187958184,0.016351124531566563,0.0010621720732422628,8.770569243245447e-06,0,169.13593642740577,22,3
1,X,2274,0.0884241070949552,0.0003525614803927725,0.005536504466229702,0.0006109555619830644,0.12505057149441667,0.0004985972271417949,0.003341544338098865,2.0562780350209615e-05,0.0033985212081078355,4.8836114585029465e-05,0.9832348052226242,0.015369921122372409,0.0010474247771700828,7.680217285200069e-06,0,159.8884049727552,22,3
1,X,2295,0.08667561746058768,0.0003194698944802785,0.004439504427939274,0.0005907936495641225,0.12257783373982534,0.00045179865754391146,0.0034768455043904358,1.8512976669504333e-05,0.0035846396708099724,2.850071347872121e-05,0.9699288697557766,0.009281307877543015,0.0010682853412964533,6.91809159840661e-06,0,141.3515346701379,22,3
1,X,2316,0.0870823785782491,0.00036364155173654355,0.005520527771358063,0.000608066433370188,0.12315308082906817,0.0005142668143082174,0.0033636463746398613,2.282119624795766e-05,0.0035169180675857954,4.75982338102838e-05,0.9564187478921998,0.014479649235066987,0.0010383542537521857,8.272314729281976e-06,0,121.63378258261402,22,3
1,X,2337,0.08725808791883743,0.0003305353585709162,0.004409936559269837,0.0006382375466167587,0.12340157136156382,0.0004674475869348438,0.0033979293945369704,1.9735157308369273e-05,0.0034945700390703665,3.792509258480405e-05,0.9723454835779727,0.011968591359196286,0.0010510538673403629,7.288124585486612e-06,0,122.79207519352234,22,3
1,X,2358,0.08743606605570235,0.0003448403759405773,0.0052475029163031725,0.0005510199771718601,0.12365327045652408,0.00048767793650900115,0.003180166950539777,2.0680984499713735e-05,0.0033169779488813763,5.453421721562131e-05,0.9587543238302993,0.016951112763051737,0.0009857015998311876,7.496838308451351e-06,0,122.52986432288345,22,3
1,X,2379,0.08601657386345073,0.0003184910416377677,0.0045727918175119935,0.0005698021075898996,0.12164580534655911,0.00045041435057846524,0.003486389458971142,1.730669968476743e-05,0.0036016611997050614,2.9582822120966108e-05,0.9679948406187237,0.00929004075368181,0.0010630727158363533,6.583486081892288e-06,0,197.7716904169053,22,3
1,X,2400,0.08860805993840502,0.000329498993694223,0.004411452552776956,0.0006111579671495555,0.12531072010046052,0.0004659819456706571,0.003321556090003823,1.9667024012931244e-05,0.0035514382535605992,3.715060049552328e-05,0.9352706855240124,0.011242141247622389,0.0010433253278484902,7.294824330190066e-06,0,212.8103632295934,22,3
1,X,2421,0.08643579415146671,0.00033255035797641807,0.005357619397502789,0.0005690807830649681,0.12223867236349328,0.0004702972264222782,0.0034884340683729686,2.2273254146760886e-05,0.003645967195410982,5.974558933391168e-05,0.9567925001529654,0.016826840511379254,0.001068880312000041,7.967928497295973e-06,0,110.81561998136232,22,3
1,X,2453,0.08907846185966577,0.00034568772162483043,0.0053458475061425315,0.0006212069231080572,0.1259759688772738,0.0004888762642676903,0.003250654366116036,2.0647919605588165e-05,0.003434510641294845,4.474999098948125e-05,0.9464679849966942,0.01371938271890329,0.0010264751403249292,7.640650429806243e-06,0,131.50159760453016,22,3
1,X,2474,0.08676785786887628,0.0003639256755679698,0.005886899720615705,0.0006100969852844837,0.12270828137622591,0.0005146686260840139,0.00346389081920374,2.3014773937951612e-05,0.0035830268170813384,4.213118948270082e-05,0.9667499005841536,0.013056807862541542,0.0010654375587157037,8.371454890930962e-06,0,160.54182956132613,22,3
1,X,2495,0.08819673966852863,0.00036385736199597024,0.0037844195938273625,0.0006029650023872044,0.12472902539632236,0.0005145720161039979,0.003344147254276212,2.221787183121065e-05,0.003521284075040604,3.890809252017928e-05,0.9496953903776283,0.012244425480698783,0.0010455453039170059,8.176678570545185e-06,0,167.89947996985396,22,3
1,X,2516,0.085868017659963,0.0003636458617859687,0.0035782580935905467,0.0005428865850868717,0.12143571514881213,0.000514272909638569,0.0034806780145490586,2.354902204892414e-05,0.0037018974145728947,6.529354609273565e-05,0.94024161794625,0.017762057553534546,0.0010594981897486403,8.456669191484173e-06,0,177.42865294980118,22,3
1,X,2537,0.08850714046778467,0.00033934931702581567,0.004511431634988771,0.000629165152442279,0.1251679984164017,0.0004799124065199556,0.003350386046808143,2.0401188918224248e-05,0.0035282579683834163,5.546280536602943e-05,0.9495864749207182,0.01600790616801944,0.0010511824291454819,7.564066554020137e-06,0,158.86017770770061,22,3
1,X,2558,0.08549114772703693,0.00035479206947305636,0.0044205127670256805,0.000596301475442667,0.12090274057841743,0.0005017517564712137,0.0035351945228966194,2.1864324266657067e-05,0.0036988646669630304,4.9491834557655795e-05,0.955751248341618,0.014088274453977721,0.0010713697877946888,7.979663078392667e-06,0,163.8696496522137,22,3
1,X,2579,0.08706074742151201,0.0003172618668217946,0.00535235850577844,0.0005998244760020878,0.12312248975384077,0.00044867603488318863,0.0033269788547976528,1.9532806002091382e-05,0.003484287901590273,4.781105532957744e-05,0.9548518804313437,0.014251292130085344,0.0010267799129961503,7.095102916188635e-06,0,138.99651411782185,22,3
1,X,2600,0.08578615229894283,6.863533318558283e-05,0.004434887166391221,0.0005965326701254709,0.12131994004496882,9.706501904904741e-05,0.00355248286878259,1.7527754662014913e-05,0.0037207653840110547,4.2894613995248544e-05,0.9547720702972535,0.011972731387613232,0.001080324221884442,5.399884929089089e-06,0,146.51604478968974,22,3
1,X,2632,0.08909792019915641,0.0003720483168444825,0.004832287600415522,0.0006354713595117202,0.12600348712488274,0.0005261557755395496,0.003271757520229495,2.2932511579121425e-05,0.003337214296630581,4.9907909676570875e-05,0.9803858036724898,0.016192109909569773,0.0010333646665907385,8.4310158644827e-06,0,126.01314515046269,22,3
1,X,2653,0.08549676340818917,0.0003164787411899967,0.004765414828961296,0.0005567919394207367,0.12091068235086488,0.0004475685279936581,0.0035145219762874372,1.8869206127404735e-05,0.0035982435792918576,3.1430204938589864e-05,0.9767326471486688,0.01001441017401218,0.0010651747662905728,6.946339545692995e-06,0,201.45580186175658,22,3
1,X,2674,0.08798780746538837,0.00037846677244048467,0.004100004256826455,0.0006542181853784441,0.1244335506410249,0.0005352328424929054,0.0033819716098473698,2.3328378484733637e-05,0.0035655254874996252,4.772245063496843e-05,0.9485198245543954,0.014282167578748076,0.0010548662206397211,8.575106925227477e-06,0,138.60718073060806,22,3
1,X,2695,0.08470272269273411,0.0003105367810782974,0.005605128461648747,0.0005753779751167691,0.11978773920199193,0.00043916532741661296,0.0036267616030582718,2.1467651181874993e-05,0.003776911295974302,4.5021621078878785e-05,0.9602453748182886,0.01277988925518664,0.001088983530694688,7.5821979628695336e-06,0,90.93639935597635,22,3
1,X,2716,0.0880308723786616,0.00035752627621200785,0.004604773844653857,0.00063680368171734,0.12449445362543832,0.0005056185087237708,0.003330159651851217,2.1744427080203953e-05,0.003530391546236606,4.869923715224625e-05,0.9432833747296852,0.014396041343283508,0.0010392140084162617,7.991124212641671e-06,0,139.52019586159582,22,3
1,X,2737,0.0844530045005901,0.0003318123861679108,0.005783867897765036,0.0006051979724238356,0.11943458434789056,0.00046925357668203826,0.0035749945119863606,2.1006322583813938e-05,0.0036356026660050076,3.34525618958305e-05,0.9833292690135343,0.010735489647486446,0.0010702750862992946,7.565183981436695e-06,0,76.71649028438215,22,3
1,X,2758,0.08768046331891025,0.0003620180741090415,0.0065620795892603586,0.0006169723451994389,0.12399890038075956,0.0005119708702291947,0.0033747418221730815,1.911470980563214e-05,0.0034491655423199525,2.8532100520308373e-05,0.9784226882607633,0.009809162051302537,0.0010489343836841418,7.352180328657155e-06,0,127.75601961987681,22,3
1,X,2779,0.08766024154998457,0.0003570338664797586,0.004681420232253806,0.0006041689270475369,0.1239703024808897,0.0005049221362021794,0.0034123943803993505,2.1568305169348132e-05,0.0036008242150272246,5.14117040266414e-05,0.9476703600688129,0.014797141759165647,0.001060392904699194,7.973312154423203e-06,0,90.58107322549587,22,3
1,X,2818,0.08849817612245854,0.0003623691022135699,0.004732709480913726,0.0006606867356123912,0.12515532091766368,0.0005124672989353929,0.0033182961722869556,2.177419635464247e-05,0.003427183759032424,5.7776096861936424e-05,0.9682282613360044,0.01751547147872443,0.0010410087943662776,8.05179590692559e-06,0,54.25654373806105,22,3
1,X,2839,0.0863171336606883,0.0003082637832056394,0.005232550270896861,0.0005429309594000757,0.1220708610881166,0.0004359508229978548,0.003434629847697911,2.147054304113445e-05,0.0035564616421573493,4.549262225239257e-05,0.96574353761748,0.013749588518180261,0.0010509495824948542,7.566222525674382e-06,0,123.61964511298423,22,3
1,X,2860,0.08693395725036088,0.0003363479553908159,0.0057297763938672815,0.0006045540455051164,0.12294318137422322,0.0004756678401901526,0.00341799396049571,2.2903192913891436e-05,0.0034958769660130198,4.080851110678941e-05,0.9777214683827579,0.013159958880479904,0.0010533329558310575,8.150206054313196e-06,0,135.41233471693428,22,3
1,X,2881,0.08557219767195366,0.0003147692747631555,0.0057347792540567875,0.0005704055515471824,0.12101736250974826,0.0004451509773883977,0.0035307271896867247,2.3223261549730422e-05,0.0036342375692595113,4.2145825277466405e-05,0.9715179930865452,0.012952591270721054,0.0010710303550864463,8.071463852018815e-06,0,135.76727995107677,22,3
1,X,2902,0.08742045111901067,0.00033399000323998266,0.006073228049416307,0.0006222521130825071,0.12363118760127911,0.0004723331922790175,0.003393270783665677,2.028675850756131e-05,0.00352116101729627,3.792672808426156e-05,0.9636795270076022,0.011871619277405513,0.0010515658967386906,7.4608590294114915e-06,0,127.19043384614548,22,3
1,X,2923,0.08576139502135703,0.00031539282424123267,0.004821701190409254,0.0005841166932982516,0.12128492796723955,0.0004460328095171051,0.0035912319880614654,2.1790791261995578e-05,0.003726156300704541,5.130482839111102e-05,0.9637899482054566,0.014501714750369136,0.001091792809093586,7.746527024226548e-06,0,136.3884081010235,22,3
1,X,2944,0.0887344320830513,0.0003984790380103452,0.004282114754598481,0.0006317691043962213,0.12548943730132545,0.0005635344598756142,0.0032796358786888044,2.2556806271202227e-05,0.0034652065283975824,4.808759199736776e-05,0.9464474488928682,0.014658731641764185,0.00103162708288469,8.473859334943588e-06,0,162.15885589507957,22,3
1,X,2965,0.0871551648798974,0.0003426215557283453,0.004120277536858075,0.0006384202150196309,0.12325601620401416,0.00048454005087239516,0.0034708520645725946,1.9677194678192053e-05,0.0036038241337867315,2.9054507460665357e-05,0.9631025088134875,0.009492233605637748,0.001072344094193831,7.397984586601115e-06,0,150.39617505690953,22,3
1,X,2997,0.08840034397884557,0.0003249632331347481,0.00583897061883108,0.0006097786597005729,0.12501696537333018,0.0004595674115717707,0.0032140089289268135,1.9057501195647803e-05,0.0033112158490649505,3.81966913876706e-05,0.9706431339516609,0.012589506447070842,0.0010071773855929822,7.02663228354359e-06,0,150.22240528751593,22,3
1,X,3018,0.08591459060093466,0.0003080732540721603,0.004033294158996428,0.0005591724999767087,0.12150157923357385,0.00043568137411326147,0.003392851543738394,1.8271310144862827e-05,0.0034636405046236172,4.972264151980747e-05,0.9795622666986579,0.015019090743384733,0.001033324470533616,6.685441657681563e-06,0,116.33768751390332,22,3
1,X,3039,0.0876838979044643,0.0003374885607644286,0.004587597320503134,0.0005980977282864554,0.12400375761823124,0.00047728089977883137,0.0033263615076467726,2.4547670121205414e-05,0.003497510417469628,5.4125240361293404e-05,0.9510655039173042,0.01630591582740305,0.0010339373548719586,8.605608639717608e-06,0,143.75520844509563,22,3
1,X,3060,0.08565907500680861,0.00033358959611033874,0.005304895168786668,0.0005951249785340008,0.12114022561496296,0.00047176693108580414,0.0035625124049028004,2.2307709479523594e-05,0.0036961710948049515,4.855091092568293e-05,0.9638386085292395,0.014025437016596594,0.0010817694129881944,7.976997443049663e-06,0,136.8490339223201,22,3
1,X,3081,0.08790000640005909,0.0003637425268440739,0.005472332919390641,0.0006449841194021665,0.12430938118364543,0.000514409614674749,0.003364518660912242,2.2377162239527896e-05,0.0035353719588762413,5.632611636123568e-05,0.9516731761321354,0.016430316199889623,0.0010483752995495389,8.212132530380745e-06,0,137.05351848908202,22,3
1,X,3102,0.08421835566819182,0.00032830797191440726,0.005400060978205598,0.0005450627610981325,0.1191027407867179,0.00046429758651655995,0.003674146270052683,2.085116062442042e-05,0.00382889160111391,3.498580081859202e-05,0.9595848231858515,0.010321555216443642,0.0010969027659195171,7.552197636736165e-06,0,167.37860613341684,22,3
1,X,3123,0.08822045831819969,0.0003720336409767386,0.004501948992161428,0.0006373630718373714,0.12476256863236834,0.0005261350207283466,0.003301728586471257,2.0618393147897523e-05,0.0034999638404130465,4.4264053652792734e-05,0.9433607708591655,0.013305845396020689,0.0010325607477867952,7.780635688208717e-06,0,163.47409019819898,22,3
1,X,3144,0.08647715087545653,0.0003343603397514094,0.004560146190173258,0.0005956738778496332,0.122297159603455,0.00047285692719611916,0.0035296921321276986,2.1050909640446792e-05,0.003639570802881968,4.1764964861629655e-05,0.9698099922476401,0.012542082251661275,0.0010820395411574688,7.690721977026406e-06,0,200.70952459825477,22,3
2,Y,103,0.0860958790737462,0.0003710679233658214,0.001028639134566481,0.0006490165159184976,0.12175795985052584,0.0005247692897855649,0.003151157148666951,2.0305372765656788e-05,0.003261294559601459,3.865081342771645e-05,0.9662289287515424,0.013034329605791541,0.0009617392902151521,7.4556760835011955e-06,0,124.93049999142319,22,3
2,Y,124,0.08136890706535131,0.0003136850065959589,0.00022268170299196387,0.0005684556477305455,0.1150730119272958,0.00044361759064109885,0.00342005596261475,2.1714064389654926e-05,0.003538700101092149,4.169619304079564e-05,0.9664723952050127,0.01293583869442431,0.000986498949627433,7.327506148823444e-06,0,153.59804734881902,22,3
2,Y,145,0.08214623998373015,0.00031198832706392355,0.001142096694712696,0.0005888835281577674,0.11617232668294619,0.0004412181234358936,0.0033161399015370074,2.2149031129306046e-05,0.0035171343477726964,4.768221743123039e-05,0.9428527811674373,0.014249457587199173,0.0009656627208829851,7.419640153499949e-06,0,120.06734043666582,22,3
2,Y,166,0.08081526082436995,0.0003678495889080133,-0.00043614744200741847,0.0006393072134885005,0.11429003790454306,0.00052021787754708,0.0034816636381496857,2.17876930543823e-05,0.003621131084151655,3.557535688943837e-05,0.9614851153518396,0.011199503980531152,0.000997436192460206,7.718302958374861e-06,0,127.58092716214846,22,3
2,Y,187,0.08318786580028033,0.00036047478818687656,-0.00013537585256829455,0.0006128889192356054,0.11764540803962942,0.0005097883343474496,0.0032718606880729564,2.376299458239794e-05,0.0035028917344818262,4.8357770518369863e-05,0.9340456217545514,0.014570201650144155,0.0009648498156421109,8.160027254328729e-06,0,153.47039273271446,22,3
2,Y,208,0.08214966411789192,0.0003515708696432214,5.9447664413930315e-05,0.0006359734527310891,0.11617716913991716,0.0004971962919847472,0.003381105319977507,2.2025721552124968e-05,0.003455755202516211,4.755627406818426e-05,0.9783983881484575,0.01489657420256074,0.0009846217458917646,7.674501659626557e-06,0,114.34115721486634,22,3
2,Y,229,0.08331291288319899,0.00036126766871539135,0.0011976300613364785,0.0005939673310448944,0.11782225132022817,0.0005109096367442167,0.003244478132888161,2.4105077366549382e-05,0.003415907781495966,5.79391048813974e-05,0.9498143218220226,0.017588059084668827,0.0009582130968707439,8.242960300116476e-06,0,158.74451110120285,22,3
2,Y,250,0.08051404437766044,0.00031899744383225183,0.0005249459325661214,0.0005423527990261592,0.11386405352039664,0.0004511305114299202,0.0034505280486404866,2.3197316937635694e-05,0.003670973162553639,4.6466971475934784e-05,0.9399491349700295,0.013471802554242093,0.000984831966189912,7.68509631477884e-06,0,184.1975684573135,22,3
2,Y,282,0.08351738889859667,0.00031740019958941847,-0.00018367264938195623,0.0005740969574175668,0.11811142407438358,0.00044887166695928293,0.0032683206587245904,2.228277322421425e-05,0.003382802687773203,5.103114121310849e-05,0.9661576392077504,0.015994319613578244,0.0009676237047255382,7.552770786884017e-06,0,133.2125977792037,22,3
2,Y,303,0.07993031709130947,0.00029992957760008185,7.254432367717365e-05,0.0005510385609541253,0.11303853847531187,0.00042416447639886945,0.003475730976229071,2.098321882806391e-05,0.0036146298881870823,4.262476395277439e-05,0.9615731302361149,0.012738731063961272,0.0009848330673072779,7.0003960239370476e-06,0,126.1131390611312,22,3
2,Y,324,0.08227327386071064,0.00036042380271283014,0.001571811625755929,0.0006397103788571104,0.11635197971465283,0.0005097162299985691,0.003376690743956564,2.3080611189098842e-05,0.003504504832810108,4.25331508096688e-05,0.9635286310188775,0.013421115602716341,0.00098481577973674,7.995376565428612e-06,0,164.5562942655928,22,3
2,Y,345,0.07984414942742635,0.00030954549795313694,0.0003202073219151461,0.0005251833479116917,0.11291667899641034,0.0004377634413768594,0.0034557153561503473,2.1672151128785022e-05,0.0036010678307580265,5.269127639242187e-05,0.959636285280113,0.01527689951050583,0.0009781061590683011,7.21153560304925e-06,0,182.56134258021424,22,3
2,Y,366,0.08224224219191917,0.0003605770516769515,0.0002704164593538009,0.0006577091994236075,0.11630809430778488,0.0005099329567620492,0.0033726474809293028,2.5417548165511017e-05,0.003545168485027712,6.893109512462402e-05,0.9513363032456663,0.019838348110686667,0.0009832655513076316,8.573001109785028e-06,0,114.91553788167332,22,3
2,Y,387,0.07988858790980291,0.0003334286352999292,0.0006209255725958031,0.0005538890795604804,0.11297952450087856,0.0004715392981247124,0.003516223595611906,2.303031188084751e-05,0.0036910031416710486,5.892490190423182e-05,0.9526471424296827,0.016438703985901845,0.0009957863314744714,7.733771545785713e-06,0,160.4691084161362,22,3
2,Y,408,0.08274852085985605,0.00034366803075519287,-0.000806345379203313,0.0006598235933659563,0.1170240804663214,0.00048601999004804775,0.0033419927966076434,2.263152140966632e-05,0.0034977747450494305,3.992442147030844e-05,0.9554625555398406,0.012680787885377772,0.000980326360882442,7.787698130615905e-06,0,107.44661764039283,22,3
2,Y,429,0.08005281251347106,0.0003360516235741592,0.001113062989413065,0.0006151121334284444,0.1132117731626614,0.00047524876371607405,0.003497829204347631,2.4059567365563346e-05,0.0036882854789107547,4.6602016203585334e-05,0.9483618403043546,0.013643220136679977,0.0009926133826824995,7.998697794069422e-06,0,124.43273222721527,22,3
2,Y,464,0.08422109092447065,0.0003510336844289361,-0.0007372139668870314,0.0006159801119776421,0.11910660902324399,0.0004964365973691987,0.003225717581436278,2.0826561698302698e-05,0.003396993582512583,4.956683553198053e-05,0.9495801222710522,0.015151494104317672,0.0009630573184795863,7.400987247434011e-06,0,160.48769319014565,22,3
2,Y,485,0.08086676710673221,0.00032447277665718097,-0.0009149873640358251,0.0005437610429082237,0.1143628787876072,0.00045887380136944156,0.003373527877028168,2.358315057648421e-05,0.0034892455685135017,4.5818213982666805e-05,0.9668358992758906,0.014382779742935559,0.0009670731297243586,7.794922958677315e-06,0,115.66221607874688,22,3
2,Y,506,0.08298512033011987,0.00039222300349493533,-0.00041882795923484225,0.0006380722950998472,0.11735868264601879,0.0005546870910172474,0.003336949024813519,2.1289989940819062e-05,0.0033987182289182314,4.547450008373985e-05,0.9818257354848823,0.014553791398568536,0.0009816456185465401,7.794320324284345e-06,0,132.18117116454368,22,3
2,Y,527,0.08119297668917483,0.0003443928739504388,0.0003820278007472082,0.0005928021828625951,0.1148242088032736,0.0004870450731253584,0.003404762608323948,2.3577517907878054e-05,0.003571112825464882,4.564925052156855e-05,0.9534178209227319,0.01386089804980392,0.0009799642501425964,7.9579738874872e-06,0,179.8163173225019,22,3
2,Y,548,0.08155219649814996,0.0003584133874315042,-0.0011792692332865202,0.0006037708433669259,0.11533222232899931,0.000506873073441716,0.003417042096486032,2.193853535453026e-05,0.003582318879973024,3.972583257348721e-05,0.9538631849858558,0.012222699761985008,0.0009878498172290028,7.6859372317409e-06,0,136.6634198858906,22,3
2,Y,569,0.08055383824987862,0.00031376533091052,0.0015934469542360713,0.000536530865659861,0.11392033055418693,0.0004437311863761395,0.0034618952639521154,2.1382906418997558e-05,0.0036223500087562777,5.095338736586963e-05,0.9557042405023545,0.014682251817037839,0.0009885646926581886,7.218741754348443e-06,0,164.27088322066595,22,3
2,Y,590,0.08200610286103295,0.0003449476960215555,0.0006823098104743706,0.0006551569748590008,0.11597414286343588,0.00048782971002303555,0.0033592351914409147,2.2847204523287222e-05,0.0034152288670862806,4.108833338816821e-05,0.983604707671279,0.01359371557896811,0.0009765433275511275,7.80937691951024e-06,0,102.20663714943726,22,3
2,Y,611,0.08115019003321777,0.00036426684147114865,0.0011023068551432199,0.0006385187114746928,0.11476369933413055,0.0005151511075313087,0.0033748332466358747,2.5383577217981146e-05,0.003560985041515018,6.874138664722209e-05,0.947724634417463,0.019634552972482178,0.0009708380561469218,8.503634946089733e-06,0,140.304148810543,22,3
2,Y,643,0.08384895401111325,0.0003617807426162275,0.0006899613774403047,0.0006139198012577023,0.1185803279533143,0.0005116352328132789,0.003231749438041787,2.3475582202563762e-05,0.003415776261666906,3.9220127050199856e-05,0.9461244503364182,0.012854901743861972,0.0009605948706171734,8.115905975352198e-06,0,108.90964672770878,22,3
2,Y,664,0.08201796533302246,0.00034496013830893587,6.203608901171163e-05,0.0005558078228005029,0.1159909189322067,0.0004878473060745958,0.003349146048355945,2.4867542560735727e-05,0.0034682076763771115,4.8235598280354316e-05,0.9656705598017884,0.0152246103279568,0.0009737512088116588,8.309521215902277e-06,0,100.97436585325174,22,3
2,Y,685,0.08410143831038332,0.0003399889641647412,0.00010356234579515256,0.0005886997673225792,0.1189373946736283,0.00048081700417895723,0.003186138623028574,2.1699024773642112e-05,0.0032691639327937397,4.5550211540630745e-05,0.9746035036871906,0.01511480157925008,0.0009498893587080401,7.52302989546439e-06,0,91.17077148192492,22,3
2,Y,706,0.08660327948447226,0.0003669479795719215,0.0005193770195820457,0.0006592093485136378,0.1224755323929283,0.0005189428093960169,0.0032006844431203773,2.0016634408936943e-05,0.003300527338688719,3.442036014654881e-05,0.9697494111325832,0.011792308694749766,0.0009826121482999464,7.422716744851726e-06,0,107.98073120064412,22,3
2,Y,727,0.08212374453228397,0.0003513281377844239,0.00021499258160424255,0.0005860370642733757,0.1161405133104193,0.0004968530172980157,0.0033378545791255547,2.336374355022815e-05,0.0035103075420852927,5.3898777462334825e-05,0.9508724062230477,0.016045626827893816,0.0009717198783370251,7.971442700940782e-06,0,122.24558800478331,22,3
2,Y,748,0.07979905379694395,0.0003215612911098128,0.00014086379732219348,0.0005763327401825708,0.11285290414417837,0.0004547563390217002,0.003496240339783228,2.0975231153182355e-05,0.0035948110902395886,3.8161265568283824e-05,0.9725797133752051,0.011859272339210553,0.0009890174476707312,7.147688256452182e-06,0,144.25817046826091,22,3
2,Y,769,0.08300771785156304,0.0003618026474954267,0.001282083999654422,0.0006180381522006192,0.11739064036731972,0.0005116662109905246,0.003278283634118382,2.1157492034154313e-05,0.0034695985883261508,5.272295293479129e-05,0.9448596287618201,0.01559908638104431,0.000964650361770677,7.512507829169187e-06,0,159.42160396704102,22,3
2,Y,790,0.08177449885611875,0.0003415185996214255,-0.00031935107918087204,0.0006109873539083141,0.11564660533858628,0.00048298023538728696,0.0033451895254187447,2.4104141716478543e-05,0.0034822350132082433,4.221632392228501e-05,0.9606443886556536,0.013548024318284665,0.0009697137451553129,8.076191923562133e-06,0,124.77156282619713,22,3
2,Y,822,0.08486069810380281,0.0003537790699147263,0.00022452660438123878,0.000598763658721221,0.12001115017084674,0.0005003191587571454,0.0031812099769703405,2.1347087749337602e-05,0.0033720513919619473,4.108408543831317e-05,0.9434049506343466,0.0131222081310921,0.0009569822177960668,7.560103964124708e-06,0,174.1215622509692,22,3
2,Y,843,0.08621921918142875,0.0003707566168331624,-0.0006954932398843161,0.0006347622996874493,0.12193238910359505,0.0005243290358650232,0.0031898418136046634,2.127143150006546e-05,0.0032810329003894107,3.869225497744387e-05,0.9722065917797031,0.013171037732525101,0.0009749406174847851,7.735904466336285e-06,0,108.38661688639749,22,3
2,Y,864,0.08116680595263974,0.00032884601232213896,0.0005365885852311792,0.0006022910968949794,0.11478719779272839,0.00046505849055827886,0.0033853669099790456,2.1134496247986864e-05,0.0034275197741942156,4.339936892450538e-05,0.9877016422975765,0.013943774288590997,0.0009740676789276379,7.249333559967768e-06,0,167.51590090158817,22,3
2,Y,885,0.08017457647394934,0.0003105389953035424,2.5566598268556063e-05,0.000569845946666679,0.11338397340697803,0.0004391684588039846,0.00348631460707151,2.2549253743904903e-05,0.0035730421278355132,5.010521598065764e-05,0.9757272605076892,0.015068028339830687,0.0009908506120203538,7.4700221423175346e-06,0,170.95756578975784,22,3
2,Y,906,0.0815817011001189,0.0003890696325063804,0.00021439183466685514,0.0006206738392138911,0.11537394813725621,0.0005502275509980392,0.003316633385113951,2.3777749459741805e-05,0.0034660017189005955,4.5382906167670685e-05,0.9569047144517794,0.01428463313566303,0.000959169050167828,8.259005901502225e-06,0,132.92665008540078,22,3
2,Y,927,0.08001722190067656,0.0003520326701957178,-0.0008691352988198927,0.0006151282126550094,0.11316144043535425,0.0004978493765891989,0.003465197035922422,2.3241577188151654e-05,0.0036662045662176333,4.156073105537318e-05,0.9451728547426398,0.012449566870224903,0.0009829158433213112,7.884250176342375e-06,0,156.47090037685805,22,3
2,Y,948,0.08293356879499239,0.00033893706144131063,0.0002815328142104345,0.0006590079591059029,0.11728577776588034,0.0004793293890811845,0.0033100298921869805,1.921883952898803e-05,0.003359943401729094,2.8130940440970924e-05,0.9851445385906124,0.010037375356711203,0.0009731218008349982,6.909494201444374e-06,0,128.70998729249243,22,3
2,Y,969,0.08085833194589631,0.0003339947399302391,0.0010240632793373744,0.0005965833226459824,0.11435094966875226,0.0004723398909706189,0.0034056359882055753,2.3896051520438018e-05,0.00350583523347034,4.781080931599884e-05,0.9714192942360329,0.014898361277689062,0.0009761755737835515,7.948187831701638e-06,0,152.15747277279522,22,3
2,Y,1018,0.08266436786628685,0.00032445572862545145,0.0028797326351230304,0.0005946708025408099,0.11690507016150153,0.00045884969181175794,0.0033401356099623915,2.0235440568217926e-05,0.0034722597487583232,4.029970472386332e-05,0.961948659272055,0.012594044799149008,0.0009787851702222855,7.065450658513719e-06,0,164.63769429611003,22,3
2,Y,1039,0.08142000858165656,0.00033194758416370734,0.0012617568531489473,0.0005923978913427486,0.1151452803847125,0.0004694447755212994,0.0034516308755063317,2.248892896877215e-05,0.00351904690888983,4.0979933518229706e-05,0.9808425306257806,0.013088324668882696,0.000996231847235613,7.656924209428205e-06,0,121.65884653905448,22,3
2,Y,1060,0.08086911248452008,0.00031631333322968856,-0.00044782911474803053,0.0005723999315083762,0.11436619565268369,0.00044733460581286577,0.0034327913884764734,2.054259945061596e-05,0.0035648211904414323,4.2442223061269276e-05,0.9629631347796691,0.012831649184114634,0.0009840904583347293,7.035399801561672e-06,0,151.7176908920552,22,3
2,Y,1081,0.08289172200079896,0.0003238007090719917,0.00031998739373064497,0.0005455097240351719,0.11722659746199016,0.0004579233542756356,0.003397231084356689,1.985629347536297e-05,0.0035240950345925997,3.902922811623804e-05,0.9640009849363848,0.01207185879703892,0.0009982542848316553,7.017768861935761e-06,0,123.80075442574179,22,3
2,Y,1102,0.0817070742331215,0.00037010114471271963,-0.00013870912787170768,0.0006379553210012706,0.11555125252230569,0.0005234020583025356,0.0033653329521264766,2.112517041089984e-05,0.0035051836042773042,3.3262825169094425e-05,0.9601017612942812,0.010923961083986104,0.0009747486212328937,7.545444064584859e-06,0,148.3798562462687,22,3
2,Y,1123,0.08006388685284159,0.00035452952023166565,0.001558010788073966,0.0006597251896645228,0.11322743464359353,0.0005013804557732482,0.003528322679600111,2.3692695219458756e-05,0.003664173335237323,3.660708511096125e-05,0.9629246099438653,0.0115912378387208,0.00100140532912163,8.054883574349487e-06,0,152.2337257437329,22,3
2,Y,1144,0.08202682411393576,0.00041208913866162063,0.000998198964990476,0.000655102678844253,0.1160034471403204,0.0005827820488019109,0.00333838054647283,2.4863252893248293e-05,0.0035676816491942618,6.232837954964829e-05,0.9357282613001028,0.01777092403266675,0.0009707260179777226,8.72072532692378e-06,0,200.32957363071068,22,3
2,Y,1165,0.07989326212454291,0.0003080519983996975,0.00011319085374242917,0.0005640363448223027,0.1129861348387573,0.0004356513140529872,0.0034724738241606514,2.089705761362718e-05,0.003600408746190138,4.037349040268698e-05,0.9644665561473085,0.012274132481265859,0.000983454035821623,7.028942855669001e-06,0,212.613058788508,22,3
2,Y,1197,0.08321757001261168,0.00034446760173931874,5.257673389049193e-05,0.0005827677345272325,0.11768741613956801,0.00048715075417787856,0.0032958382808803547,2.4639036619184125e-05,0.0034332869938518825,5.946476047023003e-05,0.9599658539418165,0.0181093517559682,0.0009722676947160995,8.308306998742792e-06,0,99.59915510691128,22,3
2,Y,1218,0.08055117142036564,0.0003623377272227903,-0.0011824841563477133,0.000581528527562823,0.11391655908772114,0.0005124229279979131,0.0034414545297736057,2.362287306783243e-05,0.0035456796285104316,4.948768622050829e-05,0.9706050434171314,0.015096583106649054,0.0009826951856147573,8.064777768319949e-06,0,130.90543124354608,22,3
2,Y,1239,0.08185053541575274,0.0003029073307258826,0.001431883538872502,0.0005945087852372497,0.11575413727245687,0.0004283756552547757,0.003395304843022058,2.187386314599414e-05,0.0035918670056666654,4.866265185377523e-05,0.9452757681911653,0.01418080391553067,0.0009851565055615035,7.319374013256126e-06,0,92.3911401086854,22,3
2,Y,1260,0.08086359345465978,0.0003331317951697642,0.0026116812857645603,0.0005761662747805153,0.1143583905658041,0.0004711195027867765,0.0035149962624812185,2.3030310971469147e-05,0.0035871484080792263,5.345294742718238e-05,0.9798859323925652,0.015950657890152556,0.0010075876515712753,7.798275391011648e-06,0,132.36371764167563,22,3
2,Y,1281,0.08087747661933309,0.00036557643626270613,0.0013387337694565243,0.0005702367878316464,0.11437802432557376,0.0005170031542467424,0.00342635841500689,2.3566151403057312e-05,0.0036419148841645315,4.69180113957457e-05,0.9408123264783298,0.013739458304567284,0.0009823478868808938,8.084971178723502e-06,0,157.57404485826856,22,3
2,Y,1302,0.07945950059857158,0.0003055442985096735,0.001687613173563895,0.0005465997587770086,0.112372703405893,0.00043210489085815373,0.0035602154802647505,2.2807393066406714e-05,0.0036901709939050793,3.815466983435937e-05,0.9647833355541053,0.011734925393895895,0.001002829376275413,7.492779074527388e-06,0,174.3843182405394,22,3
2,Y,1323,0.08274744095984328,0.00040120433650079793,-0.0002036468942550496,0.0006482339479687465,0.11702255325707733,0.0005673886139623274,0.0033434477404629443,2.373608935931798e-05,0.003499185557362813,5.3666109208676706e-05,0.9554931242293873,0.016147990239899546,0.000980740348896784,8.431412782701254e-06,0,154.0065598544046,22,3
2,Y,1344,0.08025272900198066,0.00035184380399917096,-0.0008069691446636359,0.0005595501434518526,0.11349449777205367,0.0004975822794525686,0.003426934653706617,2.2528343555158682e-05,0.003589261548379008,5.7028166662838e-05,0.9547742920139934,0.016417184889511417,0.0009749235579360327,7.703587616603329e-06,0,183.69948355495498,22,3
2,Y,1376,0.0831099689680431,0.0003310244302968039,0.001598756387373894,0.0006253719559307909,0.11753524528301362,0.00046813923880256736,0.0033298189404704706,2.1895100693500406e-05,0.0033996537121331934,4.4746359051189064e-05,0.979458269113267,0.014410885733215605,0.0009810218298306388,7.541802944111425e-06,0,99.82387060328742,22,3
2,Y,1397,0.08076914696643103,0.00032773649296221865,0.0008861658841713385,0.0005502791781822746,0.1142248230612325,0.0004634893932317641,0.0034929041202938923,2.1603583243721602e-05,0.003596095398632129,4.778817973832096e-05,0.9713046326920336,0.01423712574619153,0.001000085412628997,7.397861353128398e-06,0,124.1683801483467,22,3
2,Y,1418,0.08186869529948378,0.000331871327989716,0.0005177053465691851,0.0006185051817178419,0.11577981922632041,0.00046933693300582613,0.00337876416323423,2.3609941239904276e-05,0.003594630627427935,4.477792503713569e-05,0.939947525471299,0.01342522580520991,0.000980574692745011,7.92150689522377e-06,0,133.39184449156102,22,3
2,Y,1439,0.08504495931113018,0.000303875521928562,0.0008877065777158191,0.0005380499176961121,0.12027173486926834,0.00042974488438457525,0.003290262978980808,2.12881262187611e-05,0.003429894507927625,4.611124393135943e-05,0.9592898473629197,0.014312415022153436,0.0009919370698436695,7.331518878613518e-06,0,95.45590083499452,22,3
2,Y,1460,0.08212700718049769,0.0003295355043534163,-0.0004055869478721053,0.0005834687485061151,0.11614512739177241,0.0004660335795400594,0.0033521505122878427,2.1415085833564307e-05,0.00347132246767457,3.997537879688486e-05,0.9656695808308008,0.012717110985637702,0.0009759204963041276,7.362392895980354e-06,0,196.27501496527174,22,3
2,Y,1481,0.08017026458714192,0.00033295201975045975,0.0009030492735652194,0.0005613480272870675,0.11337787547817557,0.00047086526195061484,0.003477755565584087,2.1906710237980756e-05,0.0036543637964129854,4.9771110541641116e-05,0.9516719624350888,0.014280570070162334,0.0009883648758952364,7.457179042103939e-06,0,210.29571495110042,22,3
2,Y,1502,0.0840090126533857,0.00035863076379084077,0.0014843472586716826,0.0006496816226151772,0.11880668505599101,0.000507180490037229,0.0032838184612616686,2.4498481777864312e-05,0.0034520509387553637,5.674247031425364e-05,0.9512659342291306,0.017171405824244965,0.0009779349165889087,8.405748441768425e-06,0,153.79588035530864,22,3
2,Y,1523,0.08601311724019549,0.0003826787605633745,8.813324838877536e-06,0.0006385975006479568,0.12164091694307155,0.0005411894932208505,0.0032258042542132265,1.862836503334313e-05,0.0033638900223131886,4.692445460471879e-05,0.9589505699698806,0.014477796037125776,0.0009835753356764259,7.170159279060083e-06,0,140.2735413678656,22,3
2,Y,1555,0.08748449588693893,0.0003691400012401903,0.00043349589534584016,0.0006390414636773958,0.1237217605806823,0.0005220427961682983,0.003091437686401175,2.0348941464352342e-05,0.0031982675696750566,3.80907107060461e-05,0.966597577924121,0.013153209529361904,0.0009587304531927745,7.4959910210270706e-06,0,126.1708589345357,22,3
2,Y,1576,0.09114124473509028,0.0003515188874935196,-0.0006057506804008794,0.0006083867298013221,0.12889318439593012,0.0004971227781236376,0.002932155716394109,1.790450012045822e-05,0.0030043214251080207,4.193526631012046e-05,0.9759793648872583,0.014869549676004415,0.0009473422748034435,6.84199867886479e-06,0,134.42417216336983,22,3
2,Y,1597,0.0872539678897622,0.0002936315099286757,0.0005768922372577251,0.0005602512932621185,0.12339574476056825,0.0004152576636812233,0.003212973721356101,1.580682484336567e-05,0.0033134805186718626,2.1469535868049384e-05,0.9696673039876368,0.007888743207712977,0.0009937961071559732,5.9235778971757095e-06,0,150.06570355823598,22,3
2,Y,1618,0.08522574992842405,0.00034030227643320777,-0.00090246954093787,0.0006346048731120991,0.12052741141219514,0.00048126009463828057,0.003288878631402424,2.2830627779776995e-05,0.0034295004286005967,5.0245300089345264e-05,0.9589964194127385,0.015547496197769888,0.0009936275179781462,7.957199953168457e-06,0,80.12247308135156,22,3
2,Y,1639,0.08256677080544553,0.00036160161206451265,-9.972102751797728e-05,0.0005826402322378755,0.11676704707441199,0.0005113819039576084,0.003359536936607611,2.1991493783953277e-05,0.0035393297755567966,4.563764308844018e-05,0.9492014448071878,0.013726264443263577,0.0009833081798959857,7.744452228093573e-06,0,150.627704291623,22,3
2,Y,1660,0.08263494817393402,0.000309254707112879,0.0002506480496142656,0.0005386945463916645,0.11686346443357531,0.00043735220102675276,0.0033955673472768184,2.1399730428614714e-05,0.0035059348405898855,3.8494938507574865e-05,0.96851981045532,0.012261529615246153,0.0009946746269184584,7.2906409954224635e-06,0,128.7851183446122,22,3
2,Y,1681,0.08294021347461243,0.00035837638039032784,0.0010754123170238588,0.0006364079271078903,0.11729517476191664,0.0005068207375821809,0.003352688380487604,2.345618015503517e-05,0.00345352652793236,5.971320266742597e-05,0.9708013977512059,0.018107688182646284,0.0009857420204141603,8.105737931641551e-06,0,98.71867599049128,22,3
2,Y,1702,0.08093339020428501,0.00032270077433559763,0.0010351909317182534,0.0005739413086957,0.11445709807573368,0.00045636781165370177,0.0034574985710752746,2.0730317135585567e-05,0.0036109887061252567,4.321319659766502e-05,0.957493598695111,0.012816167381810059,0.0009919611745540385,7.142613870580988e-06,0,167.88351417069234,22,3
2,Y,1734,0.08269845349764764,0.0003561489549346753,-0.0003221357664228289,0.0006492418535055085,0.116953274523654,0.0005036706822936221,0.0033374775551195885,1.930532427494374e-05,0.003450536450837653,4.279557485531126e-05,0.9672344004102266,0.013236753401245312,0.0009784095291370703,7.055827423775127e-06,0,101.10178896875385,22,3
2,Y,1755,0.08339152470803819,0.0003578849440539731,0.001230222402433932,0.000625432707257704,0.11793342522907868,0.0005061257416502651,0.003312310335051603,2.1678301086787214e-05,0.003443600265858481,5.0006675013341645e-05,0.9618742244538224,0.015321047220026805,0.0009791694749457043,7.663338736915e-06,0,102.17058759772179,22,3
2,Y,1776,0.08162924636242715,0.0003450824800261669,-0.0014649256024565549,0.0006062315474527895,0.11544118729203912,0.00048802032339034795,0.0033919398044715723,2.3150534226902428e-05,0.003512709327110477,4.630328647418948e-05,0.9656192666706503,0.014333465075480492,0.0009815193261975424,7.87995847220661e-06,0,108.09434429700565,22,3
2,Y,1797,0.0800821684046199,0.0003282018737062682,-0.0003069149567484102,0.0005847240730822793,0.11325328866205964,0.0004641475409916662,0.0035391722639255578,2.359770989909481e-05,0.003657202738660727,4.5749144089884743e-05,0.9677265705049778,0.01371783946729558,0.0010047140093243344,7.86330962199724e-06,0,112.38996264594064,22,3
2,Y,1818,0.08735429527197146,0.00032033524526633425,-9.544211726589942e-05,0.0005708739040636805,0.12353762910516597,0.00045302244836176175,0.003147898169267826,2.0335195394223717e-05,0.00326166051430616,5.152386801015613e-05,0.9651213409429478,0.01647137929804495,0.0009747873203725815,7.240914807775139e-06,0,117.06851908360301,22,3
2,Y,1839,0.09502921504490562,0.0003715393090338716,0.0002271615842717926,0.0006519008961143043,0.1343916047381749,0.0005254359297904299,0.002802935194961523,1.8149890976144143e-05,0.0029240291262474013,4.39627070370391e-05,0.9585866193332738,0.015692159952482524,0.0009442242081960973,7.1422161380357514e-06,0,68.49289807851405,22,3
2,Y,1860,0.08269970387164002,0.0003675799108608231,0.0009007291718915376,0.0006441708638570731,0.11695504281951208,0.0005198364951952694,0.0033071275746019845,2.187839701848942e-05,0.003410239407505926,4.5721564886449416e-05,0.969764048624565,0.014498432498198911,0.0009695268365838898,7.727138880821073e-06,0,130.65466183923184,22,3
2,Y,1881,0.08161546429352062,0.0003230282166334826,0.00035325417419759846,0.0005883576682070803,0.11542169650327394,0.0004568308849922653,0.003480786910277017,1.9445962040712773e-05,0.003538905318694045,4.263979882796233e-05,0.9835772920767275,0.013062925753610136,0.0010070587904252618,6.894929121930648e-06,0,116.69526752643613,22,3
2,Y,1916,0.08240847799450729,0.0003174926589079761,0.0011703681609283622,0.0005474347391405545,0.11654318723435697,0.0004490024241815549,0.003327803637032024,2.0284285349793322e-05,0.0035006391955631926,3.810348416921789e-05,0.9506274286278275,0.011859283473021206,0.0009721527684645091,7.010086597479999e-06,0,180.77663226209643,22,3
2,Y,1937,0.08598312356710024,0.000313133036672569,0.0018507352505679228,0.0005893564869574744,0.12159849948379486,0.0004428369872894189,0.003240640051336728,1.8981382772999044e-05,0.003333031798594666,3.96237134503828e-05,0.9722799682568605,0.012885440692093391,0.000987754336825661,6.812682733301714e-06,0,87.94209858234898,22,3
2,Y,1958,0.08263786142449925,0.0003526999376689246,0.0011962784457999742,0.0005942137759560939,0.11686758439203526,0.0004987930352995384,0.003320327184055855,2.1919982586936496e-05,0.003382272792034778,4.336620257805058e-05,0.98168521234455,0.014157282243684417,0.0009726685700030476,7.646383694112101e-06,0,127.50177091727592,22,3
2,Y,1979,0.08093129147632758,0.00030844755247855156,0.0004678334759351386,0.0005757439248669055,0.11445413002619254,0.0004362107119959546,0.003444672901866918,2.3059008118596297e-05,0.003627265995545518,6.091750748473647e-05,0.9496609584456077,0.01716919345361177,0.0009882558444576494,7.612554665869524e-06,0,169.52313556569703,22,3
2,Y,2000,0.0820912435761494,0.00032283299248961773,0.0002518719924400577,0.0005695904087009746,0.11609455001746372,0.00045655479636030893,0.0033531870823729115,2.007140407023542e-05,0.0034958204238855714,3.528415968352726e-05,0.9591988934734456,0.01125590196330011,0.0009757971630902051,6.988701846397624e-06,0,177.1008480614244,22,3
2,Y,2021,0.08038858322914802,0.00034179100435496445,0.0006814804116520651,0.0006126509399127601,0.11368662466261947,0.00048336547385591233,0.0034466684349391745,2.328367523926892e-05,0.003534105602882931,4.4125305898205206e-05,0.9752590392679749,0.013844727595915084,0.0009821974755474447,7.839934838401359e-06,0,124.12100937023749,22,3
2,Y,2042,0.08318444877639491,0.00037250286861158287,0.0018364085540165333,0.0006377184706720853,0.1176405756381077,0.0005267986088133836,0.003271819054193673,2.3528330711758538e-05,0.00341929991135359,5.523958036655886e-05,0.956868113068931,0.016920744546811344,0.0009647979064334103,8.17328286732204e-06,0,111.05248734280215,22,3
2,Y,2063,0.07946512087990748,0.000342867161955407,0.0008694747442799855,0.0005757305352395447,0.11238065168398259,0.0004848873905297091,0.003515857520442396,2.16244210348252e-05,0.003714880594480199,3.740743974229338e-05,0.9464254451856343,0.011167275059481388,0.0009904048249229605,7.4409441979901115e-06,0,221.60368720724088,22,3
2,Y,2095,0.08114982854336326,0.00036105459789323045,0.00026209990964994143,0.0006574104132533939,0.11476318811027564,0.0005106083090977709,0.003362082621531149,2.3233316234970447e-05,0.003425415411674463,6.340836293802082e-05,0.981510916916102,0.01939362386497532,0.0009671657763344009,7.948975036039544e-06,0,183.20936146044576,22,3
2,Y,2116,0.07940712991291538,0.00031100582231804536,0.0013343805057003456,0.0005308787811312242,0.11229864007196722,0.00043982865189917675,0.0034774485946929244,2.1107759986279864e-05,0.003549169835293013,4.1295629697983464e-05,0.9797921080341404,0.012858206558223468,0.0009788702960018135,7.071171561978877e-06,0,133.40641706188882,22,3
2,Y,2137,0.08260921925222549,0.0003271541436821446,0.00019120010526644195,0.0005814220515446239,0.11682707824354988,0.0004626658269818451,0.0033226424771908643,2.3592156381902355e-05,0.0034841882061130737,4.19262480400137e-05,0.9536346146173234,0.013324157303299578,0.0009730094595827789,7.910730595387211e-06,0,101.4270266968481,22,3
2,Y,2158,0.07955765919183114,0.00030242121491101085,0.000592996542028074,0.0005724636039505345,0.11251152061974412,0.0004276881836765001,0.0035003535161519496,2.117263180197767e-05,0.0036109041958847054,3.808740255552307e-05,0.9693842113399882,0.01178688298247461,0.0009871856560619127,7.052450320945907e-06,0,161.97572740252858,22,3
2,Y,2179,0.08198909976254191,0.00034800462455225606,-0.00014454176356473906,0.0005870578402389561,0.11595009685094748,0.0004921528598103575,0.003343326805145205,2.1238501611784745e-05,0.0034176240252952943,4.501898973665945e-05,0.9782605635961756,0.014306427151613753,0.0009717171779107402,7.423963816296589e-06,0,90.48266054615823,22,3
2,Y,2200,0.08010702305912959,0.00032673309777230875,0.0014745469996739142,0.0005731768627058913,0.11328843845155534,0.00046207037814577356,0.003511073426841564,2.4254470513992268e-05,0.003634114081018334,5.0506207402522735e-05,0.9661428751454351,0.014994504413758164,0.0009970465537405182,7.9985396084798e-06,0,153.4274497707588,22,3
2,Y,2221,0.08281943676452808,0.00036094807261640994,0.0014404854101078355,0.0006007572319357056,0.11712437070049653,0.0005104576596065558,0.0033270977600637856,2.0961560418630605e-05,0.0034376037978838736,5.154109878732804e-05,0.9678537596775657,0.015740435342781404,0.0009767935126213888,7.483001406470269e-06,0,151.69097115692728,22,3
2,Y,2242,0.0799001307482693,0.0003580155558672024,0.0009739072448731093,0.0006611611935636136,0.112995848539586,0.0005063104546479402,0.0035192039483530617,2.2369842646286032e-05,0.0036796508627946847,3.4123726128298025e-05,0.9563961581073037,0.010752777594591426,0.0009967743602605312,7.75197235758668e-06,0,156.5235481659712,22,3
2,Y,2274,0.08286944907022918,0.0003632622211653736,1.1054633700104606e-05,0.0006535065089645363,0.11719509878150458,0.0005137303598698462,0.003315916840445321,2.2512771579161647e-05,0.0034424851400496727,4.5603304177743306e-05,0.9632334507034283,0.014338372620849667,0.0009740988126808942,7.872150498413348e-06,0,116.84929895152558,22,3
2,Y,2295,0.08131070995696955,0.0003283115136793214,0.0013063768757105587,0.0006086857307958493,0.11499070878733142,0.00046430259532853624,0.0034791835866663967,2.2788675533331323e-05,0.003562426675524727,3.855766652818421e-05,0.9766330379709306,0.012355437315291594,0.0010028362655105085,7.716362846787266e-06,0,109.12690443022188,22,3
2,Y,2316,0.0818701939838921,0.00036866520532346934,-0.001812420440239637,0.0006304904907860312,0.1157819386861364,0.0005213713333435122,0.003357329609369551,2.2569752591444226e-05,0.0035406619095111947,4.2526969548710386e-05,0.9482208963106128,0.013051635764517875,0.0009743718579791315,7.883977561441384e-06,0,146.80916164722802,22,3
2,Y,2337,0.08146631922386603,0.0003177278085989357,-0.0004453889575870238,0.000524452106564488,0.11521077352300735,0.00044933497606369777,0.0034404947398017876,2.1436533975314363e-05,0.0035474007969741738,4.58486890019158e-05,0.9698635526993246,0.013915632384999864,0.000993582479840305,7.3034687595903255e-06,0,124.82984154826026,22,3
2,Y,2358,0.08601813148014471,0.0003303698552573229,-0.00031160094315218963,0.0006376457035292956,0.12164800814921273,0.00046721352990414244,0.0032047874220470026,2.2251522386450558e-05,0.003294978682798794,4.6505080056546654e-05,0.9726276648699949,0.015298758311454722,0.000977224088761358,7.753962966191904e-06,0,102.83105450170765,22,3
2,Y,2379,0.0810268878956566,0.00029356860152832023,0.00041749777037592865,0.000540477748942434,0.11458932377892195,0.0004151686977682534,0.0034998411224709753,2.0818214808553262e-05,0.003564839897922785,3.695946481636584e-05,0.9817667055707932,0.011735026038706697,0.0010052693014991146,7.001576735215101e-06,0,94.73913617498685,22,3
2,Y,2400,0.08230925376198714,0.0003503984623465495,0.0006586951567321329,0.0006173401878543532,0.11640286297901092,0.0004955382576851686,0.003354852325507979,2.1399707793888142e-05,0.0034902055732856678,3.75429174575477e-05,0.9612191187780759,0.012020764405198659,0.000978874475696006,7.506831936819749e-06,0,145.72401746935319,22,3
2,Y,2421,0.08015131642344778,0.00034056767326356193,0.0015962976956327931,0.0005851997369993657,0.11335107872809724,0.0004816354224351782,0.0035044900670954857,2.4990203243430708e-05,0.0036512787024136745,6.063380450573849e-05,0.9597980194661245,0.017345948507563217,0.0009957273245078402,8.265399301332745e-06,0,158.1155184698167,22,3
2,Y,2453,0.08333092702597042,0.0003215289673078427,-0.0018715926905112496,0.0005592638935147671,0.11784772716525005,0.00045471062626256664,0.0032935790216457113,2.176231709524891e-05,0.0034431077041433607,4.964466897683181e-05,0.9565715930646869,0.01517166033160429,0.0009729247086809929,7.444415092000082e-06,0,138.23562706046042,22,3
2,Y,2474,0.08015662261694449,0.00028020960994354816,0.000801535283813677,0.0005462963261219142,0.11335858281890487,0.00039627623068944073,0.0035008842432856582,2.1239385663200612e-05,0.0035717256364611915,4.259287430304485e-05,0.980166059662488,0.01311419557325446,0.0009947686568406932,6.9653186769861696e-06,0,142.7699745102241,22,3
2,Y,2495,0.08234917306524374,0.000362547831657297,0.001589995256552092,0.0006309734082142791,0.11645931739907689,0.0005127200605387072,0.0033291019325181487,2.3379954228060637e-05,0.0034709635069172053,5.151400603202125e-05,0.9591290504448279,0.01574809023817519,0.0009718321613414506,8.055295551633619e-06,0,135.90789670315982,22,3
2,Y,2516,0.07908043574227445,0.0003234395958547884,3.177668395428745e-05,0.0005206810202257341,0.11183662474509859,0.00045741266306631445,0.003550489465026638,2.1266532679658076e-05,0.003694674019679414,4.638025900658307e-05,0.960975026785912,0.013366253402424182,0.0009953188154488324,7.218993878130697e-06,0,185.15462067945057,22,3
2,Y,2537,0.080937231507764,0.00033589105068060555,0.0010791985054128892,0.000556801617018908,0.11446253049921085,0.00047502167935226103,0.003410021400855998,2.0155709995108915e-05,0.0035106435370094377,4.225090166601832e-05,0.9713379797485349,0.013023901492413524,0.0009783863425197375,7.066047255720215e-06,0,136.73389034802474,22,3
2,Y,2558,0.07947485415430372,0.0003480093806961543,0.0012290037432584567,0.0006028915865261581,0.11239441661264005,0.000492159586013563,0.003547901424376395,2.5755513109731875e-05,0.0036894821337338794,5.228415479889746e-05,0.9616258585282266,0.015311291134203694,0.0009995538963448196,8.474001662160319e-06,0,113.57784606678551,22,3
2,Y,2579,0.08214156518425984,0.00032071546547662026,0.0012346352657442185,0.000532157766674831,0.11616571551813393,0.00045356016093983653,0.003333518027474378,1.9609291187092343e-05,0.003515494947095546,4.696835729226346e-05,0.9482357612911618,0.01384239662843927,0.000970668003563076,6.8532100477426315e-06,0,184.30606297414906,22,3
2,Y,2600,0.0790786677961203,0.00035214486649930285,-0.00023644069254638293,0.0006152046600331557,0.11183412449166985,0.0004980080461233771,0.0035421141964037586,2.4761257410248253e-05,0.003691585057615572,4.375561422738095e-05,0.9595103840548217,0.013203516668073708,0.0009929487534029407,8.229956612249716e-06,0,132.39036818575096,22,3
2,Y,2632,0.08322898906681228,0.00031962149664291524,0.0014929731253862462,0.0005843991549969417,0.11770356512088798,0.0004520130553783974,0.0033052958474456377,1.9439602092786345e-05,0.0034894978255053063,4.1684941015829437e-05,0.9472124680195223,0.012612271379289912,0.0009751914603589885,6.849838512554804e-06,0,161.90957466586164,22,3
2,Y,2653,0.07970340263147917,0.00033384743828637005,0.002573015403475466,0.0005535540748140712,0.11271763296872128,0.00047213157498809943,0.0035050637525011453,2.0908739538453615e-05,0.0036011619815260365,4.273141062928801e-05,0.973314660790635,0.012926661227715349,0.0009903249392088605,7.218463530078892e-06,0,155.30767772922923,22,3
2,Y,2674,0.08126862095568521,0.0003226228655539197,0.00023091689795340053,0.0006230848538804144,0.11493118595088836,0.00045625763199802494,0.003425123677305452,2.034437165690034e-05,0.0035123443421506777,5.906479893970763e-05,0.9751673935273047,0.017391642589975487,0.0009867430593344794,7.049530399243746e-06,0,108.65120709582767,22,3
2,Y,2695,0.0795878695698188,0.00031937820265569034,0.0012212575252720092,0.0005519051526971761,0.1125542445460187,0.0004516689857220202,0.0035635512368058357,2.3972012380780087e-05,0.0037359519682620616,5.079963245983514e-05,0.9538536006563206,0.01447045690026401,0.0010053905967452603,7.875225998063256e-06,0,131.99904181713094,22,3
2,Y,2716,0.08203536193800887,0.00031349914961074926,-0.0002942015363182818,0.0005991152071313494,0.11601552144691774,0.0004433547491719536,0.0033827271249722785,2.109424651933096e-05,0.00346695682198395,3.41255167650293e-05,0.9757050054740886,0.011369044517860472,0.0009837233870558745,7.194645859153791e-06,0,131.21440461853408,22,3
2,Y,2737,0.07928346575856605,0.00032376738010507256,0.0018442518325168147,0.0005639517263356114,0.11212375254770701,0.0004578762199985986,0.0035745156315348434,2.0958624804572255e-05,0.0036665239092350758,3.399828771526507e-05,0.9749058563429831,0.010695581098766742,0.0010046267990066967,7.178350789850516e-06,0,149.9717137726255,22,3
2,Y,2758,0.08185170981180447,0.00035163326781710726,0.0006956164456686146,0.0005940601927367332,0.11575579811928083,0.0004972845363285239,0.003321172234908818,2.3012159512627915e-05,0.003460579757529583,4.2422466079015797e-05,0.9597155585512976,0.013514198234103898,0.0009636605635196674,7.856373425045716e-06,0,157.4823060666315,22,3
2,Y,2779,0.080216944216503,0.0003373420948156165,0.0008934937560181846,0.0005585172149386806,0.11344389044310454,0.0004770737656475954,0.003494606366974943,2.0709921378733632e-05,0.0036137677727262857,3.8536939685994576e-05,0.9670257157500064,0.011797702585013232,0.0009937320793322894,7.2212007280641675e-06,0,145.66916170992192,22,3
2,Y,2818,0.08200333338135499,0.0003070592963802157,0.0022101386560910187,0.0005800759116721647,0.11597022622771458,0.0004342474213936409,0.003371684061988036,2.0875607548704043e-05,0.0034434787955782645,5.0746149882241545e-05,0.9791505225232054,0.015651401868652035,0.0009801291631553223,7.09190420935485e-06,0,150.17162757440914,22,3
2,Y,2839,0.08051187671957295,0.0003080350024614769,0.0011074682009780314,0.0005924101637270969,0.11386098798893074,0.00043562727816665037,0.0035213030977177717,2.037306645366871e-05,0.003592069974073534,3.61700951603224e-05,0.9802991375818022,0.011384446654294037,0.0010050051584183704,6.970985858025309e-06,0,86.12452638966597,22,3
2,Y,2860,0.08098251335348902,0.000313103951602762,0.00015097870650736673,0.0005779091398278274,0.11452656869956446,0.0004427958547892352,0.003399451520399794,2.081404500121899e-05,0.003540402436530412,3.8857928557199275e-05,0.9601878829716461,0.01206751653392306,0.0009758993649410836,7.066795539330182e-06,0,132.16151064806283,22,3
2,Y,2881,0.07997730989009554,0.0003365460840769817,0.0013754761483263718,0.0006186916600568086,0.11310499632868898,0.00047594803646522355,0.0035542639407086974,2.3215489417741283e-05,0.0036754537395742655,4.676507154929525e-05,0.9670272550132529,0.01383065206601028,0.0010076771245217085,7.829522500965568e-06,0,163.78398957490933,22,3
2,Y,2902,0.08066980203540158,0.0003405907083783315,0.0015542871316981653,0.0005401538409579519,0.11408432811241764,0.00048166799900689616,0.003375843774023824,2.5936851632567564e-05,0.0034933151578286324,5.702651166965763e-05,0.966372520514918,0.017435402610074906,0.0009653799250970872,8.463204332028758e-06,0,136.59542622169218,22,3
2,Y,2923,0.07942965127678124,0.0003272694865106804,0.0006517480866399727,0.0005467448758186461,0.11233049009018947,0.00046282894637428296,0.0035471080135951287,2.2526746821819668e-05,0.003746994862474631,4.430352226025756e-05,0.946654090486932,0.012705383808586502,0.0009987619792242715,7.560849393552861e-06,0,162.67641619609543,22,3
2,Y,2944,0.0823280249513293,0.00033501296485597255,-0.0003069200652947405,0.0006126638020179242,0.11642940944956048,0.00047377987847013747,0.00332770094889499,2.0883666407560553e-05,0.0035191359699448875,4.2625080064488974e-05,0.9456016980631483,0.012899545756266803,0.0009711737144399055,7.263913422622826e-06,0,163.61860724649011,22,3
2,Y,2965,0.08062107408409154,0.00032734754716975695,0.0008800613924496472,0.0005892354947497531,0.11401541638280832,0.0004629393408170368,0.003455095575520456,2.2510210140352083e-05,0.0036499346151854695,5.516120574004655e-05,0.9466184849300067,0.01557890344931678,0.0009874465055169641,7.580376209684861e-06,0,140.479377621008,22,3
2,Y,2997,0.08514278270792057,0.00035684636942228434,-0.0001681484199642277,0.0006773121310928829,0.12041007804372672,0.0005046569753205943,0.0032689307971851636,2.2139481267011502e-05,0.0033823340085076467,3.748840107027569e-05,0.9664719063707966,0.012553550842757092,0.0009866395008634784,7.858210240467337e-06,0,120.28911381177578,22,3
2,Y,3018,0.0830454200643969,0.0003425912607219345,0.0017400350998342828,0.000627892792946359,0.11744395934804086,0.0004844972072634568,0.0033764846918229656,2.151130109497891e-05,0.00351919894922669,4.659378015964297e-05,0.9594469481655521,0.014097115154086362,0.0009939977544789573,7.54437550684504e-06,0,108.07157408416478,22,3
2,Y,3039,0.0819590054882798,0.00033400074127874676,0.0007591959038871743,0.0005864252838748321,0.11590753712013624,0.00047234837815907094,0.003406884357182713,2.037398131466953e-05,0.0035145494233348785,3.584581685518886e-05,0.9693658978196971,0.01146101419289107,0.0009898263345184124,7.1631323969558244e-06,0,106.55765944759074,22,3
2,Y,3060,0.0793762339409328,0.00030668253436274753,0.00020490470388023833,0.0005806077451335637,0.11225494656936674,0.00043371459943875035,0.0035653968039559844,2.0763994061401557e-05,0.0036960619608706457,5.578695882885889e-05,0.9646474657898101,0.015606240374522818,0.001003236426392154,7.011463985059315e-06,0,102.28305417826718,22,3
2,Y,3081,0.08132934803105908,0.0003133763332111941,-0.0005951724401436057,0.0006059665253383544,0.11501706700448533,0.00044318106055402096,0.0034606053367985425,1.7541847999749356e-05,0.003492844027474943,5.1404887739600104e-05,0.9907700743512138,0.015422025503974241,0.0009977099331214632,6.352666494887679e-06,0,115.48023634863102,22,3
2,Y,3102,0.07859408166247168,0.0003195608817947636,-7.020078954234044e-05,0.0005769611880591748,0.11114881620932604,0.0004519273330380602,0.003652126068907432,2.1987140943483906e-05,0.0037735485834136783,3.916683287396297e-05,0.9678227239368405,0.011612860995158894,0.0010175143351509822,7.392009196895732e-06,0,151.18911455668967,22,3
2,Y,3123,0.08245168102368107,0.00033541278159395486,0.0005950447942240314,0.0006348548658998898,0.11660428554415014,0.0004743453047234558,0.003352874867685129,1.8709007441827804e-05,0.0034547261822858327,4.145638084952902e-05,0.9705182670849725,0.012843663257021304,0.000979990333619092,6.767246238880041e-06,0,155.24316502583133,22,3
2,Y,3144,0.07967641500671213,0.0003287241962243678,0.0013728813724680805,0.0005586706412136464,0.1126794667037595,0.0004648862165806955,0.0035405346024854315,2.4488182072169055e-05,0.003694067765608168,5.1948614708067005e-05,0.9584379137404753,0.015020228486638174,0.0010000081978095415,8.05363642930785e-06,0,161.75840048692996,22,3
