Scan,Type,BCID,sigma,sigmaErr,Mean,MeanErr,CapSigma,CapSigmaErr,peak,peakErr,rate0sep,rate0sepErr,peakRateRatio,peakRateRatioErr,area,areaErr,fitStatus,chi2,ndof,covStatus
1,Y,103,0.08247700248882371,0.0002164365480629835,0.0004601623003348857,0.00037591945276834224,0.11664009550357402,0.00030608750166388754,0.036085135321281936,0.000152752851232124,0.03702119243764391,0.00030801131099631015,0.9747156411037109,0.00909882754624865,0.010550332308469457,5.254636353083405e-05,0,196.29026641738898,22,3
1,Y,124,0.0785445100116403,0.00021133884087074867,0.0009459529575777315,0.00035386091188033557,0.11107871130841107,0.00029887825501562215,0.03841714774039323,0.00016885509912666123,0.039468737910643224,0.0003450678041408782,0.9733563770741598,0.009524753118134848,0.010696603174909789,5.5124897289843985e-05,0,231.29566741328014,22,3
1,Y,145,0.0802861676727189,0.00023015173340436081,0.0011112683712270457,0.00038825911102504637,0.11354178719371943,0.000325483702784124,0.03722374473281887,0.00016820862276794337,0.03846863645782448,0.000307180725244752,0.9676387873438025,0.008878256041462642,0.010594140332165897,5.669366797839945e-05,0,171.72333968656721,22,3
1,Y,166,0.07813386896024806,4.509910494451051e-05,0.0015931862835766566,0.0003347103225755068,0.11049797716426502,6.377976586341427e-05,0.03906315504490883,0.00011298370642750349,0.0401700686175606,0.00024574597117990154,0.9724443195955139,0.006580445487514504,0.010819609317350706,3.191099097599328e-05,0,219.520292926368,22,3
1,Y,187,0.07995435288071756,0.0002295212616208107,0.0024334828418387197,0.0004025127464998262,0.11307253021467512,0.0003245920810371339,0.03761313963002875,0.0001662600765727417,0.038302157293485545,0.00036195536171973865,0.9820109959296213,0.01024502652641724,0.010660722305506593,5.618858368174892e-05,0,241.07371048034688,22,3
1,Y,208,0.08042595109828411,0.0001974231819758661,0.0015016979390907027,0.00037838734160972564,0.11373947080994873,0.0002791985414771214,0.03833757090674955,0.0001612179252524962,0.03944815236342177,0.000308248020584669,0.9718470602516227,0.008623878345555154,0.010930140126247998,5.322150691869219e-05,0,180.7172106404747,22,3
1,Y,229,0.08025439119785836,0.0002201766938915623,0.001872736226032442,0.0003730359249571464,0.11349684847200725,0.0003113768666199168,0.037316246223852274,0.00017659637351692418,0.038862574933332575,0.00039544081196400303,0.9602103382976301,0.010775505508688275,0.010616263432772678,5.807257574051059e-05,0,326.4566272784438,22,3
1,Y,250,0.07709388557707067,0.0001944454577754862,0.0002600110434662721,0.00033576145941108834,0.10902721855913289,0.0002749874035279376,0.039505611467524654,0.00013699071185508996,0.04011433789297011,0.0002379263761191402,0.9848252156854836,0.006766231720709738,0.010796516557352412,4.629412235257982e-05,0,269.1932123847139,22,3
1,Y,282,0.08046808378743313,0.00020525109685899006,0.0013918378038705395,0.000358989531975802,0.1137990554303625,0.0002902688848699375,0.03700739952525286,0.00015039708016666752,0.038181087384593346,0.0003220785625503853,0.9692599677029081,0.009075628956544391,0.01055643213767697,5.065110126531912e-05,0,148.17782922676852,22,3
1,Y,303,0.0776377577360076,0.00024092965379592633,0.0018892935585133666,0.00038986646911869235,0.10979636994249864,0.00034072598397605347,0.039057569336721734,0.00017960426583730308,0.04061235998089874,0.00036272982816141873,0.961716318753496,0.009661189167104024,0.010749372885807794,5.9633275749177984e-05,0,225.37016673064383,22,3
1,Y,324,0.08029232108489077,0.00022732705818307068,0.001471063642260263,0.000399125667557252,0.11355048943266777,0.00032148900877687625,0.03771137338638953,0.00017999245732803318,0.039278252189522675,0.000370960203030138,0.9601082350718472,0.010159812183416932,0.010733745495447953,5.9566456848590796e-05,0,205.40133799192878,22,3
1,Y,345,0.07769347352525857,0.00019783241218100688,0.0012853753410576616,0.00033924730049186667,0.10987516396729569,0.00027977728038336425,0.03955318824761316,0.0001578764832153947,0.04103107476235306,0.0003064176333447908,0.9639812867856951,0.008162718780646373,0.0108935885155185,5.157605341903842e-05,0,276.19620285261703,22,3
1,Y,366,0.07869711182608705,0.0002142156753803569,0.0015548401220702988,0.00036060801422539604,0.1112945228640444,0.00030294671339581303,0.038638140323213915,0.00017005829123934476,0.03953015682352449,0.000464959085357339,0.9774345317097317,0.012275244701081088,0.01077903647439682,5.578183052492886e-05,0,228.36411831496554,22,3
1,Y,387,0.07803289624812726,0.0001922436015838503,0.0011078153539117379,0.00034882295321396765,0.11035518018535417,0.0002718735086393309,0.039403903508136516,0.00015734018605726482,0.040269062778374984,0.00027534974757855113,0.978515534990224,0.007748146672968543,0.010899884733378332,5.1140751382785765e-05,0,198.99808392017613,22,3
1,Y,408,0.08001708047771498,0.0002232233024802794,0.0015312897390616852,0.00039210871994688434,0.11316124043308395,0.0003156854218053229,0.03749738856741983,0.00018291224420998074,0.03887994403266981,0.00034596736219808086,0.9644403946649652,0.009786837657729046,0.0106362529412045,5.9769004937287914e-05,0,205.7799337772823,22,3
1,Y,429,0.07709731232286457,0.00021161439658221677,0.0017380787674992361,0.00036364433582375725,0.10903206470950944,0.0002992679496399697,0.03988956148876753,0.00014343744865924943,0.04064939260584305,0.000268951196309208,0.9813076882982429,0.007389612977451105,0.010901931089131152,4.931723549713485e-05,0,197.3857940928206,22,3
1,Y,464,0.0814403442259741,0.00020803341812848802,0.0017606825713024862,0.00037768612898353665,0.11517403932870596,0.00029420368134414066,0.03643962520601641,0.00015676452439255473,0.037404659474454274,0.00029788430296088874,0.9742001589642344,0.008817995181816024,0.010520065264523832,5.263460876271745e-05,0,161.6792879446871,22,3
1,Y,485,0.07890456367930793,0.00020636061111905377,0.0020578915046433124,0.0003774415412797153,0.1115879040884088,0.00029183797498416597,0.03846831502963124,0.00015913298952265601,0.039018722378595806,0.00027845551960869,0.9858937629063298,0.008132373181725586,0.010759949142642363,5.266049231146759e-05,0,151.6586482843505,22,3
1,Y,506,0.08004030651956838,0.00024986550131668136,0.0011092243365563351,0.0004175023713416959,0.11319408701647327,0.0003533631807312032,0.03760777268521868,0.00017067779042617527,0.03905367285510763,0.0003420150002757377,0.9629765892889676,0.00949846760092868,0.010670660150493042,5.877785935281161e-05,0,137.16215131331649,22,3
1,Y,527,0.07907035883555193,0.0002232093068980745,0.0008482976145287828,0.00037677943670066016,0.11182237384694482,0.00031566562906315543,0.03828747426638211,0.00017138179798837882,0.03996903781598419,0.0004589733146115254,0.9579283455022378,0.011806271720084548,0.010731868922899164,5.679288960759412e-05,0,171.53460607173443,22,3
1,Y,548,0.07977583227491454,0.00022800839659664003,0.0021002539772400825,0.00039223024816864105,0.11282006395278543,0.0003224525668019118,0.03781978789855494,0.00018093457066713372,0.038974099750056626,0.0003584340958041368,0.9703825910308548,0.010059624810051696,0.010695358950428323,5.960363404167685e-05,0,219.09599441622686,22,3
1,Y,569,0.07842132310335151,0.00019730282765242628,0.0014663484339036113,0.00036097885943431356,0.11090449871200225,0.0002790283347606226,0.03902881411632388,0.00015620591329892883,0.03961550106542512,0.0002869807437469436,0.9851904700603856,0.008153684053469345,0.010849867957187504,5.129189317302538e-05,0,170.03748051451888,22,3
1,Y,590,0.07945894441286692,0.0001928600021556081,0.0015640110197737982,0.0003452587669065452,0.11237191684052628,0.00027274523068776535,0.03783668919647511,0.00015362715410763628,0.038385722236181294,0.00023678776764071076,0.9856969464758778,0.007279352186683683,0.010657635203841559,5.041514343190705e-05,0,195.80874727017414,22,3
1,Y,611,0.07817514573286934,0.00020429276359211149,0.0014297475659151083,0.00035945395204990856,0.11055635133591701,0.00028891359696664454,0.03867027337830505,0.0001714911819784948,0.03971122542961671,0.0003034429893569199,0.9737869572129769,0.008603292575079857,0.01071644831820262,5.516189304489957e-05,0,249.59486589611157,22,3
1,Y,643,0.08078678324992901,0.00021409555211152702,0.00150158381954561,0.0003715342879371027,0.1142497645325452,0.00030277683343987727,0.03665321847956591,0.00014139529252199827,0.03720436322343561,0.0002516584449951774,0.9851860186247584,0.007671564353956416,0.010496810657513102,4.912760639641311e-05,0,154.7554686917678,22,3
1,Y,664,0.08017157419225762,0.00022897053142888421,0.0007788705780932808,0.0003814588650826157,0.11337972753949155,0.00032381323093050307,0.03814887026869519,0.0001653208331907894,0.03903633245512847,0.0003193056751137522,0.9772657385922872,0.009046303899679661,0.010841940625224684,5.6270203784143967e-05,0,200.26965725689922,22,3
1,Y,685,0.08128152778712405,0.00022702994062168973,0.001637033526882639,0.00040486075796342233,0.11494943896695642,0.0003210688210919521,0.036354267277350576,0.00015127961994922578,0.03710509887061235,0.00025268464078204297,0.9797647327155773,0.007819222463144442,0.010474955483237429,5.2497900619123294e-05,0,148.1149045337543,22,3
1,Y,706,0.08342719641051277,0.00022223715837901647,0.001485128951251838,0.0004034394570229707,0.11798387263451116,0.00031429080344286264,0.03649436374002233,0.00014680639061283933,0.03687870442969616,0.00022022468846734274,0.9895782485958389,0.007125112913700179,0.010792905577838708,5.207317026999957e-05,0,145.18732282633212,22,3
1,Y,727,0.07945869462279702,0.0002094855780828729,0.001164444652422097,0.00036506793650741595,0.11237156358402167,0.00029625734564636685,0.03757901330846972,0.00016484291798021217,0.03886264657426047,0.00031896930349396564,0.9669699987277519,0.008998890321263575,0.010585021169399062,5.417280377308198e-05,0,153.03389805050247,22,3
1,Y,748,0.0775106897391795,0.00022237730872335274,0.0016786161779896096,0.00037272253194152243,0.10961666865804076,0.00031448900596059426,0.039469893592200114,0.0001614617330936519,0.040792752996285736,0.00035333763323672375,0.9675712153037067,0.009268535856932762,0.01084507323593468,5.4187816212000746e-05,0,247.35874471385188,22,3
1,Y,769,0.0800735210116375,2.8708020994315478e-05,0.0010872302276265578,0.00040600489221909376,0.11324105940162477,4.05992726390525e-05,0.03723099995393457,0.00011967024046855338,0.037786528932049576,0.00024565943280383505,0.9852982268068603,0.007145800836473468,0.010568140015450348,3.417944038219878e-05,0,198.54079996832996,22,3
1,Y,790,0.07793286876039102,0.00022401210914229342,0.0010820681836422599,0.00036456985738564666,0.11021371995558749,0.0003168009628848334,0.038640358306064194,0.00015731237091526386,0.03965972079350454,0.0002973695553812092,0.9742972853301757,0.008312702261907477,0.010674971890777872,5.320049673704571e-05,0,222.66807887651564,22,3
1,Y,822,0.08169553649264838,0.0002284011645478,0.0022908958552772967,0.0004052920111228215,0.11553493569324946,0.00032300802456530775,0.0364354514117287,0.00016594563572322867,0.03734948571856036,0.0003569816331977587,0.975527526303329,0.010328459385874547,0.01055182100922656,5.639041709758787e-05,0,205.94507587328278,22,3
1,Y,843,0.08278760519464388,0.00022366942100091516,0.0018980580544837792,0.000402000947515049,0.11707935406265468,0.0003163163286676318,0.03686704865929952,0.00015522922289210763,0.037460408194320546,0.0002740299433981447,0.9841603558631006,0.008306710385352797,0.010819535695449304,5.412769529439502e-05,0,78.48594646069584,22,3
1,Y,864,0.07942197671235537,0.00022884509000784087,0.0012134155920100827,0.00038053223992591295,0.1123196366170931,0.00032363582997158025,0.03790452151860431,0.00014993663761024751,0.03934070291770626,0.000317663892660233,0.9634937534769984,0.008663286086980011,0.010671774570573023,5.222571944966704e-05,0,181.15681624237894,22,3
1,Y,885,0.07750521126218103,0.00020414186518455957,0.0014506765138249014,0.00034706693094297065,0.10960892092156838,0.0002887001943921441,0.039455898163090086,0.00015282085905294522,0.03993718419251891,0.0003362575112483084,0.9879489243130221,0.009156128462623257,0.010840461475519416,5.077598759347347e-05,0,175.34255749008554,22,3
1,Y,906,0.0801302014472308,0.0002501964655543155,0.0021622095146792337,0.00039061125321082125,0.11332121764236203,0.0003538312348447259,0.0370160362307344,0.000182370246500289,0.03857279568251212,0.0004868006622275384,0.9596410002378044,0.013001117028553354,0.010514559383727699,6.133015693328418e-05,0,265.444165340168,22,3
1,Y,927,0.07771522950562458,0.00019784271176968553,0.0016858474494462117,0.00034792148302899035,0.109905931569792,0.00027979184620136044,0.03910494641402089,0.00014633765017142133,0.04005800728522538,0.00024949624132977684,0.9762079809807213,0.007093246495067346,0.010773151344838826,4.8759288696690054e-05,0,252.66293494697234,22,3
1,Y,948,0.08013347338251395,0.00023948720660914495,0.0013681314803512298,0.00042327994277769075,0.11332584485761465,0.00033868605560150034,0.037482658629848245,0.00016391645926105581,0.03854721764057061,0.0003090822463563287,0.9723829869992503,0.008881056767805876,0.010647540171632953,5.639780042745916e-05,0,207.5193233426437,22,3
1,Y,969,0.07791373460344374,0.00022738584224512578,0.0021231243644970962,0.000396715703710007,0.11018666017132805,0.000321572141994686,0.03912048827466322,0.00017217390683586665,0.04030441409184589,0.0003310448456429,0.9706254055825068,0.009044712174949409,0.01080496141677256,5.7059079834819816e-05,0,230.81640964128894,22,3
1,Y,1018,0.07900990195085181,0.00020768680375620667,0.0012165670276990637,0.00038080569351411485,0.11173687490066309,0.00029371349459794693,0.0384333356962518,0.00015210786350028108,0.039010745243189426,0.00028418219382342905,0.9851987050404162,0.008167679084109241,0.01076451665736218,5.114343014723813e-05,0,164.89012104751112,22,3
1,Y,1039,0.07779113788350295,0.00020345083436768214,0.0024044428071489394,0.0003501250145106027,0.11001328222728535,0.0002877229292388983,0.03961862482185803,0.00015429748914327202,0.04081237106828783,0.00033909235428226735,0.9707503824163413,0.008907658173262521,0.010925327216754805,5.125330883582373e-05,0,197.164854295334,22,3
1,Y,1060,0.07827221569373681,0.0002172190875829955,0.001300564347916257,0.0003781428334561997,0.11069362899107482,0.00030719417966618145,0.03867516596814415,0.00016247379567391207,0.03932706503439188,0.0003932576776642103,0.9834236532607344,0.010666483255549464,0.01073111245200226,5.402970872757943e-05,0,150.69621410751807,22,3
1,Y,1081,0.08084819022454497,0.00020391245788263694,0.0023594015398526774,0.0003589582747984588,0.11433660710887139,0.0002883757634744577,0.038090978046355084,0.00016178861853952874,0.03912330600923303,0.0003711596011269969,0.9736134783028224,0.010120066759070782,0.010916850394739724,5.392741178275952e-05,0,138.7800291259437,22,3
1,Y,1102,0.07865498285081668,0.00020405465769397728,0.0027646189454150153,0.0003777193751894644,0.11123494349584817,0.0002885768643762221,0.038794710221873814,0.00014869524754311072,0.0392462229857948,0.0002295062582339537,0.9884953830057887,0.006911579542557266,0.010816921673796196,5.006414474124347e-05,0,166.03999718161268,22,3
1,Y,1123,0.0771032671095585,0.00022114408372906014,0.0012241567836409643,0.000410628956768142,0.10904048604961303,0.00031274496244820815,0.039775701990542575,0.00015536244840912521,0.04060518344899281,0.0003173460812953073,0.9795720302681994,0.008558632266741629,0.010871652595079884,5.26830714301995e-05,0,147.74509629840824,22,3
1,Y,1144,0.07930786701833137,0.00020607756850196738,0.0015337989497664368,0.000367243605527158,0.1121582611402061,0.00029143769227635286,0.03813548567270236,0.00015226347552938172,0.03951007281967197,0.000311580881150957,0.9652091973294161,0.008531729084824932,0.010721374922917744,5.107425135827739e-05,0,167.58257411554504,22,3
1,Y,1165,0.07765530370233954,0.0002069220743376167,0.001621802243160356,0.00036999146718365446,0.1098211836860502,0.00029263200388263133,0.03920812709348028,0.00015270926231278524,0.04035609449763003,0.00026806099847747846,0.9715540510438352,0.007481037237938072,0.010793247893370281,5.093448873980176e-05,0,261.5783095305879,22,3
1,Y,1197,0.07965472059238299,0.00020587688725368775,0.0027518558567679705,0.0003718792381007115,0.11264878616878748,0.0002911538861333218,0.03821384784189853,0.00014623271479392207,0.039409627281931967,0.0002753931098394087,0.9696576820816151,0.007725394209688002,0.010790391958197542,4.982758449092795e-05,0,228.6053032296259,22,3
1,Y,1218,0.07787503992744384,0.00022395556944203424,0.0020129413115153342,0.00039774772373412715,0.11013193763573736,0.0003167210036739143,0.03976059557188801,0.00016924550199649827,0.04034423780931379,0.00031922511860971945,0.9855334424661993,0.008854837938020195,0.01097630320726271,5.638570223910322e-05,0,207.03793584569095,22,3
1,Y,1239,0.07897218230743278,0.00022298054163149092,0.0013652903971883904,0.00040230830616975116,0.11168353126937203,0.000315342106120553,0.03883048231683241,0.00016313136904182591,0.03952725954596961,0.00029213234055476604,0.9823722353347856,0.008351386653263335,0.010870558471949758,5.502448047983351e-05,0,135.87967358269708,22,3
1,Y,1260,0.07855000591220404,0.00020337094231763096,0.0011532728268123077,0.00036191325439607495,0.11108648368552576,0.00028760994481819013,0.0397501625091744,0.0001618422363535685,0.04126571016466511,0.0003158719099577518,0.9632734381780145,0.008351624034720204,0.011068532958274388,5.3405239798415616e-05,0,175.38093405772278,22,3
1,Y,1281,0.07870471075229905,0.00022440237290471073,0.0010138872420731083,0.00040851123114030944,0.1113052693685529,0.00031735287919054667,0.03881732355101331,0.00014697015534148234,0.03933145207019556,0.00022715732965252215,0.9869283107507785,0.006815615688096949,0.010830069577143503,5.133112155595722e-05,0,138.93557777457977,22,3
1,Y,1302,0.07702544145170692,0.00019185925190910833,0.0018631766637432728,0.00033872847556713916,0.10893042394877872,0.00027132995611661714,0.04033397485079464,0.00017217041257359437,0.04194192517804195,0.0003397577275525529,0.9616624577812865,0.008805488112141801,0.011013114417492713,5.44291674377394e-05,0,237.22281663192405,22,3
1,Y,1323,0.08028105141602043,0.0002560389637916148,0.0012771047936372443,0.00042516066011937903,0.11353455171410787,0.00036209377509005547,0.038002011417885194,0.00017854129400415427,0.03891171829107747,0.0004490491514988363,0.9766212618423259,0.012168616376635797,0.01081495129125579,6.1412039155618e-05,0,207.56404460773945,22,3
1,Y,1344,0.07759807940587878,0.00021129545111443814,0.0016402705367089055,0.0003616648419040319,0.10974025630989814,0.00029881689263377975,0.03919733959789177,0.00014173746422133473,0.039897090900322306,0.0002727376031656954,0.9824610946151745,0.00759784266548674,0.010782326931631272,4.880700358122382e-05,0,296.9546750495465,22,3
1,Y,1376,0.07946471582866553,0.00022321034641429143,0.0022584587593294514,0.00039932052563378627,0.11238007885502277,0.0003156670991610877,0.037864598180827776,0.00013705313555396613,0.03835734626516759,0.00021695111068514863,0.9871537493513393,0.006628803155842825,0.010666271133491759,4.886882126793717e-05,0,177.57641808580345,22,3
1,Y,1397,0.0783150918647978,0.00022449327983262081,0.001491193531424157,0.00037563710213898635,0.1107542650536919,0.0003174814410009108,0.03919596387390702,0.00016816713020865776,0.04011032619622019,0.00036846522353105787,0.977203817345187,0.009907694324605434,0.010881574566519775,5.614802528122642e-05,0,164.56304228477657,22,3
1,Y,1418,0.07919727629370892,0.00023415312664001867,0.0014058881622806075,0.0004078849974454742,0.11200186223757236,0.0003311425273663793,0.038288906446218615,0.00017631986142073637,0.039110287863741044,0.0003191252233464632,0.9789983285118203,0.009172610800344297,0.010749496946529392,5.882564414914939e-05,0,156.57479087102834,22,3
1,Y,1439,0.08190690728138915,0.00019710485359151716,0.0012842299772595058,0.0003534365255913798,0.11583385912937616,0.00027874835715868684,0.037279507614707184,0.00012088167364032111,0.03783360415964997,0.00019825078230329473,0.9853543811843933,0.006071946262370158,0.010824195492915195,4.370791613179575e-05,0,143.52775458206554,22,3
1,Y,1460,0.07945951914555135,0.00022884279526197424,0.0006139423779848438,0.0003800100798069048,0.11237272963528333,0.00032363258471085343,0.03802674886428638,0.00015509886622508263,0.03931941512445688,0.00035921297994783596,0.9671239702808688,0.009675969572685574,0.010711247664036576,5.348117460163263e-05,0,202.81467120260146,22,3
1,Y,1481,0.07738530067154327,0.00019832654804621363,0.0008218428655431764,0.00034681508869343567,0.10943934173801628,0.0002804760940255946,0.03984390143986945,0.00013668952298735053,0.040846642890569364,0.00021628723003393104,0.9754510681970531,0.006154417789284034,0.010930128392172424,4.680516595910244e-05,0,239.60739951222675,22,3
1,Y,1502,0.07903970773664623,0.0002260658398898276,0.0012814676254452987,0.0003800318562721955,0.11177902664717076,0.0003197053767614588,0.037784014131804405,0.00017092385069661278,0.038747169402672726,0.00032387626389667194,0.9751425643287924,0.009268058306771562,0.010586645061100608,5.666023802998343e-05,0,252.26027500779026,22,3
1,Y,1523,0.08243923526173398,0.00023691938389103939,0.0014493073051160042,0.0004206705119364566,0.1165866845788105,0.0003350546058877857,0.03683278604692257,0.00015368922480740288,0.03736571090960337,0.0002642744937882977,0.9857375960551086,0.00809464633135518,0.010763994241699212,5.4536251804705085e-05,0,120.62719889355131,22,3
1,Y,1555,0.08532379531493013,0.00022489088562724387,0.000790674743431772,0.00042175781828221573,0.12066606852752015,0.0003180437405081449,0.03533732294979507,0.00014035092395424856,0.03609782535734525,0.0002355796017698376,0.9789321822015123,0.0074787684336266634,0.010688302649567372,5.094843287702887e-05,0,151.14794300399714,22,3
1,Y,1576,0.08689322889943205,0.00023791669939189338,0.0015032260374992254,0.0004118627793990506,0.12288558278796657,0.0003364650229950583,0.03416228420560065,0.00013656499845822982,0.035007752906417014,0.00032264496069280544,0.9758491011097891,0.00980337793877807,0.010522956352856666,5.098710438796005e-05,0,175.87385076579866,22,3
1,Y,1597,0.08504183325465173,0.00023760157576702818,0.0023022325707583043,0.0004186213740562132,0.12026731395779977,0.0003360193708909498,0.03541923934107009,0.0001445142307427049,0.0362625053040652,0.00031591170564762355,0.9767455128672377,0.00939620681451984,0.010677676915298525,5.2801460687220906e-05,0,163.36427238774797,22,3
1,Y,1618,0.0818487539567266,0.00021405550732238673,0.0008003246159821616,0.00035383190904081634,0.11575161790894128,0.0003027202015559727,0.03735097383189622,0.0001621211769803536,0.037658224057384775,0.0003570304193861446,0.9918410856279267,0.01034207809735321,0.010837246047638999,5.49175127900099e-05,0,171.18430253070318,22,3
1,Y,1639,0.07989712526244476,0.00020312169773729606,0.00204359819220253,0.0003681671335770229,0.11299159814077142,0.0002872574597523325,0.0381827969012172,0.0001389594618379979,0.038897146070889364,0.00026852178494598346,0.9816349207633313,0.007660609727278984,0.010814434707225713,4.8009147171652077e-05,0,194.33380164876786,22,3
1,Y,1660,0.07986590321999018,0.0002114078680548735,0.0019481759769473359,0.0003695691318712738,0.11294744350488717,0.0002989758741955839,0.03843363838795758,0.00016019972501160514,0.03956475043071598,0.000368546085853077,0.9714111164497511,0.009913318682435068,0.010881226216842751,5.3728168360315155e-05,0,183.05060204225092,22,3
1,Y,1681,0.07981005584921451,0.0002189409692914306,0.0021741638635025327,0.0003737974660769472,0.11286846339571333,0.0003096292881310525,0.03786793464495747,0.00016257056258582662,0.03867739400036464,0.000326731280248081,0.9790715125378007,0.009277582052049612,0.010713568867769216,5.458267081119123e-05,0,161.0108209897389,22,3
1,Y,1702,0.07748388542432343,0.00021648182010344187,0.0012590347845136231,0.0003571476648281441,0.10957876163244118,0.00030615152599750006,0.03920584190950957,0.00016602561281825056,0.03939845081014452,0.0002943520692412053,0.9951112569993397,0.008545858227008896,0.0107687949266204,5.463364146063271e-05,0,191.69117644492246,22,3
1,Y,1734,0.08042997919717373,0.00022105959796784843,0.0016560216132949714,0.0003922513160228282,0.113745167402029,0.00031262548153887515,0.03733001620227818,0.00017686727711160806,0.038521436193196944,0.00030431219361543125,0.9690712468521833,0.00892677780569489,0.01064341673130251,5.829848518442938e-05,0,198.0972946953922,22,3
1,Y,1755,0.0810187403855565,0.00021184497177582603,0.0013164924424782759,0.00035954433097379655,0.1145778014596388,0.00029959403220591874,0.03740754171620176,0.00014080546686880507,0.03835256940635512,0.0002504657037766933,0.9753594686149824,0.007351989864286768,0.010743593994447747,4.923965367726996e-05,0,184.14080183681753,22,3
1,Y,1776,0.07945439165221183,0.00021464108814634806,0.0015542422481314875,0.0003946265736101778,0.11236547826466159,0.0003035483378990844,0.03807031438826903,0.00015524863226950523,0.03900777044812033,0.0003579965824245593,0.9759674534308977,0.009801426963505085,0.010722827070671435,5.245139403162397e-05,0,138.58776262641155,22,3
1,Y,1797,0.07738700429169826,0.00020554723693438562,0.0014145762308897878,0.00035480707594683303,0.1094417510207446,0.0002906876901809241,0.039849840596294386,0.00015592600741764497,0.04111617945512797,0.0003654269542350165,0.9692009599234384,0.009411782307614375,0.01093199830403423,5.169939438152609e-05,0,205.88268781187517,22,3
1,Y,1818,0.08505087264893092,0.00022364361994493397,0.001877033541800819,0.00038046597396038524,0.12028009759178504,0.00031627984046433966,0.03580440639679799,0.00014414830806858537,0.03689105694154755,0.00028833145411390464,0.9705443368979285,0.00853277093725873,0.010794938784852168,5.1908997713936166e-05,0,194.44821976235713,22,3
1,Y,1839,0.0934152240395016,0.0002521471943293849,0.0010356852249297146,0.00044143896953109706,0.13210907676878436,0.0003565899819349405,0.03160117000115185,0.00011388212897963019,0.03196046027862412,0.0001977895368924684,0.9887582883869612,0.007080867744574456,0.010464675214331035,4.711731863684707e-05,0,109.25528650236706,22,3
1,Y,1860,0.08049178110709157,0.00020766978871879262,0.0008140508971242403,0.0003764724940131734,0.11383256850121537,0.0002936894317012717,0.03756854438439529,0.00015652926466511389,0.038414762407162684,0.00034160830702603814,0.9779715408936224,0.009603988836469042,0.010719655730208406,5.253306076384717e-05,0,254.4143445103383,22,3
1,Y,1881,0.07967559082750894,0.0001730780961275502,0.002075795221860994,0.0003202745141745235,0.11267830113835253,0.00024476939089329575,0.038680227023282096,0.00014924649215220003,0.03911110733724916,0.00023575602981938405,0.9889831727275925,0.00707816364168156,0.010924944491327396,4.837494915262558e-05,0,188.52072012118842,22,3
1,Y,1916,0.08027733533277415,0.00021614329807463645,0.0019461146998635554,0.0003487945593782221,0.11352929637878206,0.0003056727835532014,0.03722104971459598,0.00013913736228862567,0.03817911039617636,0.00026435453348468575,0.9749061549198295,0.007671235457334828,0.010592207926233563,4.879662510802313e-05,0,188.31467635785947,22,3
1,Y,1937,0.0828886907621299,0.00021384634743783963,0.001494168068078903,0.0003568993909853278,0.11722231064315358,0.0003024244048105418,0.03687089253715488,0.0001268193338678574,0.037263824700558064,0.0002918097546848284,0.989455398994583,0.008462806117636414,0.010833876054279407,4.658127216086945e-05,0,118.95467356645031,22,3
1,Y,1958,0.07923965571060104,0.0001871418899559771,0.0002506896337437713,0.0003550521198791134,0.11206179578370667,0.0002646585988638761,0.03796874329463707,0.00013791588218463056,0.038548061478765855,0.0002271062938065174,0.984971535223687,0.006817246959226217,0.010665316177984933,4.6208903607402636e-05,0,187.28129449536414,22,3
1,Y,1979,0.07849564698440031,0.0002340502015316265,0.002237589428465955,0.00040338964377282545,0.11100960855258968,0.00033099696928218236,0.03898471023926021,0.00017941831791516358,0.03984255104695914,0.0002871057504831812,0.9784692298771765,0.008366196890478024,0.010847878592466352,5.948698129350136e-05,0,179.36314397528017,22,3
1,Y,2000,0.0794094934106367,0.0002164740571934292,0.001611206125753788,0.00036720482856385207,0.11230198256249935,0.00030614054758487663,0.03796442893727941,0.00015854584720434103,0.03895024080561232,0.0003567182442034559,0.9746904807789825,0.009810779485378602,0.010686961111816731,5.329753436681409e-05,0,245.42562229696674,22,3
1,Y,2021,0.07823381017434958,0.00019121541457690566,0.001954549781542443,0.0003534484085575352,0.11063931538468741,0.000270419432629454,0.03942826681161328,0.00012461006625635155,0.04018747429373354,0.00031466845820096127,0.9811083553902604,0.00828426145565947,0.01093470574854121,4.368708304106627e-05,0,251.8651249225859,22,3
1,Y,2042,0.07995590101323782,0.0002087408913031346,0.0015983615896579355,0.00038220070959705247,0.11307471960468163,0.000295204199502741,0.037756341604168214,0.00017723420827691613,0.038964931894615314,0.00035316572501404263,0.9689826150930828,0.009890528162325772,0.010701517362095481,5.74810655106469e-05,0,191.49918192556237,22,3
1,Y,2063,0.07713425909177918,0.00024450624307600927,0.0014964334642370966,0.00039608251005384326,0.10908431533119434,0.000345784045042985,0.03932575317600428,0.0001852066475873985,0.04054990210457097,0.0004034167140984043,0.96981129756097,0.010674775778977387,0.010752991274254926,6.104442292021395e-05,0,170.0858925974923,22,3
1,Y,2095,0.07939623861159469,0.0002060317827360883,0.0016007559371188803,0.0003743710247026564,0.11228323744592761,0.00029137294142528303,0.03786260034045602,0.00013020650523945014,0.03876962966940368,0.0002986956044744162,0.9766046429465002,0.008239644698729153,0.010656517379080022,4.5909817867033535e-05,0,151.45850806656745,22,3
1,Y,2116,0.07769620711767432,0.00021900625885102763,0.0021525865076466684,0.00039124672522170966,0.10987902985076403,0.000309721621511716,0.03915636034452123,0.00018048389214080185,0.04003010072612797,0.0003806308659301143,0.978172915736971,0.010336263104437068,0.010784675123462973,5.826830982746229e-05,0,138.645473836916,22,3
1,Y,2137,0.07972756138517892,0.00022152269196074585,0.0017688757432455507,0.0003795009076781831,0.11275179860585349,0.0003132803953442842,0.037662941149261164,0.00015318141656553566,0.039029519207765886,0.00031927529268036784,0.9649860391251551,0.008815771013046352,0.010644558283199598,5.243120252261642e-05,0,191.36497948276386,22,3
1,Y,2158,0.07798268803641743,0.00021206009315954166,0.0014836643600911257,0.0003525108747564049,0.11028417505141164,0.0002998982597843258,0.03937438817828177,0.00015190483640584865,0.04019486015076073,0.0003280014115766576,0.9795876395787526,0.008842050689498959,0.01088471222961472,5.137604412218558e-05,0,223.26616854839617,22,3
1,Y,2179,0.07994310795634813,0.0002008411248587768,0.0015026000082056202,0.00035331825226808363,0.11305662749012402,0.00028403224265755034,0.037917310458003485,0.00013893458841844248,0.03910169718179102,0.00031879212455967234,0.9697100942119955,0.008667695342602878,0.010745422218884195,4.7738738764633834e-05,0,235.5606391149701,22,3
1,Y,2200,0.07743691594411448,4.533472493232965e-05,0.0018219512719394658,0.00035640105563673844,0.10951233675651206,6.411298284575428e-05,0.03946698535951615,0.00012237173966206917,0.04091273152501327,0.0002900703679655266,0.9646626829447157,0.007464867044372406,0.010833952688861559,3.418541253949322e-05,0,292.7769116181868,22,3
1,Y,2221,0.07992285532252488,0.00021191233405530019,0.0016742597171651124,0.0003748388539733614,0.1130279859406974,0.00029968929685514345,0.037958450743905,0.00015118473558598525,0.039381321371761736,0.0003372092881612429,0.9638694036082547,0.009102460700567843,0.010754355824846639,5.1456802815436616e-05,0,214.18088548548928,22,3
1,Y,2242,0.07669699861439432,0.00020044920168448105,0.0017471174440215043,0.00034079598727267986,0.10846593563378693,0.00028347797958905296,0.039949213490857005,0.0001556739134594047,0.04118054941023895,0.0002727269453088118,0.9700990895698008,0.007454334927636123,0.010861543215623898,5.096310362143095e-05,0,265.30952100499024,22,3
1,Y,2274,0.0797623456065306,0.00019485461011660177,0.0013784691815372577,0.0003583583270457244,0.11280099092344564,0.00027556603231781995,0.03802641459112544,0.0001535092181659169,0.038561003681839026,0.00030816573715732466,0.9861365358867628,0.00882925359812826,0.01075197455338283,5.0733597629413314e-05,0,231.1144590880098,22,3
1,Y,2295,0.07872494107538519,0.00020063471030405257,0.0013799928018071405,0.0003525561484080645,0.1113338793658325,0.00028374032839478813,0.039109033706158904,0.00015479757739474652,0.039926228731283694,0.00036205184349851404,0.9795323763076955,0.00969170767475885,0.010914261673078197,5.138021517564448e-05,0,170.27661314634545,22,3
1,Y,2316,0.07842629697304182,0.00019891500438068134,0.0015224111012336497,0.0003503567653939808,0.11091153282597577,0.0002813082969546632,0.038803694546578255,0.00013456143311391184,0.039479057798874256,0.00021618113833400286,0.9828931263826853,0.0063706441485844095,0.010787969721187002,4.6348422637962676e-05,0,177.3899196243367,22,3
1,Y,2337,0.07974701654158266,0.00020365645316873526,0.0010432087859805045,0.0003481555322656998,0.11277931235189775,0.0002880137181360265,0.038511916702324255,0.000144067541178149,0.039182034074264925,0.00023355490778108126,0.9828973306829721,0.0069170227276057076,0.010887157607539702,4.9312700669189205e-05,0,155.10789945481383,22,3
1,Y,2358,0.0831624693913353,0.00024391583809488455,0.0018979231017058856,0.00041242031736439424,0.11760949209366378,0.00034494908631138577,0.03656517493222488,0.00014861693562840043,0.03789611117558462,0.00036004546810182653,0.9648793450812646,0.009970799954725166,0.010779533439693777,5.4029209324608435e-05,0,145.35759223257557,22,3
1,Y,2379,0.07962589509380179,0.0002091926402167384,0.0019030872363955296,0.0003868098966221599,0.11260802075775178,0.0002958430689431468,0.038590227782923044,0.000151600860823433,0.03935478765929831,0.0002306799046566647,0.9805726336781637,0.006919165560535099,0.01089272655395931,5.147903662386056e-05,0,172.14146212506992,22,3
1,Y,2400,0.07995420984060038,0.00022449447435719702,0.0007773322066778976,0.0003959480642077478,0.11307232792540145,0.00031748313031376707,0.0380215721000184,0.00014472217644136674,0.039207518923002095,0.0002639287351685765,0.9697520563514176,0.007499280564574251,0.010776465368390008,5.09713447564819e-05,0,199.99441989119194,22,3
1,Y,2421,0.07698961631033788,0.0001733259568784387,0.0022804785836201707,0.0003034973864379883,0.10887975954798068,0.00024511991892878227,0.03962819180725051,0.00014854215918876405,0.04093595054825021,0.00023997696918731876,0.9680535391633749,0.006735907100882418,0.01081536905778212,4.7290230718959735e-05,0,217.16187215625624,22,3
1,Y,2453,0.08109732204887758,0.00020570244818710856,0.0017623205156773556,0.0003717944666630225,0.11468893271366132,0.00029090719203955784,0.037072722604010684,0.0001547601124781175,0.038497546893308296,0.00040625543146769963,0.9629892186833007,0.01092843142391163,0.010657759774083706,5.205989233301874e-05,0,202.07291036820007,22,3
1,Y,2474,0.07713851486701287,0.0002104578597540144,0.00041016387142025335,0.00036073761771666067,0.10909033390624823,0.00029763235957214196,0.03995577217708557,0.00016204937468492785,0.04097351563123948,0.00029352464186771504,0.9751609438810774,0.008027676590826592,0.010925862568124512,5.3405606879582e-05,0,195.65496715029883,22,3
1,Y,2495,0.08004800384703181,0.00019937685853044262,0.002592350817391343,0.00034941154610591493,0.11320497268136609,0.0002819614573570939,0.03756686395780279,0.00015263410470969834,0.03874212886743774,0.0003177274122726216,0.9696644210323003,0.008874719086272902,0.010660077953603606,5.0802426903672846e-05,0,208.32286364875614,22,3
1,Y,2516,0.07679119867217656,0.0002055945492575922,0.001031855045456814,0.0003712579197065423,0.1085991546330789,0.00029075459991007024,0.03975017397391988,0.00015331006892045206,0.040402604636474305,0.0002459566528725645,0.9838517672703352,0.007090194470294062,0.010820701395053265,5.080345732078256e-05,0,198.6224672394556,22,3
1,Y,2537,0.07957530970242715,0.00021236828375755757,0.0020177480398821308,0.00036894822866168666,0.11253648221121182,0.0003003341071078358,0.03779213136334073,0.00017726609506983154,0.03914286921777823,0.0003674207847657686,0.965492109254372,0.01013126016797125,0.010660673806283032,5.753174751587576e-05,0,186.55172121608683,22,3
1,Y,2558,0.07687072726630972,0.0002337206019015818,0.0016798058606657337,0.0003897616654622852,0.1087116250494985,0.00033053084501522,0.04020146457390274,0.00018194295440947513,0.0414650116839322,0.0003970546898303269,0.9695273904741455,0.010268566018629672,0.010954884347683484,5.9728672584590386e-05,0,183.2113154213841,22,3
1,Y,2579,0.07972527283326461,0.00022496383070645467,0.0014883208401237412,0.0004055428230903672,0.11274856210469808,0.00031814690042847316,0.03799119309966933,0.00016799101899020875,0.03904908576775649,0.0003156462453660766,0.9729086444077346,0.008964113129920973,0.010737022885414532,5.632065818138922e-05,0,194.37395298388944,22,3
1,Y,2600,0.0774965584558947,0.00020360739597214382,0.002123677793072217,0.00032753810747424103,0.10959668400556566,0.0002879443407832749,0.0394870050657343,0.00017249659252824068,0.041009066183650286,0.00035753065270546303,0.9628847652589854,0.00938961145516652,0.01084779685963792,5.5298250432230954e-05,0,212.59525966850305,22,3
1,Y,2632,0.07998448652190944,0.00019524282053741935,0.0011264836481744377,0.0003546315331047349,0.11311514561873237,0.0002761150447599947,0.03749096393262075,0.0001362345415685818,0.038585022672430656,0.00026007156209681805,0.9716455074006831,0.007440232414869361,0.010630098771074776,4.6533858825206274e-05,0,209.0374782813131,22,3
1,Y,2653,0.07730918805485677,0.00020296679803213184,0.0008901281990143502,0.0003261189812903138,0.10933170224323052,0.00028703839848848167,0.03901596270288598,0.00015300374828263274,0.04053842783311197,0.00032053236288468996,0.9624439029433096,0.00849448207323185,0.010692478151657947,5.0460533155883274e-05,0,263.52180633428594,22,3
1,Y,2674,0.08153932489506875,0.00022021001563389726,0.0014649345549254105,0.00041868218873982236,0.11531401913335237,0.00031142399067984883,0.03650981608521105,0.0001371993686658208,0.03693321559068372,0.00024768131148426745,0.9885360779260315,0.007599179251312484,0.010553139733318884,4.883629966318178e-05,0,107.50047350782097,22,3
1,Y,2695,0.07694225408070308,0.00018815280986345315,0.0013220807585051962,0.0003529283699232539,0.10881277924048693,0.0002660882555075017,0.04039315999156641,0.00015497094665477805,0.041326563755344874,0.00032509487335454716,0.9774139517307983,0.008554513208594733,0.011017363204935949,5.012487641857999e-05,0,205.61557893170044,22,3
1,Y,2716,0.08310185857826595,0.00019685873079324217,0.0015944585624170962,0.00036388452482916236,0.11752377545979464,0.00027840028695935715,0.0355059532398763,0.00015327962732711688,0.0357837892006372,0.0003774732881635994,0.9922357031782438,0.011309404632079875,0.01045964261258633,5.1505863357638665e-05,0,102.64736833275299,22,3
1,Y,2737,0.07710881322327388,0.0001845865809146083,0.0010393745925757186,0.00033604587679450726,0.10904832943884779,0.0002610448461615178,0.040412553290823994,0.00014879880666987587,0.041506370963906546,0.00028811076413176666,0.9736469932764364,0.007650387327252179,0.011046513847287219,4.8513669092372674e-05,0,190.2272297803028,22,3
1,Y,2758,0.07887330262907397,0.00023842698591818577,0.001956292901434103,0.0004118943652464366,0.1115436942871939,0.0003371866771212373,0.03812218867461168,0.00017480204161201407,0.03921763869826446,0.0003177833338223354,0.9720674150710339,0.009050403596725555,0.010658909742032797,5.853969579540937e-05,0,189.271127986824,22,3
1,Y,2779,0.07748013762195192,0.00020449084909465062,0.0020411564282526657,0.0003867152824008559,0.10957346143949831,0.0002891937321708449,0.04004043741650137,0.00015881829276624942,0.04085069453843353,0.0002938987113261353,0.9801654015656982,0.008052461073916557,0.010997504001989712,5.239527779940908e-05,0,191.4186962906713,22,3
1,Y,2818,0.07966936919962815,0.00022480533819659571,0.0018944500357022157,0.0003963391279228115,0.11266950242782348,0.00031792275817149607,0.03778055510799872,0.00017400606882555402,0.038755359864122096,0.00036341303468824597,0.9748472273373004,0.010184358729106226,0.010670005548626963,5.763251695812696e-05,0,191.11852014238102,22,3
1,Y,2839,0.07845641242600476,0.00020810388202866108,0.0006972091531373732,0.00037965753236892595,0.11095412250799297,0.0002943033323474231,0.039156436681132986,0.0001575133360771096,0.039583952281482884,0.0003270179736270208,0.9891997747645354,0.009089460342731849,0.01089021717157482,5.247400470458666e-05,0,193.22652967847003,22,3
1,Y,2860,0.07939543049483067,0.00021749614982899081,0.0020410895621386076,0.0003801198591179924,0.11228209459623995,0.00030758600485208953,0.03815175274282543,0.00014989434136058135,0.039413160054875634,0.00033229219909280093,0.9679952759359076,0.00900380971830624,0.010737790705391721,5.1430063305396306e-05,0,157.06279771060252,22,3
1,Y,2881,0.0775797343402811,0.00017982925060757782,0.0010967024159223102,0.00034384375629625927,0.10971431246932728,0.00025431696512062674,0.0399133086237108,0.00016419367543042855,0.04136977315182591,0.0002814422629160935,0.9647939928805042,0.007670265514357613,0.010976678655418784,5.183049004263446e-05,0,245.6018324626271,22,3
1,Y,2902,0.07928617451484361,0.000211492906906079,0.0009080803401723564,0.0003798502809833062,0.11212758330757189,0.00029909613729228735,0.03864017781775047,0.00015748633678705135,0.03936535692463342,0.0003307864555814831,0.9815782412878578,0.009167204340945924,0.010860292253103707,5.290066785902487e-05,0,245.9976581464207,22,3
1,Y,2923,0.07691503258332728,0.0002106158587944117,0.0014115236558453863,0.0003425634567197055,0.10877428222970997,0.0002978558039579138,0.04010887947208433,0.00016350868982556964,0.041130527563442716,0.00039870905997880216,0.9751608318229684,0.010254854998107958,0.010935954372206104,5.370553841962336e-05,0,139.94218726443856,22,3
1,Y,2944,0.07985192858951749,0.00021865193908475307,0.001646734400822839,0.00040465840524023597,0.11292768039294354,0.00030922053769283364,0.037624874320006184,0.00015890037026544774,0.038680926935314705,0.000294268185369632,0.9726983632766988,0.00846366871349618,0.010650387263437993,5.360640113516301e-05,0,177.69071701976634,22,3
1,Y,2965,0.0781270190567482,0.00021238301686125568,0.0015667290279364986,0.00037929565116846657,0.11048828993783455,0.00030035494286290154,0.039009430502235716,0.00015092892054681671,0.03989795822497295,0.00034787515281601287,0.9777299951609784,0.00932656680451363,0.010803781597939018,5.108637551324733e-05,0,178.59007850351264,22,3
1,Y,2997,0.08219257100659504,0.00021439772410885937,0.0020940219488350927,0.0003735603712926505,0.11623784864384035,0.00030320416917667403,0.03683363488563075,0.00015030294852564255,0.037572736912549316,0.0003227338696266221,0.9803287679404664,0.009322510278817952,0.010732034901214871,5.197605782770027e-05,0,136.16722419890206,22,3
1,Y,3018,0.08046209219944647,0.00021991476483374883,0.0010764299447092451,0.00038612915344236794,0.11379058204537162,0.0003110064429939774,0.038301346221398753,0.00013904599922756093,0.03899716217227955,0.00029631659203692873,0.9821572670388975,0.008270854453497612,0.010924719423744005,4.9643554096276835e-05,0,146.24057626856634,22,3
1,Y,3039,0.07944806686938602,0.0002214714495903302,0.0017592439190203329,0.00038141599596126167,0.11235653367101028,0.00031320792768907424,0.03788994020264834,0.00014832459955514243,0.03850580911378583,0.0003136246465883149,0.9840058182047914,0.008892226183833443,0.010671173629146716,5.128282353828107e-05,0,156.33722252109203,22,3
1,Y,3060,0.07770543444881076,0.0002094975634707964,0.000961533899916923,0.0003667193969584057,0.1098920792676017,0.00029627429554451856,0.039685734816861724,0.00016497645413019965,0.04056820431999154,0.00027282034879415643,0.9782472624085325,0.007734131891220527,0.01093177667681454,5.416463201188169e-05,0,226.71051919694818,22,3
1,Y,3081,0.07884940193715555,0.00020199380121880994,0.00215341692324966,0.0003291045958597387,0.11150989360453278,0.00028566237319893606,0.03830510761296662,0.00013874059934908335,0.0392954915625813,0.0003176808291179687,0.9747964992870133,0.00863542391511574,0.010706808188227187,4.74994363685577e-05,0,208.1745978032257,22,3
1,Y,3102,0.07680880472841546,0.00020719270506647157,0.0020569630172265325,0.0003663812416078332,0.10862405335659187,0.0002930147335297728,0.040734467320306986,0.000163613983688834,0.0418883238669543,0.00032057022967752315,0.9724539814409334,0.008404898022981595,0.011091185790588575,5.3663041961875914e-05,0,199.41895510369795,22,3
1,Y,3123,0.07963348078880225,0.00022831581441379263,0.0013512371425608513,0.00035540716065025413,0.11261874855050147,0.00032288732124824415,0.03756617628973223,0.00015759940816823136,0.03846539895684119,0.00039058716050747967,0.9766225571163866,0.010729914884779097,0.010604681352199868,5.388625414032197e-05,0,227.53895450004535,22,3
1,Y,3144,0.07738890559999699,0.00021144566943879673,0.001770902938819034,0.00036753805178712276,0.10944443987672692,0.0002990293334254046,0.039754415223775035,0.00017998137316615524,0.04119023707654793,0.00032523305500905793,0.9651416948607369,0.008784464892996908,0.010906088225130771,5.7670316798376176e-05,0,213.09389547216986,22,3
2,X,103,0.08885987861739157,0.00021907075649465205,0.003998399374704096,0.00041199591537422685,0.12566684549154217,0.00030981283495407075,0.03616044963137679,0.00014379097140929776,0.03663461822028788,0.00026581566067996395,0.9870568164226562,0.008166952722050178,0.011390544096149405,5.3292987167799636e-05,0,103.01984252878,22,3
2,X,124,0.085878052315165,0.00022631090055627386,0.002563256670587052,0.00042023819036464296,0.12144990629429253,0.00032005194487955135,0.03888785060891266,0.00017067116036201423,0.03976452153399048,0.0002952975163993879,0.9779534396175633,0.008435911964621238,0.011838619380443907,6.0604240304194794e-05,0,175.51175006536863,22,3
2,X,145,0.08681155345019226,0.00024287432186946044,0.0023397499241191466,0.0004256767022830194,0.12277007625993874,0.0003434761599399594,0.03781080823563411,0.00018184716632950768,0.03872689306875992,0.00042290039427027385,0.9763449954144451,0.011649977804631137,0.011635858214545988,6.474131802852376e-05,0,142.6911144048822,22,3
2,X,166,0.08562819639809424,0.00020318697513986345,0.001783489508673601,0.0003941577834765932,0.12109655666773189,0.0002873497759403598,0.03951102150082235,0.00014432996563664368,0.040538520705170326,0.00028152452866326796,0.9746537568102003,0.007647860430390997,0.01199333560072848,5.224244121286154e-05,0,168.2484450889936,22,3
2,X,187,0.08744317101356683,0.00025398955612546944,0.001935757400816314,0.00044557110678357316,0.12366331838429612,0.00035919547497376136,0.037409989706638454,0.00016593331197176868,0.03796612793477799,0.0003429855013456249,0.9853517264363927,0.009916716451656859,0.011596272681827929,6.148300825502033e-05,0,132.6673668002292,22,3
2,X,208,0.08537589530475655,0.0002124628667975019,0.0017880616109339667,0.00034357497119608436,0.12073974903973217,0.00030046786772569556,0.03857247048948504,0.00015186885512116123,0.03973199124924646,0.0003019327144312679,0.9708164448016834,0.008308860455356332,0.011673945419012986,5.43744446211079e-05,0,158.8746738074901,22,3
2,X,229,0.08704403964005115,0.0002388272887734755,0.0017918524224603898,0.00039704306504869134,0.12309886138270165,0.0003377527908482447,0.037774611169227444,0.00014673480808856032,0.03865361498287251,0.0003576602653453003,0.9772594668303456,0.009807052157748344,0.011655850614347376,5.543258309793597e-05,0,145.3847511150835,22,3
2,X,250,0.08570976001172505,0.00022940852859191298,0.0015616982674153664,0.0003914324389471076,0.12121190503632473,0.0003244326524587393,0.039309954971286185,0.0001629824278732379,0.04092633825270435,0.00031966957665787934,0.960505059811664,0.00849378891654842,0.011943668954233587,5.8941822147446595e-05,0,205.93694114767746,22,3
2,X,282,0.08741086288711723,0.0002044452755416832,0.0015616956483317198,0.00039110518785632955,0.12361762779369623,0.00028912928143415284,0.03775117027843084,0.00013562479912216575,0.03849213578114398,0.00027866584472912957,0.9807502107202866,0.007926372432935737,0.011697707526912586,5.0146501678944505e-05,0,91.20222389526204,22,3
2,X,303,0.08612562686363616,0.00021384128547898647,0.0027038026588588923,0.00036397404478521,0.12180002957843883,0.00030241724611967946,0.03921905439421846,0.00015514302588096109,0.04056698641903815,0.0002766116441455655,0.9667726852841328,0.0076211036559395845,0.011973867448813666,5.592347680105442e-05,0,174.73774010114337,22,3
2,X,324,0.08698656787667994,0.0002330664158171804,0.0022436154077006545,0.0004397796420206951,0.12301758403548857,0.00032960568618234376,0.03832935167165453,0.00015030850000541677,0.03894523511334226,0.00028052826973136744,0.9841859102944088,0.008071733660231856,0.011819214136814318,5.6134428446641224e-05,0,162.70647918775552,22,3
2,X,345,0.08495665644784112,0.0002118142823765167,0.0013375936356440099,0.0003734472138447619,0.12014685576240858,0.0002995506308411944,0.03990710862120857,0.00013938152093145807,0.04122989503398014,0.000380416389400229,0.9679168134752373,0.009549117276585906,0.012018564737190734,5.157443723265094e-05,0,160.75021682387305,22,3
2,X,366,0.08668706844158805,0.00023996063982495747,0.002374141299819297,0.0004105758715738305,0.12259402787245854,0.0003393555912761803,0.03805122691018883,0.00016578456356190803,0.038434752011827646,0.00038568215159724077,0.9900213977829024,0.010830584596188493,0.011693052858962355,6.0358021317496807e-05,0,178.0070745438564,22,3
2,X,387,0.08491311807672283,0.00020240656709474725,0.001486244297703561,0.00039290124365084524,0.12008528320748946,0.0002862461122987714,0.03995235815140003,0.00014948217563330802,0.040947959348339204,0.00025755523192861127,0.9756861828334419,0.007140577777285477,0.012026026017072653,5.3351226751474915e-05,0,210.63416999884797,22,3
2,X,408,0.08643747128696729,0.00023089624284176337,0.001419516849601796,0.00037822684975269096,0.12224104419126414,0.00032653659812781344,0.038040162706495476,0.0001546001759772386,0.038979304669466724,0.00031351386519256675,0.9759066517236543,0.008794449968259987,0.011655994961898985,5.6687862747125166e-05,0,162.59619587583555,22,3
2,X,429,0.08437845001349144,0.0001894031819648608,0.001683762643738424,0.0003636223216276144,0.11932914838109987,0.00026785654869132536,0.040396499813461266,0.00013799980201209379,0.041393371607916764,0.00020226468219191828,0.9759171153319427,0.005818536474200846,0.012083151265559068,4.939124693209339e-05,0,201.26707209739618,22,3
2,X,464,0.08795727778741742,0.00022025499799327832,0.002389173741046492,0.0003856628977194619,0.12439037515638351,0.00031148760534255304,0.03711526542136845,0.00013400184700257931,0.03771137959876426,0.0001980825498574527,0.9841927242191018,0.00627301474003672,0.011572555772096073,5.08478475945674e-05,0,150.17827026168013,22,3
2,X,485,0.08502373788048564,0.0002303090206580616,0.004091261699707359,0.00039058379961492767,0.12024172323423787,0.00032570614055149605,0.03902474369721902,0.00017172357211668498,0.03988740829095995,0.00030123580644046346,0.9783725082500172,0.008551576182442618,0.011762108609311562,6.077801836729787e-05,0,135.39522595452564,22,3
2,X,506,0.08679382106088661,0.00023640913421658333,0.004278210022729033,0.00040796648798221643,0.12274499887448942,0.0003343330038779735,0.03823153193897452,0.0001625156348063554,0.038518111055089406,0.00042907731002344836,0.9925598865503812,0.0118344099940871,0.011762928060915003,5.938662608689738e-05,0,81.49012497244276,22,3
2,X,527,0.08620252036787912,0.000222324658371936,0.0031358060588081898,0.0004157760626631154,0.12190877341499762,0.00031441454711955696,0.03898586560133577,0.00016644582945607455,0.039593165614914924,0.00037641298892388767,0.9846614938677603,0.010261812109116229,0.011913299967099007,5.942268086476545e-05,0,90.3748679046746,22,3
2,X,548,0.0856776065585719,0.00022369363779984857,0.0030626746878048374,0.0003864035113362126,0.12116643318679843,0.0003163505763931207,0.0385671072759879,0.00015776334116002146,0.03912119544945872,0.0003436919754536128,0.9858366246965369,0.009553713227739697,0.011713571252116634,5.684382520379568e-05,0,141.05028183685056,22,3
2,X,569,0.08468231843868865,0.00020888395164054408,0.003240933434125753,0.00039294004303456196,0.1197588832291907,0.0002954065173721432,0.03969402896941075,0.00015119779951639135,0.03962743064074877,0.0002954255718582217,1.0016806118283506,0.008385884745164222,0.011915790363108135,5.407406184067604e-05,0,122.68488147899404,22,3
2,X,590,0.08641075737616069,0.00024472011190413887,0.0037604368851339664,0.00043806027909433964,0.12220326501629741,0.0003460865012402947,0.03823573909816952,0.0001626349312544664,0.03899469999349639,0.00034840036743770137,0.9805368192227802,0.009702776996503328,0.011712301221635153,5.985046583770411e-05,0,90.66902203331041,22,3
2,X,611,0.08508687935642228,0.00020980933708594315,0.0037725778610581177,0.00035530172596486356,0.12033101876585572,0.0002967152100194492,0.03975705928211842,0.00016274827542265427,0.04025445365497848,0.00037671172593433484,0.9876437430470867,0.010088208091656102,0.011991728331572072,5.7306914130138505e-05,0,94.55120606909526,22,3
2,X,643,0.08818900439126985,0.0002293038213785335,0.0023630758573957838,0.0004169039557663367,0.12471808606231427,0.0003242845740974998,0.037157669079384954,0.00014854433650535369,0.03782819626905108,0.0002677498942368344,0.9822744075636851,0.007984883189103032,0.011616300396775603,5.5396659639827376e-05,0,135.096070583425,22,3
2,X,664,0.08538028256100823,0.00022957395186376284,0.003718921101665075,0.000397797515829558,0.12074595355702489,0.0003246665962933215,0.0386438381265231,0.00014803133284842354,0.038681623010456724,0.00036302084813875945,0.9990231825607883,0.010126624797837071,0.011696145815868727,5.47397172588069e-05,0,99.69790893532999,22,3
2,X,685,0.08768841364641008,0.0002534013496994782,0.004011305813346976,0.00043433983934981405,0.12401014384173514,0.0003583636254686495,0.037002480340936186,0.00017110168517642794,0.03781645755877669,0.00039581954787508016,0.9784755825800084,0.011196474987811955,0.01150212232447046,6.271856659743044e-05,0,139.08407706177056,22,3
2,X,706,0.08585883329922649,0.00022367534705269502,0.0026816082820507953,0.00036892776296252385,0.12142272650129682,0.0003163247093704302,0.036847107008777975,0.00015153453652409944,0.037672640307553074,0.0002941363069745255,0.9780866620434463,0.008631184705948708,0.011214845897478851,5.4596440725378424e-05,0,82.65388168031137,22,3
2,X,727,0.08685022226788923,0.0002255441782346345,0.0034724401971061095,0.00037533990106722244,0.12282476222636673,0.0003189676357737148,0.038123117279684954,0.00015926374416621198,0.038552521115397184,0.00039105134714809776,0.9888618481155378,0.010847766290308784,0.011737193687501622,5.7735224172734136e-05,0,69.13382626662256,22,3
2,X,748,0.08469410427914646,0.0002194933170265613,0.003354723842417692,0.0003983791349432614,0.11977555092461012,0.0003104104257892204,0.04020519876739282,0.00013367835273999103,0.0408875601784056,0.00018243969854871015,0.9833112710067459,0.005471691085854952,0.012070918699196959,5.088628847075327e-05,0,134.16187740017307,22,3
2,X,769,0.08699154140496423,0.00024882246430225316,0.0026980029982949867,0.0004292832862870325,0.12302461766664108,0.00035188810363934175,0.037793877732357796,0.00016227571932265976,0.0386128647924788,0.0002826759817280817,0.9787897876906421,0.00830701358132545,0.01165476207105573,6.0129136824659966e-05,0,93.1753820207295,22,3
2,X,790,0.08574289667980593,0.00022731625334217154,0.004104199754158932,0.00039358294249147995,0.12125876736173657,0.0003214737284243374,0.03937568556280739,0.00015528612677443769,0.04028544741771153,0.00028021220148001627,0.9774171093231012,0.007815312276817872,0.011968265410637594,5.6873002909361793e-05,0,90.73019907128199,22,3
2,X,822,0.08787208133684171,0.0002275739835337134,0.0025390498459908484,0.0004276155905151157,0.1242698891805133,0.0003218382139566489,0.037086011706497876,0.00014024193569214593,0.03768580753619772,0.0002767465229670544,0.9840843047047955,0.00812851762770628,0.011552233972985429,5.294808181866305e-05,0,84.80991550681803,22,3
2,X,843,0.08600346448047104,0.00019868599546086965,0.003481960330081114,0.0003917633964017378,0.1216272658793549,0.0002809844294343611,0.03705584867146509,0.00013517896350515846,0.03756421065086533,0.0003176167203193501,0.9864668531404764,0.00908406214300536,0.011297377540967298,4.878167656152659e-05,0,69.99002601268502,22,3
2,X,864,0.08694161449658606,0.0002178814630737924,0.0037399380510336746,0.00042108652151200615,0.12295401035568532,0.00030813092006864995,0.03839567847748139,0.00015649747642213456,0.03867778167368758,0.00028284473598175566,0.9927063243030274,0.00831096310243942,0.011833548062099202,5.662008672682725e-05,0,99.85994212769363,22,3
2,X,885,0.08410022768720675,0.0001985200173524944,0.003549627935629147,0.0003755374151604943,0.11893568259391307,0.0002807497009424398,0.04033735976091174,0.0001457610175505412,0.040488088331858754,0.00022654836806280484,0.996277211961415,0.006636028967882826,0.012025678031350247,5.190550029315744e-05,0,71.30932706214475,22,3
2,X,906,0.08684115965031516,0.00023681631381993574,0.0031336318407309714,0.00040203996091839805,0.1228119457496829,0.00033490884279535615,0.03803333742686245,0.00015973025809599587,0.039322413268022965,0.00041390165147684344,0.9672177841076505,0.010961239397262835,0.011708330759144176,5.862870291174472e-05,0,136.7634925460863,22,3
2,X,927,0.08496956190303268,0.00021446000727837913,0.0033723210362813193,0.0003871473701786853,0.12016510683216908,0.00030329225087971645,0.039854326358756784,0.00014840818527267905,0.04005364058731754,0.00027496300421489154,0.9950238174198859,0.007770929778201031,0.012004491927516795,5.4002632293316286e-05,0,120.53103023917096,22,3
2,X,948,0.08700408565346196,0.0002311206834786507,0.002918865810122072,0.00041928616286621866,0.12304235791299634,0.00032685400512044716,0.038088281738379436,0.0001553422996057925,0.038265940247282394,0.00033353910695561916,0.9953572679057435,0.00957866057133553,0.011747243208288169,5.7177401212685475e-05,0,118.7294711900411,22,3
2,X,969,0.08487249417382907,0.00022432713640391154,0.003400741168506263,0.0003853180756934553,0.12002783233306058,0.00031724647871073097,0.039830300781721895,0.0001501715393371803,0.040741093072581905,0.00034565004373172226,0.9776443825589707,0.009076541392995734,0.011983549748583426,5.5177783602807726e-05,0,114.08321581261896,22,3
2,X,1018,0.08544262136093785,0.00019054177003069198,0.0026982057538265792,0.00035750636394887755,0.12083411393334742,0.00026946675537597997,0.03899478411128185,0.00013255258868697848,0.039238900175474246,0.0002741021976809357,0.9937787230758068,0.007720300342646673,0.011810982233739683,4.8017085977102714e-05,0,69.77179599448075,22,3
2,X,1039,0.0840175730710775,0.00020730960273460664,0.003396248471948155,0.00039157553556674695,0.11881879131479034,0.0002931800517974592,0.0404954713992876,0.00014888228637820829,0.04102580568491103,0.00028239871491190263,0.9870731536707278,0.0077028736016576775,0.012060950171900443,5.34030657634872e-05,0,87.77526369702593,22,3
2,X,1060,0.08498338215687395,0.00022129429640736623,0.0026823479735955504,0.0003671497130929373,0.12018465162258685,0.000312957395255109,0.039401647089901695,0.00015405174389790068,0.04008236164127888,0.0003431660998977034,0.9830171046938474,0.009252173845350284,0.011870071089208477,5.5760334765374785e-05,0,85.60724291819726,22,3
2,X,1081,0.0850460273084989,0.0002270300296164929,0.0021864522593222904,0.00039640706509638145,0.12027324524563177,0.00032106894694960975,0.03871495144557854,0.00016444587296935968,0.03919769836850576,0.00034937757222965884,0.9876843043591791,0.009751980298617404,0.011671795842750366,5.85551656739684e-05,0,81.85075102647912,22,3
2,X,1102,0.08544551654085993,0.0002468558613425016,0.0027390941273055867,0.0004110550590452567,0.12083820833605874,0.000349106907061858,0.039550219571054174,0.00015779480575746574,0.03990477126838427,0.0003356612141752014,0.9911150550157143,0.009227075695507436,0.01197962188278189,5.9010482704323736e-05,0,46.20524056528064,22,3
2,X,1123,0.08404670959543842,0.0001968530273105076,0.0035448426574579534,0.00035526715433992055,0.11885999658270197,0.0002783922210167211,0.0406528085369469,0.00015051646364895314,0.0412618745429679,0.00024193706355030338,0.985239012701986,0.006832224860458472,0.012112009483969935,5.3064204448388834e-05,0,96.61569303320074,22,3
2,X,1144,0.08570968226976902,0.0002255750081020694,0.0038405634579274143,0.00040172030873157,0.12121179509259616,0.0003190112357903674,0.0389249846129247,0.0001699012666808853,0.03920024785354656,0.0003046875828680574,0.992978022954083,0.0088517193508627,0.011826691455557597,6.027953061786778e-05,0,112.74006255780563,22,3
2,X,1165,0.08603538357677379,0.00020880224903778539,0.0021411021599133206,0.0003751935002758878,0.12167240629824494,0.00029529097244324065,0.03928660417531038,0.00015357890272041892,0.039856542395521756,0.0003394313409772381,0.9857002593311904,0.009236679902908254,0.011981922950073767,5.513220947070491e-05,0,89.73029408626616,22,3
2,X,1197,0.08530802748063375,0.00020384401412504733,0.0030173580090323052,0.00036827564588859,0.12064376944240895,0.0002882789693842147,0.03923922901621746,0.00013371248879350228,0.03916443130422634,0.00026438959753020144,1.0019098378171278,0.007576494005868523,0.011866299289628821,4.9386662294202124e-05,0,97.11326026386647,22,3
2,X,1218,0.08467452110379117,0.00021772782934536452,0.002856207715608504,0.0004005690511013021,0.11974785613242833,0.0003079136491662693,0.04060459800874449,0.00016706337509682934,0.04091628664946436,0.00036180823271448936,0.9923822842627399,0.009678685445558813,0.012188012651287685,5.913396034755528e-05,0,72.5519578882763,22,3
2,X,1239,0.08528887093679986,0.00024056615456455929,0.0024034593409832075,0.00040315675527403635,0.12061667799831088,0.000340211918433142,0.03909942286909859,0.00017511723672434208,0.039675004861787044,0.0004111808788165456,0.9854925791516961,0.011126301886121286,0.011821365470153665,6.256972880491398e-05,0,73.82864158367605,22,3
2,X,1260,0.08381872740315717,0.00019276611731085494,0.002912793967942954,0.00035744146423041275,0.11853758107439827,0.0002726124574670141,0.04015382579104954,0.00013945530426485127,0.039949124359042125,0.00023966912410484389,1.0051240530372498,0.0069676354712988045,0.011930892296911595,4.969754882174091e-05,0,66.81918138518145,22,3
2,X,1281,0.08519182043730025,0.0002390054524669646,0.0029506273917857396,0.0004715575511545123,0.12047942786568344,0.00033800475235989946,0.039687503168529314,0.00015149783505674107,0.03971472101416938,0.00023607237746396887,0.99931466607482,0.007059511907220224,0.011985512466491478,5.677939911392988e-05,0,59.48826894097258,22,3
2,X,1302,0.08272608840201522,0.0002100519546310191,0.002732661371842599,0.0003600935103168633,0.11699235618020554,0.0002970583230421653,0.04191304491812811,0.0001484206347366031,0.042140536063148666,0.0002876938820295151,0.9946016077090322,0.00764924675290682,0.012291266482771596,5.355798173521395e-05,0,96.8071528821364,22,3
2,X,1323,0.08520601160899499,0.00025002100692660947,0.002637471745246622,0.00045314327790085503,0.12049949721316011,0.0003535830988737887,0.039307388218511825,0.0001605182053299298,0.039494716162439984,0.00028649724181694584,0.9952568859298118,0.008285044634603694,0.011872696251515583,5.9702671678320966e-05,0,55.797102860480784,22,3
2,X,1344,0.08585167245604214,0.00020387453558255703,0.0022714308756805516,0.0003817975860917701,0.12141259953974748,0.0002883221332433683,0.03944208279014532,0.00015121135691523142,0.04025414118233207,0.00026999958653753267,0.9798267117783357,0.007569854812759859,0.012003655761918289,5.413240735812426e-05,0,103.5912691238447,22,3
2,X,1376,0.08720667077797914,0.00021199318690674922,0.0016068884048830358,0.00041008428478546996,0.12332885654362358,0.0002998036400542192,0.03785781657385601,0.00015850077397327176,0.0383966379217585,0.0002792533536326428,0.9859669654150329,0.008274093781797368,0.011703350230498994,5.665943711940927e-05,0,88.24183241735693,22,3
2,X,1397,0.08459360600271841,0.00019452165606193497,0.0013308315096516145,0.0003329618403822096,0.11963342489909046,0.000275095164178063,0.03946950269891982,0.0001444313208648339,0.04020254371064797,0.0002836439501917141,0.9817663027244219,0.007802965509548042,0.011835977330315363,5.1153074942431895e-05,0,94.35775664631726,22,3
2,X,1418,0.08605545765198683,0.000198241640956971,0.0014358655731122351,0.00038248994309745887,0.12170079532766331,0.00028035601726844606,0.03889307611073726,0.00013633442744575357,0.03924832315022977,0.00024836715356647094,0.9909487333221157,0.007168634483743551,0.011864669472118122,4.976714252261747e-05,0,134.79704844782626,22,3
2,X,1439,0.08584337735766934,0.00021323218185599583,0.001932211780403681,0.0003822884954179893,0.12140086849912746,0.0003015558435151555,0.03733264827680386,0.0001531181915224429,0.0376299823510967,0.0003098016835141749,0.9920984795709272,0.009125236220726047,0.01136058058227354,5.447399237333034e-05,0,85.13187794144184,22,3
2,X,1460,0.0858141095767375,0.0002249563159138355,0.0018226702670787968,0.00040750841545134233,0.1213594776063931,0.00031813627290683266,0.03875739569890276,0.0001619568398152307,0.03944087764921135,0.0002638304539581644,0.9826707215699533,0.007750529797305786,0.011790119840569834,5.815977837569359e-05,0,79.73591963116974,22,3
2,X,1481,0.08558349344132507,0.00023166979875492274,0.0013541946147734895,0.00039066401585090976,0.12103333713999076,0.00032763057139145735,0.03964425865838162,0.00015701869726191252,0.04065310563030434,0.0003539984623887572,0.9751840122352009,0.009328825713518755,0.01202749660686922,5.7700191663262335e-05,0,98.55318249949234,22,3
2,X,1502,0.08624684652712827,0.00023430491161224932,0.0019770554652666743,0.00042725117482420076,0.12197146007057569,0.0003313571837326723,0.03864587204978537,0.00013955640656333336,0.03888826027960712,0.00038090907032081457,0.9937670590538383,0.010374365170866203,0.011815477253676532,5.339342411106264e-05,0,117.52684600755161,22,3
2,X,1523,0.08615441234334476,0.00022112977113910372,0.0024329707712291556,0.0003988512809716559,0.12184073839424214,0.0003127247213893791,0.037209145567859835,0.0001535870998296097,0.03810206723510523,0.0003518572486853856,0.9765650073069341,0.009878062619703292,0.01136402430558374,5.52359970240253e-05,0,97.29062846494396,22,3
2,X,1555,0.08683673408824498,0.00022713720674899204,0.0010804017014216286,0.00044297272306465934,0.12280568705978212,0.00032122051830396625,0.035695320636186426,0.00015541995798087533,0.03608534178860789,0.00024134024227674033,0.9891917013089068,0.007894209956918767,0.010988026566487613,5.5811951650212624e-05,0,68.1990396973245,22,3
2,X,1576,0.0883751163991239,0.0002419549081276533,0.001843906781543983,0.00041966379690699636,0.12498128818794196,0.0003421759125568635,0.03458542500324117,0.00013592456783009292,0.03487603238169608,0.00023484832255138096,0.9916674186078738,0.00773181876616642,0.010834978345947746,5.1896511825553964e-05,0,77.24196488484012,22,3
2,X,1597,0.08695686253720708,0.00020632289509516966,0.0017751097120805301,0.0003897680999891963,0.12297557434153117,0.0002917846364716703,0.0360980072361203,0.00012364573724251397,0.03628312526130816,0.00019366764072328846,0.9948979581043623,0.006309829319496959,0.011127356990038148,4.636551990557492e-05,0,97.95055621210119,22,3
2,X,1618,0.08487845403404323,0.00021374680013549398,0.0033343794746152245,0.0004165556489414345,0.12003626084820529,0.0003022836236654669,0.038166398314615824,0.00014632974218096355,0.038815457012190455,0.00024575392474318717,0.9832783445684851,0.007277946989542806,0.011483745816862971,5.2676719377702246e-05,0,75.88355785480186,22,3
2,X,1639,0.08539163088560406,0.00021724347055737455,0.0014694346186337015,0.00039559956080928015,0.12076200251157854,0.0003072286623992393,0.03863566729905093,0.00015436521729322812,0.03957336832125546,0.00029200122782620285,0.9763047457928701,0.008192176800286043,0.011695227055677463,5.5395934216561716e-05,0,110.8520948962548,22,3
2,X,1660,0.08370015931816854,0.00019688826525746415,0.0025296332587207036,0.00036661464697520905,0.11836990048054274,0.00027844205499921726,0.03941574541425619,0.00014896673814431907,0.03981213267776505,0.0003055009206435613,0.9900435561511567,0.00846861877693049,0.011695019784208257,5.206186764284381e-05,0,103.32513891527347,22,3
2,X,1681,0.08593726047400664,0.00022820089961895636,0.0013716867753778847,0.00041601447861163,0.12153363927552951,0.00032272480718686936,0.03893932302192876,0.00016498291135225464,0.03954985283375603,0.00028435249961980866,0.984563032019523,0.008216450603050223,0.01186246199078832,5.931569861082233e-05,0,99.86023969841142,22,3
2,X,1702,0.08463053802526185,0.00021508475954894313,0.0035359260234001737,0.00038084706098585696,0.11968565466625725,0.00030417578401387146,0.040288849999092206,0.0001376939239492643,0.040585843135968615,0.00028795319126049797,0.9926823465048776,0.007817542363781094,0.012086954992686885,5.147886945983647e-05,0,117.38040558284419,22,3
2,X,1734,0.08672948193025823,0.0002362604866423559,0.0016740045239468891,0.00040207736084137293,0.12265400960336348,0.0003341227844624872,0.038245058925260214,0.0001659928328877688,0.038973276304339256,0.00035654030435723573,0.981314956089592,0.009936491418742232,0.01175836720033754,6.025342419644751e-05,0,122.8099592297248,22,3
2,X,1755,0.08645234407620585,0.00021435568441382046,0.0015252082425286104,0.0004297820780945579,0.12226207749151563,0.000303144716069792,0.03757037690933576,0.00014743755863317766,0.03812089243491772,0.00025144182665493275,0.9855586926113591,0.0075641956797386604,0.011514027363689183,5.344780135930043e-05,0,102.56264022048262,22,3
2,X,1776,0.08607782493007267,0.00024279017738020912,0.0014707716771943523,0.0004504316737983448,0.12173242743568569,0.0003433571616620612,0.03887522919581582,0.00016892370406853136,0.039914964889764266,0.00026718773350795777,0.9739512311530286,0.007772720454405046,0.011862307530711913,6.14522141572773e-05,0,123.47638696475836,22,3
2,X,1797,0.084571412933912,0.00021191575150932148,0.0019097069634389275,0.0003614171736018129,0.11960203916019374,0.00029969412986496913,0.04042935675772023,0.00016287828676142928,0.04115115187418665,0.0003161887798813557,0.9824599049214177,0.008523549510748497,0.012120634356661018,5.7505185891229634e-05,0,187.68541240158436,22,3
2,X,1818,0.08621561466884817,0.00021952883212839755,0.001994590437595819,0.00037693246039222366,0.12192729155301785,0.00031046065172790627,0.03632521997018975,0.00015573502054414787,0.036750768236293,0.00033314923183120476,0.988420697402374,0.009911667047429556,0.011101946079959605,5.535850803077489e-05,0,72.10186351447804,22,3
2,X,1839,0.08953026212810963,0.00022756957020733526,0.0013678332444685872,0.00042730240225036817,0.12661491094439092,0.0003218319725706298,0.031986702898675876,0.00013040737070239456,0.03189841688033331,0.00021646831143405727,1.0027677241373378,0.007938571712687125,0.010151828316731086,4.877332642813633e-05,0,38.696622900379126,22,3
2,X,1860,0.08647328436454937,0.0002265627295888705,0.002010519459269979,0.00041197320740415363,0.12229169153129105,0.0003204080849128488,0.03818111546711964,0.00014642572717470228,0.038859518773687055,0.00032984017809865396,0.9825421588332489,0.009151569535007524,0.011704031947496816,5.4360183698395865e-05,0,126.6790875706333,22,3
2,X,1881,0.0847122280840581,0.00021863181106113332,0.0034207431142470857,0.0003550839170598689,0.11980118185531796,0.0003091920723688468,0.03904772079271487,0.00013851228347400575,0.039671957076539546,0.0002611043850501381,0.9842650494247024,0.007359005548202031,0.011725914573447939,5.143916062446411e-05,0,67.53236517150019,22,3
2,X,1916,0.08755655329036129,0.00025682000060361123,0.0025487578837886295,0.000426282157306958,0.12382366513787157,0.00036319832794229345,0.03768457451556607,0.0001600833755980446,0.03895670824834147,0.0003568663235775802,0.9673449377533184,0.00976787083023038,0.011696534473566578,6.0380576685538564e-05,0,102.93858954409815,22,3
2,X,1937,0.08526190579111878,0.00022718642289880003,0.00308215645365221,0.00040637299283888354,0.12057854352357733,0.00032129012045051253,0.037239856960878504,0.0001430929250816454,0.03742005826992284,0.00028624419759896037,0.9951843658888907,0.008519102741824597,0.01125558240869011,5.2630522436361156e-05,0,103.34980255308247,22,3
2,X,1958,0.087628884708542,0.00024001700727272819,0.003498497812944073,0.00044303404989805154,0.12392595721044841,0.000339435306885294,0.03801271376987688,0.00016384636369505749,0.03933811538188441,0.0003447706043046954,0.9663074451040455,0.009437785931867577,0.011808129074107202,6.030352378996045e-05,0,160.49937519238375,22,3
2,X,1979,0.08589953082630625,0.00021295949556994452,0.002375726833479309,0.00039478812505919876,0.12148028149604806,0.0003011702068711486,0.03930321242238105,0.00017202813635897176,0.04042751530317792,0.0003340765134006457,0.9721896616112717,0.009091124272357682,0.011968060402034731,6.02029834287458e-05,0,128.73368678029541,22,3
2,X,2000,0.08637822927352083,0.0002095340038809129,0.003214355711185264,0.00039589638396377144,0.12215726333238586,0.00029632583006672375,0.03839690934774008,0.00015661431193679051,0.03885695527482355,0.0002952750464418805,0.9881605256039825,0.008522392189244006,0.011757243081936292,5.5795765289606903e-05,0,84.90986898426962,22,3
2,X,2021,0.08534229694662097,0.0002311957795262402,0.002631795523613589,0.0003873100604226002,0.12069223378598337,0.00032696020696942885,0.03940543314009975,0.00016471884275115448,0.04012521311892112,0.0003812122728309083,0.9820616534375001,0.010193310276583366,0.011921347980959143,5.9382410651752974e-05,0,109.39702591120478,22,3
2,X,2042,0.0869400094459607,0.00019892653667524834,0.002329637895396348,0.00035986629354370353,0.12295174047132262,0.0002813246060820451,0.038168268807720424,0.00015310018881247982,0.03945355249551821,0.00029363695042334507,0.9674228654582172,0.008179268253911886,0.011763243233994575,5.43214826352684e-05,0,121.80452438528437,22,3
2,X,2063,0.08541359564028386,0.0002327365167716814,0.0022184063650734927,0.0003745325322983217,0.12079306536554091,0.00032913913847798515,0.03966336590926932,0.00016751946960869178,0.04120639323212225,0.0003634899708836,0.9625536912643431,0.009413944594874003,0.012009405335716152,6.0361869859696704e-05,0,115.1043761026533,22,3
2,X,2095,0.08723805347609842,0.00022024595167006373,0.0022426412083610832,0.0004040098670939611,0.12337323838092773,0.0003114748119095734,0.03822198198322697,0.00017173553684995423,0.03906242319516141,0.000303814701900694,0.9784846626709389,0.008788960701797625,0.011820180327497948,6.091913909289532e-05,0,100.37314793908976,22,3
2,X,2116,0.08549917459671016,0.00022958416230632064,0.0034475270362320314,0.00040293698720849107,0.12091409228637273,0.0003246810360396646,0.039725575535860806,0.00015944790260395372,0.039904254963926564,0.0003125924888469397,0.9955222963509209,0.008762562669375524,0.012040292900614537,5.814411064595097e-05,0,83.29014394688019,22,3
2,X,2137,0.08673272498556057,0.00025199002550069287,0.0022617668322827567,0.00039633118883225076,0.12265859597615558,0.00035636771164582193,0.03805339093167959,0.00014909247157959208,0.03879800639651689,0.0003728326211082189,0.9808078936523874,0.010178434833651603,0.011699876731829165,5.70681915180319e-05,0,101.11923794747656,22,3
2,X,2158,0.08584654714187201,0.00020770622007791487,0.0029301581786687963,0.00039567078692155996,0.12140535125093666,0.0002937409534234381,0.03958360470704836,0.00015965425964059766,0.04078704388214858,0.0003196173129709776,0.9704945722818874,0.008553279223982371,0.012046006826856694,5.6657052183411885e-05,0,133.95891728423962,22,3
2,X,2179,0.08689445216718297,0.00020124649130856353,0.0036639419634164404,0.0003773366957625772,0.12288731274981035,0.00028460551738856976,0.03815768479589746,0.00014578430023844133,0.03870298776441841,0.0002788617924387535,0.9859105717667029,0.008040542763128856,0.011753818975025077,5.251286624679347e-05,0,121.85114686343593,22,3
2,X,2200,0.08551011477637743,0.00021850417648784092,0.0026640387903027678,0.0004004411257817196,0.12092956403683297,0.00030901156982426903,0.039889564481367226,0.00014960445771200947,0.040232537667207836,0.00033578380987112636,0.9914752286152669,0.00907202420059655,0.012091542760263302,5.487424604936319e-05,0,126.57371056120023,22,3
2,X,2221,0.08667380473040685,0.00020477816533776477,0.0017663896880486599,0.00038302620924241497,0.1225752701522187,0.000289600058698547,0.038352413740023406,0.00014713567630411292,0.03877653297020328,0.0002683073421723122,0.9890624767689835,0.007825171162476345,0.011783803587934146,5.309264938831934e-05,0,125.41121581870016,22,3
2,X,2242,0.08532002707780646,0.00024152200398599064,0.003068259164183828,0.0004092932505340863,0.12066073943547362,0.0003415636936485167,0.03987735601899335,0.00015963023680619592,0.04071824251487333,0.0002963362379127194,0.979348654461871,0.008134464909947226,0.01206097097339922,5.913265008294186e-05,0,112.33234304047501,22,3
2,X,2274,0.08669827487901034,0.0002128913951069869,0.0044122221507059125,0.0003640502492483568,0.12260987616824703,0.00030107389827283004,0.03822937198893008,0.0001455776694716421,0.03922829902654035,0.00030880505158109226,0.9745355505489944,0.008521991297162256,0.011749315116051397,5.323697845299091e-05,0,179.97072217801207,22,3
2,X,2295,0.08451967870415628,0.00018859569737560318,0.003428570932562348,0.0003488086739795628,0.11952887591083428,0.00026671459303378997,0.03942098191504784,0.0001470972330159701,0.039997703343283876,0.0002825278710563174,0.9855811364146018,0.00787344006838022,0.0118110962088692,5.1351447845105466e-05,0,110.00144487126515,22,3
2,X,2316,0.08662674728522347,0.00021828063858365945,0.0023876099408246822,0.0003839171337822317,0.12250872087502973,0.0003086954394884711,0.038544393938099226,0.0001622065521492956,0.03896078613185231,0.00038190655066941355,0.9893125310063324,0.010553490468146541,0.011836359870175414,5.805747947618277e-05,0,159.71454247116742,22,3
2,X,2337,0.08474762284055458,0.00020089388979318607,0.0021391622743700653,0.00037579245590278813,0.11985123759999217,0.00028410686354340964,0.038925439282537166,0.0001457163703678687,0.03944084336077264,0.00025373520979383264,0.986932224711298,0.007345924741153201,0.011694077818578279,5.1815254478705325e-05,0,66.4729366579933,22,3
2,X,2358,0.086208681834893,0.0002016421253952078,0.0026458680992987225,0.0003894966138042396,0.12191748704521277,0.0002851650284796392,0.037349232515677795,0.00013401813594377158,0.037760626659896594,0.0002131196636054096,0.9891052087688016,0.006615171862518919,0.011413993439845074,4.8889229800251066e-05,0,131.23553007416913,22,3
2,X,2379,0.08433460684062011,0.00020021899313513378,0.002076304670510739,0.0003804349976595646,0.11926714477140776,0.0002831524155363918,0.03978740747998672,0.0001432383034930571,0.0400535578236086,0.0002265200765254001,0.9933551385174326,0.0066595214566799454,0.011894779573675707,5.1295359902083236e-05,0,131.82836593032155,22,3
2,X,2400,0.08672061249884724,0.00023265659458488304,0.0023184654053129156,0.00040845823480159787,0.12264146633317152,0.0003290261114374804,0.038329417294480035,0.0001529871135826692,0.038781591864556465,0.0002895228359074201,0.9883404845356623,0.008366775568188987,0.011783097885641339,5.6667580469582657e-05,0,103.27058850801998,22,3
2,X,2421,0.08475064798601549,0.0002076539690722533,0.002777251650115688,0.0003821816458109135,0.11985551580173115,0.00029366705934258386,0.040144881441270756,0.00015896622027865894,0.04126872865257309,0.00029603543218693814,0.9727675833979862,0.007970594662552524,0.012060856189775695,5.6162006961745235e-05,0,147.6992280208566,22,3
2,X,2453,0.08664592975575154,0.00022315726371809375,0.0032418872318788765,0.0004043090489188649,0.12253584898501035,0.0003155920288921976,0.03789989537638013,0.00014585051710856847,0.03812996962821929,0.0003486695075034515,0.9939660520561001,0.009861153575977747,0.01164102198371835,5.390525292498287e-05,0,105.18770480199015,22,3
2,X,2474,0.08491307172427663,0.00021124456539896373,0.002222114672500214,0.00038049358467008885,0.12008521765523139,0.0002987449293648248,0.040138614625766185,0.00016005184698766992,0.04094039063845187,0.00029675027054741794,0.9804160145962886,0.008110746260011447,0.012082084327748972,5.6784514937156944e-05,0,121.03763257963436,22,3
2,X,2495,0.08698188038762897,0.00022797307918593032,0.003050420867837156,0.0004340949599481483,0.12301095492489922,0.00032240262044069823,0.038071985158843955,0.00015271435094297623,0.0386991382773307,0.00026444281132427446,0.9837941322105841,0.007795208233313055,0.011739220133708261,5.6249095065875185e-05,0,123.53764078526989,22,3
2,X,2516,0.08523193328556573,0.000186804571683499,0.0022223160268544768,0.0003685686710013194,0.12053615599972589,0.00026418155878810134,0.04019107433928848,0.00017351009053151077,0.04109673042349416,0.00034389694547547537,0.977962819064362,0.009208486349446134,0.012143304543911305,5.879322261809613e-05,0,160.3503270452182,22,3
2,X,2537,0.0862359934846878,0.00024146027916234917,0.0026178425794875304,0.0003918462296720019,0.12195611155076336,0.00034147640156578785,0.03832846297709524,0.0001460041995240159,0.03925753533701601,0.0003380253082742969,0.9763339101157289,0.00919262052303322,0.011716958908693157,5.5393652209408025e-05,0,127.28856564600616,22,3
2,X,2558,0.0841100416875158,0.00020739519876923323,0.00313504185981595,0.00036932372118870176,0.11894956168625126,0.0002933011028705135,0.04080283601754381,0.00013042972974631881,0.04125062799183499,0.00021001338099144718,0.9891446022499387,0.00594623388537753,0.012165868844382812,4.911475730339594e-05,0,115.02706911839562,22,3
2,X,2579,0.08674455251429142,0.00022222914800771267,0.0021590276589015995,0.00039167887239134413,0.12267532262769609,0.00031427947506712517,0.038275047108585016,0.00015176013463343593,0.03847986311405558,0.0003371641670312937,0.9946773198006582,0.009566263443482725,0.011769631807165734,5.5560100501753644e-05,0,137.6132401133025,22,3
2,X,2600,0.08443966618808764,0.00021254946252432402,0.002358750073980697,0.00040608465578874793,0.1194157211254504,0.00030059033257701095,0.04018937664496466,0.00016308432761538165,0.04090849282523907,0.000292377635840473,0.9824213474853137,0.008074269547988977,0.012029919187336037,5.7445472936719934e-05,0,142.5757869715522,22,3
2,X,2632,0.08700268952608269,0.00023242437140593943,0.003294912659129771,0.00037731559084071216,0.12304038349072177,0.00032869769826832096,0.03732909987547215,0.00015918167349152751,0.03807105723860525,0.0003708974782506909,0.9805112487819032,0.010427374667005914,0.011512910487752485,5.7932685121883576e-05,0,128.65540967733833,22,3
2,X,2653,0.08607913439542776,0.00020849166441754544,0.0035615683131741196,0.0003856965662110778,0.12173427929935032,0.0002948517394610328,0.03949840190973378,0.0001368144524587809,0.039696967665923975,0.00025707325286549446,0.9949979616110415,0.007307314119225495,0.012052644520704092,5.09421029535974e-05,0,112.15796262200011,22,3
2,X,2674,0.08874214677262188,0.00023763109124215942,0.0018649658105867294,0.00042674482250799173,0.12550034751994565,0.0003360611120761803,0.03625620469880388,0.00014401120586246343,0.03713102462952091,0.0003120816977050838,0.9764396501457838,0.009077165156707583,0.011405575475418657,5.463684969120654e-05,0,115.73978649877805,22,3
2,X,2695,0.08324336363497051,0.0002270781076272776,0.0040657610504656865,0.00038712943934935356,0.1177238938301306,0.0003211369395245134,0.041316882771004954,0.00017359969320787205,0.0421168487131621,0.00034935040482275367,0.9810060351949564,0.009121643122784967,0.012192200625692998,6.107712054088726e-05,0,101.98775536737858,22,3
2,X,2716,0.08960476725821667,0.00024186716100237706,0.003085115311934228,0.00043924583559412335,0.12672027710985467,0.0003420518193822386,0.035448910715935755,0.0001428637786831859,0.03585171283122223,0.0003301459382921014,0.9887647734661177,0.009938990940777414,0.011260014317474039,5.461745593563587e-05,0,125.0461685627517,22,3
2,X,2737,0.08389276745587243,0.000241626588331981,0.0037349354443699336,0.00040520342994966276,0.118642289521107,0.0003417115982490282,0.04069533342019068,0.00016609032838971717,0.04147542465777258,0.0003131215652150914,0.9811914828113589,0.008420720523393191,0.012102471377408072,6.045491719852399e-05,0,84.1767836847389,22,3
2,X,2758,0.08649911022877883,0.00023432051583366408,0.0028597701239470126,0.0004216016856088604,0.12232821481874434,0.0003313792514342273,0.0382089486123251,0.0001744519421335472,0.0390775741091584,0.0003866280186680364,0.9777717650945552,0.010654320410510997,0.011716061955488041,6.219923658140353e-05,0,114.59035220078889,22,3
2,X,2779,0.08503538042745655,0.00021447888543185976,0.0032940523985175558,0.0003825358023368587,0.12025818828206469,0.0003033189486204013,0.04031926746790334,0.00016220888351908813,0.04101770646193405,0.00027814274695464483,0.9829722562698896,0.007750406649285083,0.012153943807788573,5.7711490567673665e-05,0,69.0583246224631,22,3
2,X,2818,0.08615509448871009,0.00023319036634888285,0.003836989289542018,0.0003797416410832353,0.12184170309346931,0.00032978097870534073,0.038261175177502,0.00016491937012697036,0.038891890444911426,0.00038756408810312643,0.9837828590949365,0.010681349277718365,0.011685416600350076,5.947527978051748e-05,0,89.2964486218273,22,3
2,X,2839,0.08479011855725758,0.00019016254117953208,0.003270188055691388,0.00037752811258866324,0.11991133561889633,0.00026893044479142647,0.03985319957122937,0.00013561114398493316,0.04030913890289379,0.00023665598342426106,0.9886889339719512,0.0067090949724341,0.011978801505981912,4.881816946804683e-05,0,114.71219545684363,22,3
2,X,2860,0.08670995920642693,0.00022579909417734127,0.0035417132275923115,0.00039729782279711724,0.12262640030254679,0.0003193281413571558,0.03838401414123145,0.00015844070667245656,0.039370354378806,0.00033631352437940294,0.9749471333662794,0.009249649152542986,0.011798432290919347,5.7582820242156394e-05,0,113.12424488328932,22,3
2,X,2881,0.08419999979264886,0.00021874313185564948,0.0037620983155637316,0.0003828653571921408,0.11907678165857583,0.0003093495037462257,0.040115335859150975,0.00017069507392192078,0.04064837699051483,0.0004097036026335118,0.9868865334650818,0.01079711837646048,0.011973674699141772,5.96945302182857e-05,0,154.78556258176738,22,3
2,X,2902,0.08621743602446026,0.0002527965846933525,0.0035871619336146545,0.0004063304575288798,0.12192986733882638,0.0003575083585949379,0.03855316109011963,0.000168821936165312,0.03922132895962451,0.00034112693927151346,0.9829641705870622,0.009571737432414107,0.011783112615891609,6.209623219323211e-05,0,135.285904215862,22,3
2,X,2923,0.0838887326897681,0.0002056284646911381,0.003779350804743415,0.0003665981227759815,0.11863658350016126,0.00029080256357616463,0.04055420715683622,0.00016099598795325025,0.041341792247784705,0.0002771123200505517,0.9809494207162562,0.007641950346886431,0.012059921497424615,5.6267618226712284e-05,0,125.35531291601765,22,3
2,X,2944,0.08715191283758757,0.00021859513937698644,0.0023348968387255768,0.00040428705976587956,0.1232514171216742,0.00030914021077577125,0.03820464810535818,0.00014775621956411727,0.03889865596623151,0.0002842905628677849,0.982158564515036,0.008121185062889487,0.01180315361631289,5.4408073297584424e-05,0,132.8864366126607,22,3
2,X,2965,0.08597123255495723,0.00021254459794081254,0.002482315536280556,0.00039991939841992123,0.12158168305315187,0.0003005834530170337,0.039306039790520664,0.00015356223059270245,0.040124248264588096,0.0003921639163932248,0.9796081295113123,0.010311013371967853,0.011978912004706375,5.538289174997602e-05,0,135.11443773754425,22,3
2,X,2997,0.08583199643877365,0.00021238206767285045,0.0033293859186333007,0.00039201581105715965,0.1213847734492729,0.0003003536005077856,0.03740059843964351,0.00013108719383142232,0.037813776824862796,0.00026544013908956455,0.9890733372883393,0.007760312490523609,0.011379749381026129,4.8823352352401884e-05,0,76.12778601070944,22,3
2,X,3018,0.08491404814740126,0.00020853348803606767,0.0029205183574124286,0.00037094140726231725,0.12008659852605685,0.00029491088698957446,0.03852878077754777,0.00013638934804722453,0.03900677310419796,0.00022416043988436786,0.9877459146550437,0.00666679167698659,0.011597643208626978,4.99671080950866e-05,0,107.34080559149002,22,3
2,X,3039,0.08681608477783394,0.0002218435874158442,0.0031073446671271514,0.0004218073279759344,0.12277648452494516,0.00031373421004898816,0.03842320491486943,0.00016070397816013055,0.03913214231303329,0.0003260579752144705,0.9818835014834407,0.009154141211681042,0.011824933719440186,5.795758660299966e-05,0,115.85693309580739,22,3
2,X,3060,0.08406181428102608,0.00021112477568587486,0.003559788867351585,0.0003947278625082431,0.1188813578339154,0.0002985755211279417,0.04068752426680613,0.00013972044565748875,0.04112240318208365,0.00022748818681896866,0.9894247689428085,0.00644229036359152,0.01212453121506979,5.158288094305957e-05,0,80.3072666632778,22,3
2,X,3081,0.0856347027635193,0.00020767890478001888,0.003187925794439289,0.00039099662285731445,0.12110575805795776,0.0002937023237586933,0.03876846565685496,0.0001546340626902568,0.039202236426483385,0.0002879167069654622,0.988935050416272,0.008265125580195432,0.011768831364258828,5.493767499035405e-05,0,216.7884417895422,22,3
2,X,3102,0.08362790932465655,0.00020535631191642015,0.0039888590019005205,0.00035310135223379354,0.11826772355983672,0.000290417681431121,0.04115324852558083,0.00015755069934850408,0.041488506894504854,0.0002799249066464231,0.9919192471838888,0.007694839761407052,0.012200013032750421,5.548863348592852e-05,0,124.68954270591804,22,3
2,X,3123,0.086649534641706,0.00022588735707524253,0.0033664003480953202,0.00038882600247232177,0.12254094706361796,0.00031945296394442213,0.03811900486757042,0.00014301023989023246,0.0388714928046811,0.000288476593311741,0.9806416506592188,0.008154707484276364,0.011708808985837357,5.349152209622101e-05,0,127.36782200952452,22,3
2,X,3144,0.08421592235875945,0.00022288851469892915,0.0035096112424568273,0.00034230963473929406,0.11909929956751719,0.00031521196038442056,0.04034353287740404,0.00016031544543613352,0.041398215880439654,0.000385559157073892,0.9745234672411585,0.009867772183614197,0.012044064376789145,5.7503833622675116e-05,0,159.53891340173203,22,3
