[
    [
        "XscanNumber_YscanNumber",
        "Type",
        "BCID",
        "xsec",
        "xsecErr",
        "SBIL",
        "SBILErr"
    ],
    [
        "1_2",
        "XY",
        "103",
        305.5209026635543,
        2.2101168691718813,
        0.06395830139404246,
        0.0005464742413072591
    ],
    [
        "1_2",
        "XY",
        "124",
        301.95307932709403,
        2.062932934218557,
        0.07914767091067357,
        0.0006388079702973961
    ],
    [
        "1_2",
        "XY",
        "145",
        302.7326379239035,
        2.510369793319016,
        0.06357885851565462,
        0.000631892485810289
    ],
    [
        "1_2",
        "XY",
        "166",
        303.9906252671932,
        2.068956034198283,
        0.07397700486008507,
        0.0005940076468254428
    ],
    [
        "1_2",
        "XY",
        "187",
        305.54180094648774,
        2.470331292052943,
        0.06376531314846641,
        0.0006112232184420685
    ],
    [
        "1_2",
        "XY",
        "208",
        302.8625628335045,
        2.3356752137452768,
        0.06721513989998973,
        0.0006147491204319107
    ],
    [
        "1_2",
        "XY",
        "229",
        299.6989736752981,
        2.2872439800517674,
        0.06897765168205418,
        0.0006211733704445684
    ],
    [
        "1_2",
        "XY",
        "250",
        302.0886269375967,
        2.1447003271927216,
        0.07606016394689827,
        0.0006328679896563676
    ],
    [
        "1_2",
        "XY",
        "282",
        299.0327336168683,
        2.1109032263106386,
        0.07624660792180865,
        0.0006449788030404697
    ],
    [
        "1_2",
        "XY",
        "303",
        302.11375256438487,
        2.036792937949072,
        0.0778721645938145,
        0.0006262576503769937
    ],
    [
        "1_2",
        "XY",
        "324",
        299.59453094759465,
        2.073527650097924,
        0.07066814291840375,
        0.0005752103694458625
    ],
    [
        "1_2",
        "XY",
        "345",
        301.3432832406999,
        2.0979285086849555,
        0.07874659158458085,
        0.0006571716273623154
    ],
    [
        "1_2",
        "XY",
        "366",
        302.27721554111247,
        2.1352461858592684,
        0.07253525995314083,
        0.0005939481792231163
    ],
    [
        "1_2",
        "XY",
        "387",
        300.094340821598,
        2.1379750367588994,
        0.07865679870221913,
        0.0006648822304513063
    ],
    [
        "1_2",
        "XY",
        "408",
        301.8390404013305,
        2.429888765890163,
        0.06677163919963724,
        0.0006299282336924977
    ],
    [
        "1_2",
        "XY",
        "429",
        303.98439678661595,
        2.212370419689194,
        0.07539598765986753,
        0.0006491081765986772
    ],
    [
        "1_2",
        "XY",
        "464",
        300.13844826031556,
        2.121117845568904,
        0.07510695706342835,
        0.000625920574736876
    ],
    [
        "1_2",
        "XY",
        "485",
        303.2771872063546,
        2.18841735626608,
        0.07737578158504894,
        0.0006683060514227526
    ],
    [
        "1_2",
        "XY",
        "506",
        301.58328176623905,
        2.310082602333437,
        0.06696707035192126,
        0.0006056034920204184
    ],
    [
        "1_2",
        "XY",
        "527",
        301.7393918675333,
        2.133466938236928,
        0.0740148566782828,
        0.0006235000554392653
    ],
    [
        "1_2",
        "XY",
        "548",
        300.51065046768474,
        2.244185110272273,
        0.07326349341574835,
        0.0006538773095255199
    ],
    [
        "1_2",
        "XY",
        "569",
        298.33278254495633,
        2.1099545873530157,
        0.08220155323469217,
        0.0006934051525890422
    ],
    [
        "1_2",
        "XY",
        "590",
        300.15986413661835,
        2.271041406841258,
        0.07051681120794176,
        0.0006307493840645373
    ],
    [
        "1_2",
        "XY",
        "611",
        299.71507490131233,
        2.0234642630798634,
        0.07870867270403174,
        0.0006243317398071171
    ],
    [
        "1_2",
        "XY",
        "643",
        299.0369567615402,
        2.1817927348838158,
        0.06913431382188813,
        0.0005916825632893731
    ],
    [
        "1_2",
        "XY",
        "664",
        300.0996184343643,
        2.0407596368500847,
        0.0784148214762565,
        0.000628150219513115
    ],
    [
        "1_2",
        "XY",
        "685",
        300.9702718838006,
        2.2485015210369323,
        0.06747605382908699,
        0.0006004920428440041
    ],
    [
        "1_2",
        "XY",
        "706",
        301.2129760524496,
        2.145526220967366,
        0.07127847950816213,
        0.0006039995836542901
    ],
    [
        "1_2",
        "XY",
        "727",
        300.3898276032249,
        2.290537189160122,
        0.06987375537704894,
        0.0006462095579673283
    ],
    [
        "1_2",
        "XY",
        "748",
        299.8789732722892,
        2.022629929197299,
        0.0789878882836343,
        0.0006294587829381127
    ],
    [
        "1_2",
        "XY",
        "769",
        297.8303842695748,
        2.365712646038614,
        0.06410530155240624,
        0.0006108083620956101
    ],
    [
        "1_2",
        "XY",
        "790",
        299.43168366081994,
        2.2114088700875554,
        0.07333387550094689,
        0.000644783607386593
    ],
    [
        "1_2",
        "XY",
        "822",
        305.85371225980464,
        2.146224436041737,
        0.06640574725483203,
        0.000542741102806319
    ],
    [
        "1_2",
        "XY",
        "843",
        301.5372330831114,
        2.1051504987134972,
        0.07800527902823352,
        0.0006461818850101188
    ],
    [
        "1_2",
        "XY",
        "864",
        302.7601431814382,
        2.2460955227936954,
        0.07086813960385353,
        0.0006265284655863531
    ],
    [
        "1_2",
        "XY",
        "885",
        299.7795904249538,
        2.1975488728643775,
        0.08015020720989079,
        0.0006958171993072183
    ],
    [
        "1_2",
        "XY",
        "906",
        34.56913083136099,
        52.790118405121184,
        0.29873408880321867,
        0.45619777876889583
    ],
    [
        "1_2",
        "XY",
        "927",
        300.8645936016047,
        2.088512074516259,
        0.07807323047924682,
        0.0006451108633914704
    ],
    [
        "1_2",
        "XY",
        "948",
        301.2443450160057,
        2.105612349933461,
        0.06878270887045135,
        0.0005666677774990575
    ],
    [
        "1_2",
        "XY",
        "969",
        302.3280488567385,
        2.0692080349780246,
        0.07667943526366101,
        0.0006266412286676996
    ],
    [
        "1_2",
        "XY",
        "1018",
        299.43137186542714,
        2.0297309345155825,
        0.0753015202927249,
        0.0006036386750283251
    ],
    [
        "1_2",
        "XY",
        "1039",
        298.1730897833653,
        2.082060539035513,
        0.07881726306006791,
        0.0006444706456528815
    ],
    [
        "1_2",
        "XY",
        "1060",
        299.55612022308804,
        2.2805242671021086,
        0.0705583884266594,
        0.0006270340261506669
    ],
    [
        "1_2",
        "XY",
        "1081",
        301.8233194638978,
        2.161857689541593,
        0.0780022493399936,
        0.0006679555570124637
    ],
    [
        "1_2",
        "XY",
        "1102",
        299.94446429135235,
        2.235395942587811,
        0.0684270382609611,
        0.0006063157986990862
    ],
    [
        "1_2",
        "XY",
        "1123",
        299.8478823590417,
        2.138852691320834,
        0.07523428702397125,
        0.0006422452516957145
    ],
    [
        "1_2",
        "XY",
        "1144",
        303.14532271906563,
        2.4110794941225646,
        0.06849130781303366,
        0.0006540910543510242
    ],
    [
        "1_2",
        "XY",
        "1165",
        299.1102694574874,
        2.09170102664557,
        0.08103887716636507,
        0.0006751511965868197
    ],
    [
        "1_2",
        "XY",
        "1197",
        298.52816419059826,
        2.043024625535651,
        0.07274969146313268,
        0.0005891125305228708
    ],
    [
        "1_2",
        "XY",
        "1218",
        299.507881313904,
        2.1028926146303264,
        0.07895424101383834,
        0.0006584212417269428
    ],
    [
        "1_2",
        "XY",
        "1239",
        23.60616454971209,
        0.7434170640558831,
        0.43856110751160476,
        0.014281135990986025
    ],
    [
        "1_2",
        "XY",
        "1260",
        300.94761598191104,
        2.1654628951036137,
        0.07832274107100315,
        0.0006735944694641216
    ],
    [
        "1_2",
        "XY",
        "1281",
        299.24280077961015,
        2.2262959627593846,
        0.07091884469742313,
        0.0006285675935570278
    ],
    [
        "1_2",
        "XY",
        "1302",
        23.91064691966781,
        4.158284975198579,
        0.4974109967705183,
        0.08655331520849673
    ],
    [
        "1_2",
        "XY",
        "1323",
        300.35570970182204,
        2.269384295224925,
        0.06514360327767252,
        0.0005849982973543142
    ],
    [
        "1_2",
        "XY",
        "1344",
        298.6240711932835,
        2.154246297731969,
        0.07707149104641052,
        0.0006574927234651605
    ],
    [
        "1_2",
        "XY",
        "1376",
        299.9259407338138,
        2.390367480874343,
        0.07251754593812162,
        0.000691516188467795
    ],
    [
        "1_2",
        "XY",
        "1397",
        301.149512946815,
        2.077041878649588,
        0.06967977564244092,
        0.0005690930979458589
    ],
    [
        "1_2",
        "XY",
        "1418",
        300.8880044382613,
        2.121418204891265,
        0.07305255243683019,
        0.0006200149917444284
    ],
    [
        "1_2",
        "XY",
        "1439",
        301.99271436240855,
        2.20792845223162,
        0.06650896935748093,
        0.0005790528212829839
    ],
    [
        "1_2",
        "XY",
        "1460",
        299.95735990259584,
        2.1171555610052812,
        0.07072921692039677,
        0.0005922201218823436
    ],
    [
        "1_2",
        "XY",
        "1481",
        297.8180818355731,
        2.195303488315688,
        0.07694147683697984,
        0.0006658598826405147
    ],
    [
        "1_2",
        "XY",
        "1502",
        300.8514596715713,
        1.700913565531017,
        0.06906129376107593,
        0.00048563302032563664
    ],
    [
        "1_2",
        "XY",
        "1523",
        303.93965119099056,
        2.2311369563264414,
        0.06245402420243479,
        0.0005394858121172592
    ],
    [
        "1_2",
        "XY",
        "1555",
        304.3669392241176,
        2.2138942391645156,
        0.06531185757832215,
        0.000563799381834488
    ],
    [
        "1_2",
        "XY",
        "1576",
        302.48165461196743,
        2.2675830627251528,
        0.06827114312115957,
        0.0006032271553157202
    ],
    [
        "1_2",
        "XY",
        "1597",
        306.0660779966446,
        2.1374741821529692,
        0.05995264015645311,
        0.0004927860445861012
    ],
    [
        "1_2",
        "XY",
        "1618",
        304.0528719376282,
        2.208770448386963,
        0.06662129018034482,
        0.0005685187007381509
    ],
    [
        "1_2",
        "XY",
        "1639",
        301.7659530311926,
        1.9750771460227206,
        0.07796964860702385,
        0.0006032741952845668
    ],
    [
        "1_2",
        "XY",
        "1660",
        299.4181473502204,
        2.082416242295186,
        0.07639410014475652,
        0.0006261033557904549
    ],
    [
        "1_2",
        "XY",
        "1681",
        300.51266219100535,
        2.1564004682106432,
        0.07609206970161976,
        0.0006430047396756369
    ],
    [
        "1_2",
        "XY",
        "1702",
        301.11221128133053,
        1.9834601674131713,
        0.08216086938255066,
        0.0006416528261149626
    ],
    [
        "1_2",
        "XY",
        "1734",
        302.4566211393241,
        2.01975070815494,
        0.07324764931512918,
        0.0005833260013935053
    ],
    [
        "1_2",
        "XY",
        "1755",
        307.619349169744,
        2.1022412898065492,
        0.06085269915427539,
        0.00048472058605858085
    ],
    [
        "1_2",
        "XY",
        "1776",
        301.9150911693604,
        2.168428924186037,
        0.0736075945741026,
        0.0006324590794093976
    ],
    [
        "1_2",
        "XY",
        "1797",
        300.5555544321726,
        2.094131914025787,
        0.08071679288832413,
        0.0006681053229458654
    ],
    [
        "1_2",
        "XY",
        "1818",
        303.4315255145102,
        2.123751994329321,
        0.06792079354638317,
        0.000566234973706833
    ],
    [
        "1_2",
        "XY",
        "1839",
        303.50307786312385,
        2.1597114768737304,
        0.06173303579303587,
        0.00052123603778914
    ],
    [
        "1_2",
        "XY",
        "1860",
        303.4359729911228,
        2.175805445806207,
        0.07297686096852934,
        0.0006236930023285041
    ],
    [
        "1_2",
        "XY",
        "1881",
        303.5794960677134,
        1.9668024887735112,
        0.07426935602821393,
        0.0005704608281392266
    ],
    [
        "1_2",
        "XY",
        "1916",
        300.44970090908515,
        2.1923442863223497,
        0.06892472803574336,
        0.0005890011100842067
    ],
    [
        "1_2",
        "XY",
        "1937",
        304.7064504667465,
        2.2926401838853088,
        0.06214664176134297,
        0.0005571308318545102
    ],
    [
        "1_2",
        "XY",
        "1958",
        301.3057353039736,
        2.0957949531031397,
        0.07285601283750452,
        0.0005946175719094021
    ],
    [
        "1_2",
        "XY",
        "1979",
        300.6981137953897,
        2.1671787628168646,
        0.0748324662978882,
        0.0006448702051382001
    ],
    [
        "1_2",
        "XY",
        "2000",
        299.2251319259979,
        2.210813902720782,
        0.07760315764717172,
        0.0006860166077587471
    ],
    [
        "1_2",
        "XY",
        "2021",
        299.6003251060966,
        2.0053792584763936,
        0.08050097499436788,
        0.0006340941283231931
    ],
    [
        "1_2",
        "XY",
        "2042",
        301.2189812503433,
        2.1616219774833327,
        0.07092487705747122,
        0.0006081194423389545
    ],
    [
        "1_2",
        "XY",
        "2063",
        300.07619553543685,
        2.0412668536165457,
        0.07962322794003705,
        0.000643482177081915
    ],
    [
        "1_2",
        "XY",
        "2095",
        301.27507968403614,
        2.1186350592310985,
        0.07441739403690979,
        0.0006176545353970096
    ],
    [
        "1_2",
        "XY",
        "2116",
        301.47302951114415,
        2.047680528955465,
        0.07592752971820854,
        0.0006165386240633827
    ],
    [
        "1_2",
        "XY",
        "2137",
        302.35719742831566,
        2.168864801774531,
        0.07385246786773728,
        0.0006327167151387656
    ],
    [
        "1_2",
        "XY",
        "2158",
        303.3662045837099,
        2.027430478612669,
        0.07743291021144531,
        0.0006179262951886495
    ],
    [
        "1_2",
        "XY",
        "2179",
        302.24816404599557,
        2.1241385024348487,
        0.07689503225036146,
        0.0006374878559049367
    ],
    [
        "1_2",
        "XY",
        "2200",
        302.4444729102388,
        2.1204736198118757,
        0.07836026606247237,
        0.0006537920635038308
    ],
    [
        "1_2",
        "XY",
        "2221",
        301.77445858060037,
        2.2631626821254858,
        0.07628719434897589,
        0.0006757225860749642
    ],
    [
        "1_2",
        "XY",
        "2242",
        300.30675255861405,
        1.9677857201651354,
        0.08059177077991198,
        0.0006248733639415938
    ],
    [
        "1_2",
        "XY",
        "2274",
        302.0375193716883,
        2.0678106506881493,
        0.07660000192863761,
        0.0006251523092184625
    ],
    [
        "1_2",
        "XY",
        "2295",
        302.34408101923793,
        2.1435645045263323,
        0.07072513804731959,
        0.0005967505193906773
    ],
    [
        "1_2",
        "XY",
        "2316",
        303.2621878318724,
        2.0652091936266626,
        0.07496995168006712,
        0.0005986886802178104
    ],
    [
        "1_2",
        "XY",
        "2337",
        300.1681513311063,
        2.2050890054324115,
        0.06883325839936835,
        0.0005963791342449273
    ],
    [
        "1_2",
        "XY",
        "2358",
        303.8811781891296,
        2.202203043655339,
        0.06464096257905502,
        0.0005599804668282749
    ],
    [
        "1_2",
        "XY",
        "2379",
        302.86903133306134,
        2.04585135570486,
        0.07062508872175398,
        0.0005676280991102964
    ],
    [
        "1_2",
        "XY",
        "2400",
        298.6829502364899,
        2.181714296881262,
        0.07312884372441082,
        0.0006404374595800071
    ],
    [
        "1_2",
        "XY",
        "2421",
        300.83291576768204,
        2.089088446390508,
        0.07838100944272387,
        0.0006469161020101982
    ],
    [
        "1_2",
        "XY",
        "2453",
        300.18550939534265,
        2.3136745745063396,
        0.0713037179873667,
        0.0006581875385740841
    ],
    [
        "1_2",
        "XY",
        "2474",
        297.795087632787,
        2.1040899246805767,
        0.08145473038428867,
        0.0006821835136167253
    ],
    [
        "1_2",
        "XY",
        "2495",
        298.4488236420115,
        2.1117439197343035,
        0.0715081024422933,
        0.0005960277122960723
    ],
    [
        "1_2",
        "XY",
        "2516",
        300.61529716576047,
        2.1778040441595943,
        0.07679783213690368,
        0.0006503039249584816
    ],
    [
        "1_2",
        "XY",
        "2537",
        301.7795200563256,
        2.159667887138743,
        0.07703230413990898,
        0.000645427582856109
    ],
    [
        "1_2",
        "XY",
        "2558",
        297.7808438501954,
        2.0180033691256134,
        0.08347480150708106,
        0.0006800794991649982
    ],
    [
        "1_2",
        "XY",
        "2579",
        299.1018875411286,
        1.9956568295796182,
        0.08005495350619547,
        0.0006360425825407217
    ],
    [
        "1_2",
        "XY",
        "2600",
        300.20324959276513,
        2.0084247778318858,
        0.08148774598983938,
        0.0006373081259284249
    ],
    [
        "1_2",
        "XY",
        "2632",
        36.97957025945905,
        0.4817676751865102,
        0.28055348452698664,
        0.004170242289111228
    ],
    [
        "1_2",
        "XY",
        "2653",
        301.95394814996,
        2.2233404412533764,
        0.07478853955624376,
        0.0006621255296857049
    ],
    [
        "1_2",
        "XY",
        "2674",
        303.62750537426916,
        2.078759860654259,
        0.0690808945071906,
        0.0005527571800820426
    ],
    [
        "1_2",
        "XY",
        "2695",
        298.26833061677144,
        1.9662322247774677,
        0.08270210651782799,
        0.0006451507031077423
    ],
    [
        "1_2",
        "XY",
        "2716",
        304.30741864280793,
        2.1599438284746784,
        0.06823784825548672,
        0.000567655747924961
    ],
    [
        "1_2",
        "XY",
        "2737",
        300.715699421645,
        2.130201216747279,
        0.07905504385924915,
        0.0006671207547918369
    ],
    [
        "1_2",
        "XY",
        "2758",
        300.601905895441,
        1.9989857309790282,
        0.07401314535479483,
        0.0005753796705479959
    ],
    [
        "1_2",
        "XY",
        "2779",
        298.16892959926776,
        1.760580809489484,
        0.07878746710401609,
        0.0005645133715362463
    ],
    [
        "1_2",
        "XY",
        "2818",
        300.9374153954325,
        2.1277187585769655,
        0.07770590797308297,
        0.0006431387894417019
    ],
    [
        "1_2",
        "XY",
        "2839",
        300.6858300351332,
        2.0144232860441806,
        0.08089280677728444,
        0.000638164300042079
    ],
    [
        "1_2",
        "XY",
        "2860",
        303.8610795862311,
        2.0700304861906536,
        0.07671965012649859,
        0.000615049239463276
    ],
    [
        "1_2",
        "XY",
        "2881",
        297.94893667968955,
        2.0358426360867217,
        0.08118684169507139,
        0.0006519921260151169
    ],
    [
        "1_2",
        "XY",
        "2902",
        300.10006064272136,
        2.0750842830390104,
        0.07654737895622764,
        0.0006242580235952311
    ],
    [
        "1_2",
        "XY",
        "2923",
        297.5958971442944,
        2.096802366905429,
        0.0809448452029879,
        0.0006838587987414523
    ],
    [
        "1_2",
        "XY",
        "2944",
        302.4201779510195,
        2.134567158918996,
        0.07463316009537835,
        0.0006233989864241025
    ],
    [
        "1_2",
        "XY",
        "2965",
        300.96509616217514,
        2.046030004813395,
        0.07262120820943348,
        0.0005800833890728509
    ],
    [
        "1_2",
        "XY",
        "2997",
        302.55066238480214,
        2.1933490203447312,
        0.0749656031339397,
        0.0006519090183901907
    ],
    [
        "1_2",
        "XY",
        "3018",
        301.5603027380548,
        2.1528922102319137,
        0.07869682937611945,
        0.0006602178592604768
    ],
    [
        "1_2",
        "XY",
        "3039",
        15.18044016857616,
        13.285730312017648,
        0.7063093123766897,
        0.6181642485237804
    ],
    [
        "1_2",
        "XY",
        "3060",
        298.7236710017909,
        2.05378648170406,
        0.076626571819826,
        0.0006253408753607881
    ],
    [
        "1_2",
        "XY",
        "3081",
        298.3480682186538,
        2.0748505753075723,
        0.07466689271634144,
        0.0006174043795318274
    ],
    [
        "1_2",
        "XY",
        "3102",
        299.5813285893693,
        2.002761262181106,
        0.07901510613030654,
        0.0006136377519213736
    ],
    [
        "1_2",
        "XY",
        "3123",
        300.1194731729357,
        2.0802727034702713,
        0.07699820355040499,
        0.0006352903378868951
    ],
    [
        "1_2",
        "XY",
        "3144",
        297.4414488490924,
        1.9871098209748885,
        0.08265019233880026,
        0.0006585807461106629
    ]
]