[
    [
        "XscanNumber_YscanNumber",
        "Type",
        "BCID",
        "xsec",
        "xsecErr",
        "SBIL",
        "SBILErr"
    ],
    [
        "1_2",
        "XY",
        "103",
        3243.356447648109,
        18.201052097835568,
        0.0715414453331622,
        0.00045649868704061305
    ],
    [
        "1_2",
        "XY",
        "124",
        3215.070590713118,
        17.263129105567682,
        0.08020653751130069,
        0.0004926709217048794
    ],
    [
        "1_2",
        "XY",
        "145",
        3224.649009617737,
        18.272600059532856,
        0.0649290115906065,
        0.000414462710194195
    ],
    [
        "1_2",
        "XY",
        "166",
        3245.034207916886,
        18.024142575273874,
        0.07539662646027188,
        0.0004751485129554056
    ],
    [
        "1_2",
        "XY",
        "187",
        3230.76016285483,
        18.93187837267112,
        0.06497194466801592,
        0.0004345879257581174
    ],
    [
        "1_2",
        "XY",
        "208",
        3213.3168689086724,
        18.81786601972115,
        0.07507897504854738,
        0.0005013444499060986
    ],
    [
        "1_2",
        "XY",
        "229",
        3215.142879928617,
        18.283179640121926,
        0.07023730356061128,
        0.00045608381048967324
    ],
    [
        "1_2",
        "XY",
        "250",
        3221.315105645922,
        18.23164331223543,
        0.0787792112343258,
        0.0005075954629144892
    ],
    [
        "1_2",
        "XY",
        "282",
        3242.079865503588,
        17.687487200192688,
        0.07278498386752974,
        0.0004508583797504145
    ],
    [
        "1_2",
        "XY",
        "303",
        3198.2783709861174,
        18.34859723073705,
        0.08042392646664513,
        0.0005212577956301025
    ],
    [
        "1_2",
        "XY",
        "324",
        3241.3690499731883,
        16.727165871720484,
        0.07088586984034054,
        0.0004144709503666343
    ],
    [
        "1_2",
        "XY",
        "345",
        3218.432721619503,
        15.763870352709331,
        0.08205137661910003,
        0.0004532120477736866
    ],
    [
        "1_2",
        "XY",
        "366",
        3241.6649375298,
        16.88144100246162,
        0.07280657560560046,
        0.0004302794470536721
    ],
    [
        "1_2",
        "XY",
        "387",
        3229.6149898700646,
        17.349951073252416,
        0.08155061698775132,
        0.0005002750828660021
    ],
    [
        "1_2",
        "XY",
        "408",
        3228.4692657711903,
        16.661162206190685,
        0.06919018561953291,
        0.0004063243001710182
    ],
    [
        "1_2",
        "XY",
        "429",
        3214.2831223806015,
        18.36988761196105,
        0.07912991355135088,
        0.0005170072612811103
    ],
    [
        "1_2",
        "XY",
        "464",
        3215.9003393627686,
        20.335834499055277,
        0.0736519357426989,
        0.0005252463792114774
    ],
    [
        "1_2",
        "XY",
        "485",
        3231.6047874047786,
        17.77117611657446,
        0.07696683810807885,
        0.00048157174080777035
    ],
    [
        "1_2",
        "XY",
        "506",
        3246.132857806786,
        19.10651928497795,
        0.06599484142167651,
        0.0004403434120200243
    ],
    [
        "1_2",
        "XY",
        "527",
        3248.772119633534,
        16.302865616300835,
        0.07322805978919518,
        0.0004161490862628273
    ],
    [
        "1_2",
        "XY",
        "548",
        3230.9623646874866,
        17.643567508247372,
        0.07181111738454764,
        0.00044260659556502076
    ],
    [
        "1_2",
        "XY",
        "569",
        3230.2510645209186,
        16.082472927774486,
        0.08076863609790283,
        0.00045717791036964514
    ],
    [
        "1_2",
        "XY",
        "590",
        3236.5788664263687,
        18.16047886627346,
        0.06922553110725538,
        0.00044411291569985387
    ],
    [
        "1_2",
        "XY",
        "611",
        3213.2099197228245,
        16.183838141735357,
        0.07877238142792335,
        0.000451530650968886
    ],
    [
        "1_2",
        "XY",
        "643",
        3235.768816140721,
        18.13225535198574,
        0.07239219058525578,
        0.0004561531288213759
    ],
    [
        "1_2",
        "XY",
        "664",
        3245.341259578464,
        16.702932595199247,
        0.0754180374087918,
        0.0004436595979977998
    ],
    [
        "1_2",
        "XY",
        "685",
        3194.8277323662196,
        19.139598107885735,
        0.0661033516764335,
        0.00044794955330349704
    ],
    [
        "1_2",
        "XY",
        "706",
        3249.557910168218,
        17.542922210626944,
        0.07227557642943946,
        0.00044039299623543286
    ],
    [
        "1_2",
        "XY",
        "727",
        3239.561238099896,
        17.666261438734352,
        0.06873042181120091,
        0.00042458821132564263
    ],
    [
        "1_2",
        "XY",
        "748",
        3227.285848763146,
        16.3953127470547,
        0.07897839918688718,
        0.00045368043184491
    ],
    [
        "1_2",
        "XY",
        "769",
        3222.83823355019,
        18.248454478267142,
        0.06305909602117514,
        0.000403406200284963
    ],
    [
        "1_2",
        "XY",
        "790",
        3232.3213356746755,
        16.684756598813856,
        0.07215065234766452,
        0.0004225227568531248
    ],
    [
        "1_2",
        "XY",
        "822",
        3261.906585571995,
        17.68342458960724,
        0.07336231437603745,
        0.0004524244691107132
    ],
    [
        "1_2",
        "XY",
        "843",
        3239.1375055673757,
        17.22743340128152,
        0.0745677831251212,
        0.0004496252414759942
    ],
    [
        "1_2",
        "XY",
        "864",
        3253.2965582292245,
        17.12611948464702,
        0.06900844732394423,
        0.0004116098988351185
    ],
    [
        "1_2",
        "XY",
        "885",
        3219.4683648202645,
        16.228041309154747,
        0.08150926773791234,
        0.00047298778135898095
    ],
    [
        "1_2",
        "XY",
        "906",
        3216.390579194223,
        18.612685942635576,
        0.06811128612755668,
        0.000445937630349743
    ],
    [
        "1_2",
        "XY",
        "927",
        3244.5142273171614,
        16.93149711160045,
        0.07732159089845353,
        0.0004584853538572124
    ],
    [
        "1_2",
        "XY",
        "948",
        3233.9850565079296,
        19.435576571422747,
        0.06810381411792375,
        0.0004659761215389325
    ],
    [
        "1_2",
        "XY",
        "969",
        3235.0789414413825,
        17.062372032761917,
        0.07616598409442606,
        0.00046178856455556503
    ],
    [
        "1_2",
        "XY",
        "1018",
        3233.2811598136805,
        17.23739577693247,
        0.07449606739808254,
        0.00044966001876592295
    ],
    [
        "1_2",
        "XY",
        "1039",
        3225.879145357409,
        17.38971319601972,
        0.07923790306649293,
        0.00048694442569231474
    ],
    [
        "1_2",
        "XY",
        "1060",
        3242.0078454508307,
        17.870474843053547,
        0.0702987779940193,
        0.0004442350325577783
    ],
    [
        "1_2",
        "XY",
        "1081",
        3242.9894998011396,
        16.351540362389002,
        0.07660574735124932,
        0.0004404682860648451
    ],
    [
        "1_2",
        "XY",
        "1102",
        3208.4300339184715,
        17.197134041111187,
        0.06954806536585201,
        0.00042430513948072193
    ],
    [
        "1_2",
        "XY",
        "1123",
        3232.5060180687624,
        16.884225033129557,
        0.07549021034600467,
        0.0004483522300868745
    ],
    [
        "1_2",
        "XY",
        "1144",
        3222.9918682806806,
        17.050724798847813,
        0.07001503168440397,
        0.0004163974059500806
    ],
    [
        "1_2",
        "XY",
        "1165",
        3217.042960839285,
        15.902578419493807,
        0.08007511183971883,
        0.00045022745065895003
    ],
    [
        "1_2",
        "XY",
        "1197",
        3223.2962517060805,
        17.556019415674637,
        0.07254721817330718,
        0.0004503185419581984
    ],
    [
        "1_2",
        "XY",
        "1218",
        3233.121869493626,
        17.53833153842538,
        0.07977645815285424,
        0.0004883951648874302
    ],
    [
        "1_2",
        "XY",
        "1239",
        3219.8380722457327,
        18.003466264423338,
        0.07018844032426749,
        0.00044726443740814606
    ],
    [
        "1_2",
        "XY",
        "1260",
        3239.2537978923433,
        15.012956443522192,
        0.0783938133420837,
        0.0004141563408884075
    ],
    [
        "1_2",
        "XY",
        "1281",
        3210.210148857428,
        17.228862830802925,
        0.0721695194805005,
        0.00044158961004351314
    ],
    [
        "1_2",
        "XY",
        "1302",
        3221.1315961668806,
        15.968929905713818,
        0.08073942674096274,
        0.0004587937175667185
    ],
    [
        "1_2",
        "XY",
        "1323",
        3233.5932613163304,
        19.03929418716153,
        0.0657442314851705,
        0.0004422017420221899
    ],
    [
        "1_2",
        "XY",
        "1344",
        3232.8397395964785,
        18.388255110426314,
        0.07543366491612626,
        0.00048570941158223007
    ],
    [
        "1_2",
        "XY",
        "1376",
        3233.3834768558304,
        18.637898329629508,
        0.0711595353247597,
        0.00046826377571864585
    ],
    [
        "1_2",
        "XY",
        "1397",
        3224.298166665032,
        18.299794446234152,
        0.07875336686044639,
        0.0005081338698294269
    ],
    [
        "1_2",
        "XY",
        "1418",
        3231.4347938215064,
        17.426365092916072,
        0.07220027704147747,
        0.00044561990241582665
    ],
    [
        "1_2",
        "XY",
        "1439",
        3236.6435485997636,
        16.193404670618182,
        0.07533074017988399,
        0.0004311014254594922
    ],
    [
        "1_2",
        "XY",
        "1460",
        3226.917622775818,
        18.674887809049476,
        0.06970283201682796,
        0.00045881589920604616
    ],
    [
        "1_2",
        "XY",
        "1481",
        3224.6778666386394,
        16.524137907944137,
        0.07718578394237181,
        0.00045096152806472546
    ],
    [
        "1_2",
        "XY",
        "1502",
        3230.3650049925664,
        18.369462430020942,
        0.06836544946884791,
        0.0004403925279466428
    ],
    [
        "1_2",
        "XY",
        "1523",
        3227.9126990180857,
        17.788374609575037,
        0.07296275304344946,
        0.00045588829947478936
    ],
    [
        "1_2",
        "XY",
        "1555",
        3245.3524394256115,
        17.897836240132143,
        0.07206246962136528,
        0.0004525800982500644
    ],
    [
        "1_2",
        "XY",
        "1576",
        3273.5167468518694,
        17.919361166686528,
        0.068117121581987,
        0.0004226033129892146
    ],
    [
        "1_2",
        "XY",
        "1597",
        3239.0177173302673,
        17.808737052202247,
        0.06975610202926026,
        0.0004363530054146327
    ],
    [
        "1_2",
        "XY",
        "1618",
        3242.8896050665307,
        17.785216163954864,
        0.07488700361562678,
        0.00046466823725107534
    ],
    [
        "1_2",
        "XY",
        "1639",
        3235.5518429209515,
        16.31523819453947,
        0.07838686433850611,
        0.00044883555668923857
    ],
    [
        "1_2",
        "XY",
        "1660",
        3223.087943168106,
        15.690680571437452,
        0.08228108269237998,
        0.0004534793220853942
    ],
    [
        "1_2",
        "XY",
        "1681",
        3232.065959953553,
        17.232462521376938,
        0.07470315748214426,
        0.0004550340510442461
    ],
    [
        "1_2",
        "XY",
        "1702",
        3217.847943075731,
        14.839499849631363,
        0.08143463218738506,
        0.0004234088608727021
    ],
    [
        "1_2",
        "XY",
        "1734",
        3231.3729941149086,
        18.748964521481774,
        0.07322061975985251,
        0.0004812751414773903
    ],
    [
        "1_2",
        "XY",
        "1755",
        3239.4871505015285,
        17.644277081256924,
        0.07380374951123765,
        0.00045887881005513817
    ],
    [
        "1_2",
        "XY",
        "1776",
        3224.3117421956867,
        18.67375570524002,
        0.07402481421046085,
        0.00048242605580513687
    ],
    [
        "1_2",
        "XY",
        "1797",
        3215.9523521261453,
        17.416876132867035,
        0.08145315996606786,
        0.0005048878334879579
    ],
    [
        "1_2",
        "XY",
        "1818",
        3232.2505197154464,
        16.772694033103416,
        0.07441595136874182,
        0.0004365664215070303
    ],
    [
        "1_2",
        "XY",
        "1839",
        3290.60653048033,
        18.976281165851525,
        0.06511553301131848,
        0.0004269775619471022
    ],
    [
        "1_2",
        "XY",
        "1860",
        3225.8857969455617,
        17.739900848664817,
        0.07659850735840588,
        0.0004763108662501126
    ],
    [
        "1_2",
        "XY",
        "1881",
        3223.6370502865584,
        17.666115838152518,
        0.07999118450823782,
        0.0004997387294689893
    ],
    [
        "1_2",
        "XY",
        "1916",
        3235.824882678256,
        17.173717929749884,
        0.07426694840984081,
        0.0004442749433997771
    ],
    [
        "1_2",
        "XY",
        "1937",
        3235.8154945586853,
        18.138971288543438,
        0.07273243063237082,
        0.0004615674317974061
    ],
    [
        "1_2",
        "XY",
        "1958",
        3231.2862622418247,
        19.260479325505635,
        0.07145730019809525,
        0.0004844362370943399
    ],
    [
        "1_2",
        "XY",
        "1979",
        3235.633901567235,
        17.489834788328086,
        0.07708826522565648,
        0.00047009666330633014
    ],
    [
        "1_2",
        "XY",
        "2000",
        3207.41709994132,
        18.30435161939745,
        0.07671203252754638,
        0.0004931527746028673
    ],
    [
        "1_2",
        "XY",
        "2021",
        3225.8443772013707,
        16.779066873650905,
        0.08024413118381804,
        0.00047210548559565863
    ],
    [
        "1_2",
        "XY",
        "2042",
        3216.482027100973,
        17.398027145703697,
        0.07518147109436688,
        0.00046669175867292763
    ],
    [
        "1_2",
        "XY",
        "2063",
        3218.779876954489,
        18.109205091870408,
        0.07964045429483974,
        0.0005111379176992813
    ],
    [
        "1_2",
        "XY",
        "2095",
        3237.1450566152357,
        19.272223315352598,
        0.07322772958389624,
        0.0004985346266449675
    ],
    [
        "1_2",
        "XY",
        "2116",
        3215.8331477286097,
        17.858468739369307,
        0.07697596131330016,
        0.000490236632851523
    ],
    [
        "1_2",
        "XY",
        "2137",
        3213.669594382411,
        17.272354396330076,
        0.07282830555800424,
        0.0004422116226731327
    ],
    [
        "1_2",
        "XY",
        "2158",
        3223.9416666621955,
        15.689971219509815,
        0.07958677175337271,
        0.0004348268328368274
    ],
    [
        "1_2",
        "XY",
        "2179",
        3248.592518871552,
        17.211847386768046,
        0.07397305093035762,
        0.0004477430801196843
    ],
    [
        "1_2",
        "XY",
        "2200",
        3227.2478056530854,
        16.993051770125504,
        0.08108937745637128,
        0.0004771805678095454
    ],
    [
        "1_2",
        "XY",
        "2221",
        3213.8723176058247,
        17.450123089592026,
        0.07645115774646756,
        0.00046873468606013676
    ],
    [
        "1_2",
        "XY",
        "2242",
        3222.5361410092573,
        17.217544435882754,
        0.07967557602231132,
        0.00048258113385547986
    ],
    [
        "1_2",
        "XY",
        "2274",
        3240.214672793138,
        17.29415096921018,
        0.07518536598839379,
        0.0004516035543534936
    ],
    [
        "1_2",
        "XY",
        "2295",
        3219.1253022438264,
        17.4662287747562,
        0.08125821196349502,
        0.0004989049923107678
    ],
    [
        "1_2",
        "XY",
        "2316",
        3222.100985806943,
        15.085173612123993,
        0.07426496437539845,
        0.00039362623873561407
    ],
    [
        "1_2",
        "XY",
        "2337",
        3240.2472758976674,
        16.881684254857003,
        0.07838719325118611,
        0.0004607659936250283
    ],
    [
        "1_2",
        "XY",
        "2358",
        3245.6713017397037,
        17.567484599007255,
        0.07321769665631046,
        0.00044511200918026706
    ],
    [
        "1_2",
        "XY",
        "2379",
        3223.198689355243,
        17.3726682295763,
        0.07957508400943682,
        0.00048704988511591804
    ],
    [
        "1_2",
        "XY",
        "2400",
        3208.373070097957,
        17.662295231977364,
        0.07238554953732915,
        0.0004497744340739856
    ],
    [
        "1_2",
        "XY",
        "2421",
        3237.7659694915283,
        16.960319329920043,
        0.07827599842275516,
        0.00046452788921797313
    ],
    [
        "1_2",
        "XY",
        "2453",
        3224.074237471343,
        16.57908309980809,
        0.07717148802389447,
        0.0004504316759954502
    ],
    [
        "1_2",
        "XY",
        "2474",
        3213.9655159867184,
        16.630168548199375,
        0.08250040130277266,
        0.0004846008199337468
    ],
    [
        "1_2",
        "XY",
        "2495",
        3217.149244974315,
        17.58936300533397,
        0.07429115063487131,
        0.0004582649012747081
    ],
    [
        "1_2",
        "XY",
        "2516",
        3232.4986377047935,
        17.40182777851513,
        0.07999081581789676,
        0.0004928514379875382
    ],
    [
        "1_2",
        "XY",
        "2537",
        3226.0593078220804,
        18.515149603564467,
        0.07549433994194331,
        0.0004923952410968073
    ],
    [
        "1_2",
        "XY",
        "2558",
        3239.672675218416,
        16.276214259587636,
        0.08312399128311977,
        0.000474335467426571
    ],
    [
        "1_2",
        "XY",
        "2579",
        3240.3546371144093,
        16.90024677849498,
        0.07683091760113861,
        0.0004582098526744885
    ],
    [
        "1_2",
        "XY",
        "2600",
        3219.4384503880633,
        16.865337469981167,
        0.08200539419967585,
        0.0004884685857349093
    ],
    [
        "1_2",
        "XY",
        "2632",
        3223.1091605501697,
        17.82432793616055,
        0.07590551892682869,
        0.00048037708855657655
    ],
    [
        "1_2",
        "XY",
        "2653",
        3225.818498997814,
        16.76659219329005,
        0.07839190775519306,
        0.00046417279185938714
    ],
    [
        "1_2",
        "XY",
        "2674",
        3240.1271461748897,
        17.60858332624358,
        0.07485233997402646,
        0.0004607197598684809
    ],
    [
        "1_2",
        "XY",
        "2695",
        3229.63212267614,
        17.514672393169107,
        0.08330882173799779,
        0.0005150257891682835
    ],
    [
        "1_2",
        "XY",
        "2716",
        3236.0182996486997,
        17.36849656893461,
        0.07085112768277438,
        0.00042652323906361547
    ],
    [
        "1_2",
        "XY",
        "2737",
        3217.7852938965216,
        16.631854899773224,
        0.07984808561613763,
        0.0004687396767888414
    ],
    [
        "1_2",
        "XY",
        "2758",
        3220.238535608932,
        17.565764660625288,
        0.07269406099382249,
        0.0004529563355423069
    ],
    [
        "1_2",
        "XY",
        "2779",
        3212.410233005528,
        19.026911606563665,
        0.07899842686524658,
        0.0005252725943449846
    ],
    [
        "1_2",
        "XY",
        "2818",
        3242.5669626666017,
        18.23840716366862,
        0.07638973734357613,
        0.0004926657241865601
    ],
    [
        "1_2",
        "XY",
        "2839",
        3228.7983984581606,
        16.496578037391725,
        0.08158198894310092,
        0.0004729901030917325
    ],
    [
        "1_2",
        "XY",
        "2860",
        3213.043513850483,
        18.233845203548753,
        0.07593875702811138,
        0.0004913411263383174
    ],
    [
        "1_2",
        "XY",
        "2881",
        3230.123902932457,
        16.6082183639322,
        0.08171653637010613,
        0.00047507792877254256
    ],
    [
        "1_2",
        "XY",
        "2902",
        3222.1423674044963,
        18.378372001721225,
        0.07638194058712444,
        0.0004939325153470229
    ],
    [
        "1_2",
        "XY",
        "2923",
        3243.809945745983,
        16.916683882329586,
        0.08091852341613356,
        0.0004828995668578039
    ],
    [
        "1_2",
        "XY",
        "2944",
        3235.034957742369,
        16.96439862522413,
        0.07298784219085513,
        0.00043290893274082666
    ],
    [
        "1_2",
        "XY",
        "2965",
        3223.5928893320047,
        16.035577576948484,
        0.0770996946172412,
        0.00043429177744424327
    ],
    [
        "1_2",
        "XY",
        "2997",
        3229.8266147039017,
        16.806906771296752,
        0.07334350280944488,
        0.0004341207774210385
    ],
    [
        "1_2",
        "XY",
        "3018",
        3229.9856218113127,
        16.09165561630959,
        0.07807780695651065,
        0.0004449157031757311
    ],
    [
        "1_2",
        "XY",
        "3039",
        3221.9860929807587,
        17.799252040967772,
        0.07093972184680722,
        0.00044240537456473816
    ],
    [
        "1_2",
        "XY",
        "3060",
        3229.2276526221194,
        18.411550405226627,
        0.07680093292698376,
        0.0004975650307352104
    ],
    [
        "1_2",
        "XY",
        "3081",
        3234.1312417981394,
        17.407650864214226,
        0.07366850760675724,
        0.00044834128629312294
    ],
    [
        "1_2",
        "XY",
        "3102",
        3228.890127744066,
        16.813576056522507,
        0.07982881633819225,
        0.0004710894627461027
    ],
    [
        "1_2",
        "XY",
        "3123",
        3217.3125588565786,
        17.67771412213602,
        0.07681666085775603,
        0.00047711831315812195
    ],
    [
        "1_2",
        "XY",
        "3144",
        3215.8088478823997,
        16.229286183064545,
        0.08245113391170134,
        0.0004679067343060233
    ]
]