[
    [
        "XscanNumber_YscanNumber",
        "Type",
        "BCID",
        "xsec",
        "xsecErr",
        "SBIL",
        "SBILErr"
    ],
    [
        "1_2",
        "XY",
        "103",
        132.95632839824475,
        0.8816499872558132,
        0.07316016933125905,
        0.0005522311462635812
    ],
    [
        "1_2",
        "XY",
        "124",
        132.82292283374338,
        0.876657035017994,
        0.08112138925392015,
        0.0006079334761079049
    ],
    [
        "1_2",
        "XY",
        "145",
        133.09271496083414,
        1.0164991749334908,
        0.0653883798732346,
        0.0005680268191322389
    ],
    [
        "1_2",
        "XY",
        "166",
        133.20666970382825,
        0.8763568253838173,
        0.0768084469221057,
        0.0005761766574704254
    ],
    [
        "1_2",
        "XY",
        "187",
        131.75020623379515,
        1.0641075966410602,
        0.06659678029920309,
        0.0006098903362132395
    ],
    [
        "1_2",
        "XY",
        "208",
        132.491924658881,
        0.8594521870501332,
        0.07622075505498137,
        0.00056295049606795
    ],
    [
        "1_2",
        "XY",
        "229",
        132.54092939686393,
        0.829022788483637,
        0.07113545368620615,
        0.0005016954081659249
    ],
    [
        "1_2",
        "XY",
        "250",
        132.37922835626384,
        0.9061229686729776,
        0.0797744642769922,
        0.0006190024434925165
    ],
    [
        "1_2",
        "XY",
        "282",
        133.93495824387884,
        0.9136648254390074,
        0.07331856751197408,
        0.0005696594649641773
    ],
    [
        "1_2",
        "XY",
        "303",
        133.07908577718024,
        0.992147313163269,
        0.08018421722497406,
        0.0006841718879269859
    ],
    [
        "1_2",
        "XY",
        "324",
        132.02298946070977,
        0.8888860414765467,
        0.07265577658889144,
        0.0005561481108281292
    ],
    [
        "1_2",
        "XY",
        "345",
        132.95292680984812,
        0.8308269044570628,
        0.0833679071811605,
        0.0005998587318333266
    ],
    [
        "1_2",
        "XY",
        "366",
        132.62140677050436,
        0.8886344175805923,
        0.07410587935841324,
        0.0005614590066744526
    ],
    [
        "1_2",
        "XY",
        "387",
        132.96849719969853,
        0.885810934722183,
        0.08268572242335362,
        0.0006282654538675967
    ],
    [
        "1_2",
        "XY",
        "408",
        131.7676289746619,
        0.9101105950767161,
        0.06992122332766153,
        0.0005487882877098176
    ],
    [
        "1_2",
        "XY",
        "429",
        132.59046604631686,
        0.8615447603565588,
        0.07976281125065281,
        0.0005888429993368956
    ],
    [
        "1_2",
        "XY",
        "464",
        132.17794892717444,
        0.9174788612095621,
        0.07452607403053912,
        0.0005827387338090475
    ],
    [
        "1_2",
        "XY",
        "485",
        133.46013298269935,
        0.8688802520673639,
        0.07759456059098807,
        0.0005767205181519604
    ],
    [
        "1_2",
        "XY",
        "506",
        132.73195392119462,
        0.9154493064231538,
        0.06731025002220953,
        0.0005299730074915104
    ],
    [
        "1_2",
        "XY",
        "527",
        133.34081735050307,
        0.8935081885905239,
        0.07465731156971428,
        0.0005706472187057233
    ],
    [
        "1_2",
        "XY",
        "548",
        133.1363772233189,
        0.9430872450007192,
        0.07252025770005774,
        0.0005795824864727855
    ],
    [
        "1_2",
        "XY",
        "569",
        132.91594636655267,
        0.8263617948456321,
        0.0811772726525566,
        0.0005771308905512091
    ],
    [
        "1_2",
        "XY",
        "590",
        132.4681483325959,
        0.9064287895675951,
        0.07034804101969705,
        0.0005453002056556899
    ],
    [
        "1_2",
        "XY",
        "611",
        132.18074034757342,
        0.828425571090687,
        0.07957570685145464,
        0.0005658830680180579
    ],
    [
        "1_2",
        "XY",
        "643",
        133.66468917957695,
        0.8958946219869696,
        0.07277120475118944,
        0.0005570228569232213
    ],
    [
        "1_2",
        "XY",
        "664",
        132.93730174357512,
        0.9181021079536934,
        0.07702208666018355,
        0.0006036425194380348
    ],
    [
        "1_2",
        "XY",
        "685",
        132.4981718323894,
        1.0439916212797846,
        0.06673543117226956,
        0.0006004480754922986
    ],
    [
        "1_2",
        "XY",
        "706",
        133.84959249839204,
        0.9110109910141796,
        0.07279779733002495,
        0.0005560263000940621
    ],
    [
        "1_2",
        "XY",
        "727",
        132.50500111210954,
        0.8943059938405308,
        0.0698414090383479,
        0.0005410862874713756
    ],
    [
        "1_2",
        "XY",
        "748",
        131.73441740689813,
        0.8931910013331001,
        0.08119992804065285,
        0.000628459499299026
    ],
    [
        "1_2",
        "XY",
        "769",
        131.85417300862056,
        0.9085277976926719,
        0.0640512321183891,
        0.000501023745842525
    ],
    [
        "1_2",
        "XY",
        "790",
        132.77552337699524,
        0.8495287165716157,
        0.07320544087082029,
        0.0005299711047301451
    ],
    [
        "1_2",
        "XY",
        "822",
        133.01901573281626,
        0.9272519273702334,
        0.0749824662550512,
        0.0005973273829786875
    ],
    [
        "1_2",
        "XY",
        "843",
        133.43584025864976,
        0.9060673815262784,
        0.07588229296069218,
        0.0005899371772875223
    ],
    [
        "1_2",
        "XY",
        "864",
        133.10724089813596,
        0.9444475641455896,
        0.07044291457964016,
        0.0005649614244901554
    ],
    [
        "1_2",
        "XY",
        "885",
        132.0631133872705,
        0.8766534828596768,
        0.0830919357775969,
        0.0006280638629972142
    ],
    [
        "1_2",
        "XY",
        "906",
        132.89507540166852,
        0.8748740252039942,
        0.06866775333634541,
        0.0005157589092756965
    ],
    [
        "1_2",
        "XY",
        "927",
        132.4812638459373,
        0.8239445883974698,
        0.07905595927780087,
        0.0005573094074089229
    ],
    [
        "1_2",
        "XY",
        "948",
        131.60543303808498,
        0.9628041732197284,
        0.07017022177282328,
        0.0005891581203930006
    ],
    [
        "1_2",
        "XY",
        "969",
        132.36559607112542,
        0.870504042340281,
        0.0782706821976529,
        0.000581314623807548
    ],
    [
        "1_2",
        "XY",
        "1018",
        132.30066580482472,
        0.8789326862596403,
        0.07580551029063189,
        0.00057237686212724
    ],
    [
        "1_2",
        "XY",
        "1039",
        133.03710844846756,
        0.8232535704356437,
        0.08051150794436468,
        0.0005635114636902539
    ],
    [
        "1_2",
        "XY",
        "1060",
        133.05077406372504,
        0.9160698045929422,
        0.07159404554166807,
        0.0005585375216271449
    ],
    [
        "1_2",
        "XY",
        "1081",
        132.83691394608513,
        0.8280039068926213,
        0.07809098456088286,
        0.0005537786371483273
    ],
    [
        "1_2",
        "XY",
        "1102",
        131.97950601784916,
        0.9767632789175571,
        0.07039617281940888,
        0.000594574208315383
    ],
    [
        "1_2",
        "XY",
        "1123",
        132.9489773581559,
        0.8283727650523033,
        0.07666255885250904,
        0.0005445432951311963
    ],
    [
        "1_2",
        "XY",
        "1144",
        132.57456692284154,
        0.9100378050972974,
        0.07056333892441201,
        0.0005494829437496939
    ],
    [
        "1_2",
        "XY",
        "1165",
        132.56634158878444,
        0.8549378106843499,
        0.08090545511195163,
        0.0005972439044428791
    ],
    [
        "1_2",
        "XY",
        "1197",
        132.03599584546313,
        0.958096168594312,
        0.07408484166670645,
        0.0006122115291158587
    ],
    [
        "1_2",
        "XY",
        "1218",
        132.72773842457693,
        0.8388089484236594,
        0.08091133168953397,
        0.0005822988338210002
    ],
    [
        "1_2",
        "XY",
        "1239",
        132.69312268746378,
        0.941423643071111,
        0.07077549892166009,
        0.0005733720856243082
    ],
    [
        "1_2",
        "XY",
        "1260",
        133.5462765372631,
        0.8757284065063079,
        0.07949095873378996,
        0.0005970104377704222
    ],
    [
        "1_2",
        "XY",
        "1281",
        132.58305715226143,
        0.8935993232931843,
        0.07252901475531606,
        0.0005506866042990584
    ],
    [
        "1_2",
        "XY",
        "1302",
        133.35980512967592,
        0.8392702105809363,
        0.08094733327701698,
        0.0005829457157891574
    ],
    [
        "1_2",
        "XY",
        "1323",
        132.59790756766617,
        0.9980232825204447,
        0.06705064196028292,
        0.0005789886192306149
    ],
    [
        "1_2",
        "XY",
        "1344",
        132.7623324985838,
        0.9752294465093803,
        0.07706494079367229,
        0.0006405041021259239
    ],
    [
        "1_2",
        "XY",
        "1376",
        132.50427277842633,
        0.9949229880188555,
        0.07264282877846027,
        0.0006139445075619803
    ],
    [
        "1_2",
        "XY",
        "1397",
        134.01691721012338,
        0.933925327274205,
        0.07904782170038836,
        0.0006243791286506021
    ],
    [
        "1_2",
        "XY",
        "1418",
        132.38475781433075,
        0.9460945464987676,
        0.07340224331998073,
        0.0005953149733540668
    ],
    [
        "1_2",
        "XY",
        "1439",
        132.9453711990495,
        0.8574081742066659,
        0.07675304038311748,
        0.0005547316235348938
    ],
    [
        "1_2",
        "XY",
        "1460",
        132.6252193944939,
        0.9509226778019607,
        0.07054739639053309,
        0.0005771274008640197
    ],
    [
        "1_2",
        "XY",
        "1481",
        131.67698397584772,
        0.8594678185697707,
        0.07867043577236613,
        0.0005843184403811159
    ],
    [
        "1_2",
        "XY",
        "1502",
        132.2685716973204,
        0.9450770690722277,
        0.06999572213507452,
        0.0005656540036614542
    ],
    [
        "1_2",
        "XY",
        "1523",
        133.04178334237147,
        0.8604301174352066,
        0.07301071643285671,
        0.0005345733257343119
    ],
    [
        "1_2",
        "XY",
        "1555",
        133.92217288681906,
        0.8448183871741852,
        0.0720008675894654,
        0.0005133186780754841
    ],
    [
        "1_2",
        "XY",
        "1576",
        133.6158281710864,
        0.987027774299519,
        0.07015968962917998,
        0.0005871136961536127
    ],
    [
        "1_2",
        "XY",
        "1597",
        133.86949866920352,
        0.9112589249184393,
        0.07054587791953724,
        0.0005467091901588232
    ],
    [
        "1_2",
        "XY",
        "1618",
        132.87071723299405,
        0.8724706388589151,
        0.07570450382410712,
        0.0005626507095328068
    ],
    [
        "1_2",
        "XY",
        "1639",
        132.30686825513203,
        0.9324070540910351,
        0.0798567339085882,
        0.0006396623647754001
    ],
    [
        "1_2",
        "XY",
        "1660",
        133.08350584038115,
        0.8331470398432455,
        0.08323539992116426,
        0.0005900996994458236
    ],
    [
        "1_2",
        "XY",
        "1681",
        132.075704882665,
        0.9436053365884498,
        0.07608818499468008,
        0.0006184509751058677
    ],
    [
        "1_2",
        "XY",
        "1702",
        132.31450147689617,
        0.84666422124336,
        0.0823367357621923,
        0.0006020425767483404
    ],
    [
        "1_2",
        "XY",
        "1734",
        133.97699921178892,
        0.8830704516300714,
        0.07279416340657174,
        0.0005440661295132691
    ],
    [
        "1_2",
        "XY",
        "1755",
        132.82446347369756,
        0.8909762311998299,
        0.07462575626832604,
        0.0005633800728458347
    ],
    [
        "1_2",
        "XY",
        "1776",
        133.40376618180133,
        0.8874926919332751,
        0.07397260535227022,
        0.0005544493124509412
    ],
    [
        "1_2",
        "XY",
        "1797",
        132.61283129021808,
        0.9091369343064096,
        0.0824921558237947,
        0.0006485338690143932
    ],
    [
        "1_2",
        "XY",
        "1818",
        133.01466626087083,
        0.8733282526965854,
        0.07550019228717049,
        0.0005609077921817726
    ],
    [
        "1_2",
        "XY",
        "1839",
        135.13523303703326,
        0.8957594216679332,
        0.06579471894329834,
        0.0004947959698513103
    ],
    [
        "1_2",
        "XY",
        "1860",
        132.42354944761087,
        0.9275616951797301,
        0.07780643197063877,
        0.0006191193008498197
    ],
    [
        "1_2",
        "XY",
        "1881",
        133.07576007402383,
        0.8551318606271201,
        0.0806513735395507,
        0.0005871095863442615
    ],
    [
        "1_2",
        "XY",
        "1916",
        133.15603885409362,
        0.8782863035190107,
        0.07480514949323908,
        0.0005622262574290593
    ],
    [
        "1_2",
        "XY",
        "1937",
        133.82311755746034,
        0.8580565153166005,
        0.07310951949993356,
        0.0005315888239804574
    ],
    [
        "1_2",
        "XY",
        "1958",
        132.5226919223288,
        0.9199256276629455,
        0.07201117884984078,
        0.0005672641524722642
    ],
    [
        "1_2",
        "XY",
        "1979",
        133.5565021542728,
        0.8990459926414358,
        0.07789797444797718,
        0.0005988503771106961
    ],
    [
        "1_2",
        "XY",
        "2000",
        132.11003015084856,
        0.8701543581050454,
        0.07733204960552592,
        0.0005789694741718871
    ],
    [
        "1_2",
        "XY",
        "2021",
        132.64051681368264,
        0.8526545490110669,
        0.08114975169559664,
        0.0005924056070435998
    ],
    [
        "1_2",
        "XY",
        "2042",
        132.57745050163666,
        0.8357376682425068,
        0.07508872098887279,
        0.0005352090298585391
    ],
    [
        "1_2",
        "XY",
        "2063",
        132.2323790071179,
        0.9083550182292078,
        0.08117204146466336,
        0.0006325899032911858
    ],
    [
        "1_2",
        "XY",
        "2095",
        132.2222657454184,
        0.9522813401456041,
        0.07473129563201299,
        0.0006089634485213121
    ],
    [
        "1_2",
        "XY",
        "2116",
        132.1468456559022,
        0.9185768875799719,
        0.07826439062821926,
        0.0006180057848059399
    ],
    [
        "1_2",
        "XY",
        "2137",
        132.67280835449859,
        0.8813834098795394,
        0.07356156860976848,
        0.0005560371283238134
    ],
    [
        "1_2",
        "XY",
        "2158",
        132.65709790924862,
        0.8548374079378123,
        0.08002858254004203,
        0.000587317966480286
    ],
    [
        "1_2",
        "XY",
        "2179",
        133.34171988089406,
        0.9063176718466551,
        0.07498184004106415,
        0.0005824602330939121
    ],
    [
        "1_2",
        "XY",
        "2200",
        132.4908517658964,
        0.8421166954178919,
        0.08253720650035652,
        0.0005942176482769697
    ],
    [
        "1_2",
        "XY",
        "2221",
        132.9284747928596,
        0.8944804420295408,
        0.07599333902347553,
        0.000581775143078833
    ],
    [
        "1_2",
        "XY",
        "2242",
        132.523156738899,
        0.8810160783074485,
        0.08072832281885374,
        0.0006153980935815155
    ],
    [
        "1_2",
        "XY",
        "2274",
        132.7284426992829,
        0.8845133915209448,
        0.07638671189558355,
        0.0005794663611665801
    ],
    [
        "1_2",
        "XY",
        "2295",
        132.14146781209206,
        0.8381136351054526,
        0.08197769322440439,
        0.0005897655657822766
    ],
    [
        "1_2",
        "XY",
        "2316",
        132.42130152993755,
        0.8401994084681045,
        0.07570726568768672,
        0.0005459014012462132
    ],
    [
        "1_2",
        "XY",
        "2337",
        132.29134913818487,
        0.8260638358482246,
        0.07997815007347615,
        0.0005686829224069455
    ],
    [
        "1_2",
        "XY",
        "2358",
        133.40373668047405,
        0.8847301365582044,
        0.0738142638294178,
        0.0005566557603862823
    ],
    [
        "1_2",
        "XY",
        "2379",
        132.0617820325163,
        0.8413864669928822,
        0.08099498760885666,
        0.0005816709133610099
    ],
    [
        "1_2",
        "XY",
        "2400",
        131.76762094032608,
        0.958218486730044,
        0.0729941662698786,
        0.0006042534292279088
    ],
    [
        "1_2",
        "XY",
        "2421",
        133.1884574468242,
        0.8266840232851465,
        0.07935487204030094,
        0.0005625567779704865
    ],
    [
        "1_2",
        "XY",
        "2453",
        131.983662630631,
        0.9008954871614314,
        0.07877037064491473,
        0.0006093479460423821
    ],
    [
        "1_2",
        "XY",
        "2474",
        132.31185078447058,
        0.8200512730846772,
        0.08336628336167295,
        0.0005883438504536401
    ],
    [
        "1_2",
        "XY",
        "2495",
        133.194063257716,
        0.9037149610728344,
        0.07461533686738595,
        0.0005794831586574849
    ],
    [
        "1_2",
        "XY",
        "2516",
        133.1186623369945,
        0.881022280111907,
        0.08102824406218806,
        0.0006090173832909975
    ],
    [
        "1_2",
        "XY",
        "2537",
        132.53717114319505,
        0.9040588264751905,
        0.07686911884945515,
        0.0006012762491192292
    ],
    [
        "1_2",
        "XY",
        "2558",
        131.91102833025843,
        0.8799912549030587,
        0.08509674529605178,
        0.0006494218365252169
    ],
    [
        "1_2",
        "XY",
        "2579",
        132.58533544646127,
        0.9139664027670547,
        0.07884156057443578,
        0.0006233734110713399
    ],
    [
        "1_2",
        "XY",
        "2600",
        133.09363170318446,
        0.8820647658823465,
        0.08257586490288757,
        0.0006220744537197169
    ],
    [
        "1_2",
        "XY",
        "2632",
        132.98619387724213,
        0.9659693127137244,
        0.07622046627231015,
        0.0006363580654457246
    ],
    [
        "1_2",
        "XY",
        "2653",
        132.65945475779807,
        0.8907815700329385,
        0.07955177274368082,
        0.0006077992230550868
    ],
    [
        "1_2",
        "XY",
        "2674",
        131.83437558996502,
        0.877222913420683,
        0.0764531698454952,
        0.000574882676721077
    ],
    [
        "1_2",
        "XY",
        "2695",
        132.5708617172265,
        0.8750989966002107,
        0.08463048050166933,
        0.0006382676755873907
    ],
    [
        "1_2",
        "XY",
        "2716",
        133.75228053764866,
        0.9542125139368197,
        0.07142938779965531,
        0.0005801471491535701
    ],
    [
        "1_2",
        "XY",
        "2737",
        132.70575695772837,
        0.8681836593253786,
        0.08032559606289623,
        0.0006023786771336068
    ],
    [
        "1_2",
        "XY",
        "2758",
        131.10042775527788,
        0.9746614714005563,
        0.07436114702522315,
        0.0006209986861761664
    ],
    [
        "1_2",
        "XY",
        "2779",
        132.43024655082823,
        0.8980550598696607,
        0.07977455358375928,
        0.000615175291974264
    ],
    [
        "1_2",
        "XY",
        "2818",
        132.08538925975822,
        0.8583609784602168,
        0.07799307293964794,
        0.0005725682847321599
    ],
    [
        "1_2",
        "XY",
        "2839",
        132.32302649928118,
        0.8177693696794971,
        0.08265692771112693,
        0.0005796017391212649
    ],
    [
        "1_2",
        "XY",
        "2860",
        132.67761167880113,
        0.8650969533854735,
        0.07629942366720936,
        0.0005689341685374841
    ],
    [
        "1_2",
        "XY",
        "2881",
        132.6232050167422,
        0.813047632528958,
        0.08277214391063813,
        0.0005810528674171196
    ],
    [
        "1_2",
        "XY",
        "2902",
        132.25464576610938,
        0.8352165673100692,
        0.07786608475736574,
        0.0005577507753771304
    ],
    [
        "1_2",
        "XY",
        "2923",
        132.77756819107225,
        0.8115808117976521,
        0.08194251869584557,
        0.0005640911958136503
    ],
    [
        "1_2",
        "XY",
        "2944",
        132.9652307363397,
        0.930095793747754,
        0.07408358819720123,
        0.0005905439193251347
    ],
    [
        "1_2",
        "XY",
        "2965",
        132.8144634534865,
        0.9235874254340931,
        0.07816235869348587,
        0.0006205912923913973
    ],
    [
        "1_2",
        "XY",
        "2997",
        133.34299673407313,
        0.9167759040937974,
        0.07466213575454406,
        0.000588986499598175
    ],
    [
        "1_2",
        "XY",
        "3018",
        132.32192730489902,
        0.8388120577573581,
        0.07933208469487901,
        0.0005781707692465001
    ],
    [
        "1_2",
        "XY",
        "3039",
        131.78905014530798,
        0.9832318111456316,
        0.0721171240469532,
        0.0006096606292264995
    ],
    [
        "1_2",
        "XY",
        "3060",
        132.55882731458183,
        0.890005849264394,
        0.0776161633285433,
        0.0005889328231444469
    ],
    [
        "1_2",
        "XY",
        "3081",
        133.42187024704012,
        0.9459463210608288,
        0.07406465999259321,
        0.0005947982311320458
    ],
    [
        "1_2",
        "XY",
        "3102",
        133.18086672639666,
        0.8809850339934512,
        0.08115185529806526,
        0.0006098954055992226
    ],
    [
        "1_2",
        "XY",
        "3123",
        132.1830822876345,
        0.849790654865014,
        0.07739664367823727,
        0.0005689672036310324
    ],
    [
        "1_2",
        "XY",
        "3144",
        131.60471724164407,
        0.9063345946461949,
        0.08362353427939884,
        0.0006507517370404292
    ]
]