XscanNumber_YscanNumber,Type,BCID,xsec,xsecErr,SBIL,SBILErr
1_2,XY,103,136.22502590709172,0.6403845835254739,0.0692202954978194,0.00038649511854195077
1_2,XY,124,136.75758280803356,0.6438968745758157,0.07604246887981349,0.0004199377091139013
1_2,XY,145,137.0512212772943,0.7270446606979893,0.06120349775944896,0.0003819665528291172
1_2,XY,166,136.73209891980522,0.6567680675409455,0.07223777542809111,0.0004076294131103691
1_2,XY,187,136.2602719674902,0.7368125055805428,0.06179373682775123,0.00039153713862884046
1_2,XY,208,136.18694702472646,0.6621691353561449,0.07154505882677488,0.00040810845975469896
1_2,XY,229,136.46146088316323,0.650286200799212,0.06710596251663062,0.0003715613948497719
1_2,XY,250,136.76342094897709,0.6550590148846205,0.07414593364571584,0.0004149556528367291
1_2,XY,282,136.6416475601783,0.6411655308395423,0.06993415287085546,0.00039061857034067954
1_2,XY,303,136.899356122953,0.6985376239769409,0.07499332207393412,0.00045735620061169
1_2,XY,324,135.3554617414383,0.6471545987845048,0.06852245792240952,0.0003846645211888184
1_2,XY,345,135.87265675403268,0.6305139089901872,0.07854227552663431,0.00043108855856074756
1_2,XY,366,136.4574729975296,0.6610413465371994,0.06965012156596324,0.0003941069411067617
1_2,XY,387,136.8516569933372,0.636468701798907,0.07755119619572542,0.00042664691973154573
1_2,XY,408,135.64973044784915,0.681776052113085,0.06535510340672122,0.0003822560447362479
1_2,XY,429,136.49510553815517,0.6381552605475092,0.07486325000670464,0.00041271127251044613
1_2,XY,464,136.94494785186401,0.662333673451096,0.06936420713877756,0.00039066105198407166
1_2,XY,485,136.43554597603745,0.6515215886948498,0.07378291950511094,0.00041507438809010576
1_2,XY,506,135.8148801697605,0.6869946366274332,0.06363779507576774,0.0003823793135446888
1_2,XY,527,136.47848828855876,0.6589436558119023,0.07062395756048186,0.00040192565475641084
1_2,XY,548,137.1504220026705,0.6689767839490375,0.06826739123696624,0.0003887853518315535
1_2,XY,569,135.63405315132368,0.6297804552796882,0.0772917348045472,0.00042386907087297237
1_2,XY,590,136.31892961379555,0.6575565975807053,0.06610924956943284,0.0003750434511619912
1_2,XY,611,136.43072640823092,0.5980330717606586,0.07466544916585327,0.0003896099414108887
1_2,XY,643,136.639762664744,0.6750183583363966,0.06915523297014496,0.0004041877523418085
1_2,XY,664,136.4324530192332,0.6382971128116603,0.07285939687904752,0.0004038291406249367
1_2,XY,685,136.4877182816405,0.7151827893452513,0.062123420925387175,0.00038724523751839616
1_2,XY,706,136.89926609490425,0.6359340585787454,0.06965788715169108,0.0003785588003060614
1_2,XY,727,135.04132824708316,0.6591837944456138,0.06626213766383615,0.00038132572577873275
1_2,XY,748,135.44041795291682,0.641448402359164,0.07603326884396087,0.0004266990775284604
1_2,XY,769,135.1456642642149,0.6953401854711666,0.06048972802357932,0.0003629347790213912
1_2,XY,790,136.1342988071179,0.6553939408993475,0.06952705064345474,0.00039049020790715944
1_2,XY,822,136.01233704279866,0.6533948444209595,0.07087271837391075,0.0004016286120629387
1_2,XY,843,136.2747805890613,0.6527021750895784,0.07218930551343815,0.00041070771623478444
1_2,XY,864,136.57305244821484,0.6510821971565877,0.06658988606847364,0.0003730779316554162
1_2,XY,885,136.30661968249063,0.6277929691955313,0.07770435631346329,0.0004278773002032366
1_2,XY,906,135.87912758545707,0.693087492540869,0.06511934720738653,0.0003886431149668244
1_2,XY,927,135.65136692425332,0.6174337063972054,0.07521069873802652,0.00040316458545392163
1_2,XY,948,135.01592816022963,0.7043785945175834,0.06570614737503094,0.00040661749210029184
1_2,XY,969,136.81038654778786,0.6368643439881427,0.07304813290836604,0.00039672104793361546
1_2,XY,1018,135.50018203963165,0.6120817717422469,0.07184109212816119,0.00038395261081665855
1_2,XY,1039,135.75015477755008,0.631216447605546,0.07705098932171436,0.00041568617405949877
1_2,XY,1060,136.9905687068903,0.6672297126944867,0.06740092587632131,0.000384462446200507
1_2,XY,1081,135.6422984934348,0.6080605762945012,0.07446925866028377,0.00039198243399266383
1_2,XY,1102,135.43523343793444,0.6905762677722321,0.0660870873639737,0.0003973615261693319
1_2,XY,1123,135.9475136424572,0.6341307702523548,0.07293120486393757,0.0003974277906617487
1_2,XY,1144,135.85584729446026,0.6501366105692581,0.06673842132836343,0.0003733300048444383
1_2,XY,1165,135.6048782837751,0.6398530339839289,0.07636297824747486,0.00042495404104226205
1_2,XY,1197,135.47765768533444,0.6608370302219401,0.06970625507266921,0.00040270061344398054
1_2,XY,1218,135.81399855399704,0.6346699193825894,0.07691532371201255,0.0004210103332675309
1_2,XY,1239,135.63417068902604,0.5137792079114586,0.06718005375539833,0.0003158240684096037
1_2,XY,1260,136.12289013869318,0.6497225904460276,0.07610005569283847,0.00043070550888348123
1_2,XY,1281,135.6528882811642,0.6381200501269534,0.06915559322696593,0.000380603736369545
1_2,XY,1302,136.40236363289458,0.6313136303792906,0.0768096449093562,0.00042037168988612306
1_2,XY,1323,135.62892592508177,0.7245382872148961,0.0632025549659878,0.0003998841078451541
1_2,XY,1344,137.1372676677652,0.6559897006871387,0.07187177023718778,0.00040783197389375974
1_2,XY,1376,136.68577197784143,0.6743815803890304,0.06813913302444019,0.00039390061324847943
1_2,XY,1397,137.8770352315324,0.6534262133751502,0.07437419008673571,0.00041691237944329446
1_2,XY,1418,136.11478839031278,0.6711986281615266,0.06884525351556679,0.00039844036807645225
1_2,XY,1439,136.5842694527441,0.6070640620392103,0.07284988207544296,0.00037624616040223913
1_2,XY,1460,135.71678888151746,0.7003672870205303,0.06657199423492918,0.00040301270477638933
1_2,XY,1481,135.199786652361,0.6649338101068063,0.07403962902825001,0.00042433186469924945
1_2,XY,1502,136.38922564352941,0.6563960201768048,0.06538660769338313,0.0003672907638752341
1_2,XY,1523,135.77688506566756,0.6069969825064441,0.0699097382485763,0.0003710471230695454
1_2,XY,1555,137.09068541874905,0.6328858406103607,0.06872238145140959,0.00037118582099998
1_2,XY,1576,137.6714100174393,0.6912792762004577,0.06578985686881984,0.0003887582492081324
1_2,XY,1597,136.84227504939503,0.6771523573068179,0.06711545731331263,0.0003893543819771677
1_2,XY,1618,136.33851151982586,0.6133157906577917,0.07197064317724444,0.0003861357254655783
1_2,XY,1639,135.96798839805984,0.659235334377171,0.07518176403189336,0.00043009480665342955
1_2,XY,1660,136.35133235038603,0.6120639409297035,0.0790187483398338,0.000414321744006706
1_2,XY,1681,135.56176694934626,0.66927347255495,0.07152356933533986,0.00041616259599073173
1_2,XY,1702,135.39282412502016,0.6391712442768717,0.07801901978198181,0.0004350254341604047
1_2,XY,1734,137.3625460983799,0.6232201974163083,0.06908417944458227,0.00037112997518145316
1_2,XY,1755,136.77155893984224,0.6372758026704213,0.0704540046110223,0.00038627688351486496
1_2,XY,1776,136.80773185849029,0.6208254694816391,0.07022691794393034,0.00037564811676940824
1_2,XY,1797,137.05979812959632,0.654252472333742,0.07638712743618346,0.0004363505609564854
1_2,XY,1818,136.8446177073968,0.6104918739869281,0.07122035668546874,0.0003754423103482162
1_2,XY,1839,137.77752469431215,0.6350586177757024,0.06312407215577959,0.0003436151218069842
1_2,XY,1860,136.64185329488268,0.6446028145945069,0.0724697596300515,0.00040256153614046103
1_2,XY,1881,136.97725142638302,0.6218841835632049,0.07585980485712569,0.0004051605425289882
1_2,XY,1916,136.16682596730092,0.6237644514382046,0.07102498100592711,0.0003848066180833393
1_2,XY,1937,136.41259987024722,0.6290062355388263,0.0699522889902158,0.00037599044644619515
1_2,XY,1958,136.10475302286187,0.6567510326590893,0.06797470462434518,0.00038748101665036914
1_2,XY,1979,136.81605555206616,0.6633189654218223,0.07345003247228196,0.00041995477693516063
1_2,XY,2000,136.25342435915027,0.6412678733921348,0.07216639021509126,0.0004002573929277838
1_2,XY,2021,136.21139513082232,0.6236425296882361,0.07661033045816196,0.0004136780782391477
1_2,XY,2042,136.1245909513321,0.6719475492815539,0.0710094404917434,0.0004027245986277826
1_2,XY,2063,136.11414959856546,0.6537698299575102,0.07597151621790121,0.00042589582152832765
1_2,XY,2095,136.4229962686814,0.6657958869412656,0.06982303571624204,0.0004000311591558042
1_2,XY,2116,136.22885448678556,0.6475962208054427,0.0731462978589016,0.00041299322707385116
1_2,XY,2137,135.75892518045885,0.667411646122201,0.06982579275562761,0.0004036890657555266
1_2,XY,2158,135.78284549835394,0.6430785433539253,0.07579190509854702,0.0004197714447849065
1_2,XY,2179,136.8293871364603,0.6583145024906166,0.07050980768002507,0.00040036736216278625
1_2,XY,2200,136.19479620310327,0.6188263050908036,0.07769592846355483,0.00041467049146615717
1_2,XY,2221,136.5591276741767,0.6663729918799954,0.07155409746437137,0.00041007434829214596
1_2,XY,2242,135.8552624175498,0.6435538403094581,0.07598759151045449,0.00042889662598082404
1_2,XY,2274,135.99342442965508,0.6528915590916533,0.07236689210786007,0.0004109052839087075
1_2,XY,2295,135.65505073591444,0.6130795586576727,0.07758335247878759,0.00041290717038180427
1_2,XY,2316,136.19033717213156,0.627419475434637,0.07110846985182388,0.00038499743844221844
1_2,XY,2337,135.76558682793447,0.6260875493240883,0.07542675328611334,0.00040888817346135774
1_2,XY,2358,136.5020920478609,0.6733353214249836,0.07016054699088953,0.00040629823178110167
1_2,XY,2379,135.81486215973538,0.6045608468686821,0.0763271954329757,0.00039493490296689364
1_2,XY,2400,135.62108064319114,0.6902348923034491,0.06807819983485255,0.0004065499284999172
1_2,XY,2421,136.3909724091513,0.6214796701155597,0.07485048406657228,0.0004008546875468336
1_2,XY,2453,135.79254943716566,0.6207153847240643,0.07412322516349497,0.00040043476239903325
1_2,XY,2474,135.95802077256226,0.6263795030316557,0.07844611281330076,0.00042443733357721154
1_2,XY,2495,136.54664535200914,0.6518164081377783,0.07007603820911003,0.00039672680729679096
1_2,XY,2516,137.145329155328,0.6250360277251631,0.0758756622855157,0.00040727529934623597
1_2,XY,2537,136.26536543887917,0.6600158527277115,0.07172368157377765,0.00041284925478089545
1_2,XY,2558,135.6659942274714,0.6409206338641716,0.0796856280223117,0.00044938750982683487
1_2,XY,2579,136.3312413523464,0.6768945178234779,0.07371565870971815,0.00043514726595445983
1_2,XY,2600,136.59360393070168,0.6357741020675134,0.07789800503953552,0.0004295439851741704
1_2,XY,2632,136.0599474064974,0.6987415324331361,0.07187926844076005,0.000437994973681517
1_2,XY,2653,136.6530351674137,0.6580067569871323,0.07461617726803178,0.00042398290327190453
1_2,XY,2674,136.39701969325318,0.6163215519207303,0.0713016308092233,0.0003784220026199861
1_2,XY,2695,135.5257252894164,0.6226220283361991,0.08012716636868397,0.0004348140565915718
1_2,XY,2716,137.11217822021962,0.6873962986446865,0.06764023159861332,0.00040137090297642054
1_2,XY,2737,136.17693126133923,0.6260181712232238,0.07548513633680007,0.00041122822005974904
1_2,XY,2758,135.62955148192378,0.6595329167033208,0.06941136764236465,0.0003949101717361792
1_2,XY,2779,136.32608337467508,0.645818575576119,0.0748632551786986,0.0004190182611192557
1_2,XY,2818,135.88607143023904,0.6428475708081633,0.07349788674934701,0.00040540950623854205
1_2,XY,2839,135.76521694479177,0.6098171582112767,0.07820771752764803,0.00041222569023856515
1_2,XY,2860,136.0895187871312,0.6526714236503399,0.07188163643993387,0.00040629915963404323
1_2,XY,2881,135.49815218495357,0.6193058727533368,0.07855516946148046,0.00042363626690498744
1_2,XY,2902,136.00879155345802,0.6123256932320849,0.07313870754903042,0.00038755152864467304
1_2,XY,2923,136.3867470296392,0.6112554201459671,0.07769342474714198,0.00040481135790162336
1_2,XY,2944,136.84963117505703,0.6647322593778495,0.06938315883641231,0.00039851484818301166
1_2,XY,2965,136.53633062408142,0.6777794741120405,0.0732300971168577,0.0004295034628027134
1_2,XY,2997,136.47226384292478,0.6831421164388154,0.0707121816063626,0.0004207954392495072
1_2,XY,3018,134.73486341080658,0.6311259130510151,0.07566188166371213,0.00041854963247874385
1_2,XY,3039,135.09306130141277,0.655767038465563,0.06829278606233977,0.0003910341282183628
1_2,XY,3060,136.59826942632557,0.6375597401775993,0.07292053001082976,0.00039901663651915653
1_2,XY,3081,137.1098182961797,0.6407059340660474,0.06984213989068871,0.00038666010671195426
1_2,XY,3102,136.91751446169937,0.6399150637287441,0.07641532864586953,0.00042193404299402463
1_2,XY,3123,135.6965172011979,0.6264233287084954,0.07265297630240238,0.000394690805862263
1_2,XY,3144,136.070393813375,0.6277690114384511,0.07785161474457754,0.0004215008945652796
