[
    [
        "XscanNumber_YscanNumber",
        "Type",
        "BCID",
        "xsec",
        "xsecErr",
        "SBIL",
        "SBILErr"
    ],
    [
        "2_1",
        "XY",
        "103",
        3320.1618509429004,
        20.42182530731681,
        0.0634719651028361,
        0.00044726948524375563
    ],
    [
        "2_1",
        "XY",
        "124",
        3263.5302599403176,
        17.967665392476796,
        0.08092853122025725,
        0.0005094330871118365
    ],
    [
        "2_1",
        "XY",
        "145",
        3237.2099960226333,
        25.588618332212448,
        0.06577010300713605,
        0.0005886045732553761
    ],
    [
        "2_1",
        "XY",
        "166",
        3261.9265836032573,
        18.576330324961013,
        0.07583863321112905,
        0.0004900208017181947
    ],
    [
        "2_1",
        "XY",
        "187",
        3262.763608716729,
        20.553096522933604,
        0.06590463115193293,
        0.00047742084144863223
    ],
    [
        "2_1",
        "XY",
        "208",
        3285.5763711203863,
        20.308705420542815,
        0.06831322106158343,
        0.0004813982991986534
    ],
    [
        "2_1",
        "XY",
        "229",
        3264.0662616992436,
        20.219778364620343,
        0.07012698219836562,
        0.000501050481433023
    ],
    [
        "2_1",
        "XY",
        "250",
        3234.125382590331,
        19.350889741923556,
        0.07889910050008975,
        0.0005395365571996808
    ],
    [
        "2_1",
        "XY",
        "282",
        3262.915269590691,
        19.171052247918393,
        0.0758443896280687,
        0.0005104541788425356
    ],
    [
        "2_1",
        "XY",
        "303",
        3254.1248642343194,
        19.453182762369437,
        0.07982281530330551,
        0.0005442538538077507
    ],
    [
        "2_1",
        "XY",
        "324",
        3262.4813262654143,
        20.30202071078242,
        0.07160371062563092,
        0.0005039172892266653
    ],
    [
        "2_1",
        "XY",
        "345",
        3226.0979916803535,
        18.292366541591143,
        0.0815763812097479,
        0.0005317098631336355
    ],
    [
        "2_1",
        "XY",
        "366",
        3263.295926543401,
        18.74980366953998,
        0.07325382621391065,
        0.0004763891413522799
    ],
    [
        "2_1",
        "XY",
        "387",
        3266.7133739177766,
        19.48819513437487,
        0.08067775388851854,
        0.0005573571582412122
    ],
    [
        "2_1",
        "XY",
        "408",
        3264.30076709372,
        20.488851401943425,
        0.06948341943787732,
        0.0005025795335250264
    ],
    [
        "2_1",
        "XY",
        "429",
        3260.6456828451446,
        19.312844737812487,
        0.07799855135191075,
        0.0005298735367310535
    ],
    [
        "2_1",
        "XY",
        "464",
        3273.1755241086958,
        24.395470184776496,
        0.07561384638072238,
        0.000639027766429705
    ],
    [
        "2_1",
        "XY",
        "485",
        3258.948844975084,
        19.73226514311992,
        0.07864384203626097,
        0.0005515482911936894
    ],
    [
        "2_1",
        "XY",
        "506",
        3271.858773486234,
        19.447598042946957,
        0.06741645046407017,
        0.0004548056330666063
    ],
    [
        "2_1",
        "XY",
        "527",
        3267.180350892218,
        19.62321286992271,
        0.07453905265994376,
        0.0005176392296602154
    ],
    [
        "2_1",
        "XY",
        "548",
        3249.1367235038983,
        19.702888156524132,
        0.07351412450562875,
        0.0005087904982475675
    ],
    [
        "2_1",
        "XY",
        "569",
        3256.459000251547,
        18.29583112715065,
        0.08181230262565607,
        0.0005243607238239324
    ],
    [
        "2_1",
        "XY",
        "590",
        3261.0487452860607,
        19.955347931639007,
        0.07074357454462148,
        0.0004986894473993965
    ],
    [
        "2_1",
        "XY",
        "611",
        3242.928961353386,
        18.57821403191365,
        0.07965995419954432,
        0.000519918161393375
    ],
    [
        "2_1",
        "XY",
        "643",
        3276.6579122824387,
        21.166256149239832,
        0.07386537758854321,
        0.0005429608025072168
    ],
    [
        "2_1",
        "XY",
        "664",
        3281.2952734355517,
        18.872263144408965,
        0.07746327373449151,
        0.0005124915834838965
    ],
    [
        "2_1",
        "XY",
        "685",
        3253.6623014078586,
        18.85780985726641,
        0.06745882095667158,
        0.0004510277338276314
    ],
    [
        "2_1",
        "XY",
        "706",
        3311.262658914042,
        19.56778903089063,
        0.06973303337640073,
        0.0004814280020101346
    ],
    [
        "2_1",
        "XY",
        "727",
        3264.1256884584905,
        20.353398180108474,
        0.07031552504715485,
        0.0005006220700916811
    ],
    [
        "2_1",
        "XY",
        "748",
        3232.529799577455,
        19.350136615561503,
        0.08081774847071732,
        0.0005551622231911527
    ],
    [
        "2_1",
        "XY",
        "769",
        3272.4537999508275,
        21.473637663391752,
        0.0647848494137889,
        0.0004933629406916158
    ],
    [
        "2_1",
        "XY",
        "790",
        3266.539932535284,
        19.061514644294217,
        0.07347061634710834,
        0.00049842733697655
    ],
    [
        "2_1",
        "XY",
        "822",
        3295.558741208147,
        15.517718676083618,
        0.06629013312450495,
        0.00035933976807679826
    ],
    [
        "2_1",
        "XY",
        "843",
        3284.589316716982,
        14.91659428396724,
        0.0775863091611484,
        0.00040104606513219825
    ],
    [
        "2_1",
        "XY",
        "864",
        3276.28681677151,
        19.451354861368443,
        0.07073231101361876,
        0.0004850101089645669
    ],
    [
        "2_1",
        "XY",
        "885",
        3262.41763541545,
        18.429494949927356,
        0.08170339876329866,
        0.0005233914270794735
    ],
    [
        "2_1",
        "XY",
        "906",
        3281.3667565010746,
        18.89598875392786,
        0.06888270009847734,
        0.00045471036897198934
    ],
    [
        "2_1",
        "XY",
        "927",
        3240.632010722612,
        17.24421896912479,
        0.07958993723786352,
        0.0004817117889997484
    ],
    [
        "2_1",
        "XY",
        "948",
        3276.989029297959,
        21.37493014521245,
        0.06947397351992977,
        0.0005119297016345815
    ],
    [
        "2_1",
        "XY",
        "969",
        3244.2781467594705,
        16.88001951959214,
        0.07754141983431442,
        0.0004629938800764213
    ],
    [
        "2_1",
        "XY",
        "1018",
        3258.193621547789,
        19.666853836646183,
        0.07571136306160926,
        0.0005233551019148516
    ],
    [
        "2_1",
        "XY",
        "1039",
        3251.1895698842445,
        15.918243854023974,
        0.07969042601285377,
        0.0004408446100513796
    ],
    [
        "2_1",
        "XY",
        "1060",
        3274.933072645417,
        19.701267123200676,
        0.07051450408752881,
        0.0004780320240868747
    ],
    [
        "2_1",
        "XY",
        "1081",
        3262.5345148335036,
        18.015339938364743,
        0.07864095347048491,
        0.0004995675975695907
    ],
    [
        "2_1",
        "XY",
        "1102",
        3288.377430466275,
        22.885051612966333,
        0.06856082388130201,
        0.0005414089047987864
    ],
    [
        "2_1",
        "XY",
        "1123",
        3249.770341171938,
        19.04113997574099,
        0.07576545023544969,
        0.0005035578472448253
    ],
    [
        "2_1",
        "XY",
        "1144",
        3254.82890688021,
        20.018527424751287,
        0.07089673820283002,
        0.0005039127069604738
    ],
    [
        "2_1",
        "XY",
        "1165",
        3268.138295866776,
        17.136775430846654,
        0.08037962931495185,
        0.00047714712089576636
    ],
    [
        "2_1",
        "XY",
        "1197",
        3296.1728841037066,
        19.45553176521784,
        0.07219479717222879,
        0.00048756539185560425
    ],
    [
        "2_1",
        "XY",
        "1218",
        3264.5907158673735,
        19.448442302565688,
        0.07937876064257415,
        0.0005376953364317993
    ],
    [
        "2_1",
        "XY",
        "1239",
        3268.59456328938,
        19.342906582627606,
        0.07019004314986901,
        0.00046613384323209003
    ],
    [
        "2_1",
        "XY",
        "1260",
        3277.540841266379,
        17.904698165674972,
        0.07853163975698516,
        0.0004967492814312961
    ],
    [
        "2_1",
        "XY",
        "1281",
        3247.1045514976818,
        21.921565627033562,
        0.07279900516198325,
        0.0005566044411463286
    ],
    [
        "2_1",
        "XY",
        "1302",
        3262.0544827405233,
        17.82849707633003,
        0.08055961673813739,
        0.0005040283069923308
    ],
    [
        "2_1",
        "XY",
        "1323",
        3247.087209604728,
        21.54934804966439,
        0.06670402874056013,
        0.0005002842909806618
    ],
    [
        "2_1",
        "XY",
        "1344",
        3298.387864310607,
        17.82764212348767,
        0.07650371302746219,
        0.00047351776947897925
    ],
    [
        "2_1",
        "XY",
        "1376",
        3255.212896936352,
        17.929819119452414,
        0.07268084692863454,
        0.0004601579870930775
    ],
    [
        "2_1",
        "XY",
        "1397",
        3282.8761528480413,
        19.57704404308845,
        0.06946486456886065,
        0.0004766932706988029
    ],
    [
        "2_1",
        "XY",
        "1418",
        3271.8893147137464,
        19.318164523091472,
        0.07395748529125294,
        0.000499364664879845
    ],
    [
        "2_1",
        "XY",
        "1439",
        3324.6926701296384,
        18.09735094005109,
        0.06473718153127182,
        0.00040333311563008593
    ],
    [
        "2_1",
        "XY",
        "1460",
        3262.507951720351,
        17.2475578770034,
        0.07099124324646634,
        0.00042878851311960533
    ],
    [
        "2_1",
        "XY",
        "1481",
        3261.8393068947007,
        18.092895841695377,
        0.07783883550673129,
        0.0004979639810782488
    ],
    [
        "2_1",
        "XY",
        "1502",
        3288.641254244953,
        19.21907255983458,
        0.06979965666801104,
        0.0004717399929904938
    ],
    [
        "2_1",
        "XY",
        "1523",
        3311.1961866010884,
        24.29584775056981,
        0.06214625354791533,
        0.0005049487494610013
    ],
    [
        "2_1",
        "XY",
        "1555",
        3318.0638487697015,
        19.63846775975982,
        0.06448889466068808,
        0.0004351105289719644
    ],
    [
        "2_1",
        "XY",
        "1576",
        3293.51145116357,
        23.13821522205189,
        0.068193492123432,
        0.0005425081202234486
    ],
    [
        "2_1",
        "XY",
        "1597",
        3313.192954827183,
        20.96345471081212,
        0.0598337635969188,
        0.00043267810920579976
    ],
    [
        "2_1",
        "XY",
        "1618",
        3309.602436890496,
        20.38539704257023,
        0.06622386414675853,
        0.0004666550065633492
    ],
    [
        "2_1",
        "XY",
        "1639",
        3284.0972309811314,
        17.726438823420466,
        0.08007449770304152,
        0.0004892091929543005
    ],
    [
        "2_1",
        "XY",
        "1660",
        3266.7221622251127,
        18.09052884224011,
        0.08127333575762884,
        0.0005156102446047894
    ],
    [
        "2_1",
        "XY",
        "1681",
        3270.390350100078,
        21.06190087915449,
        0.07634291168805696,
        0.000557879112209177
    ],
    [
        "2_1",
        "XY",
        "1702",
        3249.8395531633514,
        17.561279292793262,
        0.08280610263991815,
        0.0005166402908104005
    ],
    [
        "2_1",
        "XY",
        "1734",
        3263.72350080155,
        20.15291060381225,
        0.07481900201471366,
        0.0005262041027348634
    ],
    [
        "2_1",
        "XY",
        "1755",
        3317.713112988022,
        15.842251528844795,
        0.06133257473995923,
        0.00033828141914896246
    ],
    [
        "2_1",
        "XY",
        "1776",
        3269.4070855412774,
        19.15427886849683,
        0.07517471212049326,
        0.0005155868439051304
    ],
    [
        "2_1",
        "XY",
        "1797",
        3259.250673589328,
        19.03394576094616,
        0.0811202635966169,
        0.0005497115763389809
    ],
    [
        "2_1",
        "XY",
        "1818",
        3312.339154995364,
        13.546013143725332,
        0.06730932735259064,
        0.0003129380628024875
    ],
    [
        "2_1",
        "XY",
        "1839",
        3348.609902210796,
        20.086996455181307,
        0.06168302480846757,
        0.00041753441471281406
    ],
    [
        "2_1",
        "XY",
        "1860",
        3259.3664696269375,
        18.988022799291123,
        0.07798683546440388,
        0.0005219143440373556
    ],
    [
        "2_1",
        "XY",
        "1881",
        3252.85680015274,
        19.93787644984176,
        0.08195516473039531,
        0.0005583732387860333
    ],
    [
        "2_1",
        "XY",
        "1916",
        3289.733877941467,
        18.92850005558284,
        0.07376209427433869,
        0.0004825055454732507
    ],
    [
        "2_1",
        "XY",
        "1937",
        3308.103845588914,
        24.513308740441232,
        0.06178491677305297,
        0.0005073164442110253
    ],
    [
        "2_1",
        "XY",
        "1958",
        3271.205379432028,
        20.446525435107297,
        0.07302202398039918,
        0.0005272753171809412
    ],
    [
        "2_1",
        "XY",
        "1979",
        3248.3537195710583,
        18.35067843254856,
        0.07823507763637355,
        0.0005039848393058432
    ],
    [
        "2_1",
        "XY",
        "2000",
        3264.584491670659,
        19.770021511246696,
        0.07780721767401574,
        0.0005361688774605034
    ],
    [
        "2_1",
        "XY",
        "2021",
        3260.9004169625887,
        19.654989977449347,
        0.08178177797782248,
        0.0005621879115381225
    ],
    [
        "2_1",
        "XY",
        "2042",
        3255.836389158489,
        20.4074990346287,
        0.07680560411925567,
        0.0005494268763201978
    ],
    [
        "2_1",
        "XY",
        "2063",
        3268.9941013758475,
        18.01581183434802,
        0.08025203045959284,
        0.0005041049899880009
    ],
    [
        "2_1",
        "XY",
        "2095",
        3276.469530561528,
        19.43795111144968,
        0.07473231926366057,
        0.0005049118786879069
    ],
    [
        "2_1",
        "XY",
        "2116",
        3268.0491261176944,
        17.74120962315068,
        0.07801225375130952,
        0.0004820163654947111
    ],
    [
        "2_1",
        "XY",
        "2137",
        3263.5901284706383,
        20.515083197976477,
        0.07436976803867001,
        0.0005376863811948712
    ],
    [
        "2_1",
        "XY",
        "2158",
        3278.1515381274667,
        18.17757788734555,
        0.07957363180823739,
        0.000504902933689664
    ],
    [
        "2_1",
        "XY",
        "2179",
        3280.9439086784164,
        18.2981929832806,
        0.07598557464185202,
        0.000490044948933132
    ],
    [
        "2_1",
        "XY",
        "2200",
        3269.1790502188815,
        17.13795049028952,
        0.0815093452130564,
        0.0004910497450325511
    ],
    [
        "2_1",
        "XY",
        "2221",
        3279.4042615701624,
        17.764445727168493,
        0.07712220015542426,
        0.0004812394931592199
    ],
    [
        "2_1",
        "XY",
        "2242",
        3253.2894577611983,
        17.957637228679395,
        0.08039322110490056,
        0.0005034428294610292
    ],
    [
        "2_1",
        "XY",
        "2274",
        3267.9983752986323,
        19.79711223245878,
        0.07723454024792616,
        0.0005234159272889724
    ],
    [
        "2_1",
        "XY",
        "2295",
        3281.6286471443823,
        17.101071269071433,
        0.07979283403774692,
        0.0004821398359343559
    ],
    [
        "2_1",
        "XY",
        "2316",
        3252.7075319108694,
        20.954701957657843,
        0.07593783785850389,
        0.0005594192492902135
    ],
    [
        "2_1",
        "XY",
        "2337",
        3277.00036376593,
        18.127895151435364,
        0.06932369605642127,
        0.00043676948959760334
    ],
    [
        "2_1",
        "XY",
        "2358",
        3328.59204531888,
        15.310069796678253,
        0.0636319463610054,
        0.000332681086166791
    ],
    [
        "2_1",
        "XY",
        "2379",
        3262.5800293218176,
        22.703664002913843,
        0.08023705977237902,
        0.0006385973738028953
    ],
    [
        "2_1",
        "XY",
        "2400",
        3277.773026166249,
        18.457097989189602,
        0.07289239332410494,
        0.00046487938649069683
    ],
    [
        "2_1",
        "XY",
        "2421",
        3244.1140835848087,
        19.14551580296423,
        0.07938663651311542,
        0.0005425056941501166
    ],
    [
        "2_1",
        "XY",
        "2453",
        3252.811242300236,
        18.472192713066416,
        0.07923408149741773,
        0.000519815851594632
    ],
    [
        "2_1",
        "XY",
        "2474",
        3243.5617573822838,
        18.67113264395195,
        0.08333657499587913,
        0.0005440893151184734
    ],
    [
        "2_1",
        "XY",
        "2495",
        3277.4980861179815,
        18.722484040881206,
        0.07467929333828775,
        0.0004895435394790196
    ],
    [
        "2_1",
        "XY",
        "2516",
        3265.4534405849768,
        18.264187227122836,
        0.08004979689474699,
        0.0005152565884369932
    ],
    [
        "2_1",
        "XY",
        "2537",
        3253.4843382079835,
        19.69913911329813,
        0.0778893235107521,
        0.000529186815477621
    ],
    [
        "2_1",
        "XY",
        "2558",
        3280.3152574340584,
        16.582345425158802,
        0.08334980443109372,
        0.00047952603239297445
    ],
    [
        "2_1",
        "XY",
        "2579",
        3243.0053787436395,
        18.168871694540922,
        0.07991357996440662,
        0.0005165054951790168
    ],
    [
        "2_1",
        "XY",
        "2600",
        3269.1567532696254,
        17.948491167111975,
        0.08209999621365942,
        0.0005178397612760487
    ],
    [
        "2_1",
        "XY",
        "2632",
        3266.748747690028,
        19.107670862793192,
        0.07471801592514644,
        0.0004987524427713307
    ],
    [
        "2_1",
        "XY",
        "2653",
        3277.6025555884444,
        16.289983294108673,
        0.07819793770294431,
        0.0004464563003249314
    ],
    [
        "2_1",
        "XY",
        "2674",
        3270.609870374192,
        18.39420689980153,
        0.06964983593949274,
        0.0004468743171442902
    ],
    [
        "2_1",
        "XY",
        "2695",
        3256.8729393901053,
        17.18462264509287,
        0.08340944723516197,
        0.0004986690268859732
    ],
    [
        "2_1",
        "XY",
        "2716",
        3298.1807565409144,
        20.384478809634544,
        0.06859426892813597,
        0.00048498872886835456
    ],
    [
        "2_1",
        "XY",
        "2737",
        3253.269598077971,
        17.859847815364947,
        0.0797835534996014,
        0.0005016340041738973
    ],
    [
        "2_1",
        "XY",
        "2758",
        3282.235650779797,
        18.590783582535465,
        0.07384689940111905,
        0.00048097600504655794
    ],
    [
        "2_1",
        "XY",
        "2779",
        3260.3215153181436,
        17.971270494669945,
        0.07946939169064006,
        0.000503842418673469
    ],
    [
        "2_1",
        "XY",
        "2818",
        3242.827138661742,
        18.168458168623584,
        0.07790915869754592,
        0.0005007639360424574
    ],
    [
        "2_1",
        "XY",
        "2839",
        3262.6213399495314,
        18.497550653469464,
        0.0823339688040542,
        0.0005417087103320874
    ],
    [
        "2_1",
        "XY",
        "2860",
        3259.987272652219,
        18.897605522074198,
        0.07691979413906605,
        0.0005168534333546975
    ],
    [
        "2_1",
        "XY",
        "2881",
        3252.8291107157643,
        18.91887297991813,
        0.0825597132462476,
        0.0005536249460529152
    ],
    [
        "2_1",
        "XY",
        "2902",
        3248.132436887037,
        19.386125900930022,
        0.07769703965157457,
        0.0005300625946378871
    ],
    [
        "2_1",
        "XY",
        "2923",
        3248.1989459935903,
        19.437960729998853,
        0.08180085763946027,
        0.0005518648414762469
    ],
    [
        "2_1",
        "XY",
        "2944",
        3255.1895673630765,
        18.944028124903323,
        0.0750354430338364,
        0.00050142329259515
    ],
    [
        "2_1",
        "XY",
        "2965",
        3261.3414807854524,
        19.752023508489604,
        0.07803709758919694,
        0.0005417895839945161
    ],
    [
        "2_1",
        "XY",
        "2997",
        3263.4847244079956,
        20.793720941315453,
        0.07607674518597893,
        0.0005469519375078635
    ],
    [
        "2_1",
        "XY",
        "3018",
        3272.6233267120383,
        22.612104139529663,
        0.07975546993312997,
        0.0006296979892073875
    ],
    [
        "2_1",
        "XY",
        "3039",
        3242.5704200566643,
        20.870663235460498,
        0.07265397445714265,
        0.000531377079418031
    ],
    [
        "2_1",
        "XY",
        "3060",
        3258.676851030925,
        20.090944805899102,
        0.07727750196244876,
        0.0005463850884216975
    ],
    [
        "2_1",
        "XY",
        "3081",
        3252.4232685858274,
        20.803310410442826,
        0.07574550375794893,
        0.0005499060704250786
    ],
    [
        "2_1",
        "XY",
        "3102",
        3255.8456476621304,
        20.420642668139923,
        0.0805969842034264,
        0.0005732750584657766
    ],
    [
        "2_1",
        "XY",
        "3123",
        3282.221658955834,
        18.721351865887186,
        0.07805251532279085,
        0.0005102400133201168
    ],
    [
        "2_1",
        "XY",
        "3144",
        3245.422044830036,
        19.549570886896234,
        0.08293432034730393,
        0.0005701025619473503
    ]
]