XscanNumber_YscanNumber,Type,BCID,xsec,xsecErr,SBIL,SBILErr
1_2,XY,103,954.2912625607412,2.0825336455169063,0.06375123522139232,0.00016448135355670365
1_2,XY,124,947.8927094324613,1.9404178126610687,0.07829615309926033,0.00018765925711303528
1_2,XY,145,955.8162750632346,2.2031202642533882,0.06259670279021132,0.00017029376467643837
1_2,XY,166,950.8802575918169,2.0967814922029,0.07268514967714163,0.00019177925976802642
1_2,XY,187,948.9521945102846,2.289811972851965,0.06363687877898405,0.000185217687546889
1_2,XY,208,957.6054023752434,2.149576766123706,0.06607736564264768,0.00017960478601224348
1_2,XY,229,954.7394177485016,2.039699260800095,0.0674236555269277,0.00017051147616198566
1_2,XY,250,949.9294232248375,1.9286051977881074,0.07512881706200278,0.0001802768594568906
1_2,XY,282,948.3944390310791,2.069962998145477,0.07469588304023965,0.00019065963842729118
1_2,XY,303,950.9731754937535,1.9601503050691376,0.077203636479782,0.00018959730522406576
1_2,XY,324,952.4418588859554,2.2117340519544757,0.06877215918057798,0.00018891222856949093
1_2,XY,345,952.3512876360999,1.8032825804862458,0.07806827035369249,0.00017312775513169624
1_2,XY,366,953.8087542952486,2.0684529621192906,0.0707259108334564,0.0001806642743941951
1_2,XY,387,947.0992204540999,2.1308728430639117,0.07775132266514186,0.00020689312760223858
1_2,XY,408,949.2687556745798,2.0940397951430483,0.0668728876456941,0.00017580999164918277
1_2,XY,429,949.1554914966836,2.1440491228210816,0.07445889395785522,0.00020203009238210207
1_2,XY,464,946.9506759296992,1.9688615562896588,0.07392500832611172,0.00018373313563851574
1_2,XY,485,947.4823333998459,1.9577774648575381,0.07653081659004125,0.00018520562021493136
1_2,XY,506,948.9428886574776,2.1564240819544493,0.06596380679843547,0.00018008085438062397
1_2,XY,527,951.945988511965,1.9714708994511299,0.07267490997585291,0.00017714957100521632
1_2,XY,548,945.9357229633982,2.2090757209511525,0.07169081526731765,0.0002007138180319421
1_2,XY,569,948.1217772121229,1.8756663731427532,0.07979431223271875,0.00018426135460935234
1_2,XY,590,951.3712785327397,2.10023074645716,0.06889232380269851,0.00017958186275666673
1_2,XY,611,946.6336465606788,1.9753020363396854,0.07679920326951842,0.00019361431092916202
1_2,XY,643,951.3057944469176,2.1225833607761735,0.07144426203933202,0.00018954713805639336
1_2,XY,664,948.3086767068478,1.9323127823298618,0.0763243036372482,0.00018302936154654097
1_2,XY,685,949.9625579247631,2.187714768069309,0.0659092546466232,0.0001807026880499607
1_2,XY,706,953.7623409134912,2.060280875901602,0.06949952655419277,0.00017819885542928352
1_2,XY,727,951.6264253538155,1.9930004264021848,0.06865321631028624,0.00017444954042983193
1_2,XY,748,946.9683889789045,2.0466610511328573,0.07796700836213884,0.00019970222172633345
1_2,XY,769,944.9020833142628,2.154233292965048,0.0633250075672936,0.00017100265360461752
1_2,XY,790,949.8395369148158,2.1421138217425355,0.07129385591955374,0.00019119878709197285
1_2,XY,822,956.4954211019,2.094321470129182,0.06600989142127363,0.0001730194772309574
1_2,XY,843,948.2118783570822,1.8795523057390826,0.07713294630217463,0.00018240832318105083
1_2,XY,864,950.9047604268619,1.9552094162980864,0.06916049423385656,0.0001698011161043341
1_2,XY,885,945.1541644441692,1.9225517415561535,0.07961310677671658,0.0001926553020765996
1_2,XY,906,953.0765515658711,2.2948860816288743,0.06742314400261393,0.00019329355016700574
1_2,XY,927,950.5613256446327,1.9001030162996662,0.07694595215466347,0.00017995275954248703
1_2,XY,948,943.7522739750259,1.8154818574947802,0.0682617050998212,0.0001590768002164734
1_2,XY,969,948.1743003601196,2.0894071222596895,0.07523851008347557,0.00019796795367686457
1_2,XY,1018,947.5116740601778,1.9299156284114276,0.07395916061013345,0.0001772160916408588
1_2,XY,1039,945.9647179843067,1.857163494549427,0.07785473585524702,0.00017985907068998047
1_2,XY,1060,945.9083772555601,2.273805244458158,0.06907987765842186,0.0002000237923911451
1_2,XY,1081,942.5449116910787,2.0159186260917417,0.07707867479958215,0.00019817996111159666
1_2,XY,1102,951.2060859739337,1.977248098392087,0.06717215008502446,0.00016546260753519162
1_2,XY,1123,948.5143080200631,1.6277135639593077,0.07370803518236277,0.00015250117308315407
1_2,XY,1144,947.8616529811989,2.0390491839882317,0.0688467506668667,0.00017349389002987956
1_2,XY,1165,949.4285831413719,1.649672738356449,0.07947885217677852,0.00016501150366704244
1_2,XY,1197,948.5643540403846,2.021333213032196,0.07133031136349402,0.00018176363343764556
1_2,XY,1218,946.2168969835686,1.9730296985209217,0.07796161628286763,0.00019326854700660195
1_2,XY,1239,947.0421480424674,2.1215913261735473,0.06867884231319794,0.0001815346389904319
1_2,XY,1260,947.2917777662442,2.012650876772685,0.07724472370468288,0.00019515940981847064
1_2,XY,1281,948.4434594201492,2.0951240308054246,0.07021441183656262,0.00018289471731049037
1_2,XY,1302,950.6451886141946,1.999497503738565,0.07806846745111946,0.00019280504135732826
1_2,XY,1323,951.4719883575691,2.201674219086368,0.06387839697746156,0.00017787929254348123
1_2,XY,1344,948.8420184510558,1.6041390754100833,0.07515214609844874,0.00015720662293985008
1_2,XY,1376,948.9002752143357,2.0309140547775884,0.07117610164422787,0.0001820486473375387
1_2,XY,1397,951.8890863740545,2.0093484484677777,0.06875238473699664,0.0001718530911553027
1_2,XY,1418,947.9880203414853,2.1679620827918615,0.07198854642362902,0.00019914992533107148
1_2,XY,1439,958.1056410469157,1.96338892785848,0.06501240459659197,0.00015690248621345507
1_2,XY,1460,952.6966334246141,2.026913995317605,0.06887399437416425,0.00017469967177834275
1_2,XY,1481,947.5499092392034,2.044790931883981,0.07613061291045213,0.00019616508881810778
1_2,XY,1502,952.3029937407125,2.1119412439720797,0.06802264543604361,0.00017809860051729395
1_2,XY,1523,959.917289571634,2.162292023102282,0.061640071373868476,0.00016646279874867
1_2,XY,1555,958.7340608881356,2.0071700832913684,0.06397403627597804,0.00015868187211618033
1_2,XY,1576,956.9732758488394,2.1409536064331727,0.06703690334092606,0.00017936924388073358
1_2,XY,1597,957.7099356655859,2.1592649247571574,0.05971884997431112,0.00016047584872708374
1_2,XY,1618,957.3910289347292,2.1267798277138503,0.06533761195468923,0.0001734541970629773
1_2,XY,1639,949.2940052492937,2.060701420759792,0.07839705941024555,0.00020252065996536413
1_2,XY,1660,949.303834432203,1.865369305256048,0.07856122002462378,0.00018160278615318658
1_2,XY,1681,949.5473419085216,1.7102597362989294,0.07440902580456903,0.00015903408184075245
1_2,XY,1702,943.5645140406565,1.9482753105162716,0.08064325549083487,0.0002003050953636225
1_2,XY,1734,949.1188626905647,2.117534182997843,0.07302763398760598,0.00019256429798386167
1_2,XY,1755,960.0450089468197,2.262419992211444,0.06100383750580967,0.0001697636610621412
1_2,XY,1776,949.3152230704145,1.9433702087730589,0.07366169772345359,0.00017669366900235512
1_2,XY,1797,946.143732545534,1.9681808299987802,0.07948330143128395,0.0001971455711460457
1_2,XY,1818,955.4991848564142,1.810752301116531,0.06719747645010171,0.0001494141944310881
1_2,XY,1839,961.6789595571383,2.089694279427807,0.061903622596735076,0.00016004749501192766
1_2,XY,1860,947.5420769544377,2.0979406402481664,0.07542688702874913,0.0001999409519327462
1_2,XY,1881,946.0713300896,1.952105052687901,0.07995143189872045,0.00019757716107477962
1_2,XY,1916,955.211783359976,2.0369073108623703,0.07133549117805885,0.00018287831829289457
1_2,XY,1937,955.7453559413188,2.1393342708406595,0.06167412072974427,0.00016436282636553057
1_2,XY,1958,948.4576358187801,1.9994756712689092,0.07186863520638638,0.0001795263998606369
1_2,XY,1979,951.0733609204647,1.9053871599878267,0.07609636078618422,0.00018050852715432612
1_2,XY,2000,946.2098559939495,2.0143062238476515,0.07582353628393894,0.00019387408616201111
1_2,XY,2021,949.2147388549932,1.8901779504113976,0.07961998240120224,0.00018902310370888506
1_2,XY,2042,949.8469894304012,1.880278207990119,0.07485447368592783,0.00017445993675022515
1_2,XY,2063,948.2910532860242,1.956466563559712,0.07828767382426807,0.00019035531703897595
1_2,XY,2095,948.2797793923506,2.0121246893350317,0.07356021668970109,0.00018346750214937198
1_2,XY,2116,947.504107383528,2.0839077247995017,0.07584414990167285,0.00019993535171452983
1_2,XY,2137,947.0778989081658,2.0200874837640934,0.07251398357864328,0.00018509985553779714
1_2,XY,2158,947.1130813539797,1.993298220525271,0.07841779505824094,0.0001949223205155926
1_2,XY,2179,950.6203978751114,1.5672642617961077,0.07471241943183068,0.00015219532974597555
1_2,XY,2200,948.002599943205,1.9467110293411514,0.07980816471751942,0.00019688248209708567
1_2,XY,2221,951.0197238981152,1.9675382470596576,0.07541409957624552,0.00018474853274807383
1_2,XY,2242,948.5026726038411,1.9590652476903403,0.07862102602017837,0.00019370692261318792
1_2,XY,2274,949.7757579593901,1.910115704238483,0.07550967518550886,0.00017971052343009232
1_2,XY,2295,947.2196576961895,1.958604074871056,0.07717184944408705,0.0001901709939258406
1_2,XY,2316,949.2913188536219,1.9258469171056485,0.0736684648821719,0.0001783777731436916
1_2,XY,2337,949.4545291818789,2.0763681562094947,0.06841525807152714,0.00017881062349812168
1_2,XY,2358,959.6617457691171,1.9401147003494328,0.06333462735300505,0.00015312557693248282
1_2,XY,2379,949.6513215008418,1.8996481138231283,0.07659387586472134,0.00018532283428373492
1_2,XY,2400,947.3811113938222,2.0746754209721074,0.0713873275489933,0.00018818064660851535
1_2,XY,2421,946.6494325689026,1.8954829415531629,0.07707503215014225,0.00018467288091821737
1_2,XY,2453,949.9069334840818,1.977074689617559,0.07631041812914965,0.00019183342180460582
1_2,XY,2474,950.2216515036993,1.8120095474732556,0.08028389882043845,0.00017828183350791026
1_2,XY,2495,951.7443784155358,2.0149527404230754,0.0732325074294422,0.000183515833776784
1_2,XY,2516,948.2456932691822,1.7784648923037099,0.07772402783487614,0.00017438579862596404
1_2,XY,2537,947.9195028856693,2.003222684876661,0.07578280750748845,0.0001915495076834224
1_2,XY,2558,945.7346288606537,1.984587835823559,0.08207750586997514,0.00020641338637109266
1_2,XY,2579,948.3116264803384,1.929614288850854,0.0775507167585174,0.00018744123980913283
1_2,XY,2600,947.718954301391,2.048882950387669,0.08023951320538013,0.0002062666968472018
1_2,XY,2632,955.2292784789266,1.9441057233608727,0.07145666154047361,0.00017437126116351325
1_2,XY,2653,950.215415175673,1.987008624723951,0.07656867785681253,0.00018947963429252613
1_2,XY,2674,954.7406702544852,2.0314247998175032,0.06793947946849678,0.00016972558372177653
1_2,XY,2695,946.2938308423564,1.8106105713258545,0.08099137111549845,0.0001810792511509319
1_2,XY,2716,952.905141877095,2.0925725759076923,0.06764388277370884,0.00017664913262651897
1_2,XY,2737,948.4403269345323,1.9808925996544784,0.07779035321482854,0.00019179695082635883
1_2,XY,2758,953.0346775160072,2.056178455824224,0.07239662477367283,0.00018407991476329668
1_2,XY,2779,946.3152868220346,1.8999558656524602,0.07763679754077132,0.00018462929675411166
1_2,XY,2818,950.3213512490363,2.010115981140194,0.0759167191240738,0.0001899364325932707
1_2,XY,2839,948.3320006212317,1.9556100430290873,0.07959860864780056,0.0001966923588479647
1_2,XY,2860,949.8699655582981,2.0684989979234376,0.07480822937450621,0.00019362068205342397
1_2,XY,2881,945.5509325406512,1.9541870337338803,0.07973832987717967,0.0001962109783046896
1_2,XY,2902,949.9453714174684,1.950249200610242,0.07531180968869024,0.0001820311784128811
1_2,XY,2923,946.1354110560607,2.025370387121611,0.07905300263877127,0.0002028071196241062
1_2,XY,2944,951.1069054922949,1.9997592193080431,0.07314729260372345,0.00017984778305926507
1_2,XY,2965,946.8139005678162,1.9452183871752324,0.07611162095676367,0.00018704938949192987
1_2,XY,2997,949.7914515970687,1.8555747793792294,0.07409773538161546,0.0001701675205439751
1_2,XY,3018,947.6253252295352,1.8768404585913547,0.07829710375743681,0.00018584825762160933
1_2,XY,3039,950.1822749828904,1.988981675574755,0.07016044798565518,0.00017360407598863956
1_2,XY,3060,947.6369595678663,2.0059671254163396,0.07498613831252876,0.00018848888066386738
1_2,XY,3081,948.6987770737899,2.008588610042047,0.07297385771087568,0.00018078773173865577
1_2,XY,3102,948.1017901578444,1.8740562375740917,0.07784338427945892,0.00018140648039864296
1_2,XY,3123,947.2315378266175,2.1786899147559624,0.07607928460451159,0.00021079153902788252
1_2,XY,3144,947.8301989930343,2.005357766541218,0.08032911206215222,0.00019936065715252816
