XscanNumber_YscanNumber,Type,BCID,xsec,xsecErr,SBIL,SBILErr
2_1,XY,103,958.029621162062,2.1728812535980007,0.06240410031969347,0.0001687713329363504
2_1,XY,124,952.3470707876071,1.996593504985779,0.07773637254614858,0.00019238929326025568
2_1,XY,145,958.4120763130961,2.053908908412307,0.06299336679569133,0.00015758513968660464
2_1,XY,166,949.676398906063,2.046502975203367,0.07281494827113434,0.00018620709987033745
2_1,XY,187,960.4773810383109,2.2920041061643923,0.0626851782532655,0.0001772698536081206
2_1,XY,208,962.549484302706,2.0018744044586727,0.06530392011825442,0.00016152835980411635
2_1,XY,229,951.620262896051,2.0941425941766427,0.06740385010000541,0.00017718914378024226
2_1,XY,250,950.5743480922793,1.9534866061967737,0.07505045578520234,0.00018434170130294877
2_1,XY,282,950.8720622415096,2.0355729139052405,0.07397329312331799,0.00018650199672787032
2_1,XY,303,945.2931560800907,2.164487442310703,0.07696381952627769,0.00020976412194806388
2_1,XY,324,951.2752203788941,1.947865297045449,0.06908097607524198,0.00016632427299870866
2_1,XY,345,944.5815222776563,2.093450878551168,0.07840408293411849,0.00020624193034730356
2_1,XY,366,952.9669666146841,2.038824742678141,0.07048657928347557,0.0001792081709953878
2_1,XY,387,948.4664171321016,2.179784081092989,0.077542537095699,0.00021094041622216118
2_1,XY,408,952.5399320297406,2.0970448595283937,0.06671608607449231,0.00017074191699015804
2_1,XY,429,960.0953515058791,1.9827969704633854,0.07430908704594347,0.00018334586260223068
2_1,XY,464,951.1420962579641,1.7359361595915506,0.0733386304814394,0.00016571009163723804
2_1,XY,485,946.0016861972568,2.132676423588634,0.07643378458705008,0.00020519069286928986
2_1,XY,506,947.992625479212,2.157225004985021,0.06568063738445312,0.00017588174254850095
2_1,XY,527,944.5039388199172,2.2685027857360693,0.07250178493265455,0.00020901417392928882
2_1,XY,548,946.075492421301,2.0802041308351105,0.07131203021638524,0.0001845606847061931
2_1,XY,569,948.927919511979,1.9643743164615164,0.0793661228068295,0.0001948643747602238
2_1,XY,590,949.8625976175595,1.7421986514057617,0.06866856058226795,0.00014869963427649208
2_1,XY,611,944.5078940995755,2.1218175210333787,0.07723739934308277,0.00020542431782133246
2_1,XY,643,954.6601073528427,1.934064558019731,0.07168004192131047,0.00016939257550249847
2_1,XY,664,947.2583282131855,1.8321779218434957,0.07589807550159422,0.0001789542064800798
2_1,XY,685,946.8053287062838,2.1571611049787944,0.06570808671193924,0.00017996585944456925
2_1,XY,706,955.2968269709039,2.089945314725906,0.06870223871365297,0.00017904122443935784
2_1,XY,727,952.0651640387432,1.9911712329540392,0.0682742936751167,0.00016713762692306035
2_1,XY,748,944.8267178230141,2.0539228594960877,0.07796534368663967,0.0002001798411171777
2_1,XY,769,947.565075462425,2.342894718354964,0.06256044178557392,0.00018518283833325795
2_1,XY,790,946.1534097970325,1.9936754472399287,0.0715944400320131,0.00017574427379084327
2_1,XY,822,960.2589202113102,2.1148770019754433,0.06461266055198263,0.0001710853756556546
2_1,XY,843,947.3127755040846,1.9211980990221975,0.07652632598195233,0.00018618523988779136
2_1,XY,864,950.5153531022601,2.114375499646843,0.06888277670593072,0.00018299334250368812
2_1,XY,885,944.7819504007936,1.9781859434316535,0.07953614388399737,0.0001984103629382013
2_1,XY,906,950.2289347706793,1.9842627339496772,0.06729345255607364,0.0001663965070264688
2_1,XY,927,942.4767292853047,1.931372828803799,0.07746253100282462,0.00018809705681669967
2_1,XY,948,951.4984689092487,2.1282667423372144,0.06733328595864202,0.00018032361539197084
2_1,XY,969,947.6148343804217,1.9363578284439036,0.07516040576584816,0.00018047910203706434
2_1,XY,1018,946.4411503836594,1.9988024990868707,0.07387215357830511,0.00018517328347271002
2_1,XY,1039,942.1370425990585,1.8680538943214617,0.07797224131017627,0.00018266774086974334
2_1,XY,1060,950.484355148354,1.9286490697828411,0.06884559239392156,0.00016593365072256313
2_1,XY,1081,946.9463415280734,1.9692170838405445,0.07664692857858538,0.0001892022171975685
2_1,XY,1102,955.468743345461,2.1815614009811015,0.06654944900278252,0.0001795409515831372
2_1,XY,1123,945.0182320272054,1.997217030244342,0.07402126304744444,0.00018491029161451047
2_1,XY,1144,946.9627921982433,1.9391103372514529,0.06866853156134449,0.0001652266956792088
2_1,XY,1165,947.9179728243734,1.9728337539782916,0.0789135815782087,0.00019321526250039046
2_1,XY,1197,946.659363398582,1.957051969890292,0.07146238801761919,0.0001772788216200026
2_1,XY,1218,946.8142443147069,1.9556619844751146,0.07774405902873861,0.00019078643241156185
2_1,XY,1239,946.7759780647098,2.2330430720311143,0.06864642212082189,0.00019370671042902928
2_1,XY,1260,948.6198773385,1.8731482829217874,0.07731732112122029,0.00018202176847322037
2_1,XY,1281,951.885098998568,2.0804998875053915,0.06985208456021398,0.0001783511003782642
2_1,XY,1302,949.6025220976741,1.9915855437541459,0.07805949405990822,0.0001936587574631537
2_1,XY,1323,952.535495302614,2.3207550765059612,0.06390068569758225,0.0001841184587555689
2_1,XY,1344,948.5745728180881,1.993569335032469,0.07517556046129291,0.00018359660239276616
2_1,XY,1376,951.064852686337,2.0024951295867184,0.07065454975115852,0.00017710705972798975
2_1,XY,1397,956.5552709547433,2.1249898029230176,0.06765620726366316,0.00017651105804133697
2_1,XY,1418,952.376567354289,2.0265722540172195,0.07163598375419483,0.0001836485197787377
2_1,XY,1439,959.5365726214094,2.0504821855441806,0.06393063234952671,0.00016266448465501079
2_1,XY,1460,951.7097748465171,1.9180017754398588,0.0689967780632811,0.00016429761470684184
2_1,XY,1481,946.2124363894129,1.9749640018669725,0.0760001482363785,0.00018980229624302746
2_1,XY,1502,953.8943247632727,2.076245969770896,0.06803626841464362,0.0001740253321210948
2_1,XY,1523,960.8762069539902,2.198842799611263,0.060961896108424986,0.00016526572784617127
2_1,XY,1555,963.7367700777817,2.12063049038454,0.06279697343576263,0.00016325986224187793
2_1,XY,1576,962.8913235645192,2.1379775116330695,0.06603768935573262,0.0001730461059238164
2_1,XY,1597,961.195141491167,2.058686659899651,0.05867554360434731,0.00014765778140729622
2_1,XY,1618,961.9000083596613,2.172792399151309,0.06425956163434231,0.00017361830632827332
2_1,XY,1639,947.7441105093965,1.8465799489566253,0.07860779454071987,0.00017965578820558609
2_1,XY,1660,949.1721751037264,1.9175746704705139,0.07943535182044556,0.0001896665757289225
2_1,XY,1681,956.0615334259222,1.9672451923070977,0.07354248321831704,0.00017988680152555709
2_1,XY,1702,952.204368269292,1.9074984135442843,0.07977438978711188,0.00018971194129817326
2_1,XY,1734,953.0266734910941,1.9368495769289147,0.07270747327614673,0.00017507202823041436
2_1,XY,1755,962.3954218101815,2.0625253042448493,0.05985590251879267,0.00015252374421633285
2_1,XY,1776,951.4392199754504,2.0376232539699966,0.07289470371340116,0.00018661377385218483
2_1,XY,1797,947.6663354281894,1.7902122182470912,0.0789131785956066,0.00017891537212211947
2_1,XY,1818,960.5407205943,1.9116899928250464,0.06587678317367333,0.00015634390009365792
2_1,XY,1839,964.566854746951,2.096330539883114,0.060530494579243935,0.0001586286442488798
2_1,XY,1860,952.4604178934243,2.030997335275935,0.075050775020881,0.00018806341479558048
2_1,XY,1881,944.8973823281406,1.9258228000766753,0.07987394266254898,0.00019389722047022322
2_1,XY,1916,954.2874739626061,2.0605655190550403,0.07207419229462651,0.0001843240145678762
2_1,XY,1937,958.9461453140336,2.1429224188574687,0.06063967446350149,0.00016283822336839805
2_1,XY,1958,955.1107113437026,2.059712390344157,0.07066809786685713,0.00018058773901446847
2_1,XY,1979,944.7859161675824,2.067210295373848,0.07599969573936993,0.00019743283852686648
2_1,XY,2000,952.455925746598,1.9882373268548625,0.07489838765239122,0.00018832911876218562
2_1,XY,2021,951.0471311914666,1.9865980861605919,0.07909630226911649,0.0001967071123920312
2_1,XY,2042,949.5609967857662,2.134331382911852,0.07412001907407416,0.00019711814416490701
2_1,XY,2063,950.6949122054014,1.9613192864990492,0.07812801978569592,0.00018980166910321467
2_1,XY,2095,952.207225641674,1.8998656449041413,0.07273336500993464,0.0001725663182944729
2_1,XY,2116,948.5805455431432,2.0482330771907056,0.07569762468944263,0.000193983831873582
2_1,XY,2137,948.6496934408217,2.0694158752671084,0.07237684279678054,0.0001857604301980556
2_1,XY,2158,949.4949853128053,1.8892045721997477,0.07810065073707471,0.00018414869520247534
2_1,XY,2179,949.75535420242,1.9653010855758934,0.07429426573380613,0.0001825592293302005
2_1,XY,2200,950.2056829413998,2.060036364965522,0.07898080080544158,0.00020427546130170806
2_1,XY,2221,953.2917884446238,2.0409740934713385,0.07495727132665281,0.00018996714765132008
2_1,XY,2242,950.9561578461328,2.0211441102479513,0.07810997712885358,0.00019430008618683927
2_1,XY,2274,952.1111459423316,2.0820785918301175,0.07467194067029352,0.0001946467463779763
2_1,XY,2295,952.0683290680367,1.998801965435417,0.07806823237617531,0.00019445674790352497
2_1,XY,2316,951.7636832809682,2.094710794608205,0.07358737622918193,0.00019104795969745582
2_1,XY,2337,951.8353279870399,2.049777649825808,0.06784299291040093,0.00017520421262374363
2_1,XY,2358,964.7636944061102,1.9970878441603301,0.06207637583643434,0.00015481482413378002
2_1,XY,2379,948.344644995074,2.049685718341003,0.07724766286639737,0.00020121096188011758
2_1,XY,2400,950.5424824177679,2.0660886693925233,0.07103122140640684,0.00018165616956376658
2_1,XY,2421,947.124305707943,2.047055214517474,0.07680948180742853,0.00019452343462829973
2_1,XY,2453,949.5658164755235,1.9332306426792796,0.07650086976776156,0.00018374154024078282
2_1,XY,2474,948.4743894894492,1.9005573874247164,0.08051259696659097,0.00019090091401531117
2_1,XY,2495,949.9069019072988,1.992453218521156,0.07327244500636912,0.0001826977634602342
2_1,XY,2516,947.4458500575299,2.061735052934253,0.0775645613208647,0.00020073394934354505
2_1,XY,2537,947.6435445999681,1.9833847553694517,0.07532103699627957,0.00018554401831730278
2_1,XY,2558,947.622726111264,1.9601812777265708,0.08147236572208391,0.0002022540128421311
2_1,XY,2579,952.5833344757156,1.854664093354137,0.07702374395165473,0.00017701353766500874
2_1,XY,2600,951.4283827803023,1.9905643280573342,0.07954151800997446,0.00019648721917241827
2_1,XY,2632,953.5882681076499,2.0031514875848666,0.07217257655249874,0.00018172704685905788
2_1,XY,2653,945.4372784880806,1.8973716749770224,0.07712389072131129,0.000181787416162677
2_1,XY,2674,957.1731710925085,2.028077522341784,0.06731000056289056,0.00016929302999368315
2_1,XY,2695,947.6688602042192,1.8831242617572146,0.0810110585868775,0.00019029938290989346
2_1,XY,2716,960.3168203304571,2.177624788052789,0.06668190080296232,0.00018084910356074563
2_1,XY,2737,942.0884860396488,2.051239755417088,0.07776608925136158,0.00020151932794787016
2_1,XY,2758,954.7046995406339,2.073108770185339,0.07186536521499846,0.00018652607704263595
2_1,XY,2779,947.7219958587758,1.9300058779913547,0.07717299753761606,0.0001865155193404117
2_1,XY,2818,947.3041820731784,1.9737633394041714,0.07541169761845355,0.00018653774070879342
2_1,XY,2839,947.087327985004,2.0052237373068498,0.07955473971434257,0.00020082613882162775
2_1,XY,2860,947.1467403295733,2.1751557715525354,0.07465174600718981,0.00020376995140408352
2_1,XY,2881,945.3223271379264,2.052859351197726,0.07975905664195368,0.0002064878522960779
2_1,XY,2902,946.0407716138396,2.1358146512040816,0.07489367104989615,0.00020313639459445935
2_1,XY,2923,949.3545612451319,1.8765509737226227,0.07925632758250681,0.0001847661304963066
2_1,XY,2944,947.7577586862432,2.127431490940067,0.07256577501536836,0.00019347211020304925
2_1,XY,2965,950.180485164466,1.9218479386296459,0.07571393604960325,0.0001817901720082152
2_1,XY,2997,950.0651092176151,2.0295968714156825,0.07366895849663482,0.0001850360199688157
2_1,XY,3018,949.7520431804608,2.0770758694134273,0.07757434897501955,0.00020365099939129277
2_1,XY,3039,948.3084905336319,2.2399277932778325,0.06982317163322495,0.00019569482908143087
2_1,XY,3060,944.399886311302,2.069402687930928,0.07526484955207365,0.0001959040763504296
2_1,XY,3081,947.6135153435268,1.9356415756626197,0.07324442240435138,0.00017853784041462593
2_1,XY,3102,947.1668628277856,1.8932883876546072,0.07804044425647241,0.00018169991360637253
2_1,XY,3123,951.78140590849,1.921135267199089,0.07576491251673632,0.00017912731517258642
2_1,XY,3144,943.8451122558961,1.8427192873508471,0.08026758442545649,0.0001827634683139512
