XscanNumber_YscanNumber,Type,BCID,xsec,xsecErr,SBIL,SBILErr
2_1,XY,103,947.8872798644351,2.811240759349532,0.06395904037384176,0.00021899302555888572
2_1,XY,124,930.718704620512,2.6332825311174117,0.08147739637829646,0.00026303725769443614
2_1,XY,145,934.4412451279633,2.6699805695721563,0.06591276035241232,0.00021138962603067116
2_1,XY,166,932.1761598895529,2.5499982965863106,0.07587608890683391,0.0002388745534788306
2_1,XY,187,937.806225454417,2.979549866424234,0.06580838136869656,0.00023932260562351
2_1,XY,208,941.7367897340446,2.683906648788461,0.06832779122895899,0.00022240960957222998
2_1,XY,229,931.464514500898,2.615256685260081,0.07052358394814205,0.00022836559629280123
2_1,XY,250,931.1569000082401,2.4325482923040775,0.0785633033410385,0.00023739525098767815
2_1,XY,282,940.3173802613672,2.6078071419883733,0.07589019630173253,0.0002416600219459526
2_1,XY,303,930.8853681831874,2.6901808532900198,0.08021657050835196,0.00026896520164712535
2_1,XY,324,933.5914050582069,2.4385335388904887,0.0718434451538311,0.00021433499767996672
2_1,XY,345,930.8331790991759,2.4928813428425705,0.08151322146689875,0.0002540874182669191
2_1,XY,366,933.8439903469051,2.696573412588059,0.07365066948198078,0.00024360359923830262
2_1,XY,387,932.4798495745822,2.591763752577481,0.08114046182955054,0.00026245255168765654
2_1,XY,408,934.228439625509,2.5527651902636306,0.069376923596391,0.00021536934656092143
2_1,XY,429,932.0981890539831,2.605337870165922,0.07828721792707344,0.0002479173994065357
2_1,XY,464,938.2794858020974,3.0171150274092287,0.07586699535649434,0.0002825991874781703
2_1,XY,485,935.9681143417508,2.674185003670912,0.07847632018454345,0.0002600907886877846
2_1,XY,506,936.9776360301031,2.6620679922972212,0.06738616993532755,0.00021976748017415602
2_1,XY,527,934.2225722410047,2.847096158960878,0.07482645129250275,0.0002675254513990425
2_1,XY,548,932.5966818052752,2.582607235566678,0.07347140826827919,0.00023306898377602054
2_1,XY,569,933.9222080088916,2.563522807061244,0.082006925841055,0.0002579759272216188
2_1,XY,590,937.5320960325319,2.5275559047421066,0.07067697652294525,0.00022030663375877075
2_1,XY,611,932.1687506933029,2.5858511296171636,0.07938992800026921,0.00025363345646391665
2_1,XY,643,941.6051689141369,2.505307245489307,0.0735754847271984,0.0002213161277488438
2_1,XY,664,937.2608044726619,2.5742542827374804,0.07788722088559105,0.0002480044619687806
2_1,XY,685,932.6469262922392,2.795457644830492,0.06790579274034575,0.00023440975524575755
2_1,XY,706,947.8358560577864,2.5729475217916864,0.07010152648876324,0.00022165236745756546
2_1,XY,727,937.7604537504336,2.4805037720736722,0.0701139706728177,0.0002101388499953983
2_1,XY,748,930.4386523510693,2.5584389772211615,0.08031210051162335,0.00025121201623495506
2_1,XY,769,933.6587980740776,2.8995535592073756,0.0648203783678717,0.00023426242616179647
2_1,XY,790,933.6788976892939,2.432511751906881,0.07360538668172328,0.00021877145652580938
2_1,XY,822,949.9080631829684,2.704006907083617,0.06610834229725163,0.00021847748058502364
2_1,XY,843,941.1853264273856,2.379138812681979,0.07778892830497437,0.00023012081359083
2_1,XY,864,938.5133450174471,2.5175404321301937,0.07094713459922707,0.00022249214947693975
2_1,XY,885,932.416759889059,2.460464072260542,0.08175730948574436,0.0002493753775117963
2_1,XY,906,936.6549617083748,2.4493486403736777,0.06918701566183434,0.00020725246378854958
2_1,XY,927,931.7262379010135,2.373666782261502,0.07936189341080456,0.0002327544853021877
2_1,XY,948,937.6026284878401,2.7740615654931835,0.06964863770699523,0.0002384346728217109
2_1,XY,969,933.1045788908805,2.3760152130549175,0.07745813914607896,0.00022548167699974511
2_1,XY,1018,936.2856829918911,2.5296048614618862,0.07576556159967604,0.00023665128089085674
2_1,XY,1039,933.6160557675263,2.204126938073355,0.07970730868906804,0.00021794226305933757
2_1,XY,1060,937.2433219173215,2.601025733763898,0.07073568936436025,0.00022364036621610314
2_1,XY,1081,937.9778569224186,2.4366264633061836,0.07827007585941435,0.00023508585031059004
2_1,XY,1102,940.7185115127379,2.8570062008963255,0.06872142868241508,0.0002390731236551841
2_1,XY,1123,935.8174121994404,2.3946552074203886,0.07560332686275811,0.0002231545161977102
2_1,XY,1144,937.5119575114356,2.414998353701373,0.07045217726849085,0.00020884816146754255
2_1,XY,1165,938.0386674598284,2.358981648082834,0.08086169515198079,0.00023461327793809032
2_1,XY,1197,936.6471001522682,2.419360515849749,0.07319701738640748,0.00021997858440687393
2_1,XY,1218,936.124968614873,2.4382481780157508,0.07959374072819606,0.00023872105164924064
2_1,XY,1239,937.5662484714234,2.7713991965040123,0.0704767845994351,0.00024310995581575218
2_1,XY,1260,941.1865895759977,2.3189133159127864,0.0786288038759446,0.0002243838469658807
2_1,XY,1281,935.4807822445797,2.711015091982456,0.07203894833723945,0.0002353156348475529
2_1,XY,1302,937.4408293535662,2.518226032039403,0.08013271409308564,0.00024647776069875094
2_1,XY,1323,939.6893236129036,2.975830799858494,0.06583150425193714,0.00023916822938351855
2_1,XY,1344,935.4427747705823,2.4598016802219846,0.07731633956129393,0.00023029164218409953
2_1,XY,1376,938.0327023983783,2.5385783146819323,0.07271831722918769,0.00022675767461756587
2_1,XY,1397,943.4839018341441,2.6604598257373655,0.06945852737680218,0.00022399290354508495
2_1,XY,1418,940.006971958279,2.646992188087415,0.07363377265021998,0.0002396599440971811
2_1,XY,1439,951.2287098118146,2.635508552128834,0.06519023590511665,0.00020865150241672898
2_1,XY,1460,936.9496791935919,2.4846406921091972,0.07127811225362124,0.00021631957190595066
2_1,XY,1481,934.4500298121927,2.52835545353934,0.07812235042333156,0.0002446343975425048
2_1,XY,1502,944.3090208569713,2.439606605343696,0.06975750089991475,0.00020836724553212777
2_1,XY,1523,952.3204609025621,2.7374195488840334,0.06217367087437783,0.00020630621480976493
2_1,XY,1555,954.0216475443086,2.7504858603167723,0.06416491759311221,0.0002122237126068516
2_1,XY,1576,949.9551389683546,2.7975124987260145,0.06787782209141521,0.00022847876635765456
2_1,XY,1597,952.1799979082416,2.733831452058951,0.05973865054531416,0.0001946364148572029
2_1,XY,1618,950.7136400478644,2.7662179295465608,0.06583153232325613,0.00022129648798761394
2_1,XY,1639,934.9678607725281,2.302780425470707,0.08085316963651912,0.00022781952806374292
2_1,XY,1660,939.4124076000073,2.3384142373430405,0.08127091776860824,0.00023324133997847416
2_1,XY,1681,939.2110933142686,2.599094485789079,0.07603617666310636,0.00023992826346577346
2_1,XY,1702,937.9336396736751,2.478519512522238,0.0823931412462263,0.00024988396033479547
2_1,XY,1734,938.5208482905504,2.494600517030623,0.07480353610047899,0.00022676941676148807
2_1,XY,1755,952.0096638465659,2.72021578907865,0.06114964073614892,0.00019937682546900697
2_1,XY,1776,941.0945519484384,2.517841144559472,0.07474876633042786,0.0002322712309591219
2_1,XY,1797,934.7570214675521,2.53966400695627,0.08108777558276276,0.00025154682758100303
2_1,XY,1818,948.0290678982722,2.5045600666924046,0.06746510000701673,0.00020347864857619226
2_1,XY,1839,955.8312404342438,2.9120388775197035,0.06189646149568294,0.00021918760489495395
2_1,XY,1860,936.5748970477737,2.558852787354994,0.0775408448674827,0.000241298998971135
2_1,XY,1881,936.3583757688757,2.3799149502476906,0.08171073809458447,0.00024172620364568053
2_1,XY,1916,940.5092891278463,2.5989120636483367,0.07407760521733106,0.00023412995056267157
2_1,XY,1937,950.1721469691103,2.779821455805172,0.06194452359145689,0.00021089923446707058
2_1,XY,1958,941.4503067504431,2.6557611291966627,0.07285914292850197,0.0002363272569767336
2_1,XY,1979,934.5552648186697,2.6440572565877267,0.07809560077930905,0.00025553436067542065
2_1,XY,2000,938.5982420970602,2.6291603996331463,0.07753320773563488,0.00025187573358206286
2_1,XY,2021,937.04966905668,2.6431951762397454,0.08153668602095204,0.00026320795147969554
2_1,XY,2042,935.621202131389,2.6998722240329727,0.07683576153654847,0.0002563757986585006
2_1,XY,2063,936.0274913095869,2.5094403532562475,0.0805989203698506,0.00024678292125478694
2_1,XY,2095,937.5299568835758,2.4995307486869223,0.07491546208350107,0.00022830640307534728
2_1,XY,2116,938.7226675321647,2.5948863939456497,0.07773399442185017,0.00024881444092051725
2_1,XY,2137,935.491042558973,2.670200957911672,0.07446562828087348,0.00024245500267843707
2_1,XY,2158,938.3520656672798,2.2915875088662414,0.08006194292261605,0.00022539244421261397
2_1,XY,2179,936.2838726731864,2.54687835998572,0.07668982360896096,0.00024026937198239607
2_1,XY,2200,935.1674230650461,2.762504601506167,0.08190396087991507,0.000279016212287503
2_1,XY,2221,939.8578304223715,2.572582632240867,0.0771449220542999,0.00024302417130328896
2_1,XY,2242,935.3194966102516,2.4466443181923196,0.0807170237263118,0.00024068834757746905
2_1,XY,2274,937.9929176808432,2.5926591889669317,0.0769469018352214,0.0002454773568466315
2_1,XY,2295,940.6750396799638,2.5294032351299416,0.08011066344086215,0.00024811310291742214
2_1,XY,2316,937.7377414818701,2.753609184272067,0.07577754198704792,0.0002537235605835558
2_1,XY,2337,942.8780301372033,2.521686451307372,0.06930231388468386,0.00021589201685042576
2_1,XY,2358,953.0512173251722,2.6732457100315914,0.06364706822575189,0.00020585956659898975
2_1,XY,2379,937.5196073032831,2.66353654693454,0.07958037643420836,0.0002637392246857021
2_1,XY,2400,938.6470462867708,2.6110273634450727,0.07302547770798613,0.00023330725188372537
2_1,XY,2421,933.7031352613882,2.548167633621821,0.07917286872773141,0.0002466511279774161
2_1,XY,2453,935.6760783790551,2.4910182908198797,0.07894074496929897,0.00024153029431674052
2_1,XY,2474,934.3930651228001,2.3139560994211483,0.0828256100604808,0.0002350228167154687
2_1,XY,2495,939.0388541147254,2.390621540141431,0.07514230494280089,0.0002212432339156533
2_1,XY,2516,935.7727255781102,2.600286687971547,0.08006436000348405,0.0002582686910562985
2_1,XY,2537,937.0559660739476,2.3876200479873106,0.0772451362032573,0.00022625088350735644
2_1,XY,2558,936.2948092207893,2.5575853296021864,0.08391929557897769,0.0002661913037973374
2_1,XY,2579,938.5033640720497,2.3365557345745662,0.07918265672508715,0.00022456152018821335
2_1,XY,2600,935.3434199615754,2.563360273830232,0.08239106654547144,0.00025877772475042853
2_1,XY,2632,940.5096884562593,2.6511580314240177,0.07447401534746452,0.0002426556360677538
2_1,XY,2653,935.6414960081967,2.2898502348906504,0.07889669093413636,0.00022200186402413492
2_1,XY,2674,946.0463184131049,2.558733643268943,0.06902230040289259,0.00021522167538698568
2_1,XY,2695,934.7917460388022,2.3572034048718766,0.08321196873995994,0.00023995885102021217
2_1,XY,2716,947.9635789816042,2.6967708215280006,0.06844439830066006,0.00022469664675036
2_1,XY,2737,933.054120180349,2.5136071939132565,0.0797735811812688,0.0002501470708388875
2_1,XY,2758,938.9604995478753,2.702303068700943,0.07431805984857284,0.00024558539188232004
2_1,XY,2779,934.8304730317866,2.4112924850873663,0.07948162912783074,0.0002357446378569288
2_1,XY,2818,933.5368194737812,2.5896692267379984,0.07796639280144625,0.00024887339530260227
2_1,XY,2839,932.3544788024167,2.5387612129082444,0.08247149795346659,0.0002601844281243202
2_1,XY,2860,934.205195457212,2.6823297172793317,0.07705437419487456,0.00025667964333419267
2_1,XY,2881,929.969570356104,2.6283497820914934,0.0825420794491449,0.00026841774234946105
2_1,XY,2902,935.6703378873927,2.6913779318358166,0.07750406487075595,0.0002619104991415871
2_1,XY,2923,934.8641999839144,2.4495583115524573,0.08166759243074202,0.00024365390556731445
2_1,XY,2944,935.1916962279022,2.6534698038973588,0.0749330362015775,0.0002464124872037618
2_1,XY,2965,934.9754994654422,2.494381898634611,0.07827907486449955,0.00023934839424379957
2_1,XY,2997,937.9601210033189,2.5793248184997313,0.07564910408972329,0.00023817352629222304
2_1,XY,3018,939.0651315678763,2.721087020116843,0.07958408089777966,0.00026701850974477975
2_1,XY,3039,936.524367271028,2.8291486198563964,0.07186209215314468,0.0002508276306686757
2_1,XY,3060,934.0112691131923,2.5153334707714445,0.07731151870278906,0.00024184590319647722
2_1,XY,3081,930.9421733201303,2.587630653604113,0.07586632956908998,0.0002410034202666867
2_1,XY,3102,933.5858009105469,2.3441321401863977,0.0804443804557806,0.00023004750293567112
2_1,XY,3123,940.3141343603369,2.3489892366199236,0.07780945004997947,0.00022275041547309508
2_1,XY,3144,930.1185276565949,2.3124981586305795,0.08277787029207026,0.0002335583525228903
