[
    [
        "XscanNumber_YscanNumber",
        "Type",
        "BCID",
        "xsec",
        "xsecErr",
        "SBIL",
        "SBILErr"
    ],
    [
        "1_2",
        "XY",
        "103",
        304.57187889773064,
        2.2586703208502588,
        0.06382682897632695,
        0.0005634746067205103
    ],
    [
        "1_2",
        "XY",
        "124",
        302.3276690994418,
        2.046869049426434,
        0.07848588911271331,
        0.0006231935640614964
    ],
    [
        "1_2",
        "XY",
        "145",
        304.30336309701636,
        2.3915810624095157,
        0.0634209891985716,
        0.0005907238308680131
    ],
    [
        "1_2",
        "XY",
        "166",
        302.025527440387,
        2.291094165995998,
        0.07303476775853598,
        0.0006586769107081641
    ],
    [
        "1_2",
        "XY",
        "187",
        303.1607828699905,
        2.361786202962447,
        0.0638338847380546,
        0.0005909829496093104
    ],
    [
        "1_2",
        "XY",
        "208",
        304.358221480559,
        1.8511037595473072,
        0.0665116137762687,
        0.0004918737700336838
    ],
    [
        "1_2",
        "XY",
        "229",
        306.99797295863686,
        2.3425881402542403,
        0.0671016575138639,
        0.0006080673477767671
    ],
    [
        "1_2",
        "XY",
        "250",
        304.9036726578813,
        2.2376657720165105,
        0.07462687804698229,
        0.0006483198204244142
    ],
    [
        "1_2",
        "XY",
        "282",
        11.079465320189707,
        19.59408851896019,
        0.987844445000189,
        1.7470219831197304
    ],
    [
        "1_2",
        "XY",
        "303",
        302.70835104236363,
        2.216136039707278,
        0.07663306278773473,
        0.0006568313712131461
    ],
    [
        "1_2",
        "XY",
        "324",
        303.13798250553253,
        2.184271186353102,
        0.06937813253990696,
        0.0005878429067176528
    ],
    [
        "1_2",
        "XY",
        "345",
        300.8384286649276,
        2.2408652080666487,
        0.0783191638267355,
        0.000691589996973768
    ],
    [
        "1_2",
        "XY",
        "366",
        13.527451137285508,
        4.529725798937714,
        0.8234963559558824,
        0.2758028243991126
    ],
    [
        "1_2",
        "XY",
        "387",
        303.43069458417307,
        2.10118949981877,
        0.07784005061950786,
        0.0006272907509138869
    ],
    [
        "1_2",
        "XY",
        "408",
        302.15140210182676,
        2.2235687346993336,
        0.0672266427105898,
        0.0005867887289076791
    ],
    [
        "1_2",
        "XY",
        "429",
        304.66651150005913,
        2.240729013298918,
        0.074419717795029,
        0.0006610536044481521
    ],
    [
        "1_2",
        "XY",
        "464",
        300.9192114421563,
        2.112539757332886,
        0.07413422288971762,
        0.0006273236729312098
    ],
    [
        "1_2",
        "XY",
        "485",
        187.76254912472203,
        2.4003960952070544,
        0.060447248285595036,
        0.0008651521973123341
    ],
    [
        "1_2",
        "XY",
        "506",
        302.69579231141716,
        2.1406540322076606,
        0.06690134029241382,
        0.0005475387506862417
    ],
    [
        "1_2",
        "XY",
        "527",
        301.9248886541311,
        2.0880487973582893,
        0.07298881487945574,
        0.0005989430781186137
    ],
    [
        "1_2",
        "XY",
        "548",
        302.0164871732734,
        2.228324941474412,
        0.07160101982200295,
        0.0006306720066024249
    ],
    [
        "1_2",
        "XY",
        "569",
        301.40934361626284,
        2.049594097582493,
        0.08059037924251704,
        0.0006577751398079339
    ],
    [
        "1_2",
        "XY",
        "590",
        304.0383850972756,
        2.213316355923636,
        0.06862292186877936,
        0.0005930842319614324
    ],
    [
        "1_2",
        "XY",
        "611",
        300.82645618443314,
        2.0247329273746404,
        0.07740196758913048,
        0.0006191953646085582
    ],
    [
        "1_2",
        "XY",
        "643",
        300.62210330913865,
        2.0720938346145084,
        0.0727995799171943,
        0.0005904867332319401
    ],
    [
        "1_2",
        "XY",
        "664",
        301.2987457402059,
        1.9780915868792042,
        0.07708604782559172,
        0.0005921344232623537
    ],
    [
        "1_2",
        "XY",
        "685",
        303.1035106857359,
        2.202116270415295,
        0.0659992545592321,
        0.0005704351469167455
    ],
    [
        "1_2",
        "XY",
        "706",
        304.70210786375804,
        2.2302045246572315,
        0.06921649429778866,
        0.0006044323644869738
    ],
    [
        "1_2",
        "XY",
        "727",
        302.6005943001239,
        2.0934702509365106,
        0.06974398421530477,
        0.0005709357988459703
    ],
    [
        "1_2",
        "XY",
        "748",
        22.754494718800345,
        24.801115796430334,
        0.5169548433513572,
        0.5634624026880557
    ],
    [
        "1_2",
        "XY",
        "769",
        300.60371338757125,
        2.3117561449855857,
        0.06311197082647341,
        0.0005712015650697004
    ],
    [
        "1_2",
        "XY",
        "790",
        -0.3454643300157488,
        -0.12608869508899695,
        0.2579594230493323,
        -0.09529879047319252
    ],
    [
        "1_2",
        "XY",
        "822",
        303.61602772910453,
        2.2081651043226698,
        0.06656084854446313,
        0.000575444338622979
    ],
    [
        "1_2",
        "XY",
        "843",
        303.8503406368139,
        2.1452740438230062,
        0.07702729055931486,
        0.0006396856298121318
    ],
    [
        "1_2",
        "XY",
        "864",
        51.414974251157446,
        1.0346912207488816,
        0.2024590837647039,
        0.004335563276339241
    ],
    [
        "1_2",
        "XY",
        "885",
        303.7342105007768,
        2.106302801372455,
        0.07898513846884779,
        0.0006497272509346718
    ],
    [
        "1_2",
        "XY",
        "906",
        302.1551174130175,
        2.148436022000872,
        0.06786251412886428,
        0.0005611162891417054
    ],
    [
        "1_2",
        "XY",
        "927",
        301.76911027719956,
        1.9853830946185602,
        0.0777191920804359,
        0.0006000167029428412
    ],
    [
        "1_2",
        "XY",
        "948",
        300.4511453490933,
        2.130533706683891,
        0.0685542806409567,
        0.0005767462117223809
    ],
    [
        "1_2",
        "XY",
        "969",
        300.62989291908633,
        2.0894587541215826,
        0.07530409261089054,
        0.0006252346215854253
    ],
    [
        "1_2",
        "XY",
        "1018",
        304.0429922002309,
        2.1991061686198505,
        0.0739432164827051,
        0.0006307433690148112
    ],
    [
        "1_2",
        "XY",
        "1039",
        301.3452667734763,
        2.1903604897107662,
        0.07815319283751479,
        0.0006766689762865387
    ],
    [
        "1_2",
        "XY",
        "1060",
        301.8359209673792,
        2.297232308925271,
        0.06920438045538112,
        0.0006217405224175557
    ],
    [
        "1_2",
        "XY",
        "1081",
        300.4585109999787,
        2.02539364386213,
        0.07712140145117188,
        0.0006146702414631291
    ],
    [
        "1_2",
        "XY",
        "1102",
        303.66833564051706,
        2.2034374787276896,
        0.06726459744849664,
        0.0005826872912080628
    ],
    [
        "1_2",
        "XY",
        "1123",
        301.4839202970952,
        2.12933197728076,
        0.07418209680160086,
        0.0006258230161636963
    ],
    [
        "1_2",
        "XY",
        "1144",
        302.06166034488814,
        2.087133764746657,
        0.06901980590393757,
        0.0005693782717132713
    ],
    [
        "1_2",
        "XY",
        "1165",
        302.64041224996515,
        2.0501917531153353,
        0.07992595609228481,
        0.0006490622216668998
    ],
    [
        "1_2",
        "XY",
        "1197",
        303.62217496536647,
        2.147297816786721,
        0.07143520835930975,
        0.00060098867522838
    ],
    [
        "1_2",
        "XY",
        "1218",
        301.232447010196,
        2.161675191288645,
        0.07804670492870097,
        0.0006717556295796731
    ],
    [
        "1_2",
        "XY",
        "1239",
        301.6442703554115,
        2.1434515846139286,
        0.06863854422273577,
        0.0005762210415544084
    ],
    [
        "1_2",
        "XY",
        "1260",
        298.99378878094694,
        2.0473386217677394,
        0.07786077210447928,
        0.0006465154517371905
    ],
    [
        "1_2",
        "XY",
        "1281",
        302.2958036024104,
        2.1188339731724932,
        0.07012102883224999,
        0.0005923423120521514
    ],
    [
        "1_2",
        "XY",
        "1302",
        301.04044195816704,
        2.1759062325553473,
        0.07864533110067089,
        0.0006675226469759917
    ],
    [
        "1_2",
        "XY",
        "1323",
        302.62810105873393,
        2.4957031166341554,
        0.06356963291091851,
        0.0006308930538367228
    ],
    [
        "1_2",
        "XY",
        "1344",
        301.2653747963811,
        2.0918078603147015,
        0.07524411227285724,
        0.0006198766337379982
    ],
    [
        "1_2",
        "XY",
        "1376",
        299.91980175419593,
        2.16944760271267,
        0.071753725447696,
        0.0006121235892163931
    ],
    [
        "1_2",
        "XY",
        "1397",
        303.3922332326722,
        2.0115156001242296,
        0.06822616618450902,
        0.0005333600010721117
    ],
    [
        "1_2",
        "XY",
        "1418",
        301.93890706148113,
        2.160025647739457,
        0.07213596306892543,
        0.0006102318051554703
    ],
    [
        "1_2",
        "XY",
        "1439",
        304.2179659880496,
        2.1959461513208662,
        0.0650648981154548,
        0.0005592599470832062
    ],
    [
        "1_2",
        "XY",
        "1460",
        303.78156396653446,
        2.2948632925479266,
        0.06976301230724921,
        0.0006272084544823154
    ],
    [
        "1_2",
        "XY",
        "1481",
        302.43976871569004,
        2.0020483808779446,
        0.07681936665242575,
        0.0006002369485234959
    ],
    [
        "1_2",
        "XY",
        "1502",
        300.6161781780734,
        2.2604080450913173,
        0.06926723446956375,
        0.0006109157619324085
    ],
    [
        "1_2",
        "XY",
        "1523",
        304.7835495203798,
        2.3113682619765354,
        0.06244760012663781,
        0.0005655627195562914
    ],
    [
        "1_2",
        "XY",
        "1555",
        303.8995621157348,
        2.070270678443505,
        0.06454631742828378,
        0.0005214426114560352
    ],
    [
        "1_2",
        "XY",
        "1576",
        306.23425184997654,
        2.172204891228238,
        0.0673904938088575,
        0.0005651979055945393
    ],
    [
        "1_2",
        "XY",
        "1597",
        305.03920587742283,
        2.1004800602690894,
        0.06057257198963342,
        0.0004937439091898097
    ],
    [
        "1_2",
        "XY",
        "1618",
        305.11143373558644,
        2.177596843003989,
        0.0659054532770698,
        0.0005637773277718778
    ],
    [
        "1_2",
        "XY",
        "1639",
        300.4594571359281,
        2.082185174446945,
        0.07898444496711093,
        0.0006551781062087625
    ],
    [
        "1_2",
        "XY",
        "1660",
        302.70155422517774,
        1.960679673244234,
        0.07863021633080847,
        0.0006060552866789281
    ],
    [
        "1_2",
        "XY",
        "1681",
        302.9629214569422,
        2.049496285168262,
        0.07485277289419416,
        0.0006039091234670912
    ],
    [
        "1_2",
        "XY",
        "1702",
        300.5252334184941,
        2.052610678915268,
        0.08128146825920586,
        0.0006670656162417823
    ],
    [
        "1_2",
        "XY",
        "1734",
        302.37351210216195,
        2.115306064042432,
        0.07358433668678609,
        0.0006163509040157879
    ],
    [
        "1_2",
        "XY",
        "1755",
        306.19323707595726,
        2.3928714371149855,
        0.06133477249518299,
        0.0005739725715080697
    ],
    [
        "1_2",
        "XY",
        "1776",
        302.1177973778829,
        2.1513274950885766,
        0.07403320020154427,
        0.0006269281711825617
    ],
    [
        "1_2",
        "XY",
        "1797",
        303.7085173962484,
        2.164233484197422,
        0.0785314797432858,
        0.0006636111370263005
    ],
    [
        "1_2",
        "XY",
        "1818",
        302.6098269321691,
        2.169867006244839,
        0.06782931287060828,
        0.0005852639011423304
    ],
    [
        "1_2",
        "XY",
        "1839",
        306.0586684614463,
        2.2085553344693225,
        0.061933424569386275,
        0.0005320582174578375
    ],
    [
        "1_2",
        "XY",
        "1860",
        298.5716206535202,
        2.0364915041903737,
        0.0756268651731028,
        0.0006079327539365656
    ],
    [
        "1_2",
        "XY",
        "1881",
        15.201842895357352,
        1.7249182974083188,
        0.8115431004934427,
        0.09222516604241701
    ],
    [
        "1_2",
        "XY",
        "1916",
        303.28531324223627,
        2.105652626361772,
        0.07189725452056213,
        0.0005922215588806595
    ],
    [
        "1_2",
        "XY",
        "1937",
        306.5543542073323,
        2.3280509662121585,
        0.06185474895103069,
        0.000555820860074031
    ],
    [
        "1_2",
        "XY",
        "1958",
        301.1717746363254,
        2.193966801588814,
        0.07212875726093072,
        0.0006269431053337852
    ],
    [
        "1_2",
        "XY",
        "1979",
        302.52492871862376,
        2.1560727982050607,
        0.0761637609791226,
        0.0006471950666909044
    ],
    [
        "1_2",
        "XY",
        "2000",
        302.30309077695915,
        2.0665873712489593,
        0.07588663017320309,
        0.0006172893234400649
    ],
    [
        "1_2",
        "XY",
        "2021",
        302.2890188567105,
        1.954973734021435,
        0.07998442259343773,
        0.0006081762698886419
    ],
    [
        "1_2",
        "XY",
        "2042",
        302.78004430665857,
        2.1334135159960543,
        0.07482655170984187,
        0.0006211406808993097
    ],
    [
        "1_2",
        "XY",
        "2063",
        300.6115742317947,
        2.0619080168120094,
        0.07895004521702417,
        0.0006416141989423751
    ],
    [
        "1_2",
        "XY",
        "2095",
        300.74044355801146,
        2.2048272828225186,
        0.07418637249346026,
        0.0006430045114288152
    ],
    [
        "1_2",
        "XY",
        "2116",
        302.27033750024196,
        2.101452640145575,
        0.0763969251799362,
        0.0006253583662617775
    ],
    [
        "1_2",
        "XY",
        "2137",
        299.37851018555756,
        2.1094325855629603,
        0.07373139936397949,
        0.0006156311216094826
    ],
    [
        "1_2",
        "XY",
        "2158",
        301.0633385029082,
        2.1204643262104645,
        0.07895708448703082,
        0.0006594329836833535
    ],
    [
        "1_2",
        "XY",
        "2179",
        302.5849836065518,
        2.0958862871719908,
        0.07499609081826031,
        0.0006162945748530848
    ],
    [
        "1_2",
        "XY",
        "2200",
        303.90014054067854,
        2.0522485067449168,
        0.08014190563504736,
        0.0006471379766553792
    ],
    [
        "1_2",
        "XY",
        "2221",
        302.2218232678685,
        2.2343969872534206,
        0.07590600985626154,
        0.0006822229487792467
    ],
    [
        "1_2",
        "XY",
        "2242",
        242.61074275397317,
        1.6591936183032052,
        0.08060279170603742,
        0.0006588029502895635
    ],
    [
        "1_2",
        "XY",
        "2274",
        300.78832740911025,
        2.1042671036071052,
        0.07611407293630222,
        0.0006361596930023125
    ],
    [
        "1_2",
        "XY",
        "2295",
        302.8923697267589,
        2.008573289520416,
        0.07739816945879928,
        0.0006163952895454771
    ],
    [
        "1_2",
        "XY",
        "2316",
        303.6095875660211,
        1.949541552025465,
        0.07372631736330147,
        0.0005562688299175793
    ],
    [
        "1_2",
        "XY",
        "2337",
        301.08203852987214,
        2.1129662678547687,
        0.06900519822135137,
        0.0005764780391462046
    ],
    [
        "1_2",
        "XY",
        "2358",
        304.1913616157306,
        2.2102223311580023,
        0.0637153630918671,
        0.0005492488027281897
    ],
    [
        "1_2",
        "XY",
        "2379",
        303.2217384720422,
        2.1036194027228157,
        0.07719132727100528,
        0.00063580913639294
    ],
    [
        "1_2",
        "XY",
        "2400",
        301.3101615617451,
        2.215601127555571,
        0.0718454920730247,
        0.0006241374973513702
    ],
    [
        "1_2",
        "XY",
        "2421",
        302.5032310118457,
        2.0784584461178097,
        0.07778535397768055,
        0.0006346978792281276
    ],
    [
        "1_2",
        "XY",
        "2453",
        303.5245671018048,
        2.0343909702917036,
        0.07689843533154643,
        0.0006094203433261086
    ],
    [
        "1_2",
        "XY",
        "2474",
        302.07589091495277,
        2.0080388706643446,
        0.08121690766140066,
        0.0006444819164485563
    ],
    [
        "1_2",
        "XY",
        "2495",
        301.2302455583694,
        2.02132007194135,
        0.07396510358777036,
        0.0005832276104113281
    ],
    [
        "1_2",
        "XY",
        "2516",
        298.91890629083434,
        2.0885755516034754,
        0.07929942903680404,
        0.0006606545444721802
    ],
    [
        "1_2",
        "XY",
        "2537",
        305.62619461419547,
        2.1664266931708926,
        0.07513345822719536,
        0.0006416678965882822
    ],
    [
        "1_2",
        "XY",
        "2558",
        302.9720994038737,
        1.9387615756572398,
        0.08190110305086501,
        0.0006248829104171607
    ],
    [
        "1_2",
        "XY",
        "2579",
        303.2925942031938,
        1.9917763872785292,
        0.07788575007203441,
        0.0006088047678813415
    ],
    [
        "1_2",
        "XY",
        "2600",
        301.27453050221277,
        1.9827235514602384,
        0.08079748405205758,
        0.0006323286422223357
    ],
    [
        "1_2",
        "XY",
        "2632",
        303.0900872482247,
        2.073971446122994,
        0.07241508788075487,
        0.0005817673063621012
    ],
    [
        "1_2",
        "XY",
        "2653",
        301.86106004239787,
        2.057774517803519,
        0.07690665031200752,
        0.0006189306319869909
    ],
    [
        "1_2",
        "XY",
        "2674",
        303.8334148539467,
        2.115474082388713,
        0.06812131139055914,
        0.0005557368018859604
    ],
    [
        "1_2",
        "XY",
        "2695",
        302.25183223418856,
        2.1547435556627716,
        0.08174843176739681,
        0.0006909652180642434
    ],
    [
        "1_2",
        "XY",
        "2716",
        302.60957627770176,
        2.053519058134342,
        0.06746817130353937,
        0.0005447068709721739
    ],
    [
        "1_2",
        "XY",
        "2737",
        299.9312127307151,
        2.0579717730587674,
        0.07829654176814857,
        0.0006359653124733138
    ],
    [
        "1_2",
        "XY",
        "2758",
        13.543399646874295,
        4.060910581881259,
        0.8061842376133223,
        0.2417758434074135
    ],
    [
        "1_2",
        "XY",
        "2779",
        300.11917800794834,
        2.128390511872214,
        0.07769876112357361,
        0.0006507405061391468
    ],
    [
        "1_2",
        "XY",
        "2818",
        301.2452993695533,
        2.0851105555672276,
        0.0760470092057494,
        0.0006204480222059666
    ],
    [
        "1_2",
        "XY",
        "2839",
        300.8738124838956,
        2.083106189869763,
        0.0799990359526373,
        0.0006574173821768814
    ],
    [
        "1_2",
        "XY",
        "2860",
        25.650916806925732,
        0.6364091443514327,
        0.44227346780799975,
        0.011266375872664193
    ],
    [
        "1_2",
        "XY",
        "2881",
        300.4120665941661,
        2.095092215286916,
        0.07951356047203385,
        0.0006635474360219379
    ],
    [
        "1_2",
        "XY",
        "2902",
        303.35951642375227,
        2.0627165332369644,
        0.07523979897137846,
        0.0006016689077063265
    ],
    [
        "1_2",
        "XY",
        "2923",
        305.6706939847713,
        2.133334540150927,
        0.07828222740104693,
        0.0006438986752043496
    ],
    [
        "1_2",
        "XY",
        "2944",
        303.85365553663434,
        2.1013357408458964,
        0.07349819912399669,
        0.0005984632727220408
    ],
    [
        "1_2",
        "XY",
        "2965",
        301.07469177902107,
        2.103919866779738,
        0.07663108505128235,
        0.0006398918010035128
    ],
    [
        "1_2",
        "XY",
        "2997",
        301.467312162702,
        2.094095233190877,
        0.07440674997798997,
        0.0006137419156670838
    ],
    [
        "1_2",
        "XY",
        "3018",
        300.8549325876843,
        2.0720965986501976,
        0.07869610811487698,
        0.0006364562496956926
    ],
    [
        "1_2",
        "XY",
        "3039",
        302.43680291982776,
        2.0527738189893037,
        0.07087748596881194,
        0.0005699506442801673
    ],
    [
        "1_2",
        "XY",
        "3060",
        293.0250610959814,
        1.9592423331858055,
        0.07798771215792445,
        0.0006216350216700019
    ],
    [
        "1_2",
        "XY",
        "3081",
        303.54020682038094,
        2.308647220616804,
        0.07331261373205505,
        0.0006622946494500129
    ],
    [
        "1_2",
        "XY",
        "3102",
        302.701304682262,
        2.1453503049924563,
        0.07755866653605879,
        0.0006562486755986176
    ],
    [
        "1_2",
        "XY",
        "3123",
        300.98759613980474,
        2.1218259196268905,
        0.07635144739254207,
        0.0006432431594447835
    ],
    [
        "1_2",
        "XY",
        "3144",
        302.09182720018947,
        2.145226601854642,
        0.08054401749332149,
        0.0006885987810445143
    ]
]