XscanNumber_YscanNumber,Type,BCID,xsec,xsecErr,SBIL,SBILErr
1_2,XY,103,303.1607000083118,2.2577927863159477,0.0643838539848626,0.0005701313517794752
1_2,XY,124,300.1874771204301,2.045538534264445,0.07940935378998017,0.0006335937078220296
1_2,XY,145,302.4544670423025,2.3902323307886935,0.06404917644280182,0.0005990187731461302
1_2,XY,166,299.74733114461446,2.2877922431287323,0.07386683971186667,0.000669272336871479
1_2,XY,187,301.29504576400916,2.361001593271726,0.06446528910713034,0.0005994277867519478
1_2,XY,208,302.3718339684094,2.3140883540171666,0.0672060234451256,0.0006099861876071714
1_2,XY,229,305.0495401302922,2.3433941837710193,0.06777721862611871,0.000617295799495513
1_2,XY,250,302.73324127693706,2.2364442276791445,0.07546889734815505,0.0006589003714582582
1_2,XY,282,293.3116163354644,1.7872401085431053,0.07875124084706685,0.0005818363376737052
1_2,XY,303,300.69613913221224,2.194392017112455,0.07749323131516068,0.0006607955845763762
1_2,XY,324,301.0640218112054,1.8527586078768579,0.07015178580678667,0.0005188028178191286
1_2,XY,345,298.63164186152704,2.23762784124444,0.0792308815564814,0.0007027045521188348
1_2,XY,366,20.663306400097586,8.779104648977908,0.5309230548901902,0.22559672476965437
1_2,XY,387,301.2338980960507,2.0993014546374353,0.07876211609871761,0.0006377551221245784
1_2,XY,408,300.1666687652563,2.22085377240403,0.06793297018274772,0.0005953134475744823
1_2,XY,429,302.5484562015857,2.2351487346868035,0.07524082296309388,0.0006704578291730495
1_2,XY,464,299.08436697189103,2.1090063493058278,0.0749368473093969,0.0006361289098659681
1_2,XY,485,187.46654770498347,2.4107278609666527,0.060747493055596326,0.0008734227497671348
1_2,XY,506,300.83560298938886,2.141871376987734,0.0676190842385437,0.000556270288329125
1_2,XY,527,300.008832472137,2.094094644538049,0.07377764258920706,0.0006097090892013964
1_2,XY,548,300.18237194305266,2.226296138273971,0.072348586523231,0.0006396560530354743
1_2,XY,569,299.25194360434375,2.1178950375758467,0.08152693871081064,0.0006852160062779985
1_2,XY,590,302.08112089846145,2.21063127499243,0.06935810954448257,0.0006017653596129733
1_2,XY,611,298.82043200918685,2.0234288341355375,0.07826397295180706,0.0006288885868672296
1_2,XY,643,298.9515780832124,2.071950233039663,0.07354681231011703,0.0005989908081162537
1_2,XY,664,299.29471881451036,1.9773497809294216,0.07796578633494991,0.0006017165869275472
1_2,XY,685,301.33081835079344,2.199561539240897,0.06666881963212541,0.0005781980496462217
1_2,XY,706,302.9403794591264,2.2284053794089935,0.06989441132151877,0.000612586471694128
1_2,XY,727,300.7090496336468,2.0916732169857664,0.07049719652482281,0.000579395464824459
1_2,XY,748,23.236428424129432,11.248785528919074,0.5084801004023878,0.24617536108504087
1_2,XY,769,298.75378528897244,2.310449085022511,0.06376303983162726,0.0005795300460219874
1_2,XY,790,-8439692.269693037,-2847918.6757626827,0.10232652466694493,-0.035131406197471064
1_2,XY,822,302.1243485814446,2.207580612823311,0.06717013311520817,0.000582676106320529
1_2,XY,843,301.87312432040056,2.1459968830158984,0.07786575456311874,0.0006500090482642244
1_2,XY,864,23.278803801130817,11.42295076255147,0.45130308928733426,0.22147866073915598
1_2,XY,885,301.6922985239442,2.102772300018708,0.07988513237516522,0.0006595186525204315
1_2,XY,906,300.25268354914533,2.148026582846004,0.06859857857266757,0.0005698604410939058
1_2,XY,927,299.6484190325996,1.9838666818623507,0.07863093912664072,0.000609944796982974
1_2,XY,948,298.72744228454036,2.128442596729547,0.06924473045681437,0.000584563368427693
1_2,XY,969,298.7192823503991,2.0854125689878265,0.07612874230459547,0.0006340411630610807
1_2,XY,1018,302.12407772597703,2.1985010251607537,0.07473781659961821,0.0006403904466003681
1_2,XY,1039,299.15553379465797,2.1894741693814597,0.07906481792908604,0.0006881361978752585
1_2,XY,1060,299.9151731594006,2.2941958701634806,0.06995183441210237,0.0006307791932042227
1_2,XY,1081,298.43065832456165,2.0247390044515154,0.07799697458113111,0.000624641944381419
1_2,XY,1102,301.8012194077655,2.2007017643563276,0.06795800547534243,0.0005908019527848514
1_2,XY,1123,299.55004311005507,2.081411934074963,0.07499165973548837,0.0006190200551294216
1_2,XY,1144,300.21150553274725,2.0838032333578367,0.06974224437222779,0.0005771991123846037
1_2,XY,1165,300.9371285168508,2.049367588279891,0.08076371535570621,0.0006583118063983882
1_2,XY,1197,301.7127997451987,2.145403411946152,0.07220157334058933,0.0006098437730497262
1_2,XY,1218,299.226429595918,2.16032274392743,0.07891748890338438,0.000682267746119335
1_2,XY,1239,299.9104554332608,2.1429457914893097,0.0693256508836253,0.0005843399943225762
1_2,XY,1260,297.00817623128734,2.044402001670069,0.0787173981984183,0.0006560600162043813
1_2,XY,1281,300.5558647028673,2.1182157466784126,0.07081017714393978,0.0006005370126058712
1_2,XY,1302,298.8888416371179,2.1746616235875216,0.0795812859952083,0.0006788105888704761
1_2,XY,1323,300.8152530053416,2.492271499779184,0.06420961558116155,0.0006393797773237989
1_2,XY,1344,299.5490296163857,2.0903099998825954,0.07604226409729024,0.0006286905515113037
1_2,XY,1376,298.05394228151454,2.167697803297852,0.07251191790825316,0.0006210772982885536
1_2,XY,1397,301.6891943829397,2.0125354581373585,0.06888556603866126,0.00054101140076704
1_2,XY,1418,300.01910320845553,2.1601872482616127,0.07289773529794637,0.000619650159332419
1_2,XY,1439,302.52499727744515,2.1940482346619734,0.06568761317360029,0.0005665789092483045
1_2,XY,1460,301.9456741032431,2.273643603913913,0.07048845895727576,0.0006316863915262958
1_2,XY,1481,300.44677733161865,1.999693842391985,0.07767810902168804,0.0006093520806004041
1_2,XY,1502,298.72164734969084,2.259234691650972,0.07000736044705276,0.0006201157415360609
1_2,XY,1523,303.2945632402933,2.311892618936177,0.06300209215385896,0.0005727579621271421
1_2,XY,1555,302.3273648793829,2.068680079852607,0.06513159367064279,0.0005278742445670526
1_2,XY,1576,304.53900194129545,2.1710466814793934,0.06803887320226465,0.0005727176352149751
1_2,XY,1597,303.53903744166143,2.099272335231124,0.06110017305072049,0.0004996322003695663
1_2,XY,1618,303.3176993626605,2.176176661056941,0.06655287353225463,0.0005715525424779522
1_2,XY,1639,298.54939227977417,2.07928788736378,0.07983945581111727,0.0006646298189985876
1_2,XY,1660,300.6509142849326,1.9587370892681595,0.07950332244907485,0.000615438766610616
1_2,XY,1681,300.9778950536324,2.0471182214468437,0.07566973103772595,0.0006129216472626113
1_2,XY,1702,298.55907477497163,2.05022177843314,0.08220860280616553,0.0006773200033679857
1_2,XY,1734,300.4516316919861,2.113848736028377,0.07436251895144719,0.0006254774572312553
1_2,XY,1755,304.6792886417474,2.3928228624551915,0.061866826723659965,0.0005810596947672547
1_2,XY,1776,300.23932809694605,2.1507196551070007,0.07480432241196665,0.0006362328086635312
1_2,XY,1797,301.6953467575124,2.163305031752839,0.07940726570389638,0.0006740949377802127
1_2,XY,1818,300.9132969911004,2.1662039854888033,0.06848311138830868,0.0005925378483296085
1_2,XY,1839,304.4828012318918,2.206695408753169,0.06247727448124219,0.0005384301966971975
1_2,XY,1860,296.6842085957877,2.0353488792888865,0.07643512878514681,0.0006170526329360841
1_2,XY,1881,13.065835083766519,3.590983580026052,0.9372362778488788,0.25765322183259526
1_2,XY,1916,301.7171646314386,2.1047336822774443,0.07259876686125484,0.000600030522853575
1_2,XY,1937,305.0451934668869,2.3276197323231216,0.06241386549960629,0.0005628228511985619
1_2,XY,1958,299.2888813690196,2.191521496985505,0.07291863142408507,0.0006361965653800675
1_2,XY,1979,300.63286921518227,2.1553663378514343,0.07701390372699235,0.0006572800744551438
1_2,XY,2000,300.51882746678035,2.0652094507093,0.07668840152288546,0.0006261779030897915
1_2,XY,2021,300.3778432713701,1.9560560801664684,0.08087223093066652,0.0006181413323628997
1_2,XY,2042,300.9568356374518,2.131694410460608,0.07564551390018055,0.0006303467673137715
1_2,XY,2063,298.744807839988,2.037172391757694,0.07983119044845027,0.0006454616172594226
1_2,XY,2095,298.92935588507373,2.2043454893494276,0.07498749959241766,0.0006527577120287981
1_2,XY,2116,300.47189795482416,2.1009044500882768,0.07722164250746252,0.0006347313469797761
1_2,XY,2137,297.6780024083805,2.10963537015928,0.0744985438439609,0.0006246757090240055
1_2,XY,2158,299.17526387016244,2.071960069265793,0.0798407825171276,0.0006575294943322635
1_2,XY,2179,300.8473634743893,2.0957742234962287,0.07577630159757097,0.0006252957367127251
1_2,XY,2200,302.01132372682235,2.051550187742486,0.08101512130098346,0.0006569980570079408
1_2,XY,2221,300.500728315855,2.231797821448442,0.07669146491876312,0.0006914716287354472
1_2,XY,2242,15.410602247666871,6.2075270862419645,0.7858592047136583,0.31658395162617836
1_2,XY,2274,298.97842301762836,2.1047225731354122,0.07691585037263321,0.0006458498955274898
1_2,XY,2295,300.99671882401105,2.006448213088236,0.0782420239463158,0.0006254890206346756
1_2,XY,2316,301.887694060114,1.948632155329835,0.0744970437621762,0.000564236180413285
1_2,XY,2337,299.56411437225086,2.1129943935303994,0.06964800609887555,0.0005839998862676842
1_2,XY,2358,302.7698781009092,2.209972609418852,0.06427756041342231,0.0005559493192063533
1_2,XY,2379,301.36949403696775,2.103502411620142,0.07803105268726199,0.0006456150192460511
1_2,XY,2400,299.46543379965027,2.214246076386663,0.07263351413814692,0.0006335577425975244
1_2,XY,2421,300.7080861153216,2.0792267083987164,0.07860651963295434,0.0006444008712665624
1_2,XY,2453,301.73621796103873,2.0354788030540014,0.077715473172666,0.0006188604128331707
1_2,XY,2474,300.27784172056136,2.0072371800468516,0.08210054911186852,0.0006540981101927044
1_2,XY,2495,299.63669806992624,2.021186166786144,0.0747123109600117,0.0005913600403486283
1_2,XY,2516,297.0244906155184,2.086655628600426,0.08018551565827968,0.000670636539047401
1_2,XY,2537,303.82257157144284,2.1644187577612874,0.0759328934071347,0.0006508282328712592
1_2,XY,2558,301.03559290524225,1.935470000414901,0.08283939036501699,0.000634149018098949
1_2,XY,2579,301.3868717705324,1.9908688206346972,0.07874299634329367,0.0006181698192021614
1_2,XY,2600,299.3497368670451,1.9812572517572486,0.081725086282066,0.000642259988134066
1_2,XY,2632,301.3382906948398,2.0737579362738057,0.07317252089566821,0.0005903561641330465
1_2,XY,2653,299.96144264647444,2.056459296123845,0.07776067623225676,0.0006284223502357918
1_2,XY,2674,302.216216474164,2.1148255886972898,0.06877161930294438,0.0005631140179124102
1_2,XY,2695,300.07620587905285,2.154298765413355,0.08272002005338658,0.0007028593353343512
1_2,XY,2716,301.02853949967744,2.0543204426485526,0.06808923226542744,0.0005519960645193383
1_2,XY,2737,297.8630624599254,2.0555853057585987,0.07920118075824066,0.0006460411768832123
1_2,XY,2758,22.831483326908,7.93373138400961,0.4865833922328022,0.16910730606921168
1_2,XY,2779,298.42665803200515,2.1290587772190714,0.07851333890643228,0.000660419217275318
1_2,XY,2818,299.15764967170253,2.084546623279194,0.07692084748217377,0.0006307733276901593
1_2,XY,2839,298.77037140507605,2.0810584950651263,0.08092716127537349,0.0006680038504406206
1_2,XY,2860,29.687839978113075,0.4777422491382466,0.38388497312601016,0.006570321603768672
1_2,XY,2881,298.3309037372351,2.0925012015911393,0.08043700667919429,0.0006740554057727121
1_2,XY,2902,301.36678333942973,2.060487040619975,0.07608529653448516,0.0006109007320689474
1_2,XY,2923,303.76702769204684,2.134752111560649,0.0791406783464329,0.0006543301205786153
1_2,XY,2944,302.20528952369756,2.1030954180498753,0.07424092026216733,0.0006073230944843446
1_2,XY,2965,299.21144987726575,2.10120624865878,0.07746610032705775,0.0006491302554064666
1_2,XY,2997,299.60669631494955,2.092982891684925,0.07519967500218509,0.0006228528576939613
1_2,XY,3018,298.884097762008,2.0722740618780606,0.07957497026315791,0.0006467718637291564
1_2,XY,3039,300.4340192888062,2.0505320217660357,0.07165951695954552,0.0005786236963537788
1_2,XY,3060,291.44044640076976,1.961350977507874,0.07872938115974307,0.0006305636444728796
1_2,XY,3081,301.5676565567403,2.3074137722501207,0.07411258810315623,0.0006724919334151733
1_2,XY,3102,300.6938562388859,2.144559848452666,0.07841096880544676,0.0006665377818203226
1_2,XY,3123,299.1611518615993,2.1184618654547718,0.07719180019566613,0.0006523734588537154
1_2,XY,3144,300.18554330036017,2.143114746958229,0.08143803954766905,0.0006989264734303815
