[
    [
        "XscanNumber_YscanNumber",
        "Type",
        "BCID",
        "xsec",
        "xsecErr",
        "SBIL",
        "SBILErr"
    ],
    [
        "1_2",
        "XY",
        "103",
        127.07286828224616,
        0.9345306538757746,
        0.07155714728744048,
        0.0005968437244638931
    ],
    [
        "1_2",
        "XY",
        "124",
        126.26912860615195,
        0.9060164492818986,
        0.07977868624015692,
        0.0006603998963705607
    ],
    [
        "1_2",
        "XY",
        "145",
        126.13188766536786,
        0.9814328916395052,
        0.06489895302751109,
        0.0005760419058840748
    ],
    [
        "1_2",
        "XY",
        "166",
        126.17047867055757,
        0.9455426130887776,
        0.07605624198367278,
        0.0006488894992620896
    ],
    [
        "1_2",
        "XY",
        "187",
        125.5946798495861,
        0.9319947845670954,
        0.06513040707768798,
        0.0005470879022769585
    ],
    [
        "1_2",
        "XY",
        "208",
        125.89036061866791,
        0.8832852951464285,
        0.07438207386292535,
        0.0006007423526943142
    ],
    [
        "1_2",
        "XY",
        "229",
        125.11830849554637,
        1.024323543412329,
        0.07132299949931173,
        0.0006634610826853037
    ],
    [
        "1_2",
        "XY",
        "250",
        125.86974188239407,
        0.9038036508607753,
        0.078883467998468,
        0.0006431363395413228
    ],
    [
        "1_2",
        "XY",
        "282",
        126.39942661646563,
        0.9637764851045418,
        0.07332522366813482,
        0.0006375286882363135
    ],
    [
        "1_2",
        "XY",
        "303",
        126.8989568989299,
        0.923141908318287,
        0.07881504962816997,
        0.0006523254247047574
    ],
    [
        "1_2",
        "XY",
        "324",
        126.03304497066478,
        0.9742194360897063,
        0.07066095612069558,
        0.0006234199328998465
    ],
    [
        "1_2",
        "XY",
        "345",
        125.71800475894068,
        0.8496760942318362,
        0.08148774014934966,
        0.0006247009068160083
    ],
    [
        "1_2",
        "XY",
        "366",
        126.44503758028665,
        0.9941929175619749,
        0.07248073358567973,
        0.0006465120178830774
    ],
    [
        "1_2",
        "XY",
        "387",
        125.70105542539527,
        0.8793572775748469,
        0.08170765577672011,
        0.0006568207555445962
    ],
    [
        "1_2",
        "XY",
        "408",
        125.81384605035828,
        1.0001250661164443,
        0.0685836468140989,
        0.000617242194072371
    ],
    [
        "1_2",
        "XY",
        "429",
        126.23040838446937,
        0.8835487453673002,
        0.07849925913933563,
        0.000621283761455258
    ],
    [
        "1_2",
        "XY",
        "464",
        127.26090733654353,
        0.8868624691250249,
        0.07251731647702561,
        0.0005708179068197185
    ],
    [
        "1_2",
        "XY",
        "485",
        126.405125015487,
        0.8772747067515958,
        0.07636401010045528,
        0.000604883004481479
    ],
    [
        "1_2",
        "XY",
        "506",
        125.83628404466374,
        0.9713576954731742,
        0.06661582868279332,
        0.0005869797073268194
    ],
    [
        "1_2",
        "XY",
        "527",
        126.85273722110524,
        0.9350497287060218,
        0.07347171237784204,
        0.0006266086437256085
    ],
    [
        "1_2",
        "XY",
        "548",
        126.41847161034318,
        0.9277051274426131,
        0.07134058646504463,
        0.000599179609488042
    ],
    [
        "1_2",
        "XY",
        "569",
        126.83953230581656,
        0.8566452062753576,
        0.07938191118852868,
        0.0006088645555835695
    ],
    [
        "1_2",
        "XY",
        "590",
        125.09979964708945,
        0.9483396298612208,
        0.06991147976430019,
        0.000602264762367171
    ],
    [
        "1_2",
        "XY",
        "611",
        125.98042649805797,
        0.9495443723363849,
        0.07839153038681093,
        0.0006720851838546072
    ],
    [
        "1_2",
        "XY",
        "643",
        127.37422324858608,
        0.9626117160893084,
        0.07142188895602411,
        0.0006152250215384572
    ],
    [
        "1_2",
        "XY",
        "664",
        125.7579693944249,
        0.8956809665238061,
        0.07696355994744158,
        0.0006269114627619879
    ],
    [
        "1_2",
        "XY",
        "685",
        126.63819104312155,
        0.9320313438154919,
        0.06495901891729822,
        0.0005395022184049046
    ],
    [
        "1_2",
        "XY",
        "706",
        126.90041070550393,
        0.8898497352252636,
        0.07271500447484049,
        0.0005882261329799614
    ],
    [
        "1_2",
        "XY",
        "727",
        126.95995578740244,
        0.955293283068502,
        0.06805853737478101,
        0.0005816674259433223
    ],
    [
        "1_2",
        "XY",
        "748",
        126.34662999084159,
        0.8463064211364014,
        0.07811358189119398,
        0.0005969508986800685
    ],
    [
        "1_2",
        "XY",
        "769",
        125.48318648362473,
        1.0130135303155354,
        0.06408248694918202,
        0.0005959212682664964
    ],
    [
        "1_2",
        "XY",
        "790",
        125.9148072012683,
        0.9445384311668564,
        0.07262417092683368,
        0.0006263714862998193
    ],
    [
        "1_2",
        "XY",
        "822",
        127.14431528239646,
        0.9657303152597377,
        0.07349078774021926,
        0.0006352606009943975
    ],
    [
        "1_2",
        "XY",
        "843",
        127.48426100813329,
        0.839851693936466,
        0.07385432570147113,
        0.0005583506393386531
    ],
    [
        "1_2",
        "XY",
        "864",
        126.27320716475481,
        0.9252510165240952,
        0.06952159843001844,
        0.0005740942629968942
    ],
    [
        "1_2",
        "XY",
        "885",
        126.09609630569398,
        0.8020779111628188,
        0.08116272617078356,
        0.0005833358343904997
    ],
    [
        "1_2",
        "XY",
        "906",
        126.68724904615904,
        0.9669915559474022,
        0.06711580774941188,
        0.0005878107496275447
    ],
    [
        "1_2",
        "XY",
        "927",
        126.01566749682523,
        0.8819575536560451,
        0.07849624091065663,
        0.0006283461910901555
    ],
    [
        "1_2",
        "XY",
        "948",
        126.45882847793936,
        0.9092355785202001,
        0.06759968676390943,
        0.0005508622010974587
    ],
    [
        "1_2",
        "XY",
        "969",
        125.70215188996325,
        0.9529150111497572,
        0.076911152273919,
        0.0006658741266436192
    ],
    [
        "1_2",
        "XY",
        "1018",
        127.49878174634438,
        0.9085120463140383,
        0.0739962264271575,
        0.0005970846410832095
    ],
    [
        "1_2",
        "XY",
        "1039",
        125.65671185921387,
        0.8246681631848347,
        0.07954975223800982,
        0.000595595254156691
    ],
    [
        "1_2",
        "XY",
        "1060",
        125.61235578926357,
        0.9326232628484512,
        0.07067163632179568,
        0.00059868514917427
    ],
    [
        "1_2",
        "XY",
        "1081",
        126.36838202437549,
        0.8929864954177169,
        0.07735575140529301,
        0.0006273119774816775
    ],
    [
        "1_2",
        "XY",
        "1102",
        127.45845761781266,
        0.9052135950376742,
        0.06775959273721759,
        0.0005416431552533943
    ],
    [
        "1_2",
        "XY",
        "1123",
        126.68767725608288,
        0.9347753212368336,
        0.07518173218731629,
        0.0006371624727837658
    ],
    [
        "1_2",
        "XY",
        "1144",
        126.46864240937427,
        0.9247710196139796,
        0.0693080516791253,
        0.00057856608984154
    ],
    [
        "1_2",
        "XY",
        "1165",
        125.40440587498816,
        0.8903401981832401,
        0.08012193637284057,
        0.0006440042210246454
    ],
    [
        "1_2",
        "XY",
        "1197",
        125.85309901797687,
        0.8888312081628513,
        0.0724979359182588,
        0.0005793689471392833
    ],
    [
        "1_2",
        "XY",
        "1218",
        126.30217190490704,
        0.8841767733601283,
        0.0791404652861126,
        0.0006415168887404035
    ],
    [
        "1_2",
        "XY",
        "1239",
        127.27221587238627,
        0.9690832089441943,
        0.0692785986958912,
        0.0006004638336337794
    ],
    [
        "1_2",
        "XY",
        "1260",
        125.9680340555692,
        0.8287853583308273,
        0.07864881220251092,
        0.0005865861121481394
    ],
    [
        "1_2",
        "XY",
        "1281",
        127.10420194935877,
        0.942427048733171,
        0.07055027611029578,
        0.0005941722826220004
    ],
    [
        "1_2",
        "XY",
        "1302",
        126.0417118608095,
        0.8863611419050006,
        0.08079463296435113,
        0.000648394202954614
    ],
    [
        "1_2",
        "XY",
        "1323",
        126.95981042955921,
        1.0626099333190862,
        0.0655600053377242,
        0.0006219830889347835
    ],
    [
        "1_2",
        "XY",
        "1344",
        125.46977811297012,
        0.8734191628470207,
        0.07579317569804547,
        0.0006024220721599817
    ],
    [
        "1_2",
        "XY",
        "1376",
        126.98969366925087,
        0.9733535846844976,
        0.07072586337242287,
        0.0006217001861989726
    ],
    [
        "1_2",
        "XY",
        "1397",
        127.15355189526962,
        0.978993633838052,
        0.07755555553821743,
        0.0006755030784034185
    ],
    [
        "1_2",
        "XY",
        "1418",
        126.40928175624401,
        0.9079495019322208,
        0.07259269485096499,
        0.0005899254244018865
    ],
    [
        "1_2",
        "XY",
        "1439",
        126.3142920251167,
        0.9086461428358581,
        0.07624221912771206,
        0.0006249927871104961
    ],
    [
        "1_2",
        "XY",
        "1460",
        125.8761113686667,
        0.9815490024237465,
        0.0700738736083263,
        0.0006195614533868496
    ],
    [
        "1_2",
        "XY",
        "1481",
        125.58714995558907,
        0.9331868281010558,
        0.07728080628635185,
        0.0006525230530550485
    ],
    [
        "1_2",
        "XY",
        "1502",
        125.92834086012522,
        1.0078836825351754,
        0.06884229813937492,
        0.0006304467849733847
    ],
    [
        "1_2",
        "XY",
        "1523",
        126.28791347120875,
        0.8385799617616388,
        0.07241794977330822,
        0.0005445506656043941
    ],
    [
        "1_2",
        "XY",
        "1555",
        126.87320915623799,
        0.9380388714832929,
        0.07230309261434904,
        0.0006099165451259795
    ],
    [
        "1_2",
        "XY",
        "1576",
        126.87375122528314,
        0.9677373889736054,
        0.06901189388548214,
        0.0005962312649638469
    ],
    [
        "1_2",
        "XY",
        "1597",
        126.03037003998146,
        0.9114557437701166,
        0.07023545199324167,
        0.0005742011011918664
    ],
    [
        "1_2",
        "XY",
        "1618",
        127.2696774060428,
        0.8394162283559189,
        0.07422647725008728,
        0.0005579317421889964
    ],
    [
        "1_2",
        "XY",
        "1639",
        126.05547467255612,
        0.9530310388037518,
        0.07857637406535792,
        0.0006809276318507672
    ],
    [
        "1_2",
        "XY",
        "1660",
        125.22484000822669,
        0.8485044062526308,
        0.08356553517698118,
        0.0006403441630291071
    ],
    [
        "1_2",
        "XY",
        "1681",
        125.68362742887886,
        1.0230998399308031,
        0.07487696250853303,
        0.0006959170806430031
    ],
    [
        "1_2",
        "XY",
        "1702",
        126.30065403477597,
        0.8828858470621821,
        0.08124308383185849,
        0.0006466463353195244
    ],
    [
        "1_2",
        "XY",
        "1734",
        126.67165895064929,
        0.9678310650524806,
        0.07265980099120954,
        0.0006384442492255847
    ],
    [
        "1_2",
        "XY",
        "1755",
        126.03155024728242,
        0.8537572754631062,
        0.07422547493290607,
        0.0005708828761675
    ],
    [
        "1_2",
        "XY",
        "1776",
        126.45365900283169,
        0.8928424758440906,
        0.07344618910501799,
        0.0005853304080963815
    ],
    [
        "1_2",
        "XY",
        "1797",
        126.68735070260595,
        0.8584438883538306,
        0.08050203105929714,
        0.0006235312961729718
    ],
    [
        "1_2",
        "XY",
        "1818",
        127.29020755602592,
        0.9491122246323843,
        0.07428553235515466,
        0.0006238634159453768
    ],
    [
        "1_2",
        "XY",
        "1839",
        128.47463507061497,
        0.9675088909761291,
        0.06503869764334211,
        0.000560774255938749
    ],
    [
        "1_2",
        "XY",
        "1860",
        126.16259470610807,
        0.907336737426885,
        0.07622488474914961,
        0.0006256723616921763
    ],
    [
        "1_2",
        "XY",
        "1881",
        127.1754701397652,
        0.7989773799997464,
        0.07885179991999863,
        0.0005695055550638476
    ],
    [
        "1_2",
        "XY",
        "1916",
        125.26722610991007,
        0.9485143957762173,
        0.07546932532897817,
        0.0006511165016661459
    ],
    [
        "1_2",
        "XY",
        "1937",
        127.6662530905266,
        0.9019256580285996,
        0.07242902147890913,
        0.0005862747739687297
    ],
    [
        "1_2",
        "XY",
        "1958",
        127.21369456825559,
        0.9046574473783808,
        0.07063166154819109,
        0.0005670721446916128
    ],
    [
        "1_2",
        "XY",
        "1979",
        125.72318584974444,
        0.9245591443689006,
        0.07714668278992004,
        0.0006482509455608569
    ],
    [
        "1_2",
        "XY",
        "2000",
        126.72771497582303,
        0.9516522587380851,
        0.07509852096836425,
        0.0006425687256794559
    ],
    [
        "1_2",
        "XY",
        "2021",
        125.97278571961822,
        0.8173952909733978,
        0.08037696936672209,
        0.000598180894077104
    ],
    [
        "1_2",
        "XY",
        "2042",
        127.16063314893292,
        0.9419687683518255,
        0.07402474818129427,
        0.0006275391637125537
    ],
    [
        "1_2",
        "XY",
        "2063",
        126.31469088124608,
        0.8804435082771995,
        0.0797562920315996,
        0.0006286490133668355
    ],
    [
        "1_2",
        "XY",
        "2095",
        126.2485077200382,
        0.8790963720408734,
        0.07300621321877397,
        0.000578319111762876
    ],
    [
        "1_2",
        "XY",
        "2116",
        125.83451830479213,
        0.8392212160585464,
        0.07623624243382236,
        0.0005779042968230512
    ],
    [
        "1_2",
        "XY",
        "2137",
        125.80668478383406,
        0.9628780228527367,
        0.0727272878557326,
        0.0006414637303113162
    ],
    [
        "1_2",
        "XY",
        "2158",
        127.55901579058374,
        0.8621430922491767,
        0.07787337825412427,
        0.0006070102108004509
    ],
    [
        "1_2",
        "XY",
        "2179",
        125.65440225647517,
        0.9489711456964185,
        0.07497169111616367,
        0.0006437313134036103
    ],
    [
        "1_2",
        "XY",
        "2200",
        126.10691516215195,
        0.8254538848635565,
        0.080955222153604,
        0.0006003727580659265
    ],
    [
        "1_2",
        "XY",
        "2221",
        126.43471839752418,
        0.9641220225747046,
        0.0755217535788304,
        0.0006604088060020373
    ],
    [
        "1_2",
        "XY",
        "2242",
        126.56950413132108,
        0.8657228091868332,
        0.07922314798265659,
        0.0006164760055653504
    ],
    [
        "1_2",
        "XY",
        "2274",
        126.25283361841677,
        0.9093637663195295,
        0.07524126744028788,
        0.000617625974843783
    ],
    [
        "1_2",
        "XY",
        "2295",
        126.47675713183534,
        0.9083107847476724,
        0.0803467833936451,
        0.0006588224449475955
    ],
    [
        "1_2",
        "XY",
        "2316",
        126.80796953916395,
        0.9279019983604967,
        0.07400983104375185,
        0.0006136068311461686
    ],
    [
        "1_2",
        "XY",
        "2337",
        126.19765391422581,
        0.9066812456692579,
        0.07864190480314082,
        0.0006387929013220013
    ],
    [
        "1_2",
        "XY",
        "2358",
        127.11637729272265,
        0.9181300702514044,
        0.07315132250323346,
        0.0006012852528626073
    ],
    [
        "1_2",
        "XY",
        "2379",
        126.09704513466059,
        0.8786948786505407,
        0.07971577855127637,
        0.0006353016919384682
    ],
    [
        "1_2",
        "XY",
        "2400",
        125.62134842080418,
        0.9935822464729813,
        0.07190120693665644,
        0.0006432231628558947
    ],
    [
        "1_2",
        "XY",
        "2421",
        125.8693392094251,
        0.9351429512256182,
        0.07875171629915469,
        0.0006683674813161854
    ],
    [
        "1_2",
        "XY",
        "2453",
        125.56810047429104,
        0.9930843668837835,
        0.07757073919494413,
        0.0007007989764963229
    ],
    [
        "1_2",
        "XY",
        "2474",
        125.78389052579384,
        0.8764530270535413,
        0.08181661845357599,
        0.0006558954136182016
    ],
    [
        "1_2",
        "XY",
        "2495",
        126.23062547276325,
        0.9807031442943054,
        0.07374583619235019,
        0.0006493137361445957
    ],
    [
        "1_2",
        "XY",
        "2516",
        126.38369584064485,
        0.8330398337801517,
        0.07938823873542311,
        0.0005989044997262502
    ],
    [
        "1_2",
        "XY",
        "2537",
        125.76802400611943,
        0.9026629679150796,
        0.07539716868138603,
        0.0006249321910145159
    ],
    [
        "1_2",
        "XY",
        "2558",
        125.53779072602134,
        0.938032452285161,
        0.08433472831382197,
        0.0007198589926878041
    ],
    [
        "1_2",
        "XY",
        "2579",
        126.2041874296333,
        0.9024841277793271,
        0.07700117341384052,
        0.0006236880386060878
    ],
    [
        "1_2",
        "XY",
        "2600",
        126.1289027023892,
        0.8445307287415238,
        0.08191632884583448,
        0.0006229122439950585
    ],
    [
        "1_2",
        "XY",
        "2632",
        126.7682043411902,
        0.9157751664767132,
        0.07527086654005802,
        0.0006215450942344817
    ],
    [
        "1_2",
        "XY",
        "2653",
        126.25085798456732,
        0.9217828360554671,
        0.07808779536975037,
        0.0006476754391230022
    ],
    [
        "1_2",
        "XY",
        "2674",
        127.17914006814404,
        0.8820203569978415,
        0.07278895156420946,
        0.0005771482024394519
    ],
    [
        "1_2",
        "XY",
        "2695",
        126.16384019123774,
        0.8326390057137297,
        0.08246720715540916,
        0.0006248167873968716
    ],
    [
        "1_2",
        "XY",
        "2716",
        127.63799824245253,
        0.9319388749198833,
        0.0691640875706929,
        0.0005693783341250918
    ],
    [
        "1_2",
        "XY",
        "2737",
        125.50080747631988,
        0.8904751114212736,
        0.07903793949855664,
        0.0006397396546684533
    ],
    [
        "1_2",
        "XY",
        "2758",
        126.18212526096006,
        0.9786898683827662,
        0.07243391605347237,
        0.0006478012126354756
    ],
    [
        "1_2",
        "XY",
        "2779",
        125.70737405628559,
        0.9318312410004036,
        0.0784484224548703,
        0.0006639008972652164
    ],
    [
        "1_2",
        "XY",
        "2818",
        126.03158458118028,
        0.8672068302864809,
        0.0769466253362182,
        0.0006023176867984393
    ],
    [
        "1_2",
        "XY",
        "2839",
        126.03083855531008,
        0.8394321303096965,
        0.08106273654741095,
        0.0006200359087564351
    ],
    [
        "1_2",
        "XY",
        "2860",
        127.01767197900489,
        0.9499496066688132,
        0.07532573909546322,
        0.0006380371518609417
    ],
    [
        "1_2",
        "XY",
        "2881",
        125.64448946504378,
        0.8978611691860435,
        0.08139423364581466,
        0.0006635607802666963
    ],
    [
        "1_2",
        "XY",
        "2902",
        126.36963574638484,
        0.9854949907249543,
        0.07587542768877084,
        0.0006745890093160343
    ],
    [
        "1_2",
        "XY",
        "2923",
        126.13205245698467,
        0.8492523647428205,
        0.08063461997989471,
        0.0006232777606726782
    ],
    [
        "1_2",
        "XY",
        "2944",
        126.16802149086128,
        0.9229663132484377,
        0.07284167001272368,
        0.0006070821447990702
    ],
    [
        "1_2",
        "XY",
        "2965",
        126.04307273605582,
        0.9361968386728453,
        0.07642333918436044,
        0.0006487170645694735
    ],
    [
        "1_2",
        "XY",
        "2997",
        126.75639365004136,
        0.9100291268682044,
        0.07315139935559732,
        0.0005949673493252943
    ],
    [
        "1_2",
        "XY",
        "3018",
        127.17514537962134,
        0.8367426726905186,
        0.07793867613976259,
        0.0005867458007459402
    ],
    [
        "1_2",
        "XY",
        "3039",
        125.91608885544964,
        0.8964729121573768,
        0.07110449025786678,
        0.000572940426790589
    ],
    [
        "1_2",
        "XY",
        "3060",
        125.05663198817739,
        0.853061889101672,
        0.07713589418933914,
        0.0006026266768672162
    ],
    [
        "1_2",
        "XY",
        "3081",
        126.23185991067278,
        0.9363760324032069,
        0.07377569061164657,
        0.0006231741360367533
    ],
    [
        "1_2",
        "XY",
        "3102",
        126.85898243519068,
        0.8412157181982788,
        0.07944031136065005,
        0.0006051776224463373
    ],
    [
        "1_2",
        "XY",
        "3123",
        125.77376645364076,
        0.9206966822623188,
        0.07684253689839615,
        0.0006459589971985731
    ],
    [
        "1_2",
        "XY",
        "3144",
        125.94479732565064,
        0.9520741481561994,
        0.08185418783801843,
        0.0007066922231982064
    ]
]