[
    [
        "XscanNumber_YscanNumber",
        "Type",
        "BCID",
        "xsec",
        "xsecErr",
        "SBIL",
        "SBILErr"
    ],
    [
        "1_2",
        "XY",
        "103",
        955.9331666097602,
        2.732029047234532,
        0.06659818284815425,
        0.00021920161984039253
    ],
    [
        "1_2",
        "XY",
        "124",
        934.0485745471141,
        2.611651317764019,
        0.08044832104799854,
        0.0002602069446301837
    ],
    [
        "1_2",
        "XY",
        "145",
        937.0349709420411,
        2.720475574156753,
        0.06493629999376774,
        0.00021741486335772318
    ],
    [
        "1_2",
        "XY",
        "166",
        936.6715050485934,
        2.634076344969511,
        0.07524539011400788,
        0.00024382033382256687
    ],
    [
        "1_2",
        "XY",
        "187",
        940.1844316440197,
        2.959294705462034,
        0.06498680113072743,
        0.00023421390425825634
    ],
    [
        "1_2",
        "XY",
        "208",
        941.9327564388523,
        2.6389586260017732,
        0.06822964767217335,
        0.00021954038053866032
    ],
    [
        "1_2",
        "XY",
        "229",
        936.5938032001596,
        2.739805391520364,
        0.06974917094174024,
        0.00023342395255857067
    ],
    [
        "1_2",
        "XY",
        "250",
        936.7411655492082,
        2.5259261983749086,
        0.07756480833895027,
        0.0002398124074204023
    ],
    [
        "1_2",
        "XY",
        "282",
        939.6721997487925,
        2.5995922790635646,
        0.07491333277353479,
        0.00023889815432814106
    ],
    [
        "1_2",
        "XY",
        "303",
        935.4072620062627,
        2.742494285241104,
        0.07873727865956236,
        0.0002651826293973548
    ],
    [
        "1_2",
        "XY",
        "324",
        932.327315775465,
        2.759377484961801,
        0.07152907960001113,
        0.00024208164369113224
    ],
    [
        "1_2",
        "XY",
        "345",
        935.8701416488534,
        2.5763000345785634,
        0.0804954508241816,
        0.000253150451280851
    ],
    [
        "1_2",
        "XY",
        "366",
        934.9755204976287,
        2.71152677598686,
        0.07296013484693584,
        0.00024202382053777126
    ],
    [
        "1_2",
        "XY",
        "387",
        934.7313641460237,
        2.398272151405643,
        0.08049372884196285,
        0.00023559576856791543
    ],
    [
        "1_2",
        "XY",
        "408",
        932.7739751971858,
        2.7841620345437734,
        0.06904418169206324,
        0.00023559675717803566
    ],
    [
        "1_2",
        "XY",
        "429",
        934.2395641563277,
        2.624359997876806,
        0.07741101152489276,
        0.0002476513763187882
    ],
    [
        "1_2",
        "XY",
        "464",
        942.8993475362854,
        2.4124196772140407,
        0.07396128822433214,
        0.0002158037577703386
    ],
    [
        "1_2",
        "XY",
        "485",
        937.9322292556764,
        2.4979700548912707,
        0.07734494320670601,
        0.00023638237571691918
    ],
    [
        "1_2",
        "XY",
        "506",
        939.3587635853115,
        2.9309308613214258,
        0.06656747614821468,
        0.00024232687765731017
    ],
    [
        "1_2",
        "XY",
        "527",
        940.902597903784,
        2.3290247994423567,
        0.07370326027882666,
        0.00020902223038689032
    ],
    [
        "1_2",
        "XY",
        "548",
        940.5811776648189,
        2.542122810123486,
        0.07207369677194062,
        0.00022311451340249327
    ],
    [
        "1_2",
        "XY",
        "569",
        938.5202744924818,
        2.5019337508618333,
        0.08052044601102869,
        0.0002509000473974429
    ],
    [
        "1_2",
        "XY",
        "590",
        938.3841207346064,
        2.783950420399095,
        0.07009770336509355,
        0.000240254985259582
    ],
    [
        "1_2",
        "XY",
        "611",
        938.2813589514607,
        2.520140795068319,
        0.07820233562130692,
        0.00024127576430679298
    ],
    [
        "1_2",
        "XY",
        "643",
        943.5823341398556,
        2.4191823844741953,
        0.07355847161819565,
        0.00021461487009724178
    ],
    [
        "1_2",
        "XY",
        "664",
        944.0987129769538,
        2.4717535599482825,
        0.07649618317045988,
        0.00023329072533033723
    ],
    [
        "1_2",
        "XY",
        "685",
        938.6374437343899,
        2.6001286790203944,
        0.0665070206176394,
        0.00021169150687273098
    ],
    [
        "1_2",
        "XY",
        "706",
        948.5392181989941,
        2.586926381475275,
        0.0732571105487262,
        0.0002292094341988571
    ],
    [
        "1_2",
        "XY",
        "727",
        936.1233956435993,
        2.9336189618704287,
        0.06986120821730499,
        0.00025540458759280805
    ],
    [
        "1_2",
        "XY",
        "748",
        938.3161901222311,
        2.6286047027532904,
        0.07916013948747372,
        0.0002587669437046082
    ],
    [
        "1_2",
        "XY",
        "769",
        936.1857370458529,
        2.7151649782954665,
        0.06413382462205672,
        0.00021441082543268594
    ],
    [
        "1_2",
        "XY",
        "790",
        940.7192655598598,
        2.5256472197241604,
        0.0722578113953017,
        0.00022369763697477243
    ],
    [
        "1_2",
        "XY",
        "822",
        959.8706635454126,
        2.4053995716965053,
        0.07015315668185947,
        0.0001983192874285528
    ],
    [
        "1_2",
        "XY",
        "843",
        946.7725646762603,
        2.1574172004513583,
        0.07584917003611494,
        0.00019988143307330726
    ],
    [
        "1_2",
        "XY",
        "864",
        941.9646852377484,
        2.7910879290922175,
        0.06999384134357493,
        0.00023694494931658912
    ],
    [
        "1_2",
        "XY",
        "885",
        935.9313436301112,
        2.3717696564995348,
        0.08072118127196583,
        0.00023545240789080775
    ],
    [
        "1_2",
        "XY",
        "906",
        937.8307680320095,
        2.721362051437289,
        0.06878503396087694,
        0.00022798051864065798
    ],
    [
        "1_2",
        "XY",
        "927",
        938.5379458795782,
        2.423463192833353,
        0.07807319262963798,
        0.00023067004518826213
    ],
    [
        "1_2",
        "XY",
        "948",
        938.5112540113901,
        2.646005467397445,
        0.0691297436146973,
        0.00022781191097829079
    ],
    [
        "1_2",
        "XY",
        "969",
        938.5276962399055,
        2.6222789860266436,
        0.0764844046621393,
        0.0002454215536353078
    ],
    [
        "1_2",
        "XY",
        "1018",
        941.5901742620537,
        2.677009629661795,
        0.07470818336172101,
        0.0002480319868710299
    ],
    [
        "1_2",
        "XY",
        "1039",
        940.931154934327,
        2.4946036476284674,
        0.0785052750563749,
        0.00024022640006155088
    ],
    [
        "1_2",
        "XY",
        "1060",
        941.2596314674241,
        2.6036151763380793,
        0.0699000778589399,
        0.00022104544875390633
    ],
    [
        "1_2",
        "XY",
        "1081",
        943.1044860910717,
        2.4355925471880355,
        0.07694451132439374,
        0.00022730137435290323
    ],
    [
        "1_2",
        "XY",
        "1102",
        940.4950843539644,
        2.737352164303706,
        0.06789851149948076,
        0.00022829958710358805
    ],
    [
        "1_2",
        "XY",
        "1123",
        938.9694318442635,
        2.740265489800002,
        0.07528448642447638,
        0.00025136406898080665
    ],
    [
        "1_2",
        "XY",
        "1144",
        941.1421957516515,
        2.7451925693362407,
        0.06958853293929171,
        0.00023553239439146132
    ],
    [
        "1_2",
        "XY",
        "1165",
        939.6763578403333,
        2.5108799536477093,
        0.07984972997203375,
        0.0002471670463117693
    ],
    [
        "1_2",
        "XY",
        "1197",
        942.1037537719593,
        2.4325646899234,
        0.07186712947447563,
        0.0002113259689520244
    ],
    [
        "1_2",
        "XY",
        "1218",
        940.0606924630221,
        2.3013988424208462,
        0.07851306332964882,
        0.00022070138288176531
    ],
    [
        "1_2",
        "XY",
        "1239",
        939.820127437988,
        2.642085706208391,
        0.06955052397424698,
        0.00022367253516721662
    ],
    [
        "1_2",
        "XY",
        "1260",
        945.4119983451629,
        2.345280029911449,
        0.07760939932059957,
        0.00022491559928264788
    ],
    [
        "1_2",
        "XY",
        "1281",
        938.8922132204646,
        2.588067596716274,
        0.07098837586752006,
        0.00022600485682399787
    ],
    [
        "1_2",
        "XY",
        "1302",
        943.1878473452336,
        2.1999393830653498,
        0.07930987288272644,
        0.00021455836426864666
    ],
    [
        "1_2",
        "XY",
        "1323",
        940.107525309755,
        2.6880819031940866,
        0.06517686864358932,
        0.00021236091442711737
    ],
    [
        "1_2",
        "XY",
        "1344",
        938.6197720122192,
        2.3262269396409625,
        0.07617851755622426,
        0.00021224201069569972
    ],
    [
        "1_2",
        "XY",
        "1376",
        943.5994333230407,
        2.945591350800963,
        0.07165973378648254,
        0.0002575946098164543
    ],
    [
        "1_2",
        "XY",
        "1397",
        952.7959625059447,
        2.4089899709134595,
        0.07409129848025849,
        0.00021641016796289738
    ],
    [
        "1_2",
        "XY",
        "1418",
        942.5913732752058,
        2.6938553165163874,
        0.07256304758490593,
        0.0002376431863627051
    ],
    [
        "1_2",
        "XY",
        "1439",
        953.8290981169539,
        2.539452443543045,
        0.06557765761099274,
        0.00020016592125856434
    ],
    [
        "1_2",
        "XY",
        "1460",
        939.7094497817928,
        2.767673926010092,
        0.06996525136663617,
        0.00023837683150542378
    ],
    [
        "1_2",
        "XY",
        "1481",
        941.1430545769605,
        2.646610729422011,
        0.0767370052758846,
        0.00025345764417147675
    ],
    [
        "1_2",
        "XY",
        "1502",
        940.8955302623359,
        2.8084698901972507,
        0.0691054723489036,
        0.00023716583556513744
    ],
    [
        "1_2",
        "XY",
        "1523",
        958.5270318242891,
        2.5694067599240378,
        0.06392014594313776,
        0.00019806909437826837
    ],
    [
        "1_2",
        "XY",
        "1555",
        952.9712861842359,
        2.562654900577014,
        0.06499959476849257,
        0.0001999687340108454
    ],
    [
        "1_2",
        "XY",
        "1576",
        952.3694554470616,
        2.5219538836055944,
        0.06836112566797826,
        0.00020653680849066504
    ],
    [
        "1_2",
        "XY",
        "1597",
        955.4510412607879,
        2.862020535912106,
        0.06056199792769906,
        0.00020573563517591913
    ],
    [
        "1_2",
        "XY",
        "1618",
        956.768788538673,
        2.517429764709081,
        0.06732870329725393,
        0.00020365511846254285
    ],
    [
        "1_2",
        "XY",
        "1639",
        938.281330346093,
        2.59873446478629,
        0.07935706114681126,
        0.0002528373576801536
    ],
    [
        "1_2",
        "XY",
        "1660",
        940.3687725689956,
        2.436836248790563,
        0.08314816597078915,
        0.00025198114629357873
    ],
    [
        "1_2",
        "XY",
        "1681",
        940.4610156307796,
        2.5880862484369067,
        0.07521299424373551,
        0.00023828775835681864
    ],
    [
        "1_2",
        "XY",
        "1702",
        940.0070920533798,
        2.5187695351660024,
        0.08104003146210276,
        0.0002527295950678879
    ],
    [
        "1_2",
        "XY",
        "1734",
        942.6055466333809,
        2.741400255167301,
        0.07338451539982908,
        0.00024795700803469643
    ],
    [
        "1_2",
        "XY",
        "1755",
        953.2702706751286,
        2.7031839918874625,
        0.061865234492972584,
        0.0002014333801176981
    ],
    [
        "1_2",
        "XY",
        "1776",
        936.6879919589569,
        2.635364221413545,
        0.07441075005030805,
        0.00024234369599004338
    ],
    [
        "1_2",
        "XY",
        "1797",
        938.5666025416023,
        2.5195182668756018,
        0.08020077728436274,
        0.00024670349447864735
    ],
    [
        "1_2",
        "XY",
        "1818",
        953.6290443329951,
        2.6008584112514863,
        0.06859096205772784,
        0.00021174459344404915
    ],
    [
        "1_2",
        "XY",
        "1839",
        961.6892953807362,
        2.645985219130164,
        0.06211169818962872,
        0.00019716084610112483
    ],
    [
        "1_2",
        "XY",
        "1860",
        942.1957844227095,
        2.4510068326713506,
        0.07698780254523512,
        0.0002327558246325336
    ],
    [
        "1_2",
        "XY",
        "1881",
        941.8348458972835,
        2.390278100530687,
        0.08023058016967302,
        0.0002330986501727314
    ],
    [
        "1_2",
        "XY",
        "1916",
        942.6763507356418,
        2.57431635368506,
        0.0751021793617422,
        0.00023807732413342093
    ],
    [
        "1_2",
        "XY",
        "1937",
        962.1293656102963,
        2.6748700223074207,
        0.06391027184579991,
        0.00020360892549222144
    ],
    [
        "1_2",
        "XY",
        "1958",
        944.1549257661753,
        2.6189222385688207,
        0.07180559261498883,
        0.00022959904902358072
    ],
    [
        "1_2",
        "XY",
        "1979",
        937.7488746792444,
        2.4101229129394492,
        0.07710571624082267,
        0.0002267169388225126
    ],
    [
        "1_2",
        "XY",
        "2000",
        939.450541248285,
        2.5189741099946206,
        0.07614669817643602,
        0.00023687904183910486
    ],
    [
        "1_2",
        "XY",
        "2021",
        942.6629521390628,
        2.634269937101567,
        0.0798771424202024,
        0.0002590096956013423
    ],
    [
        "1_2",
        "XY",
        "2042",
        939.2762301840768,
        2.615329916377864,
        0.07557335939471682,
        0.00024381879743881689
    ],
    [
        "1_2",
        "XY",
        "2063",
        937.3675092388754,
        2.416820504036759,
        0.07961177738692671,
        0.00023384242821684474
    ],
    [
        "1_2",
        "XY",
        "2095",
        938.2059941549257,
        2.5612241255058246,
        0.07387771530457705,
        0.00023125422643048503
    ],
    [
        "1_2",
        "XY",
        "2116",
        938.0911706527324,
        2.483448785209411,
        0.07681033908036608,
        0.00023122741435185635
    ],
    [
        "1_2",
        "XY",
        "2137",
        938.6018961325249,
        2.770436653555414,
        0.07338304942805242,
        0.0002470660244598924
    ],
    [
        "1_2",
        "XY",
        "2158",
        937.7517387574221,
        2.5944341292666797,
        0.07947522713639972,
        0.0002567371727067427
    ],
    [
        "1_2",
        "XY",
        "2179",
        939.5974097728184,
        2.6077684926983697,
        0.07517851547744198,
        0.00024145601319666563
    ],
    [
        "1_2",
        "XY",
        "2200",
        940.3203297823476,
        2.496630769111547,
        0.08069369264743682,
        0.0002490095535284242
    ],
    [
        "1_2",
        "XY",
        "2221",
        940.6540371542928,
        2.4833662997245796,
        0.07578881368043953,
        0.00022871257217846284
    ],
    [
        "1_2",
        "XY",
        "2242",
        935.724131384092,
        2.7154019607325344,
        0.07965945083429078,
        0.0002656331741488611
    ],
    [
        "1_2",
        "XY",
        "2274",
        940.5433062938007,
        2.7206039199284913,
        0.07589444841401591,
        0.00025025428439625724
    ],
    [
        "1_2",
        "XY",
        "2295",
        941.8489426152266,
        2.527800937637013,
        0.08067861516879127,
        0.0002483138505656926
    ],
    [
        "1_2",
        "XY",
        "2316",
        938.8130101805461,
        2.5261406317951454,
        0.07493477563060703,
        0.00023299897370894672
    ],
    [
        "1_2",
        "XY",
        "2337",
        951.603899921172,
        2.4183281706493727,
        0.07538291697414017,
        0.0002225784774183412
    ],
    [
        "1_2",
        "XY",
        "2358",
        960.2349058374506,
        2.6405587978439997,
        0.06649925636441016,
        0.0002094180866296199
    ],
    [
        "1_2",
        "XY",
        "2379",
        943.4685116419923,
        2.579753460476647,
        0.07945651257537951,
        0.0002501596081208563
    ],
    [
        "1_2",
        "XY",
        "2400",
        941.9233786975619,
        2.700912261816497,
        0.07196994154524404,
        0.00023823633346343025
    ],
    [
        "1_2",
        "XY",
        "2421",
        938.4555868993646,
        2.455375419598852,
        0.07793582092999748,
        0.0002352297577783764
    ],
    [
        "1_2",
        "XY",
        "2453",
        941.1926197479597,
        2.5799595908662054,
        0.07782515207580194,
        0.00024247382720967857
    ],
    [
        "1_2",
        "XY",
        "2474",
        939.4454636095935,
        2.4027802998053973,
        0.08182966575436218,
        0.00024374541023783683
    ],
    [
        "1_2",
        "XY",
        "2495",
        940.7487581698205,
        2.482579505253024,
        0.07426432586330425,
        0.0002202187290624742
    ],
    [
        "1_2",
        "XY",
        "2516",
        935.6482715714869,
        2.2717645795391173,
        0.07951458206130445,
        0.00022185065834952743
    ],
    [
        "1_2",
        "XY",
        "2537",
        940.6076182533359,
        2.5392645756215546,
        0.07585476014166871,
        0.00023416405873798044
    ],
    [
        "1_2",
        "XY",
        "2558",
        936.7092888723652,
        2.4020039865784564,
        0.0829428975626502,
        0.0002437942245155413
    ],
    [
        "1_2",
        "XY",
        "2579",
        941.8102417416385,
        2.5162662820396324,
        0.07781691720391229,
        0.00023903461935432843
    ],
    [
        "1_2",
        "XY",
        "2600",
        934.8419474824319,
        2.5255514055433768,
        0.08170508572453702,
        0.0002522874785745739
    ],
    [
        "1_2",
        "XY",
        "2632",
        939.5059069609575,
        2.7322141161176963,
        0.07657891183110119,
        0.0002533339088466203
    ],
    [
        "1_2",
        "XY",
        "2653",
        938.8606168679112,
        2.371609226502893,
        0.07809279679049916,
        0.00022435884523584895
    ],
    [
        "1_2",
        "XY",
        "2674",
        947.0815237310867,
        2.561550010705727,
        0.06834158780258263,
        0.00021230721047771453
    ],
    [
        "1_2",
        "XY",
        "2695",
        940.6220692669791,
        2.3520397097519146,
        0.08199497392839095,
        0.00023431048569596454
    ],
    [
        "1_2",
        "XY",
        "2716",
        947.1162042702961,
        2.8408065515538845,
        0.06753213597058319,
        0.0002338852194478514
    ],
    [
        "1_2",
        "XY",
        "2737",
        939.844955145588,
        2.409953281257312,
        0.0781928441162103,
        0.00023272013198573298
    ],
    [
        "1_2",
        "XY",
        "2758",
        940.616971166838,
        2.903971387002949,
        0.07307034629884535,
        0.00026089537275002554
    ],
    [
        "1_2",
        "XY",
        "2779",
        939.3220931636447,
        2.709294335427464,
        0.0781104338788255,
        0.0002627486781574534
    ],
    [
        "1_2",
        "XY",
        "2818",
        936.0010229995505,
        2.4844234976321795,
        0.07726890011367427,
        0.00023798841991332288
    ],
    [
        "1_2",
        "XY",
        "2839",
        939.3351965121839,
        2.7730935337849414,
        0.0809168856172818,
        0.00027307388690783085
    ],
    [
        "1_2",
        "XY",
        "2860",
        937.8627903686466,
        2.597506102433596,
        0.07587782148618759,
        0.0002422747416619555
    ],
    [
        "1_2",
        "XY",
        "2881",
        936.800169630823,
        2.4421980293742935,
        0.08091077172246372,
        0.00024200546698191193
    ],
    [
        "1_2",
        "XY",
        "2902",
        942.1917672078264,
        2.6814691611973207,
        0.07615773501341269,
        0.00024599313216150793
    ],
    [
        "1_2",
        "XY",
        "2923",
        940.7281519110128,
        2.4437561888562267,
        0.08022244181155996,
        0.0002388328690188202
    ],
    [
        "1_2",
        "XY",
        "2944",
        938.4453989976217,
        2.582781341936417,
        0.07373270487679405,
        0.00023270748510304586
    ],
    [
        "1_2",
        "XY",
        "2965",
        936.834338882041,
        2.3018539343114783,
        0.07710935744702618,
        0.0002138463818118878
    ],
    [
        "1_2",
        "XY",
        "2997",
        940.8458472564765,
        2.6772166476298276,
        0.0745731476241135,
        0.00024413794334843497
    ],
    [
        "1_2",
        "XY",
        "3018",
        937.986125903083,
        2.6438230915056558,
        0.07907173450265693,
        0.00025344517544643796
    ],
    [
        "1_2",
        "XY",
        "3039",
        940.0370606831372,
        2.6281835650433805,
        0.07119130796382218,
        0.00022954961783463467
    ],
    [
        "1_2",
        "XY",
        "3060",
        938.8720422555266,
        2.616138078912263,
        0.07643141050036828,
        0.00024624611928779203
    ],
    [
        "1_2",
        "XY",
        "3081",
        936.3481274162709,
        2.4619843813897098,
        0.07442410439059556,
        0.00022421409026696166
    ],
    [
        "1_2",
        "XY",
        "3102",
        935.14913803385,
        2.632464514644627,
        0.07958493750382258,
        0.00025940118260701895
    ],
    [
        "1_2",
        "XY",
        "3123",
        940.4132399689111,
        2.48572666303141,
        0.076672677346011,
        0.0002350861011606051
    ],
    [
        "1_2",
        "XY",
        "3144",
        936.3254452287591,
        2.604910145118416,
        0.08173150990346206,
        0.0002665784600446905
    ]
]