[
    [
        "XscanNumber_YscanNumber",
        "Type",
        "BCID",
        "xsec",
        "xsecErr",
        "SBIL",
        "SBILErr"
    ],
    [
        "2_1",
        "XY",
        "103",
        953.432555347352,
        2.7832949429103175,
        0.06324404862068955,
        0.0002136186716370523
    ],
    [
        "2_1",
        "XY",
        "124",
        938.2098120316793,
        2.6443453921572466,
        0.08032678146684155,
        0.0002585917216564861
    ],
    [
        "2_1",
        "XY",
        "145",
        941.2636913194489,
        2.6564210964553614,
        0.06509562366244248,
        0.00020664835582275242
    ],
    [
        "2_1",
        "XY",
        "166",
        939.7988973047518,
        2.5962338487528536,
        0.07484384319744497,
        0.0002383052365583483
    ],
    [
        "2_1",
        "XY",
        "187",
        944.723007525233,
        2.9775394979290533,
        0.064980914077242,
        0.0002346626339879719
    ],
    [
        "2_1",
        "XY",
        "208",
        948.5145882445736,
        2.734548668392009,
        0.06748325775200599,
        0.00022247743920014216
    ],
    [
        "2_1",
        "XY",
        "229",
        938.9164423151533,
        2.6280722468116755,
        0.06959263124915169,
        0.00022483961047276298
    ],
    [
        "2_1",
        "XY",
        "250",
        939.272654974518,
        2.4425126412718923,
        0.07743933769989239,
        0.0002331774176540855
    ],
    [
        "2_1",
        "XY",
        "282",
        946.6888928687057,
        2.606139682397917,
        0.07492107317229948,
        0.0002370989669831242
    ],
    [
        "2_1",
        "XY",
        "303",
        938.441866494414,
        2.7134151041817516,
        0.07906557108651094,
        0.00026607101524578727
    ],
    [
        "2_1",
        "XY",
        "324",
        940.9281926976952,
        2.4431701851631655,
        0.07088948511286418,
        0.00021048516222627427
    ],
    [
        "2_1",
        "XY",
        "345",
        939.079531172407,
        2.51392232556659,
        0.08032578902778405,
        0.0002504662690659864
    ],
    [
        "2_1",
        "XY",
        "366",
        941.2964051272936,
        2.6943112100176063,
        0.07266186855878735,
        0.0002382350496477096
    ],
    [
        "2_1",
        "XY",
        "387",
        940.6543763952511,
        2.6052922178405526,
        0.07996275120677156,
        0.0002580592590489628
    ],
    [
        "2_1",
        "XY",
        "408",
        941.4365659313711,
        2.564862081015646,
        0.06848794030069746,
        0.0002121440277228973
    ],
    [
        "2_1",
        "XY",
        "429",
        939.9779287302823,
        2.6120858682638888,
        0.07719660857814409,
        0.00024327239183846296
    ],
    [
        "2_1",
        "XY",
        "464",
        944.6047153813621,
        3.019549274727061,
        0.07488186558036103,
        0.0002776607201262943
    ],
    [
        "2_1",
        "XY",
        "485",
        943.3720631637049,
        2.666189037381203,
        0.07738323348672593,
        0.00025417977972478896
    ],
    [
        "2_1",
        "XY",
        "506",
        943.5885686750677,
        2.6556966847469505,
        0.06654377211672118,
        0.00021534006141174983
    ],
    [
        "2_1",
        "XY",
        "527",
        941.3303409130574,
        2.8380699061782355,
        0.07381968220855828,
        0.00026155811674372987
    ],
    [
        "2_1",
        "XY",
        "548",
        939.5873698695167,
        2.567797499844251,
        0.07251011515892306,
        0.00022749150897533233
    ],
    [
        "2_1",
        "XY",
        "569",
        941.5951792233087,
        2.563996194709378,
        0.08083045808713948,
        0.0002525983134533953
    ],
    [
        "2_1",
        "XY",
        "590",
        944.4915253417525,
        2.5562046427766165,
        0.06975531899584077,
        0.00021820644832227018
    ],
    [
        "2_1",
        "XY",
        "611",
        939.6389016457814,
        2.5855772865299547,
        0.07829818393631767,
        0.0002486682433157818
    ],
    [
        "2_1",
        "XY",
        "643",
        947.6817701042646,
        2.486939871792927,
        0.07266972863917495,
        0.00021606373931249125
    ],
    [
        "2_1",
        "XY",
        "664",
        944.3672449762713,
        2.5664956040553366,
        0.07683912312081274,
        0.00024250692836573503
    ],
    [
        "2_1",
        "XY",
        "685",
        939.1576557708868,
        2.8569563418121557,
        0.06706505933507574,
        0.00023599930692744982
    ],
    [
        "2_1",
        "XY",
        "706",
        954.2352314125179,
        2.5632808651879,
        0.06925416978099432,
        0.00021719584920370838
    ],
    [
        "2_1",
        "XY",
        "727",
        944.5230116051409,
        2.461761250978848,
        0.06923003715320823,
        0.0002048375949640712
    ],
    [
        "2_1",
        "XY",
        "748",
        937.7257461513512,
        2.5442328110859216,
        0.07920077411593426,
        0.00024492415445182263
    ],
    [
        "2_1",
        "XY",
        "769",
        940.1688329410499,
        2.903221925870517,
        0.06401427853961535,
        0.00023032892486481778
    ],
    [
        "2_1",
        "XY",
        "790",
        940.6764904701513,
        2.426745694888402,
        0.07263170168845562,
        0.00021407597061448878
    ],
    [
        "2_1",
        "XY",
        "822",
        955.2939313102719,
        2.7172351919117967,
        0.06539639197699006,
        0.00021566086065432383
    ],
    [
        "2_1",
        "XY",
        "843",
        948.155419988122,
        2.3552127477080824,
        0.0767781605665781,
        0.00022372150141629184
    ],
    [
        "2_1",
        "XY",
        "864",
        945.0990485592966,
        2.5652853230469552,
        0.07006412931122467,
        0.00022182505810214477
    ],
    [
        "2_1",
        "XY",
        "885",
        940.0307817648197,
        2.4486624964308437,
        0.08061096635458899,
        0.0002432060093697659
    ],
    [
        "2_1",
        "XY",
        "906",
        943.4388603889442,
        2.458354089364658,
        0.06832061698789109,
        0.00020446243525427366
    ],
    [
        "2_1",
        "XY",
        "927",
        939.1038621860284,
        2.3651241288990006,
        0.07828451326719314,
        0.0002273818382089958
    ],
    [
        "2_1",
        "XY",
        "948",
        944.4003679623565,
        2.7751047509107996,
        0.06875055500689894,
        0.0002340792410607338
    ],
    [
        "2_1",
        "XY",
        "969",
        940.1484781658494,
        2.3784761550651767,
        0.07643375576715895,
        0.000221372701229608
    ],
    [
        "2_1",
        "XY",
        "1018",
        943.4849488572889,
        2.5307600572686844,
        0.07473331514986738,
        0.00023210755956584286
    ],
    [
        "2_1",
        "XY",
        "1039",
        941.0459721969587,
        2.2269345232449593,
        0.07860397848157162,
        0.00021563354064229226
    ],
    [
        "2_1",
        "XY",
        "1060",
        943.9077915003049,
        2.5776650276052058,
        0.06982813672172979,
        0.0002178357421863047
    ],
    [
        "2_1",
        "XY",
        "1081",
        945.3904757593763,
        2.4359674296997063,
        0.07719610282017733,
        0.0002303031366384093
    ],
    [
        "2_1",
        "XY",
        "1102",
        947.4544572308151,
        2.856345635606047,
        0.06783121448480985,
        0.0002346147625047781
    ],
    [
        "2_1",
        "XY",
        "1123",
        943.1570067846314,
        2.4148184957765353,
        0.07457967137474833,
        0.0002206369595868417
    ],
    [
        "2_1",
        "XY",
        "1144",
        943.943363416936,
        2.397002695888776,
        0.06958214489809213,
        0.000203839894869871
    ],
    [
        "2_1",
        "XY",
        "1165",
        944.8555127473456,
        2.3343488267847983,
        0.07978900970063935,
        0.0002279436999708723
    ],
    [
        "2_1",
        "XY",
        "1197",
        943.5503425405506,
        2.4105901367916327,
        0.07225284608951446,
        0.00021521819202177184
    ],
    [
        "2_1",
        "XY",
        "1218",
        943.6063197382589,
        2.436580565376651,
        0.0784966274478881,
        0.00023380179570116761
    ],
    [
        "2_1",
        "XY",
        "1239",
        944.5370630217732,
        2.7719671646435944,
        0.06954809162118382,
        0.00023853573862976955
    ],
    [
        "2_1",
        "XY",
        "1260",
        948.4957058805761,
        2.296770711614713,
        0.07757442586250049,
        0.00021808886433187185
    ],
    [
        "2_1",
        "XY",
        "1281",
        942.474084417193,
        2.724442409043845,
        0.07110045910398752,
        0.00023186851791079938
    ],
    [
        "2_1",
        "XY",
        "1302",
        944.9862700533021,
        2.500553184837397,
        0.07902356505862691,
        0.00023998678986084074
    ],
    [
        "2_1",
        "XY",
        "1323",
        946.2446216632973,
        2.9887572841270456,
        0.06501537937021734,
        0.00023582020179873408
    ],
    [
        "2_1",
        "XY",
        "1344",
        941.9737066865489,
        2.4636420946699378,
        0.0763008596664687,
        0.0002267298532420785
    ],
    [
        "2_1",
        "XY",
        "1376",
        945.1009024571291,
        2.5035932758296284,
        0.07175949869197544,
        0.00021951250703518282
    ],
    [
        "2_1",
        "XY",
        "1397",
        949.8448246119362,
        2.6581305901386285,
        0.06863617880150029,
        0.00021978133723507166
    ],
    [
        "2_1",
        "XY",
        "1418",
        946.9688623352467,
        2.627741944034494,
        0.07266726974695085,
        0.00023361621896993872
    ],
    [
        "2_1",
        "XY",
        "1439",
        957.2147670446109,
        2.6352675365022007,
        0.06444531392868184,
        0.00020523706827891994
    ],
    [
        "2_1",
        "XY",
        "1460",
        943.8507444687785,
        2.4805163755808315,
        0.07033030313782151,
        0.00021185795628894728
    ],
    [
        "2_1",
        "XY",
        "1481",
        941.6568591126179,
        2.4946378279845987,
        0.07706886150647216,
        0.00023697310185747877
    ],
    [
        "2_1",
        "XY",
        "1502",
        950.9635639070917,
        2.439622501066232,
        0.06889197957105542,
        0.00020466321880454393
    ],
    [
        "2_1",
        "XY",
        "1523",
        957.4655492120172,
        2.739120229912014,
        0.06153470805583347,
        0.00020341474113527762
    ],
    [
        "2_1",
        "XY",
        "1555",
        959.710987949983,
        2.7500851821808787,
        0.06345592004977527,
        0.0002090346408904634
    ],
    [
        "2_1",
        "XY",
        "1576",
        956.2397510000145,
        2.809028271128668,
        0.06707249262502048,
        0.00022534456121652875
    ],
    [
        "2_1",
        "XY",
        "1597",
        957.5875088845635,
        2.7350062454847115,
        0.05912271014111249,
        0.0001917757538315397
    ],
    [
        "2_1",
        "XY",
        "1618",
        956.5556823123194,
        2.748675736376506,
        0.06510365829890621,
        0.00021670311244158407
    ],
    [
        "2_1",
        "XY",
        "1639",
        942.3481988766666,
        2.303783223074232,
        0.07975624074675951,
        0.00022340310785303824
    ],
    [
        "2_1",
        "XY",
        "1660",
        946.8353105418604,
        2.3268280760204227,
        0.08015118493918963,
        0.00022756722428456902
    ],
    [
        "2_1",
        "XY",
        "1681",
        946.118947250514,
        2.5976447105538925,
        0.07504634069892659,
        0.00023551783264300042
    ],
    [
        "2_1",
        "XY",
        "1702",
        944.780908086651,
        2.5073474039274966,
        0.08125609542423255,
        0.00024773578447915266
    ],
    [
        "2_1",
        "XY",
        "1734",
        945.7044436858713,
        2.431841475397148,
        0.07381327880256648,
        0.00021741188677353588
    ],
    [
        "2_1",
        "XY",
        "1755",
        957.4779855686256,
        2.7235734145608075,
        0.060508318730414574,
        0.00019695718620197828
    ],
    [
        "2_1",
        "XY",
        "1776",
        948.1193582580515,
        2.5195297601374906,
        0.07377097992951408,
        0.00022821273935766566
    ],
    [
        "2_1",
        "XY",
        "1797",
        942.164943193104,
        2.5398812565488327,
        0.079969621386238,
        0.00024646159763943334
    ],
    [
        "2_1",
        "XY",
        "1818",
        953.9576956144984,
        2.4873238652603216,
        0.06670927203941471,
        0.00019895634643528058
    ],
    [
        "2_1",
        "XY",
        "1839",
        961.132360211443,
        2.924230895705839,
        0.061265047816346126,
        0.0002167262355497121
    ],
    [
        "2_1",
        "XY",
        "1860",
        943.7176921165882,
        2.5662515717870424,
        0.07651853440263992,
        0.00023723992510885317
    ],
    [
        "2_1",
        "XY",
        "1881",
        943.2943154850901,
        2.362433101413252,
        0.08059484642156614,
        0.00023528647059621594
    ],
    [
        "2_1",
        "XY",
        "1916",
        946.9098377589835,
        2.5753436980412654,
        0.07315967036387482,
        0.00022818719198159588
    ],
    [
        "2_1",
        "XY",
        "1937",
        955.4246584778467,
        2.756152679433084,
        0.061294514317537165,
        0.00020618351683382907
    ],
    [
        "2_1",
        "XY",
        "1958",
        947.5374445262053,
        2.6480677941194153,
        0.07196923792002698,
        0.000231954977642769
    ],
    [
        "2_1",
        "XY",
        "1979",
        941.1319865690399,
        2.6303056358658536,
        0.0770526857129168,
        0.0002495992141974975
    ],
    [
        "2_1",
        "XY",
        "2000",
        945.33864694572,
        2.630742069531457,
        0.07649868772351408,
        0.00024726801050503925
    ],
    [
        "2_1",
        "XY",
        "2021",
        943.8093220978333,
        2.6411668326473756,
        0.080437950985787,
        0.00025798036494922047
    ],
    [
        "2_1",
        "XY",
        "2042",
        942.158739593791,
        2.708352534102578,
        0.07582659194178003,
        0.0002523104248283957
    ],
    [
        "2_1",
        "XY",
        "2063",
        942.9203775526468,
        2.5036041749299858,
        0.07950439111671344,
        0.0002413269949111963
    ],
    [
        "2_1",
        "XY",
        "2095",
        943.8906553340074,
        2.4824160674131797,
        0.0739615560775956,
        0.00022273057034885338
    ],
    [
        "2_1",
        "XY",
        "2116",
        945.272169871328,
        2.5826576255127143,
        0.07669900181436158,
        0.0002432589746367233
    ],
    [
        "2_1",
        "XY",
        "2137",
        941.8356604784161,
        2.6740080000284925,
        0.07350546641140221,
        0.00023834663451919463
    ],
    [
        "2_1",
        "XY",
        "2158",
        945.1872009818002,
        2.277725479504156,
        0.07899480115078966,
        0.00021989034731063125
    ],
    [
        "2_1",
        "XY",
        "2179",
        942.7850430351688,
        2.528568584012677,
        0.07568507269537879,
        0.00023398291964142682
    ],
    [
        "2_1",
        "XY",
        "2200",
        941.9831089443132,
        2.7733093797513084,
        0.08079299171835756,
        0.00027469331413507885
    ],
    [
        "2_1",
        "XY",
        "2221",
        946.6012967752418,
        2.5604078783388884,
        0.07612191824350545,
        0.00023717303160952202
    ],
    [
        "2_1",
        "XY",
        "2242",
        942.2607492409307,
        2.510284660230991,
        0.07960869003971777,
        0.00024178432957936552
    ],
    [
        "2_1",
        "XY",
        "2274",
        944.4485007383738,
        2.586211861727431,
        0.0759711083678131,
        0.00024020110980316618
    ],
    [
        "2_1",
        "XY",
        "2295",
        947.1578867086439,
        2.517833771068942,
        0.07906197392147896,
        0.00024251850366051645
    ],
    [
        "2_1",
        "XY",
        "2316",
        944.3004625601701,
        2.7391776068924165,
        0.0747781552639017,
        0.0002477270556044115
    ],
    [
        "2_1",
        "XY",
        "2337",
        948.6730318299534,
        2.373534873389768,
        0.06851790474852049,
        0.00020054681433819653
    ],
    [
        "2_1",
        "XY",
        "2358",
        958.3862831059988,
        2.6460980770464357,
        0.06296308612554868,
        0.0002010161829925234
    ],
    [
        "2_1",
        "XY",
        "2379",
        944.0474957761818,
        2.6375385789479417,
        0.0785424617316504,
        0.0002567548243178948
    ],
    [
        "2_1",
        "XY",
        "2400",
        945.0284476451088,
        2.6001294485941897,
        0.07208316873958216,
        0.0002280930667397883
    ],
    [
        "2_1",
        "XY",
        "2421",
        940.2497496814602,
        2.5430594226178895,
        0.07813465230876526,
        0.0002415704132677799
    ],
    [
        "2_1",
        "XY",
        "2453",
        942.008133426884,
        2.4846252970048517,
        0.07791655720196368,
        0.00023649455633516464
    ],
    [
        "2_1",
        "XY",
        "2474",
        941.3113405095644,
        2.299238257875422,
        0.0817160717666067,
        0.0002292590828473299
    ],
    [
        "2_1",
        "XY",
        "2495",
        945.5984215184881,
        2.39215907044782,
        0.07418290880887089,
        0.00021753236451113521
    ],
    [
        "2_1",
        "XY",
        "2516",
        942.72906530474,
        2.5973789988244675,
        0.07896111632432057,
        0.0002529800045774859
    ],
    [
        "2_1",
        "XY",
        "2537",
        943.6715894283298,
        2.3834414848004,
        0.0762512904734188,
        0.00022178380697916025
    ],
    [
        "2_1",
        "XY",
        "2558",
        943.1680864737818,
        2.551992428216912,
        0.08276091137941831,
        0.0002605410924964983
    ],
    [
        "2_1",
        "XY",
        "2579",
        945.3414543862174,
        2.3242640505431558,
        0.07813851368655213,
        0.00021935181803432028
    ],
    [
        "2_1",
        "XY",
        "2600",
        942.1796603601813,
        2.541409401043535,
        0.08124701426250124,
        0.00025143303416346727
    ],
    [
        "2_1",
        "XY",
        "2632",
        946.7988396231113,
        2.659798538470427,
        0.07353269826281984,
        0.00023938961577679106
    ],
    [
        "2_1",
        "XY",
        "2653",
        942.4264185747285,
        2.288967334481455,
        0.07785269164585541,
        0.00021768323772557708
    ],
    [
        "2_1",
        "XY",
        "2674",
        952.464057519475,
        2.529046448960761,
        0.06818316922105207,
        0.00020886394128660638
    ],
    [
        "2_1",
        "XY",
        "2695",
        942.6230842575532,
        2.3749215899702394,
        0.08200494692568158,
        0.00023644668369570486
    ],
    [
        "2_1",
        "XY",
        "2716",
        954.4989731018015,
        2.7432726501474685,
        0.06761709624585761,
        0.00022432696729254417
    ],
    [
        "2_1",
        "XY",
        "2737",
        940.6970449639953,
        2.505415226890182,
        0.07864806176090065,
        0.00024427926750205916
    ],
    [
        "2_1",
        "XY",
        "2758",
        945.4482744749679,
        2.696487603315061,
        0.07336469762115656,
        0.0002407522411630072
    ],
    [
        "2_1",
        "XY",
        "2779",
        941.4802646757439,
        2.40822588072525,
        0.07843247323421756,
        0.0002310976611389189
    ],
    [
        "2_1",
        "XY",
        "2818",
        940.8060582818574,
        2.586371259830194,
        0.07688527637050274,
        0.000243689787921443
    ],
    [
        "2_1",
        "XY",
        "2839",
        939.9816348769857,
        2.5356950454025093,
        0.08128970502634998,
        0.00025448706413752685
    ],
    [
        "2_1",
        "XY",
        "2860",
        941.5658474659336,
        2.6741247025026382,
        0.07599334933748722,
        0.0002508628553878984
    ],
    [
        "2_1",
        "XY",
        "2881",
        937.7899110392289,
        2.638334628201145,
        0.08134821425832596,
        0.00026362929917080654
    ],
    [
        "2_1",
        "XY",
        "2902",
        943.1716529201923,
        2.728589401596672,
        0.07641372783545362,
        0.00025980042775802456
    ],
    [
        "2_1",
        "XY",
        "2923",
        942.3535307156641,
        2.4421521979588863,
        0.08052793812541056,
        0.00023802030911851854
    ],
    [
        "2_1",
        "XY",
        "2944",
        941.8290057875379,
        2.6544268493380416,
        0.07393611477927854,
        0.0002418525846730803
    ],
    [
        "2_1",
        "XY",
        "2965",
        941.7709654054338,
        2.4084175490450535,
        0.07723444784682722,
        0.00022693501720327875
    ],
    [
        "2_1",
        "XY",
        "2997",
        944.9631599502402,
        2.5748124210224437,
        0.07465426331410183,
        0.00023310077185584598
    ],
    [
        "2_1",
        "XY",
        "3018",
        946.4345723131802,
        2.703886553829797,
        0.07848264330735462,
        0.0002603348739152042
    ],
    [
        "2_1",
        "XY",
        "3039",
        943.3577037745405,
        2.8146476719724998,
        0.07093632744620203,
        0.0002449545107660831
    ],
    [
        "2_1",
        "XY",
        "3060",
        941.5882439493088,
        2.512191512243394,
        0.07623219904433795,
        0.0002366154795173277
    ],
    [
        "2_1",
        "XY",
        "3081",
        938.1083329696874,
        2.585217214264129,
        0.0748277891938534,
        0.00023601989942628773
    ],
    [
        "2_1",
        "XY",
        "3102",
        941.2004422702834,
        2.3413486316444447,
        0.07929380246648272,
        0.00022497667422747755
    ],
    [
        "2_1",
        "XY",
        "3123",
        946.7350474129939,
        2.34049807181749,
        0.07680018040232257,
        0.0002179991280749161
    ],
    [
        "2_1",
        "XY",
        "3144",
        937.234515663882,
        2.3087462058259036,
        0.08162573215482334,
        0.00022825529834852285
    ]
]