[
    [
        "XscanNumber_YscanNumber",
        "Type",
        "BCID",
        "xsec",
        "xsecErr",
        "SBIL",
        "SBILErr"
    ],
    [
        "2_1",
        "XY",
        "103",
        962.5547309347807,
        2.1722266170540876,
        0.06186390066836845,
        0.00016668860079153893
    ],
    [
        "2_1",
        "XY",
        "124",
        958.4807342199571,
        2.0207305741592423,
        0.07689607658559482,
        0.00019184401890273337
    ],
    [
        "2_1",
        "XY",
        "145",
        963.8869817419325,
        2.0544388699776706,
        0.06239468865252823,
        0.00015545527649747502
    ],
    [
        "2_1",
        "XY",
        "166",
        956.2756371257948,
        2.0492554465291386,
        0.07202157986253556,
        0.00018342468956281701
    ],
    [
        "2_1",
        "XY",
        "187",
        966.1054969537602,
        2.2927409764051867,
        0.062089130627787356,
        0.00017486765309886288
    ],
    [
        "2_1",
        "XY",
        "208",
        967.989314106809,
        1.9717206290148561,
        0.06470636055025042,
        0.00015690677181475412
    ],
    [
        "2_1",
        "XY",
        "229",
        957.9910604413622,
        2.09512404295,
        0.066707289805606,
        0.00017453820406322366
    ],
    [
        "2_1",
        "XY",
        "250",
        957.5006622368244,
        1.9554441993520129,
        0.07421768185008745,
        0.00018144669171662775
    ],
    [
        "2_1",
        "XY",
        "282",
        956.377478559031,
        2.035926246640796,
        0.07320205543584977,
        0.00018379580092885037
    ],
    [
        "2_1",
        "XY",
        "303",
        951.9388338859136,
        2.166467837384581,
        0.07608105672397453,
        0.0002064146359962047
    ],
    [
        "2_1",
        "XY",
        "324",
        957.5727908944118,
        1.9497809712977372,
        0.06834599842945373,
        0.0001638664663015203
    ],
    [
        "2_1",
        "XY",
        "345",
        952.0439322787762,
        2.09620171286053,
        0.07746644827305538,
        0.00020276168745433668
    ],
    [
        "2_1",
        "XY",
        "366",
        959.2962215525428,
        2.0423090706813887,
        0.06974381930622685,
        0.00017668867379722834
    ],
    [
        "2_1",
        "XY",
        "387",
        955.712947329742,
        2.1800143505843117,
        0.07664884229782525,
        0.0002073112396911889
    ],
    [
        "2_1",
        "XY",
        "408",
        958.880557434267,
        2.0989660009572857,
        0.06601219148537094,
        0.00016821098243617797
    ],
    [
        "2_1",
        "XY",
        "429",
        966.3870881139651,
        1.9868900058921735,
        0.07352762795207968,
        0.0001796733343642674
    ],
    [
        "2_1",
        "XY",
        "464",
        956.4529973631182,
        2.2549605817632883,
        0.0726025177201048,
        0.00020468273546207576
    ],
    [
        "2_1",
        "XY",
        "485",
        952.2839633227651,
        2.1330301351056753,
        0.07559264285145491,
        0.00020195243529568934
    ],
    [
        "2_1",
        "XY",
        "506",
        953.5011005690426,
        2.156980783534799,
        0.06503128283591052,
        0.00017337292828901335
    ],
    [
        "2_1",
        "XY",
        "527",
        950.6181238444188,
        2.268882118417946,
        0.07174934864097678,
        0.0002058762722297543
    ],
    [
        "2_1",
        "XY",
        "548",
        951.9581535484932,
        2.0792784855447577,
        0.070567600117207,
        0.00018172185968350535
    ],
    [
        "2_1",
        "XY",
        "569",
        955.0794861837982,
        1.9640893418744128,
        0.0785088278916982,
        0.00019181783639080728
    ],
    [
        "2_1",
        "XY",
        "590",
        955.7716854188707,
        2.0690269115585944,
        0.06796347363281759,
        0.0001744123021851865
    ],
    [
        "2_1",
        "XY",
        "611",
        950.8902758647416,
        2.1229158983243868,
        0.07638534931289291,
        0.0002022189533892658
    ],
    [
        "2_1",
        "XY",
        "643",
        959.5638841484331,
        1.9333655277913144,
        0.07097839996162582,
        0.0001670597246709424
    ],
    [
        "2_1",
        "XY",
        "664",
        953.3118698974954,
        2.016031014835491,
        0.07508899825817196,
        0.00018960379444084074
    ],
    [
        "2_1",
        "XY",
        "685",
        952.094215943413,
        2.1593075479564976,
        0.06508890917615566,
        0.00017768755472981365
    ],
    [
        "2_1",
        "XY",
        "706",
        960.8657729274038,
        2.1091076530764186,
        0.06803355250824818,
        0.0001775815064186607
    ],
    [
        "2_1",
        "XY",
        "727",
        957.5643334446039,
        2.046287491768153,
        0.06759165284420876,
        0.00016917317805205048
    ],
    [
        "2_1",
        "XY",
        "748",
        950.6692922670136,
        2.0151090959915603,
        0.07713369412357753,
        0.00019206167250801384
    ],
    [
        "2_1",
        "XY",
        "769",
        953.0399871391777,
        2.3426544261107476,
        0.06195785494897206,
        0.0001825953514102727
    ],
    [
        "2_1",
        "XY",
        "790",
        952.0583763012706,
        1.9924790521077145,
        0.07083578745232387,
        0.00017298308505330555
    ],
    [
        "2_1",
        "XY",
        "822",
        964.6003505723813,
        2.1136659608548585,
        0.06407622338470138,
        0.00016903729812548779
    ],
    [
        "2_1",
        "XY",
        "843",
        953.4182645294441,
        1.9232507322987584,
        0.07571562725487944,
        0.0001834945499500067
    ],
    [
        "2_1",
        "XY",
        "864",
        955.988515072782,
        2.0354722557434988,
        0.06821802074598625,
        0.00017492992874859595
    ],
    [
        "2_1",
        "XY",
        "885",
        951.1252564778596,
        1.7449877208912388,
        0.07866780477335887,
        0.00017181831235537023
    ],
    [
        "2_1",
        "XY",
        "906",
        955.7595520757926,
        1.9844768795411107,
        0.06664277472037539,
        0.00016408917529538668
    ],
    [
        "2_1",
        "XY",
        "927",
        948.8983281087878,
        1.9345964337810309,
        0.07659232327519773,
        0.00018529334868418144
    ],
    [
        "2_1",
        "XY",
        "948",
        957.10296393419,
        2.1286444811774294,
        0.06667485652280859,
        0.00017781091577756297
    ],
    [
        "2_1",
        "XY",
        "969",
        953.6249614548942,
        1.9381615614561103,
        0.0743508661608042,
        0.00017783462634446157
    ],
    [
        "2_1",
        "XY",
        "1018",
        952.599856654856,
        2.071587682826986,
        0.07307161989110102,
        0.0001880003863941974
    ],
    [
        "2_1",
        "XY",
        "1039",
        948.5649958820306,
        1.8691099162680487,
        0.07708949062931625,
        0.00017976182197836676
    ],
    [
        "2_1",
        "XY",
        "1060",
        955.6377055134329,
        1.930041019869623,
        0.068183728714863,
        0.00016379985076954017
    ],
    [
        "2_1",
        "XY",
        "1081",
        953.2197376683018,
        1.9698646204197032,
        0.07581286170102483,
        0.00018627159720555365
    ],
    [
        "2_1",
        "XY",
        "1102",
        960.7899692715788,
        2.180291693076367,
        0.06590694684726403,
        0.00017700162859646344
    ],
    [
        "2_1",
        "XY",
        "1123",
        951.4298987757597,
        1.9994196127511232,
        0.07319482896773875,
        0.00018208294627264775
    ],
    [
        "2_1",
        "XY",
        "1144",
        952.4752292052241,
        1.94062545170486,
        0.06797966210844546,
        0.0001629880359898522
    ],
    [
        "2_1",
        "XY",
        "1165",
        953.8755073062468,
        1.97183394320439,
        0.07804792334732838,
        0.00019012480751698615
    ],
    [
        "2_1",
        "XY",
        "1197",
        952.5271837655564,
        1.9578706933428351,
        0.07072544025805436,
        0.00017470708471378437
    ],
    [
        "2_1",
        "XY",
        "1218",
        953.13678239056,
        1.9575539908805453,
        0.0768793182412766,
        0.00018787618485954484
    ],
    [
        "2_1",
        "XY",
        "1239",
        952.8800720043006,
        2.233684423520641,
        0.06791687131301473,
        0.00019075929911323113
    ],
    [
        "2_1",
        "XY",
        "1260",
        954.9120779666943,
        1.8965020709034812,
        0.0764687475793412,
        0.0001810058261915532
    ],
    [
        "2_1",
        "XY",
        "1281",
        957.594746821611,
        2.021286495148391,
        0.06913019752029419,
        0.0001715029545217776
    ],
    [
        "2_1",
        "XY",
        "1302",
        955.9396772127127,
        1.9920797024606964,
        0.07719259989671104,
        0.00019060170195370825
    ],
    [
        "2_1",
        "XY",
        "1323",
        958.0079411899526,
        2.281209824368393,
        0.06327750462401223,
        0.00017810389001305407
    ],
    [
        "2_1",
        "XY",
        "1344",
        954.0366225625344,
        1.9929231115542299,
        0.07437407695728446,
        0.00018082113652575943
    ],
    [
        "2_1",
        "XY",
        "1376",
        957.0745568292546,
        2.0373874013125977,
        0.0699143676119465,
        0.00017699550640354336
    ],
    [
        "2_1",
        "XY",
        "1397",
        961.8034494625093,
        2.083391841260713,
        0.06702431206291812,
        0.00017132534181314748
    ],
    [
        "2_1",
        "XY",
        "1418",
        957.970366978969,
        2.0287076115198133,
        0.07092189893338204,
        0.00018119864113265655
    ],
    [
        "2_1",
        "XY",
        "1439",
        964.4821548128992,
        2.0500328641488803,
        0.06335862224803478,
        0.00016056084440448687
    ],
    [
        "2_1",
        "XY",
        "1460",
        957.2895480456383,
        1.9193122899299073,
        0.06829547953020892,
        0.00016201790435846177
    ],
    [
        "2_1",
        "XY",
        "1481",
        952.2415320324867,
        1.9765324105618696,
        0.07519995043709146,
        0.00018704938983287397
    ],
    [
        "2_1",
        "XY",
        "1502",
        959.8249166084341,
        2.0774955990226482,
        0.06733087107011677,
        0.00017150441129955068
    ],
    [
        "2_1",
        "XY",
        "1523",
        965.4073472044302,
        2.1987014505572002,
        0.06043385772492502,
        0.0001632575007259254
    ],
    [
        "2_1",
        "XY",
        "1555",
        968.2778679183402,
        2.1199021542258087,
        0.06227063231845233,
        0.00016129249673042857
    ],
    [
        "2_1",
        "XY",
        "1576",
        968.030580566394,
        2.1366501973903165,
        0.06542818411149219,
        0.00017068037448962284
    ],
    [
        "2_1",
        "XY",
        "1597",
        965.5312028665905,
        2.112510190946587,
        0.05820347509574335,
        0.00014980065526554013
    ],
    [
        "2_1",
        "XY",
        "1618",
        966.6304888637745,
        2.171904617838372,
        0.0637139944734436,
        0.00017147483637126596
    ],
    [
        "2_1",
        "XY",
        "1639",
        953.961433801451,
        1.846346923902739,
        0.07775555027847411,
        0.0001768255186851278
    ],
    [
        "2_1",
        "XY",
        "1660",
        955.4321809191592,
        1.8914856502649884,
        0.07856141189275788,
        0.00018441224758702766
    ],
    [
        "2_1",
        "XY",
        "1681",
        961.3418415126098,
        1.9919184483499266,
        0.07283606420017552,
        0.00017931681153052255
    ],
    [
        "2_1",
        "XY",
        "1702",
        957.7652999280622,
        1.9077899174822055,
        0.07891996727368596,
        0.00018691213442051992
    ],
    [
        "2_1",
        "XY",
        "1734",
        958.7556579681361,
        1.9497822236949318,
        0.07197080983891947,
        0.0001735289736400837
    ],
    [
        "2_1",
        "XY",
        "1755",
        966.7500299244176,
        1.9898710295282651,
        0.05936399283016634,
        0.0001465830678207949
    ],
    [
        "2_1",
        "XY",
        "1776",
        957.44485928054,
        2.039401621490213,
        0.07212760346107158,
        0.0001839181389386432
    ],
    [
        "2_1",
        "XY",
        "1797",
        953.9093031653459,
        1.9996814816578432,
        0.07803978491326449,
        0.00019291993200695938
    ],
    [
        "2_1",
        "XY",
        "1818",
        965.3471869858375,
        1.9132127118788953,
        0.06529525466607386,
        0.00015450121692447733
    ],
    [
        "2_1",
        "XY",
        "1839",
        968.881691084195,
        2.0957681943864457,
        0.060063971048782624,
        0.00015686392014869512
    ],
    [
        "2_1",
        "XY",
        "1860",
        958.4986135121053,
        2.031293126103953,
        0.0742538996801827,
        0.00018520654362227267
    ],
    [
        "2_1",
        "XY",
        "1881",
        950.8616013627033,
        1.9262818012955458,
        0.07900497822722101,
        0.00019093195233502345
    ],
    [
        "2_1",
        "XY",
        "1916",
        959.608413967258,
        2.060457118892599,
        0.07136350666317655,
        0.00018174710184000023
    ],
    [
        "2_1",
        "XY",
        "1937",
        963.3116484578753,
        2.141934750490885,
        0.06014552115292539,
        0.00016091386962130704
    ],
    [
        "2_1",
        "XY",
        "1958",
        960.1122366205863,
        2.05954172556625,
        0.06999021996988782,
        0.0001781778094817329
    ],
    [
        "2_1",
        "XY",
        "1979",
        950.3774266380966,
        2.0681729597726033,
        0.07518764298775704,
        0.00019455837286618048
    ],
    [
        "2_1",
        "XY",
        "2000",
        957.9416652513991,
        1.9888536941908805,
        0.07413981341182671,
        0.00018568513777746977
    ],
    [
        "2_1",
        "XY",
        "2021",
        956.5930419199242,
        1.98803727014941,
        0.07825928916186387,
        0.0001939201504070156
    ],
    [
        "2_1",
        "XY",
        "2042",
        955.0780356113178,
        2.1106885287824344,
        0.07335884951571717,
        0.00019245462647302986
    ],
    [
        "2_1",
        "XY",
        "2063",
        956.3711499682316,
        1.9617066019335039,
        0.07729633112820057,
        0.0001869892675113022
    ],
    [
        "2_1",
        "XY",
        "2095",
        957.4088282025278,
        1.9282389093082206,
        0.07200401705375868,
        0.00017224984816011438
    ],
    [
        "2_1",
        "XY",
        "2116",
        954.1222849037357,
        2.049270420140779,
        0.0748989743007054,
        0.00019120660285050029
    ],
    [
        "2_1",
        "XY",
        "2137",
        953.9392204906541,
        2.0703038559664506,
        0.0716251429704918,
        0.00018314687025947733
    ],
    [
        "2_1",
        "XY",
        "2158",
        955.2946496568738,
        1.8896037476942207,
        0.07725557721398794,
        0.0001813688442641558
    ],
    [
        "2_1",
        "XY",
        "2179",
        955.2023823148817,
        1.966454387086404,
        0.07352911333377363,
        0.00018001238818546276
    ],
    [
        "2_1",
        "XY",
        "2200",
        955.9004329799799,
        2.0613847218856667,
        0.07812994441776054,
        0.00020130423831787617
    ],
    [
        "2_1",
        "XY",
        "2221",
        959.0431431592766,
        2.0403984989216988,
        0.07416989246616218,
        0.00018708414263054806
    ],
    [
        "2_1",
        "XY",
        "2242",
        956.588662165509,
        1.9521656725701064,
        0.07727505510397599,
        0.00018582035601156716
    ],
    [
        "2_1",
        "XY",
        "2274",
        957.4926257529107,
        2.081476893955257,
        0.07392413393268353,
        0.00019185886014024545
    ],
    [
        "2_1",
        "XY",
        "2295",
        957.4329653935856,
        1.99854595270627,
        0.0772587873906663,
        0.00019163833440292408
    ],
    [
        "2_1",
        "XY",
        "2316",
        957.0807396006747,
        2.0946190714541224,
        0.07283253206449306,
        0.00018830892975642714
    ],
    [
        "2_1",
        "XY",
        "2337",
        956.8185774090321,
        2.04963839003769,
        0.06721797448243066,
        0.00017291205931759709
    ],
    [
        "2_1",
        "XY",
        "2358",
        968.9281849011719,
        1.996910206181241,
        0.061573289239388644,
        0.00015307291839271024
    ],
    [
        "2_1",
        "XY",
        "2379",
        953.8188008884882,
        2.050646033051667,
        0.07645727259458907,
        0.00019839533778233487
    ],
    [
        "2_1",
        "XY",
        "2400",
        955.8794348009542,
        2.0656910096068266,
        0.07030991787500135,
        0.0001790420317700353
    ],
    [
        "2_1",
        "XY",
        "2421",
        952.6474946113634,
        2.045967631171568,
        0.0759917790032077,
        0.00019155051000972282
    ],
    [
        "2_1",
        "XY",
        "2453",
        954.7600808799663,
        1.9313669214128346,
        0.07573371434471644,
        0.00018103595457670592
    ],
    [
        "2_1",
        "XY",
        "2474",
        954.3093884268387,
        1.9005411098703622,
        0.07963039171796406,
        0.0001879548801602353
    ],
    [
        "2_1",
        "XY",
        "2495",
        955.5245459640016,
        1.9934243206744058,
        0.07250698881038851,
        0.00018007034398815597
    ],
    [
        "2_1",
        "XY",
        "2516",
        953.2356959767428,
        2.0883118329955983,
        0.0767355344822467,
        0.00020028757922520784
    ],
    [
        "2_1",
        "XY",
        "2537",
        953.2837112155875,
        1.9827237183763666,
        0.07452763078580327,
        0.0001827299454597306
    ],
    [
        "2_1",
        "XY",
        "2558",
        953.4952166561771,
        1.752570631368375,
        0.08056429698329694,
        0.00017753593158040495
    ],
    [
        "2_1",
        "XY",
        "2579",
        958.0304927917875,
        1.8542142932902022,
        0.07623261932887929,
        0.00017442574416745555
    ],
    [
        "2_1",
        "XY",
        "2600",
        956.9390049541197,
        1.9893793045240633,
        0.07869964102072984,
        0.00019350103801965606
    ],
    [
        "2_1",
        "XY",
        "2632",
        958.5218420917081,
        2.002320295705534,
        0.07150279938635241,
        0.00017931291537229141
    ],
    [
        "2_1",
        "XY",
        "2653",
        951.4918858370042,
        1.8991485141027633,
        0.07626380265644882,
        0.0001790394137198889
    ],
    [
        "2_1",
        "XY",
        "2674",
        962.4300782686031,
        2.027756337300962,
        0.06667982972040566,
        0.0001670099061578379
    ],
    [
        "2_1",
        "XY",
        "2695",
        953.8028946627492,
        1.8824012024397399,
        0.0801222987564693,
        0.00018725366648305558
    ],
    [
        "2_1",
        "XY",
        "2716",
        965.6406930205442,
        2.1779508513005537,
        0.0660582845004332,
        0.00017844211235452543
    ],
    [
        "2_1",
        "XY",
        "2737",
        948.7663322151643,
        2.053352474255837,
        0.07688206318367438,
        0.00019834111668997373
    ],
    [
        "2_1",
        "XY",
        "2758",
        959.85249302474,
        2.0725494166755176,
        0.07117073440692423,
        0.00018396128212945593
    ],
    [
        "2_1",
        "XY",
        "2779",
        953.382010155845,
        1.935352161648667,
        0.07634450084367313,
        0.0001835020922424311
    ],
    [
        "2_1",
        "XY",
        "2818",
        953.0209406016769,
        1.9734208060648717,
        0.07463251441164336,
        0.00018376825077920307
    ],
    [
        "2_1",
        "XY",
        "2839",
        953.339693306555,
        2.004537294514708,
        0.07869364262420579,
        0.00019763487774194328
    ],
    [
        "2_1",
        "XY",
        "2860",
        953.2569156369523,
        2.1469296282385857,
        0.07386129357503111,
        0.00019896105554340882
    ],
    [
        "2_1",
        "XY",
        "2881",
        951.8161158825657,
        2.054320229331321,
        0.07886643591749345,
        0.00020325636875460272
    ],
    [
        "2_1",
        "XY",
        "2902",
        952.5282255772702,
        2.111260021522736,
        0.07409831113840927,
        0.00019788321191083178
    ],
    [
        "2_1",
        "XY",
        "2923",
        955.4700279859827,
        1.9382053644215778,
        0.07839292650084914,
        0.00018692646160425888
    ],
    [
        "2_1",
        "XY",
        "2944",
        953.3916351651898,
        2.126894092147467,
        0.07180739312500152,
        0.0001905662550008258
    ],
    [
        "2_1",
        "XY",
        "2965",
        955.6657103893589,
        1.921235397869527,
        0.07493879097973871,
        0.00017912144382274136
    ],
    [
        "2_1",
        "XY",
        "2997",
        956.013425224604,
        2.0307953875686167,
        0.07289639717405848,
        0.0001823315165372994
    ],
    [
        "2_1",
        "XY",
        "3018",
        955.6010794946027,
        2.07734867725308,
        0.0767851026756854,
        0.00020070516185801448
    ],
    [
        "2_1",
        "XY",
        "3039",
        954.0079700190714,
        2.2396124476641077,
        0.06912690444666347,
        0.00019287219925028372
    ],
    [
        "2_1",
        "XY",
        "3060",
        951.0147414662237,
        2.071140290136478,
        0.07442166023564707,
        0.00019282032997443378
    ],
    [
        "2_1",
        "XY",
        "3081",
        953.4074283398794,
        1.9379514740627968,
        0.07247578352081906,
        0.00017604176584341637
    ],
    [
        "2_1",
        "XY",
        "3102",
        953.5648211232824,
        1.8929277318272117,
        0.07715641713347415,
        0.00017870095065153284
    ],
    [
        "2_1",
        "XY",
        "3123",
        957.1443652805921,
        1.875751354865843,
        0.0749720376337244,
        0.00017303508981670736
    ],
    [
        "2_1",
        "XY",
        "3144",
        949.9460015124112,
        1.839034068114333,
        0.07934128855426655,
        0.0001794119234230591
    ]
]