XscanNumber_YscanNumber,Type,BCID,xsec,xsecErr,SBIL,SBILErr
1_2,XY,103,135.12254901426206,1.2026595453275921,0.07137667933496078,0.0007272609969274735
1_2,XY,124,133.77860127817203,1.1793261606664387,0.08044252541988225,0.0008106110992830044
1_2,XY,145,134.45622988613454,1.2840621863754635,0.06438247240003339,0.0007000198772750489
1_2,XY,166,134.27481742444914,1.1624205660161446,0.07550539862140773,0.0007413134805944491
1_2,XY,187,133.49404881078053,1.221643728694261,0.06533248629385058,0.000678824573888039
1_2,XY,208,134.28308904095374,1.0252956092750727,0.07413245709564956,0.0006437982410966611
1_2,XY,229,133.56329317949212,1.0917407147249025,0.07123998958502574,0.0006549339538135981
1_2,XY,250,134.30202012084547,1.1940592963549455,0.07828755287909867,0.0007904881305971152
1_2,XY,282,134.86589142665358,1.3483977624986607,0.07302503964971817,0.000829006407707342
1_2,XY,303,134.70609340021102,1.0891130139692364,0.07929561558794494,0.0007287080917583945
1_2,XY,324,134.35804741541352,1.1838661686609293,0.07198414622738868,0.0007079643739281123
1_2,XY,345,134.48861471873875,1.019912674042953,0.08195085330571784,0.0007125821400165966
1_2,XY,366,134.22375440217894,1.0307779729981337,0.07281688694148193,0.0006324018529383543
1_2,XY,387,134.2209971491947,1.161382349465739,0.08172042385651304,0.0008048960711465729
1_2,XY,408,132.04863622188208,1.1570964129926025,0.06961376158244661,0.0006945021514012932
1_2,XY,429,134.78793807361862,1.0010444313561382,0.07880700759528499,0.0006632267401825842
1_2,XY,464,133.95212796501607,1.1330129311828552,0.07292276905478634,0.0006936074217074464
1_2,XY,485,134.45561127773374,1.1643667677414586,0.07701742352597654,0.0007611397415536374
1_2,XY,506,134.41439292228154,1.1057748835179957,0.06609192564297706,0.0006150882475381349
1_2,XY,527,134.08789479300074,1.1849159782511764,0.07341406486509898,0.0007418375517967568
1_2,XY,548,135.18007024223408,1.1195598575183348,0.07049983541855957,0.0006717528963991051
1_2,XY,569,133.61214667366696,1.1746968354766056,0.08130701806343114,0.000816749092898606
1_2,XY,590,134.83562538801738,1.1808618944462839,0.06889808784108964,0.0006883481384853663
1_2,XY,611,132.93855827867472,1.1535746155508926,0.07894824711028306,0.0007810785937687698
1_2,XY,643,133.29055977266216,1.1502801519436927,0.07285545817370223,0.0007174686260162437
1_2,XY,664,134.40924062363115,1.203291948693416,0.07650856655519014,0.0007918839337385819
1_2,XY,685,134.52688952001805,1.1167396861783327,0.06532705029665571,0.0006215600471655424
1_2,XY,706,133.96827871155446,1.0134623520457877,0.07263737458412167,0.0006247089007956659
1_2,XY,727,133.74123903616862,1.1306598101724301,0.0692681546463609,0.0006629190147015998
1_2,XY,748,134.0111171973041,1.121057351675716,0.07891359707157565,0.0007569201624872876
1_2,XY,769,133.6113575833685,1.1587695131761073,0.0633997493185033,0.0006221410728553848
1_2,XY,790,133.3680171864643,1.1546726952659367,0.07313872235008781,0.0007175822294805909
1_2,XY,822,134.91017602429753,1.0373149412745175,0.073287343530148,0.0006274949073126052
1_2,XY,843,135.28812715265246,1.1349585367010435,0.07405450375411546,0.0007069252769720937
1_2,XY,864,133.7402221280539,1.2560204305934561,0.06997325296414698,0.0007439886658186271
1_2,XY,885,132.81261003797133,1.1664933918941904,0.08286736121383942,0.0008388754837400381
1_2,XY,906,134.34382294070332,1.185319043529748,0.06765249527074757,0.0006755644077695089
1_2,XY,927,134.95261518559548,1.2532389816443916,0.07917310016430149,0.0008348671506989457
1_2,XY,948,134.1964936679642,1.2250846973126706,0.06748354675870859,0.0006955591013098292
1_2,XY,969,134.53522361203161,1.1766848753132064,0.0772524068138199,0.00077219672158842
1_2,XY,1018,134.73701061930112,1.2069024349273427,0.07476263087278331,0.0007588504145281296
1_2,XY,1039,134.17091493592545,1.142659731026694,0.07975819584811361,0.0007665513128243941
1_2,XY,1060,135.03764605031935,1.1194026566217508,0.0709811761226861,0.0006707965016472717
1_2,XY,1081,134.1432289150154,1.1741277442329563,0.07693018200183159,0.0007665686293799312
1_2,XY,1102,134.00752973139961,1.1920668898797264,0.06917291480862912,0.0006981535161035528
1_2,XY,1123,134.1808448678815,1.32507038447502,0.07690190061504708,0.0008561709243781768
1_2,XY,1144,132.90996022223683,1.2279719468204866,0.07067861587790182,0.0007461142271282548
1_2,XY,1165,134.53740576771844,1.0871200223146427,0.07997965446548208,0.0007363700430416991
1_2,XY,1197,133.56378491876882,1.1725876482703081,0.07384174588025284,0.0007299441270623208
1_2,XY,1218,133.6177967467089,1.1175292529336849,0.0813271391113014,0.0007749205682966196
1_2,XY,1239,132.35853637189044,1.2553601330839679,0.07259256703558323,0.0007779223581635143
1_2,XY,1260,135.47701795574278,1.0594864248617728,0.07901801094134821,0.0006971160825990817
1_2,XY,1281,133.95045907041802,1.1834204835854318,0.07197262948112673,0.0007165634480265373
1_2,XY,1302,133.80812805365818,1.1038275262666561,0.08132436911403298,0.0007624309027449283
1_2,XY,1323,134.69148218092076,1.1544849477946375,0.06551664329880065,0.0006420990166262449
1_2,XY,1344,133.28235693650132,1.0801724138834112,0.07624131169786855,0.0007148359663560068
1_2,XY,1376,134.27453062643892,1.2492860618146218,0.07131341925070468,0.0007541620892889502
1_2,XY,1397,134.33237506135748,1.0644252959927112,0.07844333402875618,0.0007011354112318563
1_2,XY,1418,133.75693257503104,1.175783011753652,0.07260397582829642,0.0007358438673142044
1_2,XY,1439,134.77102083789435,1.0694319072555216,0.07553623925164789,0.0006841336928953621
1_2,XY,1460,133.76407535394767,1.3910710184586823,0.0705913673037238,0.0008287431905862145
1_2,XY,1481,134.7455627518433,1.080211663337386,0.07729541086044787,0.0006971607576360709
1_2,XY,1502,132.91560226319598,1.1901821249255626,0.06966518712984225,0.0007089843252405104
1_2,XY,1523,134.08781361107796,1.1399027447977663,0.07293154659930376,0.0007064544457797133
1_2,XY,1555,134.5453775555059,1.1878714004281687,0.07135794710569382,0.0007098873342384943
1_2,XY,1576,136.17847849021342,1.0919625571284772,0.06737702731541266,0.000619355560797214
1_2,XY,1597,134.55859921898684,1.193247297252575,0.06926858977002702,0.0006894129890424769
1_2,XY,1618,134.5046128236947,0.9683168692760877,0.0748461839081588,0.0006094231784744495
1_2,XY,1639,134.6118624835729,1.0982419670046422,0.07839805533479233,0.0007176928451884443
1_2,XY,1660,134.94489623896888,1.1296265056096142,0.08259513584221732,0.0007828677756975054
1_2,XY,1681,133.6400264179925,1.0996458428190985,0.07513481562663074,0.0006974333187049517
1_2,XY,1702,133.96132331102262,1.121290599731716,0.08170815199188403,0.0007664221334403639
1_2,XY,1734,134.85325380026225,1.1810563759016024,0.07215323131100622,0.0007129400329724066
1_2,XY,1755,133.73653746967017,1.1065025259967103,0.07447863583887505,0.0007025288576371333
1_2,XY,1776,134.56881172436715,1.1036095556394514,0.07406665181729315,0.000686448328787917
1_2,XY,1797,133.7500962086832,1.1626466585629012,0.08193949471720015,0.0008105762607562779
1_2,XY,1818,135.12888738462854,1.1205991179966956,0.07404796379894672,0.0006959507982248652
1_2,XY,1839,139.82945834718006,1.1748083809697194,0.07074393442880268,0.0006773675721434223
1_2,XY,1860,134.60089219364042,1.1298158411921364,0.07602596850873415,0.0007288003941521124
1_2,XY,1881,135.0021455752125,1.0223715005046041,0.07991047093331939,0.0006939327477382235
1_2,XY,1916,132.65205029111067,1.2736421870792807,0.07529178799577274,0.0008208646987614972
1_2,XY,1937,134.3017105052157,1.046257860439242,0.07226861699863779,0.0006336277430052905
1_2,XY,1958,134.45667894975153,1.2500402949948444,0.07053322698203048,0.000746148535282415
1_2,XY,1979,134.6093909548281,1.2244317179754816,0.07754062372487847,0.0008110990933972773
1_2,XY,2000,134.8593804662327,1.1418778278746542,0.0743362982654234,0.000717375911738231
1_2,XY,2021,133.88623907671902,1.1261807601986216,0.08113612265317496,0.0007619402453347236
1_2,XY,2042,133.73196331274806,1.158756061380887,0.0752895457482268,0.000748133853544358
1_2,XY,2063,133.1296890340216,1.0553402668764198,0.08102027044305535,0.0007311055064081316
1_2,XY,2095,134.02354493684857,1.0532053552747673,0.0730571070065238,0.0006443681970161058
1_2,XY,2116,135.1613043044296,1.0807374307429323,0.07639597044430323,0.0006981488851709226
1_2,XY,2137,133.70249128963783,1.2047062810882398,0.07326488505033991,0.0007474464528535228
1_2,XY,2158,133.83072819384333,1.2150437013866435,0.07965333564131816,0.0008242345065993438
1_2,XY,2179,134.1807885860938,1.0791508584077303,0.07470547015124523,0.0006726630769530637
1_2,XY,2200,134.70463805660012,1.1467305513951425,0.08178286087313084,0.0007899913287431603
1_2,XY,2221,134.8558803019981,1.093696535093568,0.07468463364730246,0.000693690584804181
1_2,XY,2242,133.6776616010321,1.0630373077374684,0.08020284729984335,0.0007255374269490507
1_2,XY,2274,133.81564429040316,1.1678148455116664,0.07510884064957667,0.0007422091017155863
1_2,XY,2295,135.13745015605573,1.1760419320066884,0.08041870693624094,0.000797692673560973
1_2,XY,2316,134.56474441888804,1.1884376062630226,0.07433150249476649,0.0007475384009775169
1_2,XY,2337,134.54355653032104,1.001750258553643,0.07852287091671392,0.0006700878135528759
1_2,XY,2358,133.86611677668265,1.1405229288585979,0.072474727083478,0.0007028745455860456
1_2,XY,2379,133.4112205183498,1.2550608762485849,0.0809055826500168,0.0008646508072090273
1_2,XY,2400,132.74087624811273,1.2685083581165912,0.07257159145980036,0.0007922434447104804
1_2,XY,2421,132.4598160061039,1.0898115573461573,0.07999201961676448,0.0007522363025203624
1_2,XY,2453,133.65325379641712,1.2082278713863221,0.07778019003757486,0.000796336293678882
1_2,XY,2474,134.35187742712404,0.9997381784493061,0.08212725541717877,0.0006860817324978579
1_2,XY,2495,132.74543301269486,1.04927628372462,0.07475794968537719,0.0006635976531699235
1_2,XY,2516,132.4451505800602,1.1747929806683675,0.08149645365208873,0.0008272154871596131
1_2,XY,2537,133.16785420280493,1.219138398327974,0.07636771003677233,0.0007910628754178365
1_2,XY,2558,134.0680977258961,1.197080874994957,0.08361883998425068,0.000847612337926253
1_2,XY,2579,133.35039224791674,1.1527020753032529,0.07858658976016071,0.0007714643955704034
1_2,XY,2600,133.50049173440752,1.0817151404438496,0.08289988949313748,0.0007699955245703527
1_2,XY,2632,134.17186483466227,1.1068518621880594,0.0761797543065564,0.0007154272941642915
1_2,XY,2653,133.26997839095174,1.1398822417688934,0.07927503321853682,0.0007672293828355221
1_2,XY,2674,134.3390264817604,1.1310572172951734,0.07542334147387923,0.0007207006302679431
1_2,XY,2695,134.44106026618576,0.9644662492059256,0.08302319603641309,0.00067196759133201
1_2,XY,2716,133.94437215756543,1.2558996478408264,0.0745776176553453,0.0007965414531173639
1_2,XY,2737,132.28758751847838,1.1499281391967457,0.08100578080453787,0.0007861459626506183
1_2,XY,2758,134.08127560603506,1.0209839271070982,0.07217848183079945,0.0006305710907817275
1_2,XY,2779,132.10418513912234,1.2842680859423152,0.07946559668469033,0.0008761640864771971
1_2,XY,2818,133.45506226695733,1.155386651401308,0.07718598983674577,0.000754917655329173
1_2,XY,2839,133.7648396890359,0.9915663921124516,0.08164549416296957,0.0006850454807765366
1_2,XY,2860,133.44678469464222,1.1906265356994892,0.07625925448069092,0.00077158367783618
1_2,XY,2881,133.13093881234963,1.1440459487842758,0.08296965862550236,0.0008091561396648042
1_2,XY,2902,135.0659576431137,1.2035535412316976,0.07589557740651533,0.0007637462356139548
1_2,XY,2923,134.40988941642445,1.2008699872670558,0.08223535684761026,0.0008258009125535686
1_2,XY,2944,133.5649239078075,1.1971767629824932,0.07353389164424927,0.0007432736036468601
1_2,XY,2965,134.1293235869315,1.1453607322303214,0.07781276904592566,0.0007484373267212951
1_2,XY,2997,134.47559558539191,1.1413927057968165,0.07357628589451067,0.0007141309222681218
1_2,XY,3018,134.0891958571663,1.2059254296431892,0.0786484281736407,0.000796071837202255
1_2,XY,3039,133.2990757513363,1.20564194118764,0.07224710865485252,0.0007333209921921883
1_2,XY,3060,134.47759436537302,0.9848799372045564,0.07710852570834041,0.0006383689664663596
1_2,XY,3081,133.76655840051689,1.1769651707878237,0.07490888961823758,0.0007417330371082086
1_2,XY,3102,133.7544675327222,1.0345752296751762,0.08110323181922253,0.0007058810436690019
1_2,XY,3123,133.02355237890092,1.1673306785341795,0.07745885445157807,0.0007673499067071542
1_2,XY,3144,133.32245297888832,1.0177408443594396,0.08334087497305581,0.0007267973544905093
