XscanNumber_YscanNumber,Type,BCID,xsec,xsecErr,SBIL,SBILErr
2_1,XY,103,932.6579578604986,2.873828439229635,0.0724717537833612,0.00025586752231204773
2_1,XY,124,922.9090056849308,2.6792631298889362,0.08074286138265656,0.0002691826248774149
2_1,XY,145,926.9173774042418,3.0505582844218635,0.06531154695433433,0.0002478483476435197
2_1,XY,166,928.474752338416,2.6075511209351308,0.07585248435489851,0.00024222346921575941
2_1,XY,187,927.999806417856,3.038887578349954,0.06547001385536223,0.00024464256542604544
2_1,XY,208,928.5816259181714,2.7753639477865706,0.07461938447637484,0.0002562954501336536
2_1,XY,229,930.1570358657905,2.698898133086962,0.07018543245453064,0.00023499709206192042
2_1,XY,250,924.2947828884351,2.5980075790266617,0.07873565026947701,0.0002494402839827383
2_1,XY,282,933.7972280096446,2.7341068286812664,0.07341861449220281,0.00024497198060062546
2_1,XY,303,924.1257174878068,2.879856861828908,0.08006229764467314,0.00028483454127403084
2_1,XY,324,927.4367631604678,2.517459576603496,0.07157647278466597,0.00022039521887022402
2_1,XY,345,925.9650401156749,2.572392040721115,0.0821371990282689,0.00026075717369373395
2_1,XY,366,926.5562012524085,3.003976282607157,0.07365228065379822,0.0002752921206053362
2_1,XY,387,925.3550546053259,2.736963263015353,0.08197446415600576,0.0002795810439934372
2_1,XY,408,926.2490181245352,2.777810281873508,0.06935441103723157,0.0002369656842409471
2_1,XY,429,925.5488393286706,2.5171696925572653,0.07877404248334342,0.00024191768155920116
2_1,XY,464,932.2617095014489,2.6936294125760654,0.0731565716500052,0.000240470667715776
2_1,XY,485,926.5998762922453,2.6660813473381,0.07747089094844276,0.0002552849445278264
2_1,XY,506,930.8028863698364,2.7770236691286923,0.06632955711870839,0.00022691374985537416
2_1,XY,527,928.8248097131628,2.933378503926464,0.07389070128646585,0.0002702103846185591
2_1,XY,548,927.249770879875,2.9568513522066806,0.07219473748036742,0.00026568931241119505
2_1,XY,569,926.2489556975785,2.6356331743479413,0.08088018509881183,0.00026226811672535574
2_1,XY,590,929.655069504952,3.000218599141029,0.06980606267203608,0.00025948271046157337
2_1,XY,611,925.4883501136138,2.883314740772263,0.07884171818017814,0.0002815132929230656
2_1,XY,643,933.2770197413627,2.612263342032662,0.07272928954128859,0.000233710966909947
2_1,XY,664,927.9851692163381,2.762910681496571,0.07691451187275991,0.0002625986389691027
2_1,XY,685,927.1158176390101,2.881275219225263,0.06611636821838573,0.00023508881973554997
2_1,XY,706,936.703387862134,3.0114224502296825,0.07274525984762777,0.0002711832567410436
2_1,XY,727,929.0736833529595,2.7504067422141234,0.06910294195715351,0.0002351201553315027
2_1,XY,748,924.8104431044303,2.702388569977129,0.07971676245131712,0.00026386529578423555
2_1,XY,769,926.6026358289612,3.2533290209065036,0.06396807925080737,0.00025850415795744704
2_1,XY,790,930.4961919405441,2.46201715108882,0.07233357960131687,0.0002168123039460882
2_1,XY,822,932.6021720922839,2.524630118896117,0.07449687509406873,0.00022875170462774362
2_1,XY,843,932.8609593103215,2.877831019701937,0.0752666153686317,0.0002686317103531723
2_1,XY,864,931.3965303928504,2.9000476335450993,0.06981759090340946,0.00024724744583153204
2_1,XY,885,924.611507880243,2.602720166524109,0.0816192408961626,0.0002633118188743459
2_1,XY,906,929.067064097941,3.117302648075277,0.0681806709979228,0.00025919748591344833
2_1,XY,927,926.9307454839245,2.6807871085860295,0.07869452962008393,0.00026002211099647693
2_1,XY,948,929.6325259765243,2.8830937984914615,0.06860431167437128,0.00024132676487749507
2_1,XY,969,925.016056379323,3.1882292141039277,0.07730342039381162,0.00030720208659207543
2_1,XY,1018,929.840866370942,2.689328695383263,0.0750882482313721,0.00024966824772794735
2_1,XY,1039,926.9030469666206,2.58999329189048,0.07976483289818466,0.0002570372411537113
2_1,XY,1060,929.2200860042433,2.6993198692723013,0.07027618747619928,0.0002343635035142077
2_1,XY,1081,932.238188542389,2.632800912132727,0.07696563585959769,0.0002483269074514406
2_1,XY,1102,933.760290090639,2.8846669048741855,0.068346816366137,0.0002413511853035622
2_1,XY,1123,929.6624181461495,2.6694299212639523,0.07563862926434445,0.00024481542436470587
2_1,XY,1144,926.1911302897134,2.9435535263290245,0.06988454518296294,0.00025411820317957886
2_1,XY,1165,926.3241699656019,2.6410690355170865,0.08016039692377856,0.0002616826092784745
2_1,XY,1197,933.4558380610856,2.62918917797907,0.07226637347375302,0.00023563710760341117
2_1,XY,1218,931.2742837093037,2.673195737838474,0.0794548071510127,0.00026244073115458746
2_1,XY,1239,931.0990479078768,2.6598823258625792,0.0698326939932998,0.0002264898849412182
2_1,XY,1260,930.357206850273,2.4681412901423796,0.07886485278452694,0.00023935687797650086
2_1,XY,1281,930.6640342814582,2.9047798321271237,0.07144097970126806,0.00025740724053565864
2_1,XY,1302,929.1323164994678,2.712326684032153,0.0804859845050601,0.00026854588382691706
2_1,XY,1323,930.1787139689521,2.898404846298039,0.06574502885483327,0.0002335434334585121
2_1,XY,1344,927.2976265336835,2.721886945955168,0.07631116242676823,0.00025849457221200066
2_1,XY,1376,931.2789958986729,2.5656604531750706,0.07128470375780546,0.00022489318565537607
2_1,XY,1397,927.3164839509353,2.573177850000645,0.07871986020018708,0.00025005716091235205
2_1,XY,1418,929.5699644524916,2.9044529438354845,0.07285958416836949,0.00026200482845469567
2_1,XY,1439,933.1803052493065,2.5551062006081873,0.07628147693915406,0.00023843198262483875
2_1,XY,1460,929.6982595094796,2.8019651689490472,0.07017992747869281,0.0002419380212126122
2_1,XY,1481,932.2558231375125,2.6337581183025915,0.07696867185491228,0.0002495242875045332
2_1,XY,1502,928.4961388745584,2.8241119890107225,0.06932608548543516,0.0002384987824908023
2_1,XY,1523,932.1874866415264,2.764599860966241,0.07336622902643727,0.0002450091876310338
2_1,XY,1555,934.3225638706283,2.822251544137131,0.07258802093631499,0.00024919167327901317
2_1,XY,1576,938.2561111760137,2.6251654295955054,0.06942934790978217,0.00022081083560975424
2_1,XY,1597,932.9079838039081,2.920114019503105,0.07028555531257871,0.0002534840373000157
2_1,XY,1618,931.5392475066881,2.653393942623706,0.07579274868417382,0.00024847838500388235
2_1,XY,1639,931.2222440608303,2.8374641806050303,0.07902301480398803,0.0002751535323614869
2_1,XY,1660,930.1971247396446,2.7136929184599268,0.08300320892763306,0.00027645396309799113
2_1,XY,1681,933.1770304359383,2.952197044091393,0.0750808004498968,0.0002721931560992941
2_1,XY,1702,928.959012824601,2.537842920016685,0.08147806466294037,0.00025649744503823126
2_1,XY,1734,930.6296668604286,2.826311217978616,0.07336792475516654,0.00025397981599574584
2_1,XY,1755,929.3383280019513,2.5589205018298706,0.07401162212132098,0.0002310881170560837
2_1,XY,1776,928.2920949711684,2.762123022201694,0.07406120397081871,0.0002505006383727199
2_1,XY,1797,928.0700099614683,2.87599112283984,0.08096854280110986,0.0002895546278811641
2_1,XY,1818,938.1904931688705,2.650395575650208,0.07518003487143,0.00024146417339733435
2_1,XY,1839,947.0536313499997,2.7538008824489912,0.06492640979208426,0.00021563951753629136
2_1,XY,1860,927.737694359989,2.70871508883673,0.07731432956855395,0.00025431036280215594
2_1,XY,1881,930.1571955364991,2.7311984820205426,0.08021355293685113,0.00026921573723909584
2_1,XY,1916,931.4232209855801,2.906613864994121,0.07468198379832332,0.0002647813972600171
2_1,XY,1937,932.7597725372256,2.8063395775926896,0.07311166617053969,0.00025078056595046616
2_1,XY,1958,928.571709524267,2.860933520438439,0.07206953803216863,0.0002572607064131396
2_1,XY,1979,930.5535249288758,2.851302343531049,0.07724332712339628,0.00027209957306356094
2_1,XY,2000,929.3757144758182,2.8335859977375013,0.0761418197218581,0.0002651398369070887
2_1,XY,2021,927.3333386006493,2.735440907181019,0.08061625578276795,0.0002722041455331501
2_1,XY,2042,927.8830337975111,2.5639068056525365,0.07544493978802704,0.00023715381276395858
2_1,XY,2063,928.763021682454,2.5954230996344707,0.07981372983721198,0.0002548549674624551
2_1,XY,2095,932.800862019553,2.839849160335314,0.07329655053004283,0.00025299311750359515
2_1,XY,2116,926.7454105311906,3.087149250709813,0.07694830760198547,0.0002957536397146951
2_1,XY,2137,927.6880550709805,2.942080932319911,0.07315420331551109,0.0002660169134364523
2_1,XY,2158,929.8314231044765,2.537331536545613,0.07935200045372473,0.00024334431434341221
2_1,XY,2179,931.6131131265687,2.5424716536711482,0.0749944968415129,0.0002324833646371663
2_1,XY,2200,927.4393168845145,2.422245287355458,0.08129757592840035,0.00024185167495826217
2_1,XY,2221,927.8415445710925,2.7950829621304014,0.07604327029977233,0.0002614189530042176
2_1,XY,2242,928.421632727485,2.652601126902646,0.07990858119739369,0.0002590704866957313
2_1,XY,2274,930.7461905559032,2.84249353154751,0.0756947974114222,0.0002639511457074704
2_1,XY,2295,927.8182097620196,2.624045892448027,0.08107670322981157,0.0002643276026455423
2_1,XY,2316,930.1324647909403,2.758037785666123,0.0745724156709917,0.000253202973171567
2_1,XY,2337,929.4540808783903,2.555023188494666,0.07843573368907308,0.0002449909182893651
2_1,XY,2358,932.2381588108778,2.672677265456428,0.07409459579672195,0.00023892691702909479
2_1,XY,2379,929.4727957616835,2.5916156612078334,0.0797344133380693,0.0002574112643496236
2_1,XY,2400,930.5447328032393,2.702362003977685,0.07172444058977284,0.000235515352759835
2_1,XY,2421,925.7599866613701,2.893378250615933,0.07864263338812476,0.00028036018231323347
2_1,XY,2453,928.8539393458907,3.030607680909282,0.07794054583678729,0.00029188383751784294
2_1,XY,2474,930.2258112838406,2.6429788917744714,0.08204102299944542,0.00026530774137262193
2_1,XY,2495,929.5736450530859,2.7944418288440813,0.07415558175420243,0.00025575050386803547
2_1,XY,2516,926.6618426817297,2.812352900164163,0.08003084784735914,0.00027936925464973886
2_1,XY,2537,926.8184302001322,2.778908838622863,0.0761829252474914,0.0002631545688152939
2_1,XY,2558,929.5855179617346,2.8167642435543043,0.08330311795799844,0.00028902634582558595
2_1,XY,2579,929.8500783383273,2.673259517928921,0.07791574417426714,0.00025490373479831823
2_1,XY,2600,926.3842565774827,2.804254186742159,0.08221323718182785,0.0002885723284150427
2_1,XY,2632,929.5383420034692,2.6899963332297747,0.0763212044726508,0.00025295783051829427
2_1,XY,2653,930.0334390260488,2.7485514333276613,0.07800821948480707,0.0002642459689622105
2_1,XY,2674,933.5607791605146,2.7242820184861967,0.07125015542200813,0.0002383478718590112
2_1,XY,2695,927.4786718683417,2.5635722994064256,0.08306065829557999,0.0002623971363062502
2_1,XY,2716,932.4180046348018,2.6526011835973704,0.06924690007161997,0.00022488194141630306
2_1,XY,2737,926.5043144462431,2.5778433727074077,0.07957628427771059,0.0002540527027247793
2_1,XY,2758,926.8905522980854,2.6699668953634665,0.0731617811110843,0.00023729985566952268
2_1,XY,2779,931.6356480647544,2.73792920191114,0.07829718855638346,0.0002632100678682682
2_1,XY,2818,926.4377432330341,2.9596914764272553,0.07725948403790288,0.00028427224399164754
2_1,XY,2839,926.6820611890447,2.70668848592789,0.08150310193885842,0.00027495723354754197
2_1,XY,2860,930.9414499531379,2.8403677352532783,0.07585055460372452,0.00026536637281671793
2_1,XY,2881,925.4800695294972,2.6911210832463794,0.08188106372514946,0.00027180099810024226
2_1,XY,2902,929.0071970227477,2.5802524030417153,0.07645453571886535,0.0002393145767276488
2_1,XY,2923,925.9197481988652,2.7020116572721893,0.0813323226216787,0.00027313275973701656
2_1,XY,2944,930.9484081977952,2.7184712634039316,0.07319541053388008,0.00024123110691233576
2_1,XY,2965,927.2249161110087,2.7862779355709484,0.0777124769010603,0.0002637226122879863
2_1,XY,2997,931.4382888143415,2.5788339513946266,0.07391080923264153,0.00022992895906728206
2_1,XY,3018,931.6369150888187,2.601536848461917,0.07828322111918681,0.00025379597049758764
2_1,XY,3039,930.7969248956558,2.5882252474072813,0.07126256105167585,0.00022389117642200403
2_1,XY,3060,928.6186820321911,2.619035433298078,0.07664268602918645,0.00024598269898789405
2_1,XY,3081,926.9651417132084,2.6619471312523113,0.0747719600042829,0.00024618432394991554
2_1,XY,3102,928.3042699619358,2.846985502666306,0.0806193849594595,0.0002838445531936262
2_1,XY,3123,926.8679425474157,2.8572255763954946,0.07679649959681921,0.0002729963360895105
2_1,XY,3144,926.2957141768533,2.755432687023054,0.08232058345786843,0.0002798780406554352
