XscanNumber_YscanNumber,Type,BCID,xsec,xsecErr,SBIL,SBILErr
2_1,XY,103,954.1513545273332,2.2026923564831415,0.06874904975693587,0.00018786212531469272
2_1,XY,124,947.4266408620066,2.1219063600034387,0.07587601729895452,0.0002005283034656345
2_1,XY,145,949.5246024117855,2.293101149174311,0.06152518082504213,0.00017754618862115236
2_1,XY,166,954.5530103713469,2.051401555519999,0.0716293702595665,0.00017995369230708485
2_1,XY,187,955.7582595156407,2.3080707591974083,0.06152789916735742,0.00017611964210355763
2_1,XY,208,952.1819784631614,2.1528522117453113,0.07032586850533276,0.00018817085123786227
2_1,XY,229,950.6288790774665,2.220142189570109,0.06646645035268113,0.00018326845361263305
2_1,XY,250,958.0343384758746,2.0457716781863,0.07353432429815912,0.0001821857200200957
2_1,XY,282,954.8457589908663,2.0777016405394244,0.06993205320349385,0.0001779509668357264
2_1,XY,303,952.8292091866152,2.1078972377582406,0.07483796717296191,0.00019661566049137202
2_1,XY,324,953.6443662753488,1.9647089164877647,0.06771352229150204,0.00016392310567354143
2_1,XY,345,952.2498011682671,1.9951993371603844,0.07745327741485991,0.00019191795541088723
2_1,XY,366,952.6242432648286,2.289859780039895,0.06883313644898444,0.0001964764378361269
2_1,XY,387,951.476963854432,2.109897730501411,0.07678340207457791,0.00020301162426256957
2_1,XY,408,954.6195663863489,2.1628893545190184,0.06506485155009135,0.0001737291133676262
2_1,XY,429,952.7931320763781,1.953710401165514,0.07434214575356139,0.00017738027793835277
2_1,XY,464,957.2191648748218,2.0132242193384307,0.06937420360997867,0.00017326253370580927
2_1,XY,485,951.438500308615,2.0565115143753054,0.07327226118147064,0.00018737256222895173
2_1,XY,506,954.5462572933376,2.200494453124706,0.0627328267129742,0.00017151175914288324
2_1,XY,527,950.395075090323,2.248186564202984,0.06973000414811638,0.00019808466012480002
2_1,XY,548,948.4829831297671,2.286191156746309,0.0682574927452017,0.0001951954959229787
2_1,XY,569,948.0749727383946,1.9748455177488056,0.07696289434088786,0.00018911236631794856
2_1,XY,590,950.8115991173692,2.1863667839298353,0.06602083558608811,0.0001810461463127485
2_1,XY,611,949.7575423210346,2.1829152665778895,0.07435278946935213,0.00020224967667437302
2_1,XY,643,951.9351523537233,2.030897303228588,0.06946385194606441,0.00017515792692025168
2_1,XY,664,946.7905965620597,2.1249402162594784,0.07333241303623676,0.00019337996487800305
2_1,XY,685,949.6086129707943,2.1484674473932857,0.06258976558328527,0.00016675073902207966
2_1,XY,706,953.528054922544,2.1956245892091357,0.06951013043483861,0.00019231869868667646
2_1,XY,727,949.8435269768453,2.1629656777756976,0.06582224523970678,0.0001775472313471065
2_1,XY,748,949.6067327861387,2.057982380344415,0.07552296478391293,0.00019111529252055344
2_1,XY,769,950.05620979027,2.469790934217452,0.060182980778798904,0.00018534052788759853
2_1,XY,790,950.6275441023806,1.9703599503503344,0.06903745384784656,0.00016532854448472476
2_1,XY,822,954.7034375255179,1.9715433461306693,0.07099995303380373,0.00017111710483064393
2_1,XY,843,947.2420937396895,2.144280098690083,0.07241239924014317,0.0001960254049922186
2_1,XY,864,954.6561499931606,2.1231853009486006,0.06629611479340608,0.00017395529412154515
2_1,XY,885,945.4497196070738,2.071330568071805,0.07763262634235694,0.00020014946015777454
2_1,XY,906,958.1637067600969,2.3317554716599136,0.06404014138910223,0.00018197255630414378
2_1,XY,927,950.8850213197717,2.0662681015441207,0.07473140305905215,0.00019249872465068902
2_1,XY,948,956.5901923829034,2.113549221147794,0.06463490258900417,0.0001680288650808297
2_1,XY,969,949.8699611569562,2.3324232797181734,0.07246917831107293,0.00021243091439699597
2_1,XY,1018,945.3105933305338,2.135138232603584,0.07186947581346223,0.0001897653867559601
2_1,XY,1039,943.0654611164407,2.0450687015094906,0.0762936963947339,0.00019441548842253687
2_1,XY,1060,944.9780464396438,2.077896201717908,0.06755877634666543,0.0001755014935502181
2_1,XY,1081,949.6122802126861,1.9756699072243888,0.07398689205449399,0.00018160529018557858
2_1,XY,1102,954.3607976755654,2.1960887493493604,0.06526759016600267,0.0001778775773808025
2_1,XY,1123,951.2194200255597,2.102051021517298,0.07243108969691123,0.0001856110508571809
2_1,XY,1144,949.9542045732906,2.194214742507346,0.06603746185433335,0.00017978599489812768
2_1,XY,1165,947.625674431473,2.0496596643530927,0.07603034291693916,0.00019338496416076604
2_1,XY,1197,949.226947976118,2.0680668716520128,0.06931319004001439,0.00018017819956534067
2_1,XY,1218,950.0333486004076,2.0393650852538836,0.07608211888232796,0.00019517269229661887
2_1,XY,1239,950.0578814135341,2.1065311297454303,0.06682139244970665,0.00017138921107109963
2_1,XY,1260,950.9991227112828,1.8785147602116463,0.07538757378283432,0.00017663071860345015
2_1,XY,1281,947.0916032492505,2.2818977311929434,0.06831807786953241,0.00019507528122095634
2_1,XY,1302,952.5387959101555,2.0438861553173338,0.07631319703306547,0.000193822053877064
2_1,XY,1323,957.8768095027522,2.2925539919232096,0.062109632204378845,0.00017560438407976885
2_1,XY,1344,947.9424869919619,2.1434185367962657,0.07206362526409293,0.00019202616654054338
2_1,XY,1376,951.1673245995961,1.9888058002558036,0.06804437175354379,0.00016910191127622853
2_1,XY,1397,948.2878890735586,1.9347662174054645,0.07472492072905382,0.00017875637413370115
2_1,XY,1418,952.0300009279106,2.1747968771116923,0.06887847160755121,0.00018766038574515522
2_1,XY,1439,949.7931691460889,2.009244654197034,0.07334157972543885,0.00018155947933284948
2_1,XY,1460,950.9056547179418,2.157098201905825,0.06669046777255724,0.00017858809310489974
2_1,XY,1481,949.5081015164758,2.0248882112472817,0.07352900523627776,0.0001853024901706069
2_1,XY,1502,956.5060005264024,2.1065335089239743,0.06524169150763896,0.00016914720696985098
2_1,XY,1523,961.0966267891087,2.011622658803369,0.06943497627660218,0.00017097070926812023
2_1,XY,1555,957.2374867251124,2.0072103585944614,0.06916701148344374,0.00017205644778693486
2_1,XY,1576,956.7896683971636,2.0244290993595833,0.06664362207543123,0.00016504073850721096
2_1,XY,1597,952.6019965356056,2.181841578980974,0.06697813461703286,0.0001830509831949504
2_1,XY,1618,951.5299335781934,2.0652663949333596,0.07237841363993563,0.00018766296152893433
2_1,XY,1639,951.6254254233393,2.046049621450212,0.07516557885905172,0.00019100556239569474
2_1,XY,1660,952.9485454301474,2.0317775768832815,0.07901455736132544,0.00019976089900856795
2_1,XY,1681,958.8540388503927,2.1112738909515105,0.07060821931966396,0.0001858510861328407
2_1,XY,1702,949.6351941129051,1.9947294188039018,0.07744982830880405,0.0001933723275154836
2_1,XY,1734,953.2449271827261,2.2032163521782726,0.06958643917527502,0.00018746294883179555
2_1,XY,1755,952.449011465954,1.9167907467916279,0.07056773621864082,0.00016766612357266007
2_1,XY,1776,952.4635742031724,2.07234428035235,0.07026024951031971,0.0001800904379117438
2_1,XY,1797,948.0058276569778,2.1629510349312606,0.07679717113735308,0.00020844756965256262
2_1,XY,1818,957.9981850017983,1.9712334904940927,0.07199396241358516,0.0001745809157952369
2_1,XY,1839,961.8146694551086,2.089600520130486,0.0627296592701722,0.0001598208531887494
2_1,XY,1860,958.7440583283507,1.9992488645185928,0.07247353247113486,0.00017573022686232095
2_1,XY,1881,952.3867208012599,2.026328090449636,0.0762145610884154,0.0001917959272450537
2_1,XY,1916,961.6805634326639,2.118776256931326,0.06998027529361571,0.0001818851266810684
2_1,XY,1937,953.5322070122976,2.098294325706483,0.06998054104158369,0.00018277799074880365
2_1,XY,1958,954.7207734539766,2.354532475542421,0.06778593506917341,0.00019870467731412757
2_1,XY,1979,953.645765589748,2.2006110456116765,0.07303069888767168,0.00019998050178825962
2_1,XY,2000,954.1638941967847,2.087083260706965,0.07185151999316862,0.00018610856772300707
2_1,XY,2021,952.1017711397725,2.0206353902287453,0.0761018086416264,0.00019246311710730156
2_1,XY,2042,952.1393355478878,1.9966364593890573,0.07141613575203366,0.00017529213059802462
2_1,XY,2063,950.753270692076,2.107603440363016,0.07566490614156089,0.00019419285089120712
2_1,XY,2095,959.2619518002899,2.1511027367299906,0.06944451818249087,0.0001841719772447589
2_1,XY,2116,948.4203472042702,2.2495648283624843,0.07244877497707768,0.00020327594762759038
2_1,XY,2137,951.9970839508275,2.096729807307971,0.06882747023305918,0.0001798515952536457
2_1,XY,2158,957.3632681715845,1.8661731539548794,0.07514838047758596,0.00017111129464068012
2_1,XY,2179,958.886832806055,1.934235487810593,0.07072973972287937,0.0001674944049934096
2_1,XY,2200,949.8270421254605,1.9203168713241021,0.07731577104557368,0.0001836581155916603
2_1,XY,2221,952.6422838221259,2.06506116011664,0.07181725935851124,0.00018490680178186414
2_1,XY,2242,956.1285854138179,1.9820727455001648,0.07515297225103237,0.00018258654816052125
2_1,XY,2274,954.6031090794577,2.039922378262373,0.07157444118741467,0.0001812672150479204
2_1,XY,2295,946.1410855944429,2.0263626128506953,0.07729075558093994,0.00019649458285134937
2_1,XY,2316,951.983498797543,2.1609239018579114,0.07077833733800168,0.00018925047862954197
2_1,XY,2337,951.2557617582936,1.9251477224582179,0.07500676736946461,0.0001803031329341662
2_1,XY,2358,957.7358773246,2.0137733732403253,0.07046883949222617,0.00017259745842419251
2_1,XY,2379,948.7008542503328,2.066505719057063,0.07585652399057363,0.00019745045874615836
2_1,XY,2400,959.4443870533481,2.0427109276903708,0.06760300953720418,0.00016922649982474984
2_1,XY,2421,954.0211504295486,2.112873451120846,0.07395086688272798,0.00019563188162290463
2_1,XY,2453,956.540635173959,1.6888129852839298,0.07293781981718532,0.00015957847213649872
2_1,XY,2474,956.8567717412393,2.0192014108868563,0.07751995076077899,0.00019198977208222999
2_1,XY,2495,953.0147004048888,2.0884312336592554,0.07023611277827485,0.00018411466863788283
2_1,XY,2516,946.4723252310611,2.0663908869427243,0.07598309612858757,0.00019887647214833533
2_1,XY,2537,950.2467247505026,2.0877141785296818,0.0716417240539695,0.000186448598482044
2_1,XY,2558,954.510002843792,2.1131980009877873,0.07852921083397546,0.00020563068780144587
2_1,XY,2579,953.5594250454126,1.9605948060570373,0.07369603071337513,0.00017838101172300622
2_1,XY,2600,946.8819824012552,2.1393762518681365,0.07766414403894023,0.0002111354784192057
2_1,XY,2632,951.5950160886787,2.1007789772640724,0.07224238724406186,0.00018691625319866188
2_1,XY,2653,951.6872692187013,2.0461136539343716,0.07400716922071415,0.00018904372756151634
2_1,XY,2674,952.6441644076982,2.0756267581581707,0.06797797206683398,0.00017451327740936618
2_1,XY,2695,951.5288164405947,1.976328637746171,0.0788650355113651,0.00019350529681351632
2_1,XY,2716,954.7910997131419,2.0647328826416764,0.06603522707851182,0.00016938350731317658
2_1,XY,2737,947.457270433949,2.0398255444208053,0.07581658245457377,0.00019226230436521558
2_1,XY,2758,954.1452701671466,1.943680000566023,0.06920434655546419,0.00016530433858242817
2_1,XY,2779,955.7461875614598,2.111730275021407,0.07418001078695255,0.0001938861584848369
2_1,XY,2818,955.5204214078612,2.1234708562100773,0.0720095394048191,0.0001936258376571271
2_1,XY,2839,946.2903257062239,2.092082670593181,0.07743655460257391,0.00020357889022297928
2_1,XY,2860,953.8373918155827,2.0829395154463506,0.07175194754602199,0.00018665432445884848
2_1,XY,2881,950.5703001394509,1.995961792608815,0.07748819224178616,0.00019440434626369948
2_1,XY,2902,952.7678065725926,2.0161539157263824,0.07274403872466544,0.00017800596115913984
2_1,XY,2923,944.1965881230647,2.1009342174202827,0.07760584318678115,0.0002044217395143698
2_1,XY,2944,954.527185660687,2.1119178214905006,0.06950734842529513,0.00017765098002893757
2_1,XY,2965,955.4338256396001,2.077704940763754,0.07312246429658366,0.00018575037726136564
2_1,XY,2997,955.9225269428803,1.8977746687876673,0.0704611829241994,0.0001633584103730663
2_1,XY,3018,950.292711446515,2.2049278396446574,0.07468615178534056,0.00020497166521072624
2_1,XY,3039,952.7536798141515,1.9765494267314452,0.0679202597254632,0.000163791465938453
2_1,XY,3060,951.8707871186546,2.0249256193746357,0.07289012341926521,0.00018274409314139635
2_1,XY,3081,948.1809146601747,2.0440965889699556,0.07087560818822487,0.00018127740468246577
2_1,XY,3102,954.2446288056951,2.153628428821459,0.07585045464481902,0.00020382625277497217
2_1,XY,3123,950.9451636348178,2.172605002109647,0.07218622101995806,0.00019673710783740252
2_1,XY,3144,951.5360322469559,2.110157040341864,0.07754485302876216,0.0002026434326636107
