XscanNumber_YscanNumber,Type,BCID,xsec,xsecErr,SBIL,SBILErr
2_1,XY,103,138.18449405880088,0.7641206352694323,0.06285756922286052,0.0004063310986360061
2_1,XY,124,136.80653531132563,0.8123040932793524,0.0782808780398975,0.0005476788265351637
2_1,XY,145,136.35781991637373,0.8701595219798927,0.0640316607385129,0.0004779433049871807
2_1,XY,166,136.1736659451286,0.7476307845874405,0.07268388858070889,0.0004697578087148554
2_1,XY,187,139.07506896096706,0.8467368442828809,0.06252857396166535,0.00045395530502663283
2_1,XY,208,138.1586051641003,0.8046756773029028,0.06618747478026102,0.0004542557944103319
2_1,XY,229,136.29096195672048,0.8165779928215634,0.06803291720874324,0.0004796366647356251
2_1,XY,250,136.36001604170514,0.776329463083206,0.07563890987317543,0.0005069313882324051
2_1,XY,282,137.1721278086989,0.7721152977648781,0.07436854546399879,0.000491884214821095
2_1,XY,303,137.60271585054275,0.6259464898237045,0.07690709975637809,0.0004292209922052725
2_1,XY,324,136.16368344930933,0.8161035639622177,0.06929852953955233,0.0004817924835249712
2_1,XY,345,136.5271956082273,0.7298177359412743,0.0791207574268562,0.0005036701302922361
2_1,XY,366,137.63273030694958,0.7960645000488061,0.07080353283417422,0.0004838116890530512
2_1,XY,387,137.90181756781618,0.7274108457900501,0.07748109768165624,0.00047956551632342785
2_1,XY,408,137.1794147930754,0.8533583360283709,0.06634025917794158,0.0004842873242141913
2_1,XY,429,136.23227569667458,0.7404228448613102,0.07578797280603153,0.00048816106462094025
2_1,XY,464,137.2422449581706,0.8051186890452787,0.0734718346782734,0.0005064494768329535
2_1,XY,485,137.13186447485398,0.7325006601576324,0.07674158915490409,0.0004808474570214391
2_1,XY,506,137.3233193139941,0.8130677286103317,0.06600400450144714,0.00046035502345630604
2_1,XY,527,136.3514078534271,0.839976494404915,0.07271058127552839,0.0005379057242070282
2_1,XY,548,135.63819358341337,0.7661657117323377,0.071521899890651,0.0004797059115389536
2_1,XY,569,136.59463571988803,0.7858828919064201,0.07946622251737637,0.0005386757208967759
2_1,XY,590,135.47263854438836,0.8387285491341913,0.06980109489810943,0.0005102088336114845
2_1,XY,611,136.28724148381545,0.7435893405628868,0.07812128354898917,0.0005057115077706027
2_1,XY,643,137.14553090877763,0.734539838510651,0.07249593901704571,0.0004549184708825375
2_1,XY,664,136.86325642876932,0.7884790908365038,0.07571377826013938,0.0005215909473286603
2_1,XY,685,135.62684381820463,0.8104119399396932,0.06668930545037943,0.00047164966713048175
2_1,XY,706,137.212971015253,0.83130754760039,0.0692943117008864,0.0004950267163158735
2_1,XY,727,136.8686081646518,0.834910310047599,0.06845809767878012,0.0004908819455398991
2_1,XY,748,136.56687399956311,0.7522954275550396,0.07792666467754573,0.0005066407434084131
2_1,XY,769,135.96162827743595,0.8844887122479731,0.0638319143793865,0.000490105360166619
2_1,XY,790,135.6236820290833,0.7564882836058289,0.07215398865172855,0.00047483299180943103
2_1,XY,822,137.97383457622132,0.7688261282527239,0.06538382845266148,0.0004255093471627464
2_1,XY,843,135.83231202457497,0.7394491854684939,0.07697195089431566,0.0004928346173346325
2_1,XY,864,136.94090749084882,0.8110921477265894,0.0690065744784378,0.0004813705634741237
2_1,XY,885,137.18432044476936,0.7433558221743146,0.0792595761505191,0.0005047186340549255
2_1,XY,906,136.563101626357,0.793158563875452,0.06744554334687991,0.00046630195437213744
2_1,XY,927,135.76520054659792,0.7600595017207806,0.07761226037224828,0.0005111209622639778
2_1,XY,948,136.55729345627822,0.8046266633701011,0.0679267098167999,0.0004804380287545601
2_1,XY,969,136.39243353395042,0.7635452905807522,0.07573884036961415,0.0005028033427290814
2_1,XY,1018,135.9513532670356,0.7790024232706589,0.07429423953468556,0.0005044320740559205
2_1,XY,1039,136.50657735806666,0.7728794911529397,0.07769224426830948,0.000519894614634872
2_1,XY,1060,136.3334702640618,0.7769178090395922,0.06974386394920805,0.00047315407047924374
2_1,XY,1081,136.95039775828835,0.7960307473282516,0.07662580415073976,0.0005246997221817954
2_1,XY,1102,136.91767325816724,0.8319553492346664,0.06736862859761589,0.0004853501099965271
2_1,XY,1123,136.56992312992378,0.8300084095149786,0.07393292878011437,0.0005327221512326621
2_1,XY,1144,136.54801572060094,0.7790010310550219,0.06863502935779321,0.00046809586000193823
2_1,XY,1165,135.2991709038585,0.7625478270267692,0.07959332039243258,0.000537783942266777
2_1,XY,1197,136.13441022870006,0.758572193438345,0.0719006325514372,0.0004762229509009226
2_1,XY,1218,136.19934683751478,0.7580805374947814,0.07810541337900324,0.0005118588090551841
2_1,XY,1239,136.6495696891179,0.8226484760387389,0.06883329801033132,0.0004912696443811538
2_1,XY,1260,137.58244075975568,0.8129289680841749,0.07730314891109623,0.0005454277822084643
2_1,XY,1281,135.92447609866363,0.7670444475849286,0.07052779900421062,0.00046816408160767084
2_1,XY,1302,136.4913036801091,0.7895024915282325,0.07893472685435918,0.0005419781961827151
2_1,XY,1323,136.07429183816166,0.9052605437156305,0.06466897817355116,0.000512198270192107
2_1,XY,1344,136.59361317386904,0.7083476724440794,0.0756397802759064,0.0004653545203612479
2_1,XY,1376,137.46037651888383,0.7818772142492862,0.07089292842290895,0.0004777112145560558
2_1,XY,1397,137.66728504790257,0.8068463376930247,0.06788406849929254,0.00047341063603777037
2_1,XY,1418,137.7556381924503,0.7806881566682174,0.07148518983811042,0.0004809498224080986
2_1,XY,1439,138.3849741747158,0.7859076539795911,0.0641394878712908,0.00042614299446758317
2_1,XY,1460,136.995483639308,0.7855273923564252,0.06927436816936453,0.00047213547078531323
2_1,XY,1481,136.19841107747465,0.7881744213328707,0.07668827205232794,0.0005225694001922856
2_1,XY,1502,137.26329232569643,0.8235397019101369,0.06787997555660867,0.00047619013039717177
2_1,XY,1523,139.92701119929598,0.756653059895733,0.060457904378437746,0.0003808283461422803
2_1,XY,1555,139.37408300764707,0.8313888137513012,0.06299421107301048,0.0004510826778855713
2_1,XY,1576,138.51090924680494,0.7868465380693104,0.06651942274835951,0.00044317552004870616
2_1,XY,1597,138.012377883924,0.8030360965566712,0.059376938260716855,0.00040487287542522864
2_1,XY,1618,138.76272910155635,0.7971103238781959,0.0641504150489894,0.0004437904696095226
2_1,XY,1639,136.75670096622758,0.7742755327528856,0.07846390810685684,0.0005260905617064933
2_1,XY,1660,136.12034635934936,0.7402649424744078,0.08038512219957937,0.0005177804793079953
2_1,XY,1681,137.14211980640007,0.8248480239736005,0.07433284922746636,0.0005274804299269658
2_1,XY,1702,136.53193247711587,0.7469866045273018,0.08020078573197821,0.0005200376460889423
2_1,XY,1734,137.4539955171448,0.7605224902963887,0.07349614055407255,0.00047096217272935253
2_1,XY,1755,139.32341722198683,0.8367324045179346,0.060086853280393274,0.00042424342981227213
2_1,XY,1776,137.07671216794358,0.8026920343933428,0.07294835621716463,0.0005041706241418591
2_1,XY,1797,137.39985490159822,0.7385580057737299,0.07909220505630772,0.0005049504991565945
2_1,XY,1818,138.69430109523702,0.7862402518170734,0.06571520660930177,0.0004417066535792597
2_1,XY,1839,139.34326823554514,0.7943369122530827,0.06063687512602221,0.00041670129125334973
2_1,XY,1860,136.51785661966244,0.7545183206603543,0.07548982857661696,0.0004913562100645214
2_1,XY,1881,136.17546984166003,0.7708925050105777,0.08016808396428286,0.0005399903977061159
2_1,XY,1916,138.5052702290456,0.7501480077266391,0.07203638989719366,0.0004550893305938948
2_1,XY,1937,137.85929254950105,0.8472835677257453,0.060912977784162006,0.00044067678505862345
2_1,XY,1958,137.45819683146033,0.843905638657307,0.07090629055503021,0.0005172815843458531
2_1,XY,1979,136.13574300344698,0.7429543912916612,0.07640085419551873,0.0004930554512797133
2_1,XY,2000,139.05690531079043,0.7672981544151711,0.07492909847222343,0.000489941430282424
2_1,XY,2021,136.33795298917113,0.7941369776906047,0.07921348666497162,0.000543961835894172
2_1,XY,2042,136.25916993358845,0.8287425692256312,0.07432234181255827,0.000536849689048343
2_1,XY,2063,135.76455190069294,0.8056932779559681,0.07858026733376912,0.0005546353728283269
2_1,XY,2095,136.56394510122178,0.75807070652349,0.0727087257810828,0.00048480385677119377
2_1,XY,2116,136.64182592417447,0.7413598244842817,0.07553358641964286,0.0004789022175342525
2_1,XY,2137,136.24919950742313,0.8153641189494981,0.07299630472073908,0.0005203580617290758
2_1,XY,2158,136.56805088296093,0.7888008758242919,0.0780072835712012,0.0005410406920886019
2_1,XY,2179,136.04864255091493,0.8164976575552697,0.07445526198382325,0.0005358419927266017
2_1,XY,2200,138.4118997805627,0.8064804342347665,0.07861942670597878,0.0005490530703917853
2_1,XY,2221,137.57274381393992,0.7503320104003607,0.07531936245700421,0.00048152193090659183
2_1,XY,2242,136.34508370959912,0.693120495684545,0.07861048635970852,0.0004645063822972543
2_1,XY,2274,136.2442888087163,0.7654883648118561,0.07528354606451941,0.0004960740300493072
2_1,XY,2295,136.89219140136964,0.7569157919692905,0.07873479482034396,0.0005139546063289758
2_1,XY,2316,136.7586401710581,0.78950563466183,0.0742391149434668,0.0005074209657197849
2_1,XY,2337,137.157243406182,0.7901553158386276,0.06809960255016007,0.0004647685268387143
2_1,XY,2358,137.53358875343633,0.8368300449989644,0.06272694548421126,0.0004558741139118282
2_1,XY,2379,136.69408283055228,0.7574998509790707,0.07760402497104786,0.0005187777543891819
2_1,XY,2400,135.8042692304532,0.7552055230106225,0.0719111913653184,0.00047406466494800476
2_1,XY,2421,135.81319974142764,0.7889932203450569,0.07720179522408813,0.0005236888195311875
2_1,XY,2453,137.12723932990733,0.7607885285986036,0.07637943917973461,0.0005063941995599573
2_1,XY,2474,136.77447281139735,0.7670024988353565,0.08078514846686959,0.0005384882685721364
2_1,XY,2495,137.39902685536333,0.7466847499300961,0.0730441161151635,0.00046689828709444385
2_1,XY,2516,136.93894529981696,0.776180059609176,0.0785677420868853,0.00052141920446763
2_1,XY,2537,136.76260701443326,0.7895250680851047,0.074922572319153,0.0005105693492796194
2_1,XY,2558,134.9501806548859,0.7465777190936973,0.08242773296404352,0.0005417166756537988
2_1,XY,2579,136.78677548633337,0.7448210789879953,0.07750197603965352,0.0004992868381769644
2_1,XY,2600,136.32156068750282,0.8008504170886267,0.08051178088841734,0.0005615790685157944
2_1,XY,2632,136.1700299990613,0.8175354892876643,0.07352533455633425,0.0005317736809999043
2_1,XY,2653,137.9789632279078,0.7117073284514405,0.07588679950886264,0.00046255787845059563
2_1,XY,2674,136.78154796266722,0.7677327924567964,0.06775721734563697,0.0004446628624572975
2_1,XY,2695,135.60034661159648,0.7566450779248155,0.0814706686923156,0.0005351840256642027
2_1,XY,2716,138.66135291021533,0.778098289831386,0.06716201132389087,0.0004397334755719013
2_1,XY,2737,136.27853932638905,0.7528668598738714,0.07782604905035408,0.0005066383532368599
2_1,XY,2758,135.7879592449145,0.7536488214368519,0.0728643915890598,0.00047873638971809954
2_1,XY,2779,136.23827133383304,0.7788277474803138,0.07800609896206226,0.0005265718005030631
2_1,XY,2818,137.23978607626648,0.8400088155694687,0.07566546582717117,0.0005521761696113329
2_1,XY,2839,135.55582313178607,0.7463772940544651,0.08041542124271946,0.0005235529523282167
2_1,XY,2860,135.95210969903255,0.7927369235122537,0.07529565879063345,0.0005207088694143785
2_1,XY,2881,136.090172323918,0.8022683268278259,0.08015461501850799,0.0005584532872715701
2_1,XY,2902,136.4661003196645,0.7722046065397256,0.07508283467869421,0.000502908421416922
2_1,XY,2923,135.79410216531608,0.7896733708164423,0.07951343015786841,0.0005410333592935485
2_1,XY,2944,136.5145844327491,0.7333480227826268,0.07321575873400182,0.00046388591244682007
2_1,XY,2965,136.8814317761072,0.7968706211662778,0.07630613996567111,0.0005299840572072241
2_1,XY,2997,136.81562804660277,0.8043446166394912,0.07355706221156587,0.00051082532992905
2_1,XY,3018,136.27345404027878,0.7588390781311196,0.07815900264012128,0.000514253497072742
2_1,XY,3039,136.84506037445104,0.8100373776063923,0.07029085073272738,0.0005008548386133487
2_1,XY,3060,136.77497643821084,0.798424601212841,0.074962204083256,0.0005163529312180042
2_1,XY,3081,136.21688288306493,0.7017242222916615,0.07394067228134375,0.0004450746957898774
2_1,XY,3102,136.93098685890962,0.7160622709939561,0.07835882630542194,0.0004856038770574061
2_1,XY,3123,137.44083804235015,0.7622871158514689,0.07569204311306504,0.0005037932262957204
2_1,XY,3144,135.49764940283734,0.7033686817308124,0.08061355891232803,0.0004944553303747308
