XscanNumber_YscanNumber,Type,BCID,xsec,xsecErr,SBIL,SBILErr
1_2,XY,103,3269.8395493738294,18.14488612992417,0.07134041745366498,0.00044985502157898755
1_2,XY,124,3284.4909601518725,16.67168731353774,0.0785114194907871,0.00045376188355034715
1_2,XY,145,3275.118102768946,18.762946138127177,0.06343935939044823,0.0004152072815740314
1_2,XY,166,3251.176863643661,17.66967822506868,0.0751758863304944,0.00046335790612150955
1_2,XY,187,3247.4289957402807,18.75337057407273,0.06444933427289201,0.00042261751409051893
1_2,XY,208,3253.6667153346425,16.332809625896214,0.07410834166509869,0.00042204271703826185
1_2,XY,229,3248.5075932219484,18.381446709416405,0.06982462376363463,0.0004483535001264415
1_2,XY,250,3260.394195888072,16.95409370314209,0.07794310000795979,0.0004566426398203699
1_2,XY,282,3254.8617021695677,17.938510177719994,0.07273136579326027,0.0004527705126697554
1_2,XY,303,3259.5610299896116,18.149374546427726,0.07814057606310323,0.0004938095710176494
1_2,XY,324,3235.3984060928656,17.1057320943123,0.0712627054596506,0.0004291517566578932
1_2,XY,345,3248.0794278878907,17.265370704484624,0.08153767748512143,0.0004954077523838128
1_2,XY,366,3245.035141819217,17.101883310977804,0.07263321219340155,0.0004325453056047351
1_2,XY,387,3278.034353057321,15.002986010721338,0.07990456343642868,0.00041620310638820025
1_2,XY,408,3249.919558499542,17.638097614114127,0.06799325728880534,0.0004166773591657555
1_2,XY,429,3241.2307470481273,17.734129057730573,0.07806911964728803,0.0004820087974214541
1_2,XY,464,3281.6496025700053,16.78904710449613,0.07234561091006003,0.0004194769278112452
1_2,XY,485,3258.848132227764,17.284781048766746,0.07655190845716377,0.0004594760925807813
1_2,XY,506,3258.7447778753135,17.35652026379904,0.0656894836396507,0.0003903754636861212
1_2,XY,527,3267.8732040449104,16.963425706758382,0.07291918906106191,0.00042701398409796535
1_2,XY,548,3268.819543150803,17.29181406601497,0.07067968016025553,0.00042328641097136375
1_2,XY,569,3251.8348093335253,16.87982286177295,0.08028705276158897,0.000472153117072381
1_2,XY,590,3281.1378512198075,18.24623140067039,0.06817010716311037,0.0004283367585800272
1_2,XY,611,3246.078575568651,17.069040491678894,0.07743424519876857,0.00046900653483791105
1_2,XY,643,3257.359018132781,17.549380732926338,0.07235590924404905,0.0004404753933960592
1_2,XY,664,3285.976450174087,16.66989441897043,0.07484773977135831,0.0004277957306740113
1_2,XY,685,3254.8832505830005,18.621898200783836,0.06495765813783079,0.0004225964416919237
1_2,XY,706,3278.056340592877,16.299731005202812,0.07176735936076165,0.0004099204563614738
1_2,XY,727,3261.4013006091063,19.857308684534374,0.06823021879856277,0.0004686545887309993
1_2,XY,748,3263.5685168634786,16.276365792980343,0.07819993495811467,0.00044067955342180613
1_2,XY,769,3253.564656120572,19.615943959410615,0.06282571485313837,0.00042969488295995217
1_2,XY,790,3233.864481028166,18.659744820691838,0.07210991926684726,0.0004692380063269598
1_2,XY,822,3279.8719980767664,17.841461380198005,0.07330777994968705,0.0004496535748342168
1_2,XY,843,3279.16742635138,17.75867556226554,0.07408066623814971,0.0004586308372937248
1_2,XY,864,3264.3736552870623,17.189271378954015,0.06904240515312647,0.00040696049821208427
1_2,XY,885,3260.250315702958,16.646622306524854,0.0801325898833931,0.0004621397264220305
1_2,XY,906,3263.7550759447754,16.913039079418475,0.06675729870937479,0.00039042773886986204
1_2,XY,927,3262.467282082195,14.960669893445113,0.07739520356334005,0.00040029700657893003
1_2,XY,948,3256.3726658395294,18.441693823607913,0.06774437082881872,0.0004287554253718913
1_2,XY,969,3238.8239729935594,17.380960417345975,0.07618230118481958,0.0004627502636167576
1_2,XY,1018,3280.743230972221,17.056573474956316,0.07354373638694436,0.0004353512523899977
1_2,XY,1039,3268.619721091397,16.752757171946563,0.07819578878876893,0.0004567116162643988
1_2,XY,1060,3251.73898557013,19.712031154903958,0.0701110125361523,0.00048286462570699306
1_2,XY,1081,3284.4192541801135,16.865881318728256,0.07579902672905428,0.0004450031749693887
1_2,XY,1102,3270.151923589391,18.638733893668395,0.06794463711471573,0.00044279987577091083
1_2,XY,1123,3266.3097374483946,17.87916500291512,0.07512437581262707,0.00047032786781848443
1_2,XY,1144,3250.1166156746885,17.91642726566161,0.06938961145598578,0.00042793763338838496
1_2,XY,1165,3264.139472313407,17.171384285060984,0.07889051988750195,0.0004721146621989013
1_2,XY,1197,3265.7977996000327,18.164006405492053,0.0718894856159198,0.0004566085999358137
1_2,XY,1218,3278.6254589139367,16.040061810171103,0.07849503557780597,0.00043764332546041425
1_2,XY,1239,3279.6463870346256,18.145742122992072,0.06908361301743306,0.0004397634552405216
1_2,XY,1260,3271.572569834769,17.195930209887443,0.07779370126217995,0.00046390932334600896
1_2,XY,1281,3245.846766999829,17.714761617373565,0.07083673691277656,0.00043664206117733647
1_2,XY,1302,3248.486990456761,17.601221453069986,0.0801631546773715,0.0004948140936325634
1_2,XY,1323,3282.72803569595,19.519016009394825,0.06439096128004755,0.0004354887783102991
1_2,XY,1344,3272.9523206971644,17.166304493638258,0.07453114997780663,0.000445322960261986
1_2,XY,1376,3279.9562777909955,17.283006220391865,0.07036154107747146,0.0004200427402176951
1_2,XY,1397,3266.5977819533377,15.850110227036344,0.07733630697878918,0.0004316491565083116
1_2,XY,1418,3276.437744057522,17.640941700897777,0.0713297536577848,0.0004368466194179326
1_2,XY,1439,3288.7468981076518,16.4682845537528,0.07474777379877921,0.0004237166207499885
1_2,XY,1460,3242.478384796288,16.830421534350037,0.06961495659466063,0.00041232756486572796
1_2,XY,1481,3258.744510819721,17.51457486435015,0.07643151604874042,0.0004675089170081551
1_2,XY,1502,3268.068652625312,16.932961413434555,0.06782181265233063,0.0003945763138122765
1_2,XY,1523,3264.9635763366687,18.076313689879914,0.07183905322105667,0.00045461454476254025
1_2,XY,1555,3283.5133181995066,17.183412371648455,0.0712870977533557,0.00042405882642656406
1_2,XY,1576,3289.0089530406945,18.372040120188174,0.06816626418070404,0.0004315806896474423
1_2,XY,1597,3257.215870484129,17.14169694028617,0.06977327631939999,0.00041726705060761605
1_2,XY,1618,3286.728419306103,15.651797987982068,0.07406334391039135,0.0003965264034737691
1_2,XY,1639,3270.410205436326,16.15221988035098,0.0779711349085262,0.00043504403916595535
1_2,XY,1660,3272.057960806479,15.816915864940935,0.081795837522709,0.0004446149997951346
1_2,XY,1681,3255.8390329927624,19.573902584955206,0.07426255189579349,0.0005048384650825523
1_2,XY,1702,3264.56323527981,17.165560813148993,0.0805302655346314,0.0004831520646525381
1_2,XY,1734,3264.4757951646393,19.342650706805077,0.0725521354837938,0.00048727000733864796
1_2,XY,1755,3279.0445635119722,16.347010273701077,0.07294704843228235,0.00041194868975138777
1_2,XY,1776,3259.579718644316,18.86172361572155,0.07310319341479754,0.00047933024959700065
1_2,XY,1797,3262.722517941541,16.469650526647495,0.07965402539956959,0.00045226414756993784
1_2,XY,1818,3285.867455134208,15.738114832675203,0.074126091146746,0.0004044782316475991
1_2,XY,1839,3327.121656993804,17.410996107470936,0.06456277170677194,0.00038373524830386766
1_2,XY,1860,3269.6833905242997,17.99137130929073,0.07561056223787987,0.000474582467978952
1_2,XY,1881,3253.826817249347,16.182583795210054,0.07951276008358137,0.00044974741511525577
1_2,XY,1916,3257.271195863191,17.530304988312846,0.07410032545139583,0.00045081302020276947
1_2,XY,1937,3285.1546789670133,17.543588554710936,0.07137483839837828,0.00043398415875364467
1_2,XY,1958,3268.9701508481326,19.10792788964232,0.07040564006571864,0.00046639815757967585
1_2,XY,1979,3250.8611581296336,18.275919287899672,0.07694134837939513,0.0004910814050884081
1_2,XY,2000,3269.52812968199,17.21009008380983,0.07476820377461353,0.00044970903084188825
1_2,XY,2021,3265.9879410586495,16.52793717176112,0.07900918911936679,0.0004526749854860076
1_2,XY,2042,3278.88239843,17.34177259839639,0.0735008327838738,0.000445141672839215
1_2,XY,2063,3242.8178016045786,15.90924687565599,0.07914146410582566,0.0004364773446358753
1_2,XY,2095,3261.196709938436,18.252977765248136,0.07249015264983577,0.0004622871499628128
1_2,XY,2116,3269.6496069024433,16.72125515169789,0.0747193877076735,0.00043565761194170347
1_2,XY,2137,3236.530860355812,16.77130432671485,0.072618552250122,0.00042969624098606615
1_2,XY,2158,3273.800563022919,15.300876596789092,0.07772466349657682,0.00041625067720072454
1_2,XY,2179,3265.0268527331264,17.301316700644982,0.07377946404768693,0.0004453992350962573
1_2,XY,2200,3257.54867732218,16.86173199616416,0.08034462282316095,0.0004736344638983892
1_2,XY,2221,3254.8718483442476,17.871558758737322,0.07502978852596962,0.00046849285927483535
1_2,XY,2242,3258.7796660423173,15.69209814037145,0.07882320884086111,0.00043064213830107737
1_2,XY,2274,3245.107807832602,17.471920493257425,0.07501234540856007,0.00045658579596765964
1_2,XY,2295,3259.684327387087,16.026077637862883,0.08003789380531669,0.0004515950243319542
1_2,XY,2316,3267.505685925522,17.832512577426744,0.07329174684618583,0.0004550020883934793
1_2,XY,2337,3257.215626854267,17.93218304231573,0.07779504308652634,0.0004841558035474225
1_2,XY,2358,3277.508709114018,18.233420274370655,0.07303640189531692,0.0004665435074540931
1_2,XY,2379,3276.1855226463435,15.265378370083734,0.07850627279405349,0.00041406248326257816
1_2,XY,2400,3257.4517416844174,18.12495597338633,0.07101768896907075,0.00044783570961209434
1_2,XY,2421,3266.224144156623,16.723486976875567,0.07740889779415423,0.00044892072507119184
1_2,XY,2453,3261.7225861291367,17.683570271930037,0.07671594089019172,0.0004740361056521549
1_2,XY,2474,3265.5049544480307,16.274135314093687,0.08071516089825002,0.00046009467495586494
1_2,XY,2495,3273.2475223944343,17.59150406821534,0.07308617232409784,0.00044668787756092066
1_2,XY,2516,3267.929903290697,16.965298726569987,0.07893811100227374,0.00047186116250760407
1_2,XY,2537,3258.7017844585425,17.260343587959838,0.07490271326978093,0.00044576183544100016
1_2,XY,2558,3257.8616243564966,17.491076585621816,0.08257880549497273,0.0004996675563136046
1_2,XY,2579,3249.83557546209,17.66515480288281,0.07705310636438553,0.00047389771628686465
1_2,XY,2600,3255.3362898940863,17.837338067898635,0.08101848027073057,0.0005059905344966668
1_2,XY,2632,3268.9122255163097,17.227151993878234,0.07490842278859641,0.0004463618225667535
1_2,XY,2653,3243.172719820683,16.189393673799138,0.07781855685054764,0.0004457428559255055
1_2,XY,2674,3280.2953866732632,17.156726648857617,0.07148937235318248,0.0004240058869145441
1_2,XY,2695,3264.5788084911246,15.253255455709699,0.08205262381936561,0.00043635210199034487
1_2,XY,2716,3270.855738406701,17.973527959055808,0.06919654474826883,0.00043264797062047644
1_2,XY,2737,3249.2916834336156,16.94524585933675,0.07814081656040768,0.00046321027433873655
1_2,XY,2758,3279.7814358257056,17.875417910761794,0.0712067173488582,0.00044172279923850803
1_2,XY,2779,3268.556764540145,16.339340433635503,0.07688880602185778,0.0004336968511713393
1_2,XY,2818,3265.3002484326603,16.629725174623058,0.0760892405600626,0.00044037172485103006
1_2,XY,2839,3277.194750006143,16.42529226731445,0.08013310288820634,0.00045878990441268637
1_2,XY,2860,3272.8189520904907,17.83019393733013,0.07474522940424339,0.0004590773154669885
1_2,XY,2881,3241.524820711867,17.02414128760132,0.08132173299538271,0.0004837581191316541
1_2,XY,2902,3268.594292048234,18.839070170904662,0.0754097909645399,0.0004913672941352588
1_2,XY,2923,3261.796096627783,16.437242264657094,0.08032332611805873,0.00045781520420971157
1_2,XY,2944,3256.089177008194,17.897472821511816,0.07239010761257351,0.0004535289871729383
1_2,XY,2965,3261.2811312261747,17.24905874213611,0.07633762302442641,0.00046328782255543213
1_2,XY,2997,3253.343342578911,17.263564928560115,0.07309487147633294,0.00043735576499056444
1_2,XY,3018,3275.632333743004,16.135846928879957,0.07734289005100625,0.00043261882734505635
1_2,XY,3039,3271.1269568190905,18.279683736527243,0.07033425584906783,0.00044479457901470054
1_2,XY,3060,3253.891410695825,17.20979930283308,0.07576885432065614,0.00045892186465300023
1_2,XY,3081,3266.012170145979,18.454560315435216,0.07333218292867202,0.0004734676585981207
1_2,XY,3102,3255.754226738095,17.735056202681296,0.07987639677906194,0.0004934994812989394
1_2,XY,3123,3259.8850517746905,18.132948446702787,0.07587581689774192,0.0004803435665669294
1_2,XY,3144,3255.5744209653,17.26439642340251,0.08133240699050723,0.00048796410230775945
