XscanNumber_YscanNumber,Type,BCID,xsec,xsecErr,SBIL,SBILErr
1_2,XY,103,954.467953485172,1.9555589908573583,0.06389923168565699,0.00015456516373939984
1_2,XY,124,940.9822224646803,1.8652930522783335,0.07910001344714271,0.00018743622745882348
1_2,XY,145,944.7750055456535,2.3249781799725517,0.06398531348516721,0.00018630738362892174
1_2,XY,166,951.3768495205217,2.118814303789133,0.07269180745340724,0.00019436173776270476
1_2,XY,187,950.4013855205102,2.292438596381303,0.06385079528525091,0.00018013738266245538
1_2,XY,208,951.5427364531964,2.1112548931357096,0.06720627648882581,0.00017750510236451517
1_2,XY,229,945.7962399685604,2.176356298745616,0.06829996211268767,0.00018539320108156
1_2,XY,250,945.325293838304,2.056749453333019,0.07566942716972655,0.00019364514016810205
1_2,XY,282,945.786306920809,1.9919559962859912,0.07512584395443306,0.00018897500966199963
1_2,XY,303,943.7486836557978,1.9565735482964661,0.07804318759416363,0.0001912155519494468
1_2,XY,324,948.5618344408599,2.0950189968122133,0.06942638340208049,0.00017896560028989305
1_2,XY,345,942.0649356474493,1.8555053131309351,0.07876284452083666,0.00018461829381778968
1_2,XY,366,950.2632820672833,2.1637128776183188,0.07125519494168414,0.0001947355063705768
1_2,XY,387,946.5588863587599,2.035188436022378,0.07814695096664426,0.00019825456120128008
1_2,XY,408,949.4611137775353,2.039194305125475,0.06719559096316945,0.0001716308606120374
1_2,XY,429,946.5666527907142,2.119341547660525,0.07524983271373897,0.00019807766970905943
1_2,XY,464,944.5916409270326,2.002566651300156,0.07427631655091242,0.00018887770780749458
1_2,XY,485,939.5755390897881,1.8256239864621568,0.0777034570137638,0.00017993508088527408
1_2,XY,506,944.296119255936,2.0735330131055285,0.066787283414551,0.00017304831721648924
1_2,XY,527,940.6116357073778,1.8900136427908325,0.07422695104560846,0.0001739413748475589
1_2,XY,548,945.1452119225089,2.1213197740279433,0.07244639253590447,0.00019230427508936776
1_2,XY,569,938.8721564200513,1.8686515723227015,0.08140067934230515,0.00019194311869833914
1_2,XY,590,945.8083303962984,2.161551068463797,0.06968560981552017,0.00018949444618255245
1_2,XY,611,942.4232038949373,1.9721372200090541,0.07817590646765642,0.00019646948713224164
1_2,XY,643,948.193943880067,2.0606303249042908,0.06852220459817485,0.0001784868776894167
1_2,XY,664,943.0450874985926,1.8276613375661213,0.07769651110249928,0.00017860910561179208
1_2,XY,685,942.8293354634592,2.272643392839455,0.067085096711279,0.00019656879671238966
1_2,XY,706,946.4065984466752,1.9390306548117233,0.07066093933499629,0.00017012258215479207
1_2,XY,727,942.4226746345541,2.0431565640400047,0.06978557722865605,0.00018289332299953158
1_2,XY,748,940.6578773192922,1.9346167103820162,0.07917191606073427,0.000195336183649566
1_2,XY,769,940.6187320297854,2.1587153906359684,0.06411289731629341,0.00017522315804692376
1_2,XY,790,941.6955449856806,1.9860005073203681,0.0725793615815403,0.00018181197389674817
1_2,XY,822,951.0518450012274,2.102247353948247,0.06648047177575708,0.00017611082346879377
1_2,XY,843,947.5390168977624,1.994687995537202,0.07778811843605753,0.00019760932967433163
1_2,XY,864,943.697027523127,2.1002173479354282,0.07027749296488355,0.00018824774946986014
1_2,XY,885,941.5859717059744,1.9095756123957348,0.08063471014631404,0.00019747715642791226
1_2,XY,906,944.8575756111701,2.123492489927203,0.06877287858548942,0.0001847744524997746
1_2,XY,927,944.8084676296493,1.951770026881974,0.07800684594736235,0.0001898775262933513
1_2,XY,948,942.3199369477898,2.141047081432794,0.06904441488290061,0.00019008731587415902
1_2,XY,969,940.9547443184574,1.9392281821948714,0.07671383335577253,0.00018821741320571695
1_2,XY,1018,942.3009187517115,1.9589308546076767,0.07484980990684328,0.0001829300898087798
1_2,XY,1039,943.2907135336765,1.935048736478391,0.07835386312020631,0.00019006892727942227
1_2,XY,1060,941.3245349788607,2.159356859632622,0.07020974137693754,0.00019332166682914918
1_2,XY,1081,941.7635610672359,1.8065968205094676,0.07783790602490948,0.00017865200156782517
1_2,XY,1102,940.1533867394867,2.3359166030875147,0.06829313483277684,0.00020567630654589014
1_2,XY,1123,943.543772258348,2.1856373867047987,0.07448220479281742,0.00020455578927923264
1_2,XY,1144,946.2395456569301,2.19956320146179,0.0693387587259895,0.00019277220882005512
1_2,XY,1165,938.6150234081329,1.9761249370509728,0.08082367789532265,0.0002023015687529584
1_2,XY,1197,943.4513906841073,2.1477358371724202,0.07187307399669894,0.00019548644267658702
1_2,XY,1218,943.2968663117495,2.0053487088276434,0.0783764790308783,0.0001966063495357815
1_2,XY,1239,945.7537049479753,2.125312310625082,0.0691892954400924,0.0001838548708240565
1_2,XY,1260,941.0692622528109,2.0336597809473576,0.07835571092220837,0.00020236236539729
1_2,XY,1281,940.2304044621013,2.031803875057362,0.07106808519384457,0.00018094817465808802
1_2,XY,1302,945.0537781410715,2.0399154336662466,0.07887786148978249,0.00019919506534580916
1_2,XY,1323,949.8305683585868,2.287719062293417,0.0642389865503661,0.0001841714584273046
1_2,XY,1344,943.3153139829651,2.0840266540383077,0.07675741235352898,0.00020331626961107274
1_2,XY,1376,945.916303860353,2.0567040279282516,0.07191793131898755,0.0001856373134331053
1_2,XY,1397,950.3306428823843,2.0557344755401856,0.06859467995932789,0.0001756955218818192
1_2,XY,1418,945.2458111276374,1.9668105559033648,0.07318721502316722,0.00017968482516301707
1_2,XY,1439,950.8951567329106,2.013555876304165,0.06631270520322162,0.00016684159757904984
1_2,XY,1460,950.7040100551834,1.9584868244203495,0.0696757814781416,0.00017571503000579484
1_2,XY,1481,946.5822514012416,1.9722355421672593,0.07694646362930009,0.00018894424439641996
1_2,XY,1502,946.9429939807977,2.119350850334182,0.06906288812240502,0.00018248785566675365
1_2,XY,1523,956.4634940454459,2.0635827118264274,0.06246336320998985,0.00015972518709013724
1_2,XY,1555,953.6572229291253,2.0422856582386095,0.06498132221065471,0.00016631101031489614
1_2,XY,1576,956.1182646171093,2.024786859353176,0.06779741141310873,0.00017168051277701788
1_2,XY,1597,959.2618530508588,2.2179626734797107,0.060149920399850294,0.00016354575501851778
1_2,XY,1618,955.8766779005166,2.1784806812764796,0.06581041270256006,0.00018067517945905806
1_2,XY,1639,944.8585738730363,1.9107684525719366,0.07849281652607673,0.00018873694114149837
1_2,XY,1660,947.8775002659935,2.02380462751248,0.07524466176411765,0.00018852086644166417
1_2,XY,1681,944.5101306552506,1.8951121509966176,0.07548590257754581,0.0001805565324917868
1_2,XY,1702,939.5595755087417,1.9260187629386492,0.08202563677257768,0.00020248596045393055
1_2,XY,1734,949.8072645520838,2.0361193161261335,0.07343314746429157,0.0001838969069188987
1_2,XY,1755,958.0398796927718,2.01979777471738,0.06104051626625763,0.00015152065587478267
1_2,XY,1776,943.3423652924058,2.0691546697495027,0.07424157586352903,0.0001977374248843007
1_2,XY,1797,940.8627118257338,2.0029743072648216,0.08026090994745193,0.00020206010803160124
1_2,XY,1818,954.4250620469904,2.0153410595567207,0.06800231772525868,0.00017327115656391178
1_2,XY,1839,957.3707093262271,2.061761181177448,0.06180672045322082,0.00015885039605396633
1_2,XY,1860,946.9059509552674,1.9814593350096346,0.07244233689294256,0.00018013775389729927
1_2,XY,1881,945.009400435681,2.001436273315293,0.07427757980555103,0.00018846232628747788
1_2,XY,1916,946.9833362505678,2.0155661363954698,0.06872814103969756,0.00017424334700669153
1_2,XY,1937,956.7987906414814,2.1164607096416552,0.06216921327691546,0.0001652146175580896
1_2,XY,1958,947.7186363787653,2.0419290883323615,0.07249184262966193,0.00018515908837906357
1_2,XY,1979,945.587158667902,1.8531724648127181,0.07441568036149111,0.00017276505822760356
1_2,XY,2000,944.7211128583136,2.0166838550673525,0.07701471599309194,0.00019827487593988334
1_2,XY,2021,940.9778025378771,1.7631203902172983,0.08051749523740588,0.000178059729518722
1_2,XY,2042,949.9055003242975,1.9256453705245962,0.07073494721765847,0.00017018329480144264
1_2,XY,2063,942.2781851457264,1.7707857194092418,0.07993803418248771,0.0001772553688481171
1_2,XY,2095,944.8433109421619,2.076507720395061,0.07448203710978701,0.00019562529865125016
1_2,XY,2116,940.7824412606789,2.1880860529223938,0.07614394012785072,0.00021376475531518867
1_2,XY,2137,948.8180435545163,1.9300484088985812,0.073598418049078,0.000177203661907999
1_2,XY,2158,945.8272754324311,2.029880227036844,0.07755695697455807,0.00019571050590188552
1_2,XY,2179,947.2187472358798,1.9795504689413614,0.07593324460187593,0.00018790864407182073
1_2,XY,2200,946.370066248711,1.9746305660703154,0.07844364756081104,0.00019219029928038508
1_2,XY,2221,943.2809717922878,1.7531144106972285,0.07708060003100843,0.00016808967569242748
1_2,XY,2242,943.135251781247,1.9050187694750451,0.07970227573297199,0.0001893075269186638
1_2,XY,2274,943.3537259907206,2.0077815326331176,0.07677846950897937,0.0001921623237579535
1_2,XY,2295,948.5213702033075,1.9768976175795536,0.07123667753884803,0.0001776375557973692
1_2,XY,2316,945.5424156420739,2.0023178522324403,0.07503794941262812,0.0001912262324996767
1_2,XY,2337,955.2142228394082,1.9342870534739807,0.06793359094272625,0.00016399502887783603
1_2,XY,2358,953.638522398721,2.0226887970312215,0.06441362696258555,0.00016272541976125382
1_2,XY,2379,947.5737333850344,1.8790620083306413,0.07085229129219106,0.00016606648000656087
1_2,XY,2400,944.0573792718617,2.1475592320566235,0.0728223970054884,0.00019717639316024307
1_2,XY,2421,944.2345157414708,2.055610762456794,0.07795558336772304,0.00019998234212549875
1_2,XY,2453,948.2331003261517,2.029384033315885,0.07124244366410101,0.00018256463501924655
1_2,XY,2474,946.4936843118433,1.9248827538405624,0.08032664212867,0.00019362480992999985
1_2,XY,2495,946.1631069654297,2.062592814014362,0.07009336304231314,0.00018275857210825114
1_2,XY,2516,943.5932338874486,2.139378436558698,0.07683239484954425,0.0002066225806532972
1_2,XY,2537,943.6197267291552,2.0977087614032217,0.07700140319643795,0.00020423480566587302
1_2,XY,2558,946.8841537189201,1.9322927126528633,0.08256731436484839,0.00019838579454567739
1_2,XY,2579,947.3106816267987,2.02492975677723,0.0784926875181742,0.00020313937894445372
1_2,XY,2600,948.2861849685632,1.7477336514068227,0.08147967106207796,0.00017875684248308573
1_2,XY,2632,950.3650484451717,2.079182072434941,0.06900350054259945,0.0001816499347472849
1_2,XY,2653,944.775501438551,1.901001410168817,0.07535411124009687,0.00017855877291997663
1_2,XY,2674,951.0103693204603,2.0059017096041143,0.06893668374191116,0.00017246955381887132
1_2,XY,2695,941.4823977598297,1.9248854286646306,0.08184761087476022,0.00020012839274834447
1_2,XY,2716,951.6197817394251,2.0060039608930267,0.06819584226084521,0.00016944012540698938
1_2,XY,2737,937.4494715080358,1.9133076520266106,0.07911676272180962,0.00019400045476969697
1_2,XY,2758,948.2369484350274,1.996768717179684,0.07371490802626667,0.000185255706821717
1_2,XY,2779,944.6985692080592,2.0395191423870056,0.07824956166592993,0.0002044234140367336
1_2,XY,2818,944.0654781009038,1.905874211982203,0.07733496919881586,0.00018931814796736935
1_2,XY,2839,940.3091991669929,1.8950829371797329,0.08124756676636406,0.00019756838313088844
1_2,XY,2860,946.5052869079766,1.9902601176065102,0.07604176026862208,0.0001915610537112151
1_2,XY,2881,943.4741158337719,1.9893902476755767,0.08055900994044858,0.00020092145895246643
1_2,XY,2902,944.5825335276191,1.9705608734070066,0.0762209330867153,0.00018894848266051343
1_2,XY,2923,939.0013349536953,1.9006870271454344,0.08063702356372794,0.00019176382637780897
1_2,XY,2944,943.4655628136851,1.9722126429011884,0.07427031544108455,0.00018174417776725224
1_2,XY,2965,946.6454028106542,1.9259140857940538,0.0725174475093713,0.00017652317751622393
1_2,XY,2997,945.2250860034329,1.7323037930947722,0.07547131088213846,0.00016682934987293549
1_2,XY,3018,945.5943229485189,1.8910059876346037,0.07918781333269889,0.0001882746711413203
1_2,XY,3039,946.0461278354143,1.8686784550441642,0.07078134831541642,0.00016881769884576322
1_2,XY,3060,944.910004801909,1.9132861714564082,0.07572175715676152,0.00018360213014255897
1_2,XY,3081,947.4948463458495,2.0365658684719112,0.07382987196387233,0.0001880667128162887
1_2,XY,3102,942.5763738141495,2.035654968606607,0.07865087577244945,0.0002047750444499553
1_2,XY,3123,944.38536215927,1.9177912186732273,0.07759817284373628,0.00018638659762719898
1_2,XY,3144,944.1383896529886,1.862675572316,0.08132857939432284,0.0001885534451616007
