Scan,Type,BCID,sigma,sigmaErr,Mean,MeanErr,CapSigma,CapSigmaErr,peak,peakErr,rate0sep,rate0sepErr,peakRateRatio,peakRateRatioErr,area,areaErr,fitStatus,chi2,ndof,covStatus
1,X,103,0.08872325879113377,9.680578764275288e-05,0.0023097393371787622,0.00019446342816423223,0.1254736358803593,0.0001369040578005909,0.010296353412242283,1.8040908158971652e-05,0.01023525579555554,4.1023080716624136e-05,1.0059693297272818,0.004400386627449826,0.0032383654538776824,6.684363474694211e-06,0,46.22746142590897,22,3
1,X,124,0.08447640566910086,9.026949752701562e-05,0.002563811911338764,0.00016677767898656067,0.11946767859777385,0.00012766034767131007,0.012237995658484694,1.9756222742612575e-05,0.01231047734116671,3.8150338021652036e-05,0.9941121955978397,0.0034737021250776995,0.0036648031653542194,7.0949042663031315e-06,0,440.2803480226089,22,3
1,X,145,0.085117054239904,0.0001035260503393383,0.0012087479535384917,0.0001820928255744883,0.1203736924953186,0.000146407944448812,0.01196289553638585,2.417247597933659e-05,0.012110118305800614,5.0679670870690835e-05,0.9878429949487574,0.004590688464403898,0.0036095896057984187,8.513002749693615e-06,0,594.7617751646121,22,3
1,X,166,0.08479501801428384,9.570386355662486e-05,0.0009220311360334387,0.00018216501522691806,0.11991826449747112,0.0001353457018132831,0.012293101683714794,2.3234657413590327e-05,0.012496004146278133,4.022699544551269e-05,0.9837626124168842,0.003672412279889508,0.003695189734511589,8.134592149960319e-06,0,792.0373441567062,22,3
1,X,187,0.08580484821402641,0.00010630688674021119,0.0017572948164908955,0.0001879792975472512,0.121346380061641,0.00015034064100166722,0.01187555934509456,2.3063315074206115e-05,0.012074028993156842,4.4361406437990886e-05,0.9835622683882266,0.004087506189800865,0.0036121920601756346,8.321107206864377e-06,0,683.0428648410161,22,3
1,X,208,0.0848162256665769,9.506806573840837e-05,0.0015238887557952265,0.0001913873274147865,0.11994825664697006,0.0001344465479158341,0.011419947625885229,1.9269138651203218e-05,0.011567196358033738,3.427211669791826e-05,0.9872701450212488,0.0033662388405671173,0.003433586451018137,6.9553738751990575e-06,0,726.3096100060231,22,3
1,X,229,0.08538947007437107,0.00010232187038200903,0.0014029778883455103,0.00019244231847468494,0.12075894666302711,0.0001447049768216191,0.011955816950173708,2.521329025072831e-05,0.012095848839986914,6.116154779035277e-05,0.9884231448602199,0.005415134153964912,0.0036189993698992184,8.778036189724699e-06,0,645.9184201446795,22,3
1,X,250,0.08392997574646767,9.197282436518489e-05,0.001602099109183935,0.00016556972104997213,0.11869490999029952,0.00013006921558700313,0.012391748610271787,2.1691957331319188e-05,0.0125370700382969,4.140469413046113e-05,0.98840866106824,0.0036945006161294485,0.003686842829590811,7.6141528716206385e-06,0,792.3405108328825,22,3
1,X,282,0.085589518547202,9.297422898481026e-05,0.0027534541395539407,0.00018364360852096082,0.12104185792643662,0.0001314854155815004,0.011935806227107847,2.2452686008491405e-05,0.011898970515602642,4.915951613294675e-05,1.0030957057551242,0.004553563428932197,0.0036214064854828486,7.866557318467433e-06,0,64.08644391091008,22,3
1,X,303,0.08439237017869083,9.180306078135905e-05,0.0025237529320263183,0.00017659236282518674,0.11934883446751532,0.00012982913362435955,0.012428640732630515,2.1442316797921476e-05,0.012499550472159863,5.035254601875521e-05,0.9943270168245422,0.00435737938499918,0.003718191473619527,7.583441716407527e-06,0,385.97281194936863,22,3
1,X,324,0.08492692697118774,9.982344865760347e-05,0.0012037203878790318,0.00018515591940593113,0.12010481193332312,0.00014117167493443716,0.012077151033886863,2.1220873175589965e-05,0.012188096121219977,4.137354340147643e-05,0.9908972585849602,0.0037875935913045237,0.003635924355161708,7.686353779723679e-06,0,517.8226234954226,22,3
1,X,345,0.0841851639961287,8.973562380906202e-05,0.001528182893108928,0.00016193847698181866,0.1190558006739284,0.00012690533621878552,0.012369784535941532,2.2140942080877984e-05,0.012489509330888875,3.8263971106026244e-05,0.9904139712957946,0.00351422663775587,0.00369149792949649,7.690400039014826e-06,0,909.4715599804636,22,3
1,X,366,0.08493179405502241,9.425789691888713e-05,0.0017839046272859703,0.00018505258898266077,0.12011169502929131,0.00013330079618345536,0.012134747332124208,2.3391902565079726e-05,0.01228778622733126,4.1693043095271636e-05,0.9875454461547636,0.003853796577054553,0.0036534735534849436,8.126510678067489e-06,0,729.4296233225895,22,3
1,X,387,0.08372793651120626,9.606144022005094e-05,0.0017270445121315744,0.00017002538987222253,0.11840918336366135,0.00013585139158028836,0.012406037958190463,2.236080896736892e-05,0.012538893350122083,5.485996762285655e-05,0.9894045360924673,0.004681768854802658,0.003682208919871211,7.867357725269822e-06,0,753.5059358331024,22,3
1,X,408,0.08504861947223989,9.641541883663609e-05,0.001007085897139565,0.00019504288575336023,0.12027691111875016,0.00013635199294065314,0.012073828572341556,2.3271528323861044e-05,0.012275208572398118,4.492701121476076e-05,0.9835945761028141,0.004068618251815451,0.003640132614164844,8.139724054148612e-06,0,721.1236770102112,22,3
1,X,429,0.08401995734411544,9.858024442216665e-05,0.0012905122496029505,0.00016281237902702632,0.11882216318605698,0.00013941351864388274,0.012384172189540773,2.3413215236028867e-05,0.012545497549529362,5.033680821372565e-05,0.9871407762544546,0.004378406470585969,0.0036885389218438867,8.207226263177886e-06,0,728.8355109224203,22,3
1,X,464,0.08583604251632726,9.079851054606275e-05,0.0027817742198972873,0.0001783069215513554,0.12139049546702363,0.00012840848505751845,0.011843479315555948,1.9630043185989378e-05,0.0118307159247134,3.721966284050302e-05,1.0010788350361695,0.0035597606442378887,0.0036037439318843865,7.085852010762764e-06,0,59.08221653615749,22,3
1,X,485,0.08243513855588214,7.809329618674676e-05,0.003513232933969536,0.0001593556279045755,0.11658089096183377,0.00011044059859771638,0.012489472669475069,1.8598329314357065e-05,0.01243344016382872,4.695141915730098e-05,1.004506597120993,0.004077520517124715,0.0036497356208666397,6.441462078885308e-06,0,120.53436730835048,22,3
1,X,506,0.08356663134037184,9.414240277995228e-05,0.0035824099873419113,0.00018678568227652696,0.11818106340338641,0.00013313746280579908,0.01230187151576305,2.3079059385408318e-05,0.012300337916404143,3.898005534646366e-05,1.0001246794494045,0.0036831635792507656,0.0036442571494848383,7.974789078899432e-06,0,148.403057254622,22,3
1,X,527,0.08245780909941931,9.611768557605822e-05,0.0031168586238222796,0.00017178115914255604,0.11661295195197041,0.00013593093452557437,0.012593032625348072,2.2025898853685242e-05,0.012574972215371044,4.770100293464985e-05,1.0014362186784758,0.004183143508689786,0.0036810104634475756,7.737088279848515e-06,0,149.91173171659503,22,3
1,X,548,0.08286314416874546,9.211179676041104e-05,0.003117895897854026,0.00018511843452857692,0.11718618230431688,0.00013026575223312742,0.012444388725914853,2.4140752910900963e-05,0.012466100741525526,4.713793068291682e-05,0.9982583154058471,0.004242459580181523,0.003655442096619665,8.172885445539696e-06,0,149.53833158828598,22,3
1,X,569,0.08170138681567696,8.40755728735349e-05,0.0037432967835865053,0.00015319554944568227,0.11554320929942075,0.00011890081542204056,0.01271007644800531,2.070784228482303e-05,0.012714739434860772,4.817878513931469e-05,0.9996332613122471,0.004123112868981427,0.0036811415971397797,7.093633279747645e-06,0,97.29205087968096,22,3
1,X,590,0.08326804871937847,0.00010143054260816815,0.0036066318997599375,0.00017445751833201347,0.11775880381128867,0.00014344444899533348,0.01235999774079869,2.4877137019673686e-05,0.012362153069411927,6.330091026253373e-05,0.9998256510333489,0.005500945464787733,0.003648393816774947,8.583295076268755e-06,0,119.08508670816096,22,3
1,X,611,0.0824285675526776,9.34234783640142e-05,0.003668854785593369,0.00017303083956596356,0.11657159815998352,0.0001321207501464583,0.012613209107855707,2.4040086950279137e-05,0.01253104542491789,4.682082542189399e-05,1.006556809919022,0.00422192806448233,0.0036856006892758498,8.172726240711581e-06,0,110.81347199026145,22,3
1,X,643,0.08730216520431755,0.00010616283426137705,0.002835053746627947,0.00020430926364821232,0.12346390605648239,0.00015013692003240653,0.011010819329281503,2.155034841485706e-05,0.010902063033376383,3.952367073577618e-05,1.009975753724058,0.004161014633575055,0.0034076076416552957,7.851835624807302e-06,0,50.97741723133695,22,3
1,X,664,0.08243966016025682,8.191614609429734e-05,0.003535847752528213,0.0001698044789982284,0.11658728547606412,0.00011584692478389114,0.012417826745264059,2.0486633961342684e-05,0.012398615247046715,4.111419187026038e-05,1.0015494874092428,0.003709496811950233,0.0036289979349534134,6.989096738135518e-06,0,74.03774554361813,22,3
1,X,685,0.08422120060700872,9.913994379061852e-05,0.0031096116596741343,0.00018396067477929003,0.11910676413777688,0.00014020505308159903,0.012033847049705265,2.4501370116501257e-05,0.012021849073275373,4.914424217302487e-05,1.0009980142286568,0.004571445432189315,0.0035927818449753355,8.449611705996105e-06,0,147.30305136653394,22,3
1,X,706,0.08413584239629264,9.123801829151332e-05,0.0035387724336870484,0.00017656645219925232,0.11898604939852231,0.00012903004287190267,0.01133909478061684,1.8473126912450378e-05,0.011278293943256586,3.527988976253027e-05,1.005390960518156,0.0035459519739368065,0.0033819280582228217,6.618644380152703e-06,0,66.1421010199228,22,3
1,X,727,0.08317129890956328,8.803890734119035e-05,0.0034230910992241194,0.0001660304155421222,0.11762197891809101,0.00012450581677841965,0.012368680760836647,2.442793480825975e-05,0.012314556805382097,4.983722668977219e-05,1.0043951200445067,0.004523003067338128,0.0036467147734549855,8.17143541182186e-06,0,148.21896229123078,22,3
1,X,748,0.08201744476580335,8.019677033448234e-05,0.0033702749804004795,0.0001639409724537293,0.11599018273898531,0.00011341536026554522,0.012708259307001717,2.3820990798942977e-05,0.012686517264173705,4.6731866158471177e-05,1.0017137912931715,0.004140164459111745,0.003694853595939505,7.811497783598023e-06,0,138.06419422205002,22,3
1,X,769,0.0838215915264357,9.812563871473614e-05,0.0030736533316113083,0.0001827003723732717,0.11854163155638309,0.0001387706090869023,0.012225347276445411,2.36094231178612e-05,0.012322234743792272,4.6454208901689864e-05,0.9921371837689043,0.004202494904156939,0.003632637310427373,8.20356878484726e-06,0,205.95946871214701,22,3
1,X,790,0.08279693975561886,8.726289105782114e-05,0.0037217089686509665,0.00017761639962392224,0.1170925551253843,0.00012340836402585653,0.012565476932519906,2.2646003034410583e-05,0.01255842884341107,4.1870664310422126e-05,1.0005612237961228,0.003792124713983987,0.0036880618392147436,7.699887946570654e-06,0,102.77949621361684,22,3
1,X,822,0.08795008005711281,9.421388506368283e-05,0.0029667486992368884,0.00018840149735199486,0.12438019602856842,0.00013323855402092022,0.010542593633020358,2.044854675960476e-05,0.010469637257681505,4.969980952601822e-05,1.0069683766059159,0.00516374582456631,0.0032869162461425087,7.283029930574668e-06,0,56.58269409995669,22,3
1,X,843,0.08298298055034327,8.483578541618647e-05,0.003680738266846743,0.00018307971980198744,0.11735565654043822,0.00011997591831014454,0.01205624668006341,2.2223530483104296e-05,0.012005149351920241,5.19795541256898e-05,1.0042562842531397,0.0047258505286799585,0.0035465499999865115,7.475556372553496e-06,0,67.80558425481198,22,3
1,X,864,0.08347736777204268,9.454424598288786e-05,0.0032274856295384196,0.00018455142666895793,0.11805482565442948,0.00013370575491333803,0.012394991309779436,2.5554636427378398e-05,0.012349517417773416,5.004974351071059e-05,1.0036822404040318,0.004563775914893903,0.003667920423455134,8.628029818851347e-06,0,141.85186952166364,22,3
1,X,885,0.08210811667183783,8.656033996092047e-05,0.003707145950017964,0.00016491648866687772,0.1161184121782255,0.00012241480673635952,0.01277598436031659,2.3421956160982904e-05,0.012754303124427012,5.15940257145477e-05,1.0016999153680184,0.004448806411503135,0.0037186507693318846,7.864136220415107e-06,0,73.41820926006999,22,3
1,X,906,0.08321650864177185,9.53177341432212e-05,0.0034903847328135455,0.00018368170068826334,0.11768591513453164,0.00013479963236001646,0.012401348486700898,2.4171580675572346e-05,0.012393035326762412,4.812270579739429e-05,1.0006707928864313,0.004347688262807973,0.0036583338424071256,8.270593813872803e-06,0,164.56744164341643,22,3
1,X,927,0.08236568763329533,9.37544185303646e-05,0.0037558178252897994,0.00018034349026011006,0.11648267252519218,0.00013258877021804505,0.01263729453025393,2.3090945671850568e-05,0.012636748825729675,3.55512132492594e-05,1.0000431839337618,0.0033547611638797404,0.003689821592463841,7.94327207008543e-06,0,135.15629184744407,22,3
1,X,948,0.08370313934652769,8.88230236214512e-05,0.003353170634114091,0.0001604052867875333,0.1183741148770645,0.00012561472465644208,0.012235807030208852,2.4699306528023977e-05,0.012222324652699804,5.449698644033129e-05,1.0011030943697008,0.004899859261403501,0.0036306074792325635,8.279740931765191e-06,0,211.4580886846312,22,3
1,X,969,0.08245250627928116,9.354973451349227e-05,0.003635479815474626,0.00015717242830558245,0.11660545263181221,0.0001322993033053832,0.012669218990513766,2.048372228881353e-05,0.01258652711311487,5.4740823124529746e-05,1.0065698724243586,0.004670448398453836,0.00370304198741203,7.314204567597502e-06,0,118.32212623863997,22,3
1,X,1018,0.08311691985656446,8.958609243312606e-05,0.0025230537326622732,0.00017261919834276384,0.11754507532383107,0.00012669386691893658,0.012511223722334732,2.0958295169884186e-05,0.012476005216147494,3.4397726357895505e-05,1.002822899283631,0.003235222036187295,0.003686329594735672,7.34299975097705e-06,0,91.71721192185468,22,3
1,X,1039,0.08218799508992981,8.624628254639539e-05,0.0025698701196475615,0.0001822912753625931,0.1162313773204321,0.00012197066248137434,0.012878595968501258,2.155417634632672e-05,0.012901972664785159,3.641796548475452e-05,0.9981881300719458,0.0032755978026506143,0.003752164212492153,7.412092872197064e-06,0,140.81964298946963,22,3
1,X,1060,0.08310811184609769,9.248109107743567e-05,0.0026126188204628176,0.00018109907247457362,0.11753261891597144,0.00013078801326477096,0.012650048072118487,2.708877200544877e-05,0.012688634964045863,5.3928481986723695e-05,0.99695894065542,0.004744652640666072,0.0037268380724974717,8.993857695731651e-06,0,187.33374188751415,22,3
1,X,1081,0.08204563030735962,7.252261593256542e-05,0.0025782695777355805,0.0001425153234024422,0.11603004311411702,0.00010256246703060912,0.012553752837762942,1.8681748279626757e-05,0.01243714721264432,4.040081714286724e-05,1.009375592579629,0.0036065455440925883,0.0036511860350923386,6.319711463997517e-06,0,120.39628972258167,22,3
1,X,1102,0.0835089601296888,9.161218655156685e-05,0.0027422485980050154,0.0001897332959769376,0.11809950399507996,0.00012955919669987992,0.012521710005350706,2.9910141250295836e-05,0.012518728667464092,4.090520172366223e-05,1.0002381502120388,0.004048481567983957,0.0037068212958378563,9.743507521473201e-06,0,167.7354425274702,22,3
1,X,1123,0.08248734595374278,9.510673613318041e-05,0.0032367964713474686,0.0001843896207457006,0.11665472337194449,0.00013450123611258302,0.012965033477873013,2.6418348956726372e-05,0.012918283826857549,5.701467965797913e-05,1.003618874739249,0.004878757758133798,0.003791105801940576,8.875917408883621e-06,0,219.19618065916723,22,3
1,X,1144,0.08324764387498451,9.469764034679518e-05,0.0030692778357212422,0.0001908361389008637,0.11772994700360861,0.00013392268730316736,0.012630756315965108,2.572321200917696e-05,0.012579083785996774,5.317346903106028e-05,1.0041078134820802,0.004711417866020372,0.003727402044721271,8.694959971294598e-06,0,132.12686323166284,22,3
1,X,1165,0.08412775257097183,8.557504400397758e-05,0.0029858349743058896,0.00017298125988966472,0.11897460865783638,0.0001210213878310995,0.012514378826618117,2.2372560886716953e-05,0.012455393918649879,4.0440132986954476e-05,1.004735691890075,0.0037239974788371272,0.0037321021025763837,7.676478919903846e-06,0,67.81813336171291,22,3
1,X,1197,0.08341423818959527,9.141655174354277e-05,0.002909131698925848,0.00017540119390254498,0.11796554694274541,0.00012928252730110001,0.012486536065575362,2.4527558347198175e-05,0.01241727697487483,4.8707087424253966e-05,1.0055776391909974,0.004411353731958851,0.003692215963957838,8.305128797048968e-06,0,107.84225109156091,22,3
1,X,1218,0.08167413010571513,8.19837840627736e-05,0.002881065868381498,0.00016541966849070375,0.11550466249052704,0.00011594257931624163,0.013028642152952049,2.3084292008937536e-05,0.012910402747661788,5.078996831863027e-05,1.009158459856078,0.004354134707111931,0.0037721469709159853,7.68158753866361e-06,0,106.7863366711014,22,3
1,X,1239,0.08353647029224577,9.764981948711506e-05,0.0029044208403025706,0.00018297565740390122,0.11813840924007113,0.00013809769908196268,0.012593022211905093,2.31534362885159e-05,0.012479331867435222,5.170471630454908e-05,1.0091102909737135,0.004574149026705103,0.003729160043258245,8.124831365115975e-06,0,152.63859256863185,22,3
1,X,1260,0.0814558305078413,8.756817348230473e-05,0.0029409017962125188,0.00018087888945385777,0.11519594023855328,0.00012384009857091538,0.012913695257433066,2.5760675144647238e-05,0.012891475822055496,4.312568065844545e-05,1.0017235757708636,0.003901620584728532,0.003728873424088459,8.449885519969041e-06,0,122.2021362351229,22,3
1,X,1281,0.08281178801401076,8.948444595190144e-05,0.0023629669082127678,0.00018173910661194571,0.11711355373377974,0.00012655011708662123,0.012651180687023013,2.2597077605366836e-05,0.01259940241810641,3.8742657480139e-05,1.0041095813276186,0.003570701585300157,0.003713882438568688,7.75305766081003e-06,0,126.35473931643277,22,3
1,X,1302,0.08112947281133619,8.726128698444015e-05,0.0029226749635720877,0.00016774999825727466,0.11473440075797092,0.0001234060955235261,0.013249178794740126,2.1784879096125942e-05,0.013220758240306649,5.6987636018285234e-05,1.0021496917133565,0.004623339072650842,0.003810417356666477,7.486680884238754e-06,0,124.29986221521,22,3
1,X,1323,0.08389806863313766,0.0001038741798425993,0.0026707614829325865,0.00020003521262575613,0.11864978651789204,0.0001469002739137859,0.012487424768822848,2.7632909222227092e-05,0.01253798557016544,5.135498033687286e-05,0.9959673903706745,0.004636713639982684,0.0037138963598648627,9.417225307439228e-06,0,149.9766635213419,22,3
1,X,1344,0.08407103211981685,8.53938972139104e-05,0.0025823920525474844,0.00017926257690599335,0.1188943938265491,0.00012076520758380616,0.012489110966910228,2.3040139406437257e-05,0.01244278647660805,4.427324748656588e-05,1.0037229996986017,0.004022883120692593,0.00372205542202532,7.838503809268801e-06,0,76.15903070232837,22,3
1,X,1376,0.08515419162026437,9.457909101067391e-05,0.001482358220777096,0.00018396891187491974,0.12042621268229525,0.00013375503322421434,0.012046498094533216,2.2227144646172504e-05,0.01201542862405948,5.022520988833367e-05,1.0025857979307973,0.004580987749683741,0.003636401085764465,7.831402552045276e-06,0,176.81131356876057,22,3
1,X,1397,0.08631829934513345,9.795598480854143e-05,0.0014209108793602281,0.00018628339303572824,0.12207250961486837,0.00013853068223185216,0.011103428668247105,2.0390315620620056e-05,0.011044865862309204,3.375837808900811e-05,1.0053022650223167,0.003584633497661434,0.003397542625711958,7.3344290817545e-06,0,89.18108406410992,22,3
1,X,1418,0.08433123975003463,9.128945714565439e-05,0.0016118179848906044,0.00016898681520808697,0.11926238298623604,0.0001291027883970619,0.012346583899809442,2.1366598510673956e-05,0.012217302308844543,4.0188713109876286e-05,1.0105818443136425,0.003756268852072721,0.003690967565907264,7.534180204044377e-06,0,189.50347568582222,22,3
1,X,1439,0.08641320942268668,9.530967897148798e-05,0.0016356527130200647,0.00016965285336710087,0.12220673273375005,0.0001347882406269041,0.010517450767597119,1.998133542374449e-05,0.010432580721654672,5.254525757185934e-05,1.0081350960233917,0.005426837685159498,0.003221777580713652,7.077539691180302e-06,0,69.88351131916701,22,3
1,X,1460,0.08444582832502896,8.599294146746204e-05,0.0007005667298267966,0.0001739774937878167,0.11942443570308603,0.00012161238409164055,0.012275532622287958,2.2095841138227383e-05,0.012230326181632457,3.6961600335252315e-05,1.00369625797253,0.003530560302801677,0.0036747134319691887,7.599590546222056e-06,0,227.54041422288915,22,3
1,X,1481,0.08364794246097187,9.356620341112306e-05,0.0017332386883473128,0.0001856791458652014,0.11829605469291071,0.00013232259384377,0.012543885224266705,2.1182309402668127e-05,0.012544691166275906,4.347151626628136e-05,0.9999357543363548,0.00385463024780912,0.0037195659759559534,7.534083392289788e-06,0,134.33576087824116,22,3
1,X,1502,0.08465509918946032,9.908934133042177e-05,0.0016290640903827943,0.00017429566512110756,0.11972038939777441,0.00014013349039609935,0.012202909629185035,2.2674380951317217e-05,0.012230895656809007,3.8770029384580066e-05,0.9977118578713088,0.003665894339654156,0.0036620262237480224,8.042019766208962e-06,0,199.46234230413472,22,3
1,X,1523,0.08761403120433969,0.00010315913173156804,0.002631775584552504,0.00020934618896453901,0.12390495118335676,0.00014588904317741624,0.010255872950870748,1.937960279262659e-05,0.010210040053759703,3.926381878649281e-05,1.0044890026747904,0.004304013629368631,0.0031853064960717195,7.091841126268718e-06,0,40.83720442896532,22,3
1,X,1555,0.08731193752291107,9.768417742295878e-05,0.0011581364892122113,0.00018301000771789604,0.12347772620197317,0.00013814628854080802,0.010281605033047574,2.008705409088678e-05,0.010240982195728984,3.785996806648214e-05,1.0039666934813667,0.00419797685948294,0.0031822879487980143,7.164461551878513e-06,0,111.67669597959106,22,3
1,X,1576,0.08629343068399968,9.270487374647072e-05,0.0013934298441637201,0.00017853511550836683,0.12203734001701494,0.0001311044897503444,0.010860845846232516,2.0161873689760566e-05,0.01085294114564334,5.243417222799645e-05,1.0007283463978194,0.0051794755076990575,0.0033223571491980217,7.125870536806528e-06,0,165.66542724133768,22,3
1,X,1597,0.08785630910322634,0.00010776134055296796,0.0015063367699685447,0.00020968284790420273,0.1242475838738255,0.0001523975493095131,0.009982601692088741,2.1174784818742876e-05,0.009979377428961846,4.29215907686742e-05,1.0003230926127253,0.004797194063397934,0.003109006495297343,7.617900682468075e-06,0,43.78059168954608,22,3
1,X,1618,0.08633811521263526,9.919792809212655e-05,0.00135446042285773,0.00019309621747562295,0.12210053348343963,0.00014028705526719643,0.010665577856217516,2.0826915355999247e-05,0.010599758667257632,4.1077947772414756e-05,1.0062094988221948,0.004366484332510318,0.0032643136867892687,7.3958177012832895e-06,0,85.87976424358094,22,3
1,X,1639,0.08448805008671721,8.622397620809658e-05,0.0017616168513026281,0.00017280098088956402,0.11948414629109283,0.00012193911655522527,0.012032811268772604,2.1503940696475597e-05,0.011976735050691427,5.1870972811747075e-05,1.0046820955664324,0.004707139372409037,0.003603855125318958,7.416653453694854e-06,0,117.83825076185816,22,3
1,X,1660,0.08494187445383115,0.00010045714933884624,0.0018899463634731834,0.00019379824745340005,0.12012595086600075,0.00014206786303233576,0.011267991558566868,2.05963946348322e-05,0.011265320757268113,4.6903565007202816e-05,1.000237081691352,0.004548179168202737,0.0033929173888535623,7.38673118006306e-06,0,74.65417579175434,22,3
1,X,1681,0.08474774625679853,8.795917348639363e-05,0.001636875280056902,0.00018258134480184042,0.11985141213691819,0.00012439305607958584,0.012123960975872424,2.087841717336269e-05,0.012030378610017663,4.497978792796116e-05,1.0077788379641548,0.004148397588106134,0.0036423159816228404,7.323482513941871e-06,0,150.33114819776077,22,3
1,X,1702,0.08368871393961093,8.429605555481972e-05,0.0025708965761312595,0.00016566691166714645,0.11835371427096009,0.00011921262502018193,0.012591887105299673,2.3269999232204806e-05,0.012531400875734717,4.193818762734802e-05,1.0048267731728284,0.0038414375256454925,0.0037356196166854626,7.862327718416132e-06,0,75.1209985151249,22,3
1,X,1734,0.0848791963208766,9.840989139678137e-05,0.0015333442973364012,0.0001768388238966297,0.1200373106003122,0.00013917260308499158,0.012060094878119886,1.9991290106208796e-05,0.011999020794823024,4.9503270292946333e-05,1.0050899222812593,0.004468799782925836,0.003628748883917274,7.340487387114208e-06,0,131.752874359011,22,3
1,X,1755,0.08746216187932818,9.869616954657488e-05,0.0017078851070728106,0.00020552653108754656,0.12369017552421702,0.00013957746152704065,0.010204468976124608,1.894816882477463e-05,0.01016735901893148,3.293443115096929e-05,1.0036499111641508,0.0037473274244333482,0.003163847555887553,6.874567137228732e-06,0,61.65387121506265,22,3
1,X,1776,0.0844937123653003,9.197661645936026e-05,0.0015924715880955222,0.00018915054654849016,0.11949215396225898,0.00013007457841801573,0.01220194283478823,2.568171412000766e-05,0.012223578355456476,5.7440593550595974e-05,0.9982300174270501,0.005139866706680897,0.0036547553455253214,8.660171587408882e-06,0,218.9978688028912,22,3
1,X,1797,0.0833832240040118,8.381390235342605e-05,0.0016388263595943186,0.00015996164441349543,0.1179216862608673,0.0001185307574236294,0.012588349400763813,2.1736477302064835e-05,0.012546703907641742,4.5674391667039306e-05,1.0033192377399378,0.004042478638145178,0.003720937743388194,7.434334446347019e-06,0,145.3458049648267,22,3
1,X,1818,0.08632902104939667,8.826213453840136e-05,0.0012987435022207283,0.00018282428937192453,0.12208767239444918,0.000124821507708206,0.010552667582419456,2.00061002031987e-05,0.010494612957466558,3.894480003938881e-05,1.0055318500251689,0.00419020991382769,0.0032294160984730857,6.95597837629719e-06,0,100.07209019479045,22,3
1,X,1839,0.08825432468682651,9.690759420667934e-05,0.0015577420399891335,0.00019963947191435456,0.12481046291018871,0.00013704803402403432,0.009624874564239298,1.875920240148092e-05,0.009543625218301198,3.376764500494222e-05,1.008513467794428,0.004073930063812817,0.003011175071758309,6.73618337754893e-06,0,39.37448639111658,22,3
1,X,1860,0.08568462491689365,9.327115615815349e-05,0.0016930515142746148,0.00018237528224294966,0.12117635864432263,0.0001319053340170795,0.011392991172115247,2.149099608215723e-05,0.01141000355039365,5.2545684888714324e-05,0.9985089944798645,0.004969164837742605,0.0034605536994340618,7.53668459680196e-06,0,105.15740594242682,22,3
1,X,1881,0.08496228790590846,8.624928955705172e-05,0.0028873057163579866,0.00017397372621057058,0.12015481984678333,0.00012197491503662672,0.011401788166412874,2.0870302072464564e-05,0.01126195291240623,4.076541784881302e-05,1.012416607944844,0.004106604567030599,0.0034340301100399613,7.187745808095613e-06,0,51.680195671378016,22,3
1,X,1916,0.08698808346973817,9.413106314907574e-05,0.002476427804080715,0.00019109782879106748,0.12301972740774658,0.00013312142614602118,0.010970927938145324,1.9621948535818894e-05,0.010917195872208366,3.821535715588871e-05,1.0049217827147119,0.00395027495021898,0.003383047199215393,7.071983797972814e-06,0,56.036014800158505,22,3
1,X,1937,0.08722938215842829,0.00010091104692162461,0.0030823817816204454,0.00020365983975743898,0.12336097528587497,0.0001427097711498293,0.010190854474602162,2.1652927052378825e-05,0.010141788965001083,4.556901936603621e-05,1.0048379541095167,0.004994288421437181,0.0031512171277467606,7.623613936963399e-06,0,43.88209417546246,22,3
1,X,1958,0.08530975319299136,9.438351111525976e-05,0.0029622650064058745,0.0001918809934509628,0.12064620996822983,0.00013347844148359211,0.01218312324716059,2.273598278071889e-05,0.01216040466708064,4.9638213517234914e-05,1.0018682421105154,0.004496703661434931,0.003684361667223477,7.993189162294784e-06,0,76.98460590796994,22,3
1,X,1979,0.084892397006074,8.900447264489611e-05,0.0026078981832694846,0.00018227589842081365,0.12005597918835098,0.00012587133232627723,0.01203678095072572,2.0714631054464596e-05,0.012026448725901508,4.7894321663380453e-05,1.000859125171503,0.004342077886281927,0.003622297245258031,7.299511706158688e-06,0,71.90644846112745,22,3
1,X,2000,0.08470533790973171,8.921889792753139e-05,0.0029110447947827173,0.00016400613402658298,0.11979143767733846,0.00012617457546909572,0.01224823093460729,2.3621960575308368e-05,0.012176683689291213,5.09900730529049e-05,1.0058757578944912,0.004637382426332841,0.0036778082062003193,8.081907341677687e-06,0,64.12976549293836,22,3
1,X,2021,0.08396012965295716,7.722213265953994e-05,0.00289696753504102,0.0001677136981546553,0.11873755405381548,0.00010920858732249572,0.012361105860292652,1.8477458821147623e-05,0.012301577479382592,3.623907390531473e-05,1.0048390851506508,0.003319423840002003,0.003679047188918016,6.45710158774339e-06,0,62.88990181448112,22,3
1,X,2042,0.08642707036909662,8.927234904769085e-05,0.002523548078265739,0.00017245574997514572,0.1222263350721503,0.00012625016676814926,0.011349930736808294,1.7175764568650623e-05,0.01125354196756167,2.826581355931302e-05,1.0085651939206755,0.002957491058337993,0.0034773462363701033,6.371215908494627e-06,0,104.19731824631246,22,3
1,X,2063,0.08395480226841828,7.733616951107517e-05,0.00275146464323453,0.00015319072703479547,0.11873001999434862,0.00010936985978454716,0.012538207308937262,2.1714993353282425e-05,0.012538874841773292,3.747633421653394e-05,0.9999467629397013,0.0034541600531303555,0.0037315212691556646,7.3199106777096794e-06,0,86.76378062029488,22,3
1,X,2095,0.08527327683293376,8.777241988771726e-05,0.0032370991130933166,0.00018127160551595432,0.12059462460513037,0.00012412894660751572,0.012159812864622125,2.2048243000937656e-05,0.012125764475743801,4.5397691412583754e-05,1.0028079375074812,0.004171551837428238,0.003675739924588033,7.663886058010076e-06,0,96.6032494037708,22,3
1,X,2116,0.0845617485609606,9.211226251675947e-05,0.0022889534999288564,0.000178117956355246,0.11958837167289404,0.00013026641091207214,0.012314172163107361,2.571171608695805e-05,0.012235385408105485,4.407250839246692e-05,1.0064392540466836,0.004190274198630452,0.0036913405016983005,8.693246537076142e-06,0,75.09189050681107,22,3
1,X,2137,0.08509324586201328,9.202170221129232e-05,0.0029897850623230144,0.00017949698068636476,0.12034002236440744,0.00013013833929986784,0.012188432993056856,2.3260025023783763e-05,0.012246896913156995,5.887425445343082e-05,0.9952262258338004,0.005147523822191301,0.0036766128109951917,8.064568530022339e-06,0,115.93826696365721,22,3
1,X,2158,0.08443168433444068,9.786729101328823e-05,0.002799110129697781,0.00017435793518030538,0.11940443307977,0.00013840525026370676,0.012266630199096894,2.171153071387731e-05,0.012133382857798176,5.19935752623072e-05,1.010981878908822,0.004687233183060068,0.0036714334295390233,7.767806901206015e-06,0,84.12713077747551,22,3
1,X,2179,0.08487361138658867,8.402575115947678e-05,0.0027861836779222884,0.00016420302944543098,0.12002941231049724,0.00011883035687831889,0.012195977649501947,2.0298792278966775e-05,0.012153739801522657,4.1322352241403676e-05,1.0034752963835871,0.0037986506064074223,0.0036693930469055922,7.106028698202992e-06,0,116.11265190743144,22,3
1,X,2200,0.08421034205604683,9.686968960056014e-05,0.00224391197632928,0.0001644753717162569,0.11909140782773886,0.00013699442881598412,0.01218697990921228,2.1903637972738443e-05,0.01214216532025109,3.671637788789968e-05,1.0036908234881672,0.0035306663334173346,0.0036380315295135796,7.763205007613955e-06,0,76.49179125047918,22,3
1,X,2221,0.08504159140628847,8.247735576667585e-05,0.0024615572203656264,0.0001763898530079761,0.12026697193256441,0.00011664059511390379,0.012167426032000389,1.913304739761304e-05,0.012121094050820604,3.097266974369334e-05,1.0038224256808443,0.0030118189793178107,0.003668048128690872,6.776762874170143e-06,0,102.58642003524005,22,3
1,X,2242,0.08391430822322313,8.406059765098154e-05,0.0025633494074869395,0.00018144601142982221,0.1186727527664383,0.00011887963725920603,0.012600517474698472,2.079109704198042e-05,0.01252124321662076,3.0391347497514817e-05,1.006331181074135,0.0029535058213807025,0.0037482567490700765,7.235255422911354e-06,0,71.58142260422109,22,3
1,X,2274,0.0848854166559464,8.548302586727002e-05,0.00291815670594358,0.00017130501086569963,0.12004610748253042,0.00012089125453418337,0.012193209475583834,2.0239682388384487e-05,0.012149028006892779,4.192897958750425e-05,1.0036366257996927,0.0038435798971872457,0.0036690704574858807,7.123522089699404e-06,0,63.99562192847451,22,3
1,X,2295,0.08623227888328457,9.999754447959737e-05,0.002532324598647873,0.00018390539001215036,0.1219508583110801,0.00014141788360705343,0.01105027108970572,2.20088687617015e-05,0.010975385659772584,4.9210319634711756e-05,1.0068230340376656,0.00493963802684211,0.003377907306800684,7.785051628444191e-06,0,55.4779832257641,22,3
1,X,2316,0.08475396697105116,8.377792299134323e-05,0.0030128418276818354,0.00015326469293113873,0.1198602095553819,0.00011847987492180634,0.012265145104877384,2.462202246909125e-05,0.012210360952971355,5.1930463741520844e-05,1.004486693891936,0.004724061626803846,0.003685001401752879,8.24573929705972e-06,0,107.96400597558346,22,3
1,X,2337,0.0866085960677783,9.389185287440139e-05,0.0026485146746469644,0.00018707490014461994,0.1224830511771452,0.00013278313173131773,0.010855983422187887,2.0099184398365533e-05,0.010843458951462269,4.642888366770914e-05,1.0011550254196266,0.004670270777386003,0.0033329983769584516,7.1508808111947e-06,0,52.303307805205556,22,3
1,X,2358,0.08733598344746261,9.163304644513204e-05,0.0026957206654612403,0.00017961157993690203,0.12351173227459378,0.00012958869704426945,0.01037998269213487,1.830947104069695e-05,0.01034365687427235,3.851677837609897e-05,1.0035118931635167,0.004134838465854172,0.0032136218853409727,6.595556058531535e-06,0,82.36880121306447,22,3
1,X,2379,0.08604317722865788,9.281947504526354e-05,0.002782341576035471,0.00018077266644659788,0.12168342818643985,0.00013126656046136276,0.011081571690591175,1.7405405115181056e-05,0.011058009958536048,3.0854264465332446e-05,1.0021307389072243,0.003208743614669842,0.0033800469372363205,6.44046732264419e-06,0,49.93060128811324,22,3
1,X,2400,0.0846956364903832,9.088608128989984e-05,0.0028391114490966237,0.00017175855184714179,0.11977771779852153,0.00012853232879111998,0.0122612372110963,2.3999706869061587e-05,0.012221659175653588,4.293884429442629e-05,1.0032383520824697,0.00403481870382811,0.003681291962971768,8.217446698686498e-06,0,83.3638048237209,22,3
1,X,2421,0.08379643001626555,8.604251902193723e-05,0.002218075521793427,0.00016086163955730744,0.11850604780745067,0.00012168249734156866,0.012665055567644813,2.04273351642631e-05,0.012544678559557376,5.031024546585331e-05,1.0095958623025638,0.004364141189179505,0.003762162483938981,7.1932499784041455e-06,0,90.1479782312417,22,3
1,X,2453,0.08673601893210335,8.788114274856906e-05,0.002789040808257643,0.0001675661008617746,0.12266325432003011,0.00012428270395187235,0.011030951377688489,2.0723002891361634e-05,0.010981008045834136,4.348519242284881e-05,1.0045481554740596,0.004402983339054687,0.0033916996535733202,7.239356134116573e-06,0,51.573611606218556,22,3
1,X,2474,0.08403931884464415,8.650375388856928e-05,0.002704935852604932,0.00017119819562268825,0.11884954448269258,0.00012233478194539904,0.01237861428348413,2.162897772157135e-05,0.012367122936750411,4.3083299911269804e-05,1.0009291851300006,0.0039009470236949346,0.0036877331413423114,7.478480409805304e-06,0,109.68831779020977,22,3
1,X,2495,0.08667041426075096,8.433450643575014e-05,0.002780268441039159,0.00018401330513886062,0.12257047530404852,0.00011926700277747893,0.011371309563296947,1.9480687334964118e-05,0.011331051924155058,3.9512694697256626e-05,1.0035528598237264,0.0038990115355918933,0.0034937054468137385,6.883295324574636e-06,0,70.37493544058796,22,3
1,X,2516,0.08413804694361529,8.739715325476464e-05,0.002854331279487548,0.00016819089547451908,0.1189891670992449,0.00012359823944568804,0.012261799858894678,2.0221883053534522e-05,0.012161241865933226,4.9280384755823694e-05,1.0082687273281803,0.00441116255209919,0.0036572241750846435,7.128076209702797e-06,0,83.99901621371164,22,3
1,X,2537,0.08470577477148414,9.2573208081099e-05,0.002670962612424648,0.00017742931192378088,0.11979205549315364,0.00013091828638067682,0.01227883007937635,2.269771603044666e-05,0.012264374591781566,4.720706074115339e-05,1.0011786567253476,0.004275018089920073,0.0036870153065239595,7.917583453400303e-06,0,69.74762398736617,22,3
1,X,2558,0.08312486448077135,8.478366322915319e-05,0.002739165469899275,0.00016657513320628384,0.11755631071913242,0.00011990220640634153,0.012792302083653844,2.181832493169909e-05,0.012732816620412816,4.403497488627874e-05,1.004671822819286,0.0038741055006777233,0.0037695073007699576,7.491103137896626e-06,0,60.76019329019072,22,3
1,X,2579,0.0844827018934058,9.225475546926839e-05,0.002661095492404795,0.0001797850744700112,0.11947658280357765,0.00013046792637805282,0.012219704233902087,2.5864008832659842e-05,0.012134682509857839,5.261155137230681e-05,1.0070065058542057,0.0048584958434678945,0.0036595983340445854,8.715973364315918e-06,0,145.96152338486405,22,3
1,X,2600,0.08334251969750478,8.277942475397094e-05,0.0024706262207120112,0.00015313795714690985,0.11786412167855809,0.00011706778517250882,0.012724037558377843,2.4226606271906513e-05,0.012670245306847959,5.172761549419069e-05,1.004245557226963,0.00452388901789318,0.0037592092508072087,8.072905550919393e-06,0,109.51812308523667,22,3
1,X,2632,0.08731280040153336,9.06054993847147e-05,0.002566727433080229,0.00017006837754940794,0.1234789464966235,0.00012813552605545064,0.01094282478471035,2.0869235956268534e-05,0.010831461611010977,4.551009015663095e-05,1.0102814539439595,0.0046616597427826985,0.003386977371146351,7.353670419268219e-06,0,74.99159240111794,22,3
1,X,2653,0.08521642702914792,8.842361990139296e-05,0.0029241118755064834,0.00017655077470481374,0.12051422684159818,0.00012504988249867344,0.012017364023092442,2.1026282979247617e-05,0.011942887596557645,3.863739095277644e-05,1.006236048521152,0.0037009376068895257,0.003630257821907769,7.384691297195881e-06,0,70.8780177367272,22,3
1,X,2674,0.0882022696259157,9.907005708096596e-05,0.002934909383985926,0.0001863653968198169,0.12473684593705847,0.00014010621834897874,0.011112089235650999,2.0440109461310964e-05,0.011076156910419388,3.8036905350876936e-05,1.0032441148606164,0.003908377170724837,0.0034744047726189987,7.48827265079431e-06,0,265.7693441389732,22,3
1,X,2695,0.0813604057775676,8.522787902931768e-05,0.003679582125358608,0.0001590438421141233,0.11506098929081443,0.00012053042241555456,0.012907835270002901,2.3128994201073318e-05,0.012857846061326802,4.211939384696855e-05,1.0038878369236706,0.0037483408888070494,0.003722814975326608,7.727043976613188e-06,0,77.44644238980892,22,3
1,X,2716,0.08794975193615581,9.815883966652182e-05,0.0024722422089994366,0.000187902331472812,0.12437973199546093,0.0001388175623232013,0.011137698789521484,2.1684469665158152e-05,0.011190064423498321,3.903552199454961e-05,0.9953203456213466,0.003976250153202775,0.0034724421515134967,7.792689637938955e-06,0,217.97148389108207,22,3
1,X,2737,0.08109231496958035,8.055392194601069e-05,0.0035866758644112406,0.0001595561520675731,0.1146818516342113,0.00011392044891839204,0.0128717401818278,2.483105882637523e-05,0.012840274802515936,4.822049909976066e-05,1.002450522266525,0.0042322634844911755,0.003700171855239614,8.02881683496145e-06,0,113.00891151255276,22,3
1,X,2758,0.08489078598906313,8.613105878601743e-05,0.0024306643348235278,0.00016979729169402878,0.120053700866245,0.00012180771147674019,0.012269076069755564,2.1668229214310414e-05,0.0121955680999772,4.5176212017437e-05,1.0060274330130223,0.004128513614423902,0.0036921330747432847,7.5200780094615774e-06,0,117.04015386710515,22,3
1,X,2779,0.08382778136648718,8.096798642285049e-05,0.002443646964989829,0.0001656792791652043,0.1185503853121328,0.0001145060245172358,0.012631135642274019,2.311561327802253e-05,0.01254026713031354,5.6761671540604795e-05,1.007246138460705,0.0049176880514826835,0.003753490344053343,7.767111285667983e-06,0,67.51826638531881,22,3
1,X,2818,0.08313470327210787,8.771266780046514e-05,0.003489932388789051,0.0001844404424313908,0.11757022487127788,0.00012404444439534368,0.01234220233116578,2.5414300202531038e-05,0.012378539064272649,3.935298565355371e-05,0.9970645378329221,0.0037766138271394037,0.003637306885652323,8.415643560879099e-06,0,155.06549484558292,22,3
1,X,2839,0.08174224470138192,8.450164947559894e-05,0.0035812719380548374,0.00016244413708888026,0.11560099107551458,0.00011950337873128936,0.01272547705018705,2.2608062211000533e-05,0.012727986016645392,3.7764637410018714e-05,0.99980287796867,0.0034576009038210283,0.003687445104665461,7.579432167005653e-06,0,110.20996854460398,22,3
1,X,2860,0.0832347997074846,8.522411351484502e-05,0.0033709069003177773,0.00016083227305524524,0.11771178260773285,0.00012052509717391802,0.012413517087001134,2.229756775063092e-05,0.01244610077643492,4.803785031514246e-05,0.9973820162620346,0.00424602643922017,0.0036627284109172777,7.572928048386809e-06,0,191.59647857019854,22,3
1,X,2881,0.08178425881019294,9.007420362767178e-05,0.0032722900530034807,0.00016879869420587565,0.11566040799800614,0.00012738416039020928,0.012819627468740175,2.5038518451584716e-05,0.012857708924968845,5.12115448113658e-05,0.9970382393589018,0.004422918540951821,0.003716636256064301,8.333685540211483e-06,0,188.45824253594088,22,3
1,X,2902,0.08261162562729363,8.809760924423234e-05,0.0034260218719527314,0.000173243566273313,0.1168304813718074,0.00012458883380583874,0.012471085931592053,2.3927872699717087e-05,0.01254338483811811,4.942948908059334e-05,0.9942360927724749,0.004357688155523638,0.003652164847383377,8.016905619838156e-06,0,187.46025285966425,22,3
1,X,2923,0.08134598736997113,8.828105159700677e-05,0.0032751089909140324,0.00017140872543588452,0.11504059858324367,0.00012484826046904596,0.012904674671942614,2.2918907110332832e-05,0.012929476410798427,5.103471972297382e-05,0.9980817677322882,0.004320012098762152,0.003721243828276293,7.745202477555589e-06,0,108.87910816860703,22,3
1,X,2944,0.08511747004295345,8.658434073829042e-05,0.0028530958098938876,0.00017620816301501207,0.1203742805296304,0.0001224487489612236,0.012167140736155385,1.664882189251011e-05,0.01212792866163237,2.3374344867378795e-05,1.0032332045823344,0.0023713062299587037,0.0036712348732345647,6.259564774620718e-06,0,115.27201563691168,22,3
1,X,2965,0.08560888193924425,9.143218853868445e-05,0.003002807377291145,0.0001770833970661844,0.12106924189807633,0.00012930464106886141,0.011680700145028295,2.3211511843773537e-05,0.011663753480252064,5.12330812971972e-05,1.0014529340666298,0.00482809646923035,0.0035448073089027424,7.997062940119096e-06,0,68.97345919552724,22,3
1,X,2997,0.082916895154575,5.215117361511027e-05,0.0033445933185032198,0.00015647316270120805,0.11726219767746793,7.375289702016286e-05,0.012132109794543836,1.8433025443708163e-05,0.012156765782951858,3.8675972043702296e-05,0.9979718299383049,0.0035184678973937326,0.0035660242768478317,5.86395547466212e-06,0,145.11483729753726,22,3
1,X,3018,0.08206553952160645,9.171237651297079e-05,0.003805083427257841,0.00016097952285265373,0.11605819899492109,0.000129700886702111,0.012489019666419836,2.086492690689376e-05,0.012439368415876506,4.351026592460888e-05,1.0039914607304306,0.003891762443288784,0.0036332401976504843,7.302749019666525e-06,0,70.56923064239825,22,3
1,X,3039,0.08339097742394526,6.736104355507e-05,0.0035347622268917735,0.0001867784839701274,0.11793265125249197,9.526290137118476e-05,0.012400286171254795,1.745571467318643e-05,0.012343472798235874,4.894608297413783e-05,1.0046027057334335,0.004227159173569431,0.0036656897408671825,5.949358615696538e-06,0,135.99735720299006,22,3
1,X,3060,0.08201043439338321,9.0961672742875e-05,0.0038117167532477144,0.00017821570151247703,0.11598026857523147,0.00012863923124911691,0.012757245856035227,2.3855880137777168e-05,0.012766404826691006,4.502984336943544e-05,0.9992825724407055,0.003989389562210286,0.0037087791225698095,8.063553307692435e-06,0,180.90843009861095,22,3
1,X,3081,0.08301804695964733,9.572941459638201e-05,0.0034441914551569743,0.00017926435035830346,0.11740524793205975,0.00013538183644024038,0.012415600154672232,2.3089431710815014e-05,0.012466933542554357,4.352324015114688e-05,0.9958824367109278,0.003939248850083857,0.0036538032843193673,7.995237881628458e-06,0,154.81667200331736,22,3
1,X,3102,0.08119906895572486,8.201886937711701e-05,0.003570032387138779,0.00016401190636560967,0.11483282456925425,0.00011599219744362621,0.013008302716651227,2.4198466717384e-05,0.012982852919565604,4.092139192311667e-05,1.0019602622969925,0.0036671330288624133,0.0037443515445438843,7.925969753367609e-06,0,202.63792189963698,22,3
1,X,3123,0.0847265259648659,8.251403057020391e-05,0.002885377889003391,0.00016277113257889304,0.11982140211226955,0.00011669246111845055,0.012189394876318019,1.9294171107563314e-05,0.012140012549816386,3.077461074351303e-05,1.0040677327390721,0.0030007272193318182,0.003661056891515413,6.80397151295946e-06,0,141.76301448023645,22,3
1,X,3144,0.08304280243683126,8.937585252417286e-05,0.002947786853447912,0.00017774880888564911,0.11744025746363629,0.0001263965427883429,0.012713920308860463,2.2038041388397353e-05,0.012710471653968708,3.823428559774315e-05,1.0002713239119398,0.0034727179227653625,0.003742712035791945,7.636364786461931e-06,0,85.644090671827,22,3
2,Y,103,0.08362253065803806,9.729510888341633e-05,-0.0005694638904367226,0.00018911048497775978,0.11826011697655736,0.0001375960625354944,0.010178494837472015,1.9176061309461835e-05,0.010356827541789392,4.4558384952168045e-05,0.9827811457130273,0.004615863659902434,0.0030172534957024397,6.681097203829105e-06,0,394.02302763190664,22,3
2,Y,124,0.07287109879182203,7.64543475244555e-05,0.0004419513707184409,0.0001417957635493949,0.1030552962164244,0.00010812277517147084,0.01209025070134634,2.465894109913873e-05,0.012452057235410001,4.948319370898859e-05,0.9709440354132979,0.004336948806165722,0.0031231695124024897,7.16331331271243e-06,0,1030.2088773751839,22,3
2,Y,145,0.07388943092867184,0.00010841933320603088,-0.0001619746212185791,0.0002010634439693078,0.10449543533535777,0.00015332809144341653,0.01194545530095637,2.830245444915613e-05,0.012001503222383973,6.496659021614735e-05,0.9953299248944859,0.005881414473510326,0.003128887594206498,8.719800968560531e-06,0,391.5145741244708,22,3
2,Y,166,0.07262085425677567,8.880808990488076e-05,-7.350239457071706e-05,0.0001670116097469613,0.10270139700105207,0.00012559360519193152,0.012295907025855474,2.8011807845559233e-05,0.012540163448239956,5.6169912072022377e-05,0.9805220702750279,0.004927371388429922,0.003165387302844207,8.184477002548236e-06,0,571.5439418843337,22,3
2,Y,187,0.07387231079918571,0.00010808891503693704,4.453136729977163e-05,0.0001832901788710923,0.1044712238160489,0.00015286080958742954,0.011987915363592913,2.6229842562025357e-05,0.012046135244703339,5.194904252566846e-05,0.9951669245008664,0.004812449053364239,0.0031392816719690774,8.263147672313604e-06,0,267.89859378162805,22,3
2,Y,208,0.07831545627525667,9.940165796067156e-05,-0.000732084516713383,0.00018101464889494674,0.1107547804079051,0.00014057517281035325,0.011379378201578312,2.6404947659787502e-05,0.011544460064657069,5.203677999556892e-05,0.985700339196967,0.0049972196083813815,0.00315915508535751,8.355556929402986e-06,0,352.33399585292494,22,3
2,Y,229,0.0735144849919131,9.826449511781181e-05,-1.631595237724854e-05,0.00017790525165438568,0.10396518170643687,0.00013896698169535426,0.012023702596013945,2.357859557169477e-05,0.012120184154950654,5.8908847791253784e-05,0.99203959628804,0.005199363678013305,0.003133401713954451,7.436296443419846e-06,0,411.8515704096274,22,3
2,Y,250,0.07240413733548987,9.486074399485964e-05,-0.00068583245453857,0.00017985152717875478,0.10239491299177395,0.00013415335069433265,0.012366557539404873,2.5354113078368356e-05,0.012517843050891951,4.793462557082544e-05,0.9879144105839945,0.004291115600029476,0.0031740746605773413,7.72278853736477e-06,0,688.5051539891011,22,3
2,Y,282,0.07428005015434079,8.675033207901238e-05,-0.000272339759154437,0.00016401367282875055,0.10504785434202246,0.0001226834961665091,0.011740850734466584,2.3588646978720454e-05,0.01192283421813409,4.820902729122828e-05,0.9847365584106907,0.004446144369044432,0.0030915529348371465,7.184430221428455e-06,0,466.83267164723907,22,3
2,Y,303,0.07171875266693388,8.513615190924733e-05,-0.00033494163160764363,0.000157097102897925,0.10142563269805949,0.00012040070067831365,0.012387862000673431,2.4303353606219285e-05,0.012512384269580713,5.9161384645112966e-05,0.9900480782699416,0.0050681422089454455,0.0031494449270462422,7.221845843769122e-06,0,639.505199545476,22,3
2,Y,324,0.07355299441992898,9.670796946360581e-05,-0.0006076965174323845,0.00016465969291856074,0.10401964226181615,0.00013676572200499448,0.012090809924400044,2.4128713643267517e-05,0.012226925361631185,4.320693439015968e-05,0.9888675661946642,0.0040131368014895315,0.003152540567337651,7.534000020221961e-06,0,620.5853189943144,22,3
2,Y,345,0.07173825810026564,7.62000415501082e-05,-0.0004824042258236011,0.0001407127304740978,0.10145321754641723,0.00010776313221355638,0.01245666308728996,2.247521624643211e-05,0.012627402378980893,4.519471835023897e-05,0.9864786686472319,0.003953964342768504,0.003167797980263199,6.632478327455007e-06,0,694.380027998553,22,3
2,Y,366,0.07309132803707108,9.436169520377965e-05,0.0001236944114789385,0.0001811525115334441,0.10336674740188678,0.00013344758912570143,0.012228093580732865,2.845650007895844e-05,0.012475738654034162,6.11515942213745e-05,0.9801498668600902,0.005318310900136032,0.00316832364595294,8.43172715185416e-06,0,459.3060894646052,22,3
2,Y,387,0.07269860922998679,8.881902805467636e-05,-9.095343729403388e-05,0.0001578231454911609,0.1028113591387092,0.00012560907407171973,0.012343738344287564,2.4720839668453203e-05,0.012554959052640459,5.450320272577462e-05,0.9831763124461587,0.004700422866654951,0.003181103077748003,7.462704385008444e-06,0,623.1184902679475,22,3
2,Y,408,0.07333881989478903,8.72766941445317e-05,-2.7140873779115486e-05,0.00016901839133694896,0.10371675374364842,0.00012342788453828524,0.01215297556452307,2.4089658866455368e-05,0.012340748419909228,4.5936063944308916e-05,0.9847843219068282,0.004153023834774104,0.0031595226572873653,7.304813917269863e-06,0,782.8693534447149,22,3
2,Y,429,0.07212528553020484,9.4592391800078e-05,0.00012333704965455955,0.00017056640476355813,0.10200055698684762,0.00013377384338097986,0.01247583957513558,2.5222458816924324e-05,0.0126930900621224,5.495871035153287e-05,0.9828843499948748,0.004696765261471138,0.0031897912255925824,7.68688298068475e-06,0,573.0498107117792,22,3
2,Y,464,0.07466018412841559,8.842449613918108e-05,-3.252834741692524e-05,0.00015861937816636547,0.10558544496367783,0.00012505112168603727,0.011615304162519331,2.6464312036365377e-05,0.011776351455906529,5.050502665348151e-05,0.9863245170636935,0.004789913287960434,0.00307414660876255,7.893924313299764e-06,0,502.5289623723002,22,3
2,Y,485,0.07290520351374509,8.278596842261941e-05,-0.000426008440455781,0.00015293537647257242,0.10310352757670893,0.00011707703931745916,0.012392278042638472,2.5249740931694872e-05,0.01247550781465826,5.1146544848685335e-05,0.9933285463600933,0.004547618864371725,0.0032026878164474236,7.470565894837448e-06,0,475.11170359855043,22,3
2,Y,506,0.07312027685436014,9.421801322770972e-05,-0.00011363343521271004,0.00018133391988789133,0.10340768721191163,0.00013324439212647476,0.012293739375795181,2.4740644889998743e-05,0.012358495222475592,5.362785323223206e-05,0.9947602159069784,0.004758236767268702,0.003186594197932058,7.614768308010196e-06,0,278.3603260374943,22,3
2,Y,527,0.07243309251576859,8.017209057847909e-05,-8.622752895474898e-05,0.00013850001323513272,0.10243586180042508,0.00011338045781988937,0.01247161822726709,2.068981016312174e-05,0.012575416038933335,3.640706268453229e-05,0.9917459739427398,0.0033091805065153085,0.003202320295232879,6.386379346470475e-06,0,453.1016104834722,22,3
2,Y,548,0.07313783609641966,9.793101917402854e-05,-0.0004130491821582421,0.0001817636059721562,0.1034325197301772,0.00013849537549293078,0.012376375838695334,2.5590184062997432e-05,0.012503770431241429,4.267552219864758e-05,0.9898115057976599,0.0039498175356247065,0.003208784330494708,7.904385840414082e-06,0,361.1787559666635,22,3
2,Y,569,0.07222456282678613,8.243442713965129e-05,-0.0005510879313380605,0.00016023990567404044,0.10214095628610864,0.0001165798848673516,0.012612753650065325,2.4433071805056636e-05,0.012709609101409843,4.203874802098326e-05,0.9923793524590955,0.003803944786391061,0.0032292358631992044,7.260643601177614e-06,0,513.8620410055429,22,3
2,Y,590,0.07351590020470512,9.203528349477023e-05,0.000225690863650328,0.00017533359818606384,0.10396718311956099,0.00013015754613515673,0.012230289357939053,2.6352866643999346e-05,0.012389067971102254,4.195886858528628e-05,0.9871839743285327,0.003962655995212721,0.003187300007416063,7.942776476430118e-06,0,405.580703652692,22,3
2,Y,611,0.0725802031533827,7.807730685619394e-05,-0.0002292675901189276,0.00015278562721611044,0.10264390765930831,0.00011041798626959531,0.01245770505845336,2.5293524875182356e-05,0.012573279445770373,4.697547203634248e-05,0.9908079361621209,0.004213093725460754,0.0032052444438330644,7.364771365055122e-06,0,488.60080903124094,22,3
2,Y,643,0.07878853540710018,8.564500977799104e-05,-0.0001703372390402672,0.00018300152825532823,0.11142381533223389,0.00012112033437761127,0.010928809016121099,2.2986076122991018e-05,0.011126175418677633,5.2667281124617945e-05,0.9822610739872739,0.0050879802896238386,0.0030523954402331046,7.22670575322097e-06,0,536.3061654012287,22,3
2,Y,664,0.0734310898717422,8.175722557801919e-05,-0.0006808681037409918,0.0001573148192148242,0.10384724319645544,0.00011562217723443124,0.012375592364282734,2.280829104038196e-05,0.012458861907555945,4.7520893957358076e-05,0.9933164406274773,0.004207838775939884,0.0032214463422143976,6.936441939084253e-06,0,345.78514769474225,22,3
2,Y,685,0.07416968071814241,9.518183780523362e-05,-0.00020846422020452272,0.00018191808456164294,0.10489176838847925,0.00013460744591575757,0.01198794376832888,3.1663564768191853e-05,0.01217212510930986,4.910677031830516e-05,0.9848685961303414,0.004749116201694107,0.0031519261882605666,9.25574083650261e-06,0,266.59446437816695,22,3
2,Y,706,0.07922125209957476,9.447640447410188e-05,-0.0007231868997759047,0.00017364712947952806,0.11203576914739666,0.00013360981253152104,0.011259172536093607,2.1808508895886624e-05,0.011367828153117947,4.5751042297321986e-05,0.9904418314949159,0.004423767909966933,0.0031619362424438625,7.192277501014727e-06,0,302.92066713922776,22,3
2,Y,727,0.07322051603504837,8.695871702774426e-05,-0.0004230919159061381,0.0001694674808425289,0.10354944682072209,0.00012297819698720014,0.01226104572168058,2.681740861002267e-05,0.012312083599046545,5.1994942369173856e-05,0.9958546514929514,0.004736153811800594,0.00318247667468601,7.920673076085744e-06,0,348.4064917538825,22,3
2,Y,748,0.07207297447765329,8.576440071095052e-05,-0.000543963680160283,0.00016550428795331077,0.10192657798686722,0.00012128917865422695,0.012618122375648402,2.4983367158424918e-05,0.012723931471437622,6.0719560882257386e-05,0.9916842450757662,0.005123557774908721,0.0032238298559761833,7.44715707519199e-06,0,419.073737610151,22,3
2,Y,769,0.07342611360606136,9.553010395678147e-05,-6.344506622354475e-05,0.00017915116546487756,0.10384020569403962,0.00013509996863059204,0.012098222346075667,2.7322037826498868e-05,0.01227636598839128,6.723632752129859e-05,0.9854888944754443,0.005838262315364497,0.0031490317237987397,8.207351149732448e-06,0,329.4341077223152,22,3
2,Y,790,0.07225382776662703,8.87548100354908e-05,-0.00022416989368287418,0.0001609634357376961,0.10218234316093366,0.0001255182560780388,0.012487278729873237,2.518937244330351e-05,0.012616643732884852,4.45422740132236e-05,0.9897464804625948,0.004024399343597869,0.003198406042694172,7.553936581086814e-06,0,392.18352540696617,22,3
2,Y,822,0.0819934204259279,0.00010392395346551046,-7.577262183332799e-05,0.00018919743012401222,0.1159562071917064,0.00014697066444635531,0.010447244100687855,2.2829684944228083e-05,0.010659312549627039,6.342949357427866e-05,0.9801048662423728,0.0062130534485714825,0.003036586646826975,7.67104847421247e-06,0,320.19840056612037,22,3
2,Y,843,0.07570429427720644,8.84030048152701e-05,-0.0002426178760366265,0.0001672020012839781,0.10706203969670924,0.000125020728364289,0.01194908377302753,2.591819180558908e-05,0.012072491102106155,5.5449036826348046e-05,0.9897778074106764,0.0050274967696690345,0.003206712710319644,7.899460849353508e-06,0,188.18069797190537,22,3
2,Y,864,0.07308182027384454,8.793507124317238e-05,0.0006107087041042187,0.00015467545485937942,0.10335330139418397,0.00012435897036033872,0.012224247239736719,2.6343708486018505e-05,0.012415120894628666,5.5565420458486225e-05,0.9846257111378973,0.004891063300208114,0.0031669150434850556,7.816556791760573e-06,0,373.3804451165386,22,3
2,Y,885,0.07196864807434723,7.603150936271359e-05,-4.716469489966153e-05,0.00015114402607146,0.1017790381723982,0.00010752479170844653,0.012584098944879205,2.576863569069719e-05,0.012713651128499611,5.055255810311821e-05,0.9898099938160175,0.00442696721010683,0.0032104831946799506,7.397517634526108e-06,0,401.34704684691064,22,3
2,Y,906,0.07318227341029575,9.170512640928593e-05,-0.0006790618493507319,0.0001688813039348461,0.10349536358213618,0.00012969063350715127,0.012291494416361712,2.7166799118385417e-05,0.012386866085531441,5.449582130494367e-05,0.9923005812357067,0.00488555588272133,0.003188713621201288,8.101659588951522e-06,0,311.9412929504776,22,3
2,Y,927,0.07244781971892304,8.30599779882865e-05,-0.00012532018058302632,0.00015892651677146412,0.10245668921086193,0.00011746454736144551,0.012562224974792032,2.2787608077264757e-05,0.012708928900902854,4.2548035925107005e-05,0.9884566254753067,0.003763782001966387,0.003226241096190848,6.923227020649968e-06,0,491.8352188636321,22,3
2,Y,948,0.07337624228041209,9.332699586252174e-05,1.8753641312677908e-05,0.00017848103971844828,0.10376967698893291,0.00013198430328431598,0.012182823147245513,2.8846352988792155e-05,0.012369960069402068,5.228422709228717e-05,0.9848716631980526,0.00477144624659497,0.003168898572321947,8.517292676663383e-06,0,379.42487090635944,22,3
2,Y,969,0.072098440861409,7.852500105862129e-05,-0.00038692238981346985,0.00014803333112656044,0.10196259289215914,0.00011105112148246388,0.012522577169896588,2.6573623512207598e-05,0.012672911119077734,4.811442333439222e-05,0.988137378399598,0.004297837253329815,0.0032005493041499813,7.634060386124747e-06,0,391.1554902285433,22,3
2,Y,1018,0.07253410334628088,8.906811253974866e-05,-0.0002726257083316987,0.0001729713054117273,0.10257871268688212,0.0001259613327286857,0.01236463368362371,2.4147941783738636e-05,0.012510198372195674,4.351976458765133e-05,0.9883643181154116,0.003943041300433652,0.0031792774755152937,7.334425796602069e-06,0,466.9196941040452,22,3
2,Y,1039,0.07133267057788917,8.529531446273592e-05,-0.00020817815784895613,0.0001614375045570492,0.10087963017154311,0.00012062579052007916,0.01272900068936369,2.5203653708146505e-05,0.012846095359230925,4.768072995888213e-05,0.9908848045579007,0.004168448581001495,0.0032187535517774987,7.445183608599114e-06,0,366.5739393384967,22,3
2,Y,1060,0.07154296558237472,9.34021407890521e-05,-0.00028743400583103903,0.00017151245825562517,0.10117703221898589,0.00013209057425855875,0.01254697049649884,2.7181574385123848e-05,0.012658644942025383,4.623958844186639e-05,0.9911780094916955,0.004209441616452519,0.0031820774596704525,8.048617140973693e-06,0,361.4202125563594,22,3
2,Y,1081,0.07298450957302843,8.35011524326109e-05,-8.490523451893827e-05,0.000163496070268341,0.1032156832813258,0.00011808846224398151,0.012477112534338279,2.543562877130448e-05,0.012587196971155888,5.4027389232517104e-05,0.9912542532646567,0.004710202584049825,0.0032281203544378572,7.546329039258682e-06,0,248.79746116292193,22,3
2,Y,1102,0.07157688870863338,0.00010305142600683525,-0.00021297138453037442,0.00017837023257914056,0.10122500676421897,0.0001457367242807539,0.012511293148034753,3.0344454375870408e-05,0.01263415426074135,6.73825506432025e-05,0.9902754778696687,0.005801964250662579,0.003174533750257262,8.953772228459355e-06,0,356.85546287693205,22,3
2,Y,1123,0.07059013488777448,9.625371865791206e-05,-2.2212526675583256e-05,0.00016604405684628195,0.09982952612803686,0.00013612331435486347,0.012824936823338474,2.7388183463266564e-05,0.012941266147944388,6.04823729074433e-05,0.9910109781163575,0.005092208017718099,0.0032092546430716505,8.131409343080454e-06,0,416.3672145447527,22,3
2,Y,1144,0.07211245451852258,9.628112638695482e-05,-3.595236758652655e-05,0.00017892752832207945,0.10198241119610763,0.0001361620747369896,0.012455681487193854,2.833103253569353e-05,0.012624228915533093,5.031616538604562e-05,0.9866488932142339,0.004527764674209204,0.003184070712877459,8.397859708554896e-06,0,351.6934424744501,22,3
2,Y,1165,0.0716682681630725,8.96549759278844e-05,-0.0007249745487949444,0.000142656814897364,0.10135423682800904,0.00012679128289144748,0.012262205552204601,2.4993176368494817e-05,0.012474478920354914,5.8905738841789425e-05,0.9829833879630883,0.005055689611768447,0.0031153040091947324,7.450271183242158e-06,0,620.7846694815972,22,3
2,Y,1197,0.07279842258762366,9.670760971224599e-05,-5.3758953965019314e-05,0.00017553037591643388,0.10295251654278526,0.00013676521323974233,0.012240809820959904,2.74528822123972e-05,0.012419853927772031,4.791222971464278e-05,0.9855840408547989,0.004397936699279473,0.0031589085376495405,8.234143826602246e-06,0,381.0360624791216,22,3
2,Y,1218,0.0711573533034711,9.381018770362822e-05,-0.0002966223993557009,0.00016817700482879038,0.1006316941043428,0.0001326676397392368,0.012803725890099114,2.55104133356813e-05,0.012985705553619043,5.11750920573831e-05,0.9859861551019681,0.0043540268527488,0.0032296918388088737,7.716047054541922e-06,0,436.66855474497595,22,3
2,Y,1239,0.07179099879192058,9.280894592869359e-05,-6.13966553387159e-05,0.0001774868733907423,0.10152780414784457,0.00013125167004190974,0.012505726277158092,2.704731095496895e-05,0.012621261405641179,4.946831321035942e-05,0.9908459919520051,0.00443559496823617,0.003182613101113913,8.019251419250196e-06,0,333.0123959892552,22,3
2,Y,1260,0.0716374026229866,8.81562495631453e-05,-0.00042870756256215524,0.00015967440338803188,0.10131058636260959,0.00012467176374014732,0.012753576745651758,2.5572284976554685e-05,0.012929493498965442,5.597080410255282e-05,0.986394149675874,0.004705838595073296,0.0032387450561078245,7.61952530791547e-06,0,285.59284165475253,22,3
2,Y,1281,0.0717503803454561,9.322773254142526e-05,-0.00018229020959009294,0.00016093184350602198,0.10147036098997197,0.00013184392374937515,0.012533593040613423,2.529521377124899e-05,0.012666928660501522,4.2265767092989826e-05,0.9894737214156837,0.0038585269634358044,0.0031879002873616627,7.651873165659016e-06,0,431.8065648297434,22,3
2,Y,1302,0.07030861879476931,9.387436113277672e-05,-0.00011149852534037469,0.00016987120384723858,0.09943140225128266,0.0001327583946730826,0.013119564608270037,2.6853249850971796e-05,0.013230451526963978,4.751614519767966e-05,0.9916188107058969,0.00409908721185109,0.0032698883272385907,7.99092969530681e-06,0,406.5763533190376,22,3
2,Y,1323,0.072638711187881,9.880104700802356e-05,-0.00019209565835735792,0.00018084182531919138,0.10272665051520358,0.00013972578065540864,0.012317972148907333,2.691371255368513e-05,0.01258031472780541,5.0839855843041956e-05,0.979146580624232,0.0044982523140199996,0.0031718473627902546,8.163372971932333e-06,0,655.6138314322197,22,3
2,Y,1344,0.0719975502324164,9.423121635010119e-05,-0.0004893287114987856,0.00017085816766748222,0.10181991199632145,0.00013326306416122646,0.012314386167294867,2.7987827106226365e-05,0.012535672494737792,5.329253457895163e-05,0.9823474705855776,0.004735567585398847,0.003142935149869311,8.242938599411972e-06,0,651.0144570580084,22,3
2,Y,1376,0.07376641804586392,9.208258906834559e-05,-0.00048349157338735134,0.00016809927719385335,0.1043214688481442,0.00013022444631888286,0.011920195120242796,2.4856189786869773e-05,0.012170265302374587,6.448507060875818e-05,0.9794523639445232,0.005577121814846346,0.0031170731331081635,7.575437200538658e-06,0,584.1042405311442,22,3
2,Y,1397,0.07944006435871558,9.761132187964429e-05,-0.0004999750315284225,0.00018687350935961338,0.1123452164118871,0.0001380432552433586,0.010953873978432676,2.2354718046187565e-05,0.01118058744277126,4.9216026211383817e-05,0.9797225802759439,0.004753599806816319,0.003084695213095138,7.348240134728486e-06,0,412.16120916103364,22,3
2,Y,1418,0.07267814276462668,8.778380474177061e-05,-0.0002694284722137437,0.00016741768214394536,0.1027824151858231,0.00012414504722252362,0.01219895590146167,2.3810618039309933e-05,0.01234642760314055,4.85661665055978e-05,0.9880555164279773,0.00433880365700033,0.003142906159346948,7.214069409366659e-06,0,560.5370117298139,22,3
2,Y,1439,0.08395799427372776,0.00010008936854502658,-2.4270511751072243e-05,0.00017617634024403087,0.11873453417154844,0.00014154774244573565,0.010342370204801698,2.0102681899251195e-05,0.010433780864298484,3.2204068493262466e-05,0.9912389707349933,0.003615598203232291,0.003078130769346306,7.0187052027121136e-06,0,272.0679445374736,22,3
2,Y,1460,0.0736591189451928,7.688103062124569e-05,-0.0008534312095100531,0.00017223785523591355,0.10416972500474464,0.00010872619619378687,0.012049909224604983,2.76530054589976e-05,0.012219209711619794,4.5782745295920936e-05,0.986144726949582,0.004332850357230242,0.0031464093727948945,7.932343764767945e-06,0,550.7033404974362,22,3
2,Y,1481,0.07236876384630359,8.56523469582186e-05,-5.8602935786006665e-06,0.0001555321491312548,0.10234488732361824,0.00012113071071739867,0.012343087484872645,2.44433660450658e-05,0.012594629039319677,5.0633984363962596e-05,0.9800278711138108,0.00439205403132758,0.003166502925169314,7.305294959952982e-06,0,476.7509625276879,22,3
2,Y,1502,0.07348924659391762,9.484171439438194e-05,7.925741576762363e-05,0.00016213381482589004,0.10392948922169909,0.00013412643877525054,0.012022272393294453,2.537759152376865e-05,0.012228672711385141,3.901387405772653e-05,0.983121609109832,0.0037609021748669035,0.0031319533940146875,7.74887651188552e-06,0,648.466969969484,22,3
2,Y,1523,0.08513799306234876,0.00010017361748821142,-0.0006926262032209521,0.00019061576966471284,0.1204033044620001,0.00014166688844380326,0.010151704752886254,2.0226592808808663e-05,0.010206120537394569,3.984410919843062e-05,0.9946683184556817,0.004359616366376076,0.003063848727540656,7.089473431501102e-06,0,234.39367468854155,22,3
2,Y,1555,0.08485296939169802,9.932255088070024e-05,-0.0008453091320845092,0.00019185650356672653,0.12000022012136846,0.00014046329850497807,0.010205083443492751,2.0516909170296568e-05,0.01029254998492176,4.0883004654895747e-05,0.9915019561180519,0.004414077301534861,0.0030696477153131173,7.141189444547957e-06,0,239.6470110309635,22,3
2,Y,1576,0.08172213607569319,9.678032086868043e-05,-0.00013047693398385226,0.000189376218330282,0.1155725531843449,0.00013686804234330774,0.010717308797331657,2.216458291906216e-05,0.010839414494310853,4.35918073200339e-05,0.9887350283501675,0.00447126516234708,0.0031047768106361186,7.3992480565999366e-06,0,327.39354836515884,22,3
2,Y,1597,0.08738523267514248,0.00011709169004343357,0.00010157796613850803,0.00022865880271290457,0.12358138120031503,0.00016559265610061047,0.009903346544009664,1.8994160945657312e-05,0.01000737888216892,3.0533191247839147e-05,0.9896044369475587,0.003566362124276221,0.003067785252499613,7.177573864052159e-06,0,147.06549725048123,22,3
2,Y,1618,0.08315342974715784,0.00010284214287631052,-8.199352384375083e-06,0.00018666619131515246,0.11759670810626899,0.00014544075323918992,0.010524827606678352,2.4878114341051436e-05,0.01075119138595747,6.536589162731963e-05,0.9789452376808416,0.006385860866054276,0.003102416416444866,8.276507460016763e-06,0,349.00336173691466,22,3
2,Y,1639,0.07454117458524888,8.679576215045428e-05,-0.00043526625019736664,0.0001680533904372974,0.10541714005367964,0.0001227477439896818,0.011845049801896506,2.24150332894657e-05,0.01196043930946659,3.716252420086015e-05,0.9903524022333566,0.0036029235901153807,0.0031299547209006472,6.954442082824442e-06,0,479.02374677686174,22,3
2,Y,1660,0.07942249697234585,9.534706946594373e-05,7.239182825580418e-05,0.00017750310932737156,0.11232037237582759,0.00013484111877126725,0.011093819253083103,2.0862334700840588e-05,0.011249742490918261,3.626598528348802e-05,0.9861398393820097,0.0036803987648885866,0.00312341401448495,6.968524700303059e-06,0,541.3302314436835,22,3
2,Y,1681,0.07341315604587685,8.216291074715447e-05,-8.69821958083084e-06,0.00017385246788442936,0.10382188093669142,0.00011619590270267599,0.012037583912891964,2.3541607473938218e-05,0.012200809590349835,4.3792535056657655e-05,0.9866217338899401,0.004032838579908677,0.0031326952924421426,7.0588195250005045e-06,0,530.8867356149407,22,3
2,Y,1702,0.0714658154436308,8.134502246031251e-05,-0.0001992947441981944,0.00014469284568293473,0.10106792544643528,0.000115039233994918,0.01241036944198636,2.5322433165258378e-05,0.012564297642394152,4.6348779317650964e-05,0.9877487620248336,0.004163981374067448,0.0031440395143459746,7.345837506328594e-06,0,586.2890353227276,22,3
2,Y,1734,0.0741100863921653,9.29990945061065e-05,-5.747309925767632e-05,0.00017065278224104763,0.10480748928444195,0.000131520580738953,0.011971192680905948,2.3844826617339533e-05,0.01213210743398581,3.547936043122868e-05,0.9867364549848042,0.0034913871308544014,0.003144992923195649,7.403894895495481e-06,0,528.7462144046156,22,3
2,Y,1755,0.08578424311283041,0.00010345381299951821,0.0001733700926392264,0.00019373738102110717,0.12131724004807554,0.00014630578542312866,0.010117977454115539,1.8710680340921477e-05,0.010206422321089854,4.0226626720630935e-05,0.9913343908186555,0.004315848831933213,0.0030768488573504997,6.792877917619753e-06,0,209.45960360165577,22,3
2,Y,1776,0.07342256060297847,8.509717077276654e-05,-0.0004429926745063627,0.00016676123720526712,0.10383518098889266,0.00012034557302642579,0.01199918202127494,2.6029103854136595e-05,0.012168467173180084,5.61988290531147e-05,0.9860882106599049,0.005031485997208318,0.0031231015064235234,7.681113013638029e-06,0,482.8976208812391,22,3
2,Y,1797,0.07182016386307101,9.40547935241023e-05,-0.0006915044959022081,0.00014927468006675076,0.10156904978701309,0.00013301356460798663,0.012416331340620465,2.5634792969527266e-05,0.012637564936132505,4.7653273802289976e-05,0.9824939696349647,0.004223723792417552,0.0031611464566717357,7.72873123927531e-06,0,578.025071250381,22,3
2,Y,1818,0.08395095350647688,9.859149246444726e-05,-7.396468242794334e-05,0.00017902407465390782,0.11872457702301276,0.00013942942577782613,0.010406764807540455,2.2212709874779283e-05,0.010580114660985823,4.660196435899133e-05,0.9836155033286552,0.004814396793717889,0.003097036365034971,7.545002360967871e-06,0,292.9075041546499,22,3
2,Y,1839,0.0902877545103722,0.00010925822276305831,1.0859612727858608e-05,0.0001876358246714709,0.12768616694478097,0.00015451446043229788,0.00949721815089413,1.9173280793562986e-05,0.009645769183753473,3.6358352151642495e-05,0.9845993585343563,0.004210096127030416,0.0030396963217481946,7.154626887015403e-06,0,231.631888947734,22,3
2,Y,1860,0.07759104910533371,9.14555447114553e-05,-0.0003123134130983574,0.0001732201710858961,0.10973031396351973,0.00012933767168515908,0.011274969664707903,2.1573196694595563e-05,0.011429810054006034,4.887696430218732e-05,0.9864529341636905,0.00462134832626137,0.0031012154439800906,6.969315051680448e-06,0,412.70374119648625,22,3
2,Y,1881,0.07843416495971693,9.61308352065772e-05,2.689850313420478e-06,0.00017415483284005984,0.11092265983944027,0.0001359495309113945,0.011167859753690168,2.364693083909488e-05,0.011412276675852559,5.2829039921276014e-05,0.9785829831238182,0.004981397880812261,0.0031051326706877194,7.59684391078964e-06,0,513.2068154254962,22,3
2,Y,1916,0.07907001109188318,9.556678368274566e-05,0.0001439213374551017,0.00018439879008448322,0.11182188206313226,0.00013515184159651472,0.010941520457481821,2.2945165381035355e-05,0.011113547562286856,3.961627893927678e-05,0.984520954821951,0.004071762825073773,0.0030668632288278442,7.42314784828375e-06,0,438.9077612321951,22,3
2,Y,1937,0.08609038339498237,0.0001013437636311449,-0.00023481977448788598,0.00020022624096254824,0.12175018778708357,0.00014332172498909834,0.010087061122008635,2.0567700466357346e-05,0.010209827901072884,4.4717960690263214e-05,0.9879756269886442,0.004773166143240325,0.0030783941591464637,7.247866130089679e-06,0,288.6099925742947,22,3
2,Y,1958,0.07312954351838205,9.063718199056015e-05,-0.0003792906340228664,0.00016304876655299504,0.10342079225384937,0.00012818033202632861,0.011994188169916657,2.414944839547947e-05,0.012100934776183998,3.637217293744703e-05,0.9911786479109506,0.0035858652994213086,0.0031093431403819527,7.351491887719574e-06,0,511.8164633078666,22,3
2,Y,1979,0.07416682332369882,8.098922486982895e-05,0.0002628797904500656,0.0001552682136402089,0.10488772742250407,0.00011453606021699647,0.011865713335053072,2.1354338363803477e-05,0.012036335078840502,4.341617998536722e-05,0.9858244438469167,0.003973975955286518,0.003119668601453527,6.567061099688076e-06,0,664.2144912486343,22,3
2,Y,2000,0.07299971831335987,8.562704054828708e-05,0.00013113643662656803,0.00015911429803888006,0.10323719168816914,0.00012109492204925854,0.012067749721950832,2.582387449222858e-05,0.01222358960470064,6.318067701589535e-05,0.9872508904675694,0.0055228884437353975,0.0031228592518102367,7.620725538242645e-06,0,524.2398234943986,22,3
2,Y,2021,0.07247196527605612,8.214499232230602e-05,3.4425094812397554e-05,0.00016193141631408328,0.10249083618523058,0.00011617056222323896,0.012251430523978658,2.2239923707415083e-05,0.012379448144635841,3.078352909476375e-05,0.9896588588472214,0.0030469253463385774,0.003147471252243137,6.73591595340569e-06,0,551.2186949403604,22,3
2,Y,2042,0.07752316837681096,9.047886875091421e-05,3.752092050099113e-05,0.00018200292256308778,0.10963431611661911,0.0001279564432957181,0.011214232250849752,2.3676360549084693e-05,0.011395009753760371,4.5175502976791314e-05,0.9841353797129517,0.004420372578575601,0.0030818109385590993,7.434554639925391e-06,0,620.8761260297401,22,3
2,Y,2063,0.07152660203512214,8.149081249688193e-05,-0.0008207514555742786,0.00014643495576104862,0.10115389066853275,0.00011524541224189333,0.0124356790705859,1.9806798652927097e-05,0.01254931333388751,5.68178385281174e-05,0.9909449815875775,0.0047560888440171195,0.0031531311242048274,6.174698382670678e-06,0,614.7226685659657,22,3
2,Y,2095,0.07332191364168435,9.563671177807282e-05,-0.000942235347716561,0.00016092407583425482,0.10369284469121887,0.0001352507348573173,0.011891189508005402,2.6661226837739667e-05,0.012133895032076358,5.972345372739337e-05,0.9799977234491187,0.005300459324014783,0.0030907510369839134,8.017096034031057e-06,0,462.05583653870565,22,3
2,Y,2116,0.07250080852993565,9.591985577445915e-05,-0.00016468061875960283,0.00014950815666318456,0.10253162670604998,0.00013565116093711138,0.012108463473535733,2.8524731106754767e-05,0.01230665198542962,7.090776151851644e-05,0.983895822183927,0.006124490400599982,0.0031119801481135478,8.40811825549963e-06,0,636.9492452474899,22,3
2,Y,2137,0.073233807188923,8.379973818941257e-05,-0.0003384446567205124,0.00017040675567475764,0.10356824335079118,0.00011851072627078185,0.012043963387542775,2.08118202806156e-05,0.01223089160437813,3.790502228420046e-05,0.9847167138029053,0.0034940792210225433,0.00312669825262414,6.480123077799335e-06,0,509.16317711929713,22,3
2,Y,2158,0.07323810787475322,8.97016939239926e-05,-0.00012692681005173443,0.0001631016588784709,0.10357432543901979,0.0001268573521151506,0.012077227277063033,2.393624078895628e-05,0.012230027168313699,4.201035439405982e-05,0.9875061691075757,0.003916230499003897,0.0031355179178723146,7.3052704616562765e-06,0,606.1163438696015,22,3
2,Y,2179,0.07313951850193362,9.338323776138169e-05,-0.00027291550825766565,0.00017436817188981916,0.10343489901087244,0.00013206384134045734,0.012089443418618395,2.4986504506141227e-05,0.012219222389871156,4.341012803664526e-05,0.9893791137347383,0.004066421890694405,0.003134464358714182,7.614780881610987e-06,0,432.6254972301609,22,3
2,Y,2200,0.07381316816107643,8.67488245280466e-05,0.00012787100220659276,0.00017112216191315815,0.10438758349512023,0.00012268136416748732,0.012044606573086892,2.21033434839771e-05,0.012192480728785244,4.4050834074524705e-05,0.9878716924809865,0.004003147337155295,0.0031516022143574895,6.867954077383193e-06,0,720.3304842212477,22,3
2,Y,2221,0.07274083283756091,8.00842689491755e-05,0.0001823938761403062,0.0001603705345132512,0.10287107233719284,0.00011325625928065852,0.012101555859061605,2.0011110637765966e-05,0.012134133057613832,3.301697503169587e-05,0.9973152430093235,0.003175509908159567,0.0031205016097001167,6.199114508323262e-06,0,503.7016466874577,22,3
2,Y,2242,0.07165868905846605,8.818715715133447e-05,1.2075167822654201e-05,0.00015332487304212548,0.1013406899283592,0.0001247154736705447,0.012362048864742618,2.3259430648498696e-05,0.012548262703622777,3.9794816161773255e-05,0.9851601896391284,0.003632759438195793,0.003140250162556116,7.060066594074978e-06,0,619.1754969561056,22,3
2,Y,2274,0.07300099509067157,9.741011049651513e-05,-0.00022625280865022626,0.00016661853348560698,0.10323899732395947,0.00013775869937643348,0.012035642460974274,2.4677383590159153e-05,0.012191023961385003,6.661580766261878e-05,0.9872544340079308,0.005761955500089904,0.003114605096683038,7.619336034062171e-06,0,440.97144526819625,22,3
2,Y,2295,0.0797609047627615,8.46063250141294e-05,-0.0006721899594520107,0.00016157520522903522,0.1127989532626461,0.00011965141229752785,0.01089835380705857,2.0453655643648462e-05,0.011046520377376842,3.655536271812702e-05,0.9865870368897598,0.0037533360321470813,0.0030814555441082453,6.642976580918882e-06,0,533.172098942074,22,3
2,Y,2316,0.07284567136760618,8.914046639083106e-05,-0.00011667053550447688,0.0001634272575690254,0.10301933640824212,0.00012606365652617635,0.012109447294676948,2.4245988531856858e-05,0.012334239385109762,5.167735349557304e-05,0.9817749531678306,0.004558961837515521,0.0031270368819091,7.3377971817591695e-06,0,552.7852705052223,22,3
2,Y,2337,0.08118986009817461,8.887078193727114e-05,-0.0007600718529571928,0.00018020731811472596,0.11481980127801272,0.00012568226511439073,0.01076413757815148,2.008300695818552e-05,0.010985225742571214,4.0606493055703224e-05,0.9798740445029775,0.0040572946909618645,0.003098032468278094,6.701437819374472e-06,0,365.44549341337364,22,3
2,Y,2358,0.08394355620228351,0.00010327989007100305,-0.0003049104437074994,0.00019549820723275939,0.11871411565509749,0.0001460598212588149,0.01032254332038992,2.173249338748548e-05,0.010463311176055545,3.654620871165591e-05,0.986546528790259,0.004023379485388814,0.0030717015011756626,7.490309944610723e-06,0,285.3261372328537,22,3
2,Y,2379,0.07952692380977701,8.735459015429249e-05,-0.0005786845972415261,0.00016478865198195496,0.11246805422559847,0.00012353804613174368,0.010957968150552755,2.135049229450212e-05,0.011134424217854785,5.1618582180262535e-05,0.9841522054621314,0.004949047645282389,0.0030892222176066002,6.909646002888246e-06,0,451.4509889369732,22,3
2,Y,2400,0.07270079976977904,9.931796995166242e-05,-0.0006065653559414471,0.00018439569079339155,0.1028144570297923,0.00014045682009300453,0.012140362484891757,2.661523026516493e-05,0.012299403499474672,4.9566600382890016e-05,0.9870692091214255,0.004528383821984452,0.00312878538663039,8.081980414907793e-06,0,454.937343994339,22,3
2,Y,2421,0.07156629202345988,9.71478818187428e-05,-0.00020194802447236475,0.0001729010276631422,0.10121002078833041,0.0001373878520238847,0.012394073347562023,2.7196778009469042e-05,0.012598859970188708,5.226192779648731e-05,0.9837456227697388,0.004616507949374376,0.0031443255898988922,8.113210155078508e-06,0,611.0598512961906,22,3
2,Y,2453,0.07964154939114916,9.968278172183897e-05,-0.00011141859167643682,0.00017462868682114948,0.11263015927736986,0.00014097274184610153,0.01081626237319749,2.278219627171094e-05,0.011035463531835573,5.456232626443091e-05,0.9801366605031386,0.005267473736935518,0.0030536681964448927,7.481843451828239e-06,0,501.2511816045827,22,3
2,Y,2474,0.07281108035106869,8.620222587054671e-05,-8.146706318430842e-05,0.00016799178080299166,0.10297041732351853,0.00012190835693287605,0.012239674014153686,2.3392174714075038e-05,0.012420414329304416,4.71548598285269e-05,0.9854481251302305,0.0041886147362615546,0.0031591646287102942,7.102328100253965e-06,0,746.5686147143956,22,3
2,Y,2495,0.07690010376392115,0.00010195402416184784,-0.0005217590105504522,0.00017781111684850583,0.1087531696908356,0.00014418476370819944,0.011222441706138954,2.5802645950458403e-05,0.011336460369263023,5.596460287940298e-05,0.989942304792666,0.0053910737185835535,0.003059279918852284,8.119530020186917e-06,0,464.7830055397311,22,3
2,Y,2516,0.07324928994169495,0.00010276815794017274,-0.0004274881660731346,0.00018579656779600046,0.10359013926974414,0.00014533612273909258,0.012105595170797628,2.887771493312404e-05,0.012338028654990594,5.224587262270424e-05,0.9811612137811863,0.004768672145800473,0.0031433627150880567,8.699181525593201e-06,0,674.5941370786497,22,3
2,Y,2537,0.07274727683183789,9.355514698096349e-05,-0.00050271976569538,0.00017150144157526324,0.10288018552129519,0.00013230695769028689,0.012092957431304103,2.6989258392441465e-05,0.012335463233787845,6.345867540846675e-05,0.9803407624109731,0.005497426681419752,0.0031185606669260502,8.03286721523838e-06,0,410.4845485241552,22,3
2,Y,2558,0.07150781296647692,8.801970714408291e-05,-0.00026632736664637864,0.00016391960829881169,0.10112731891283033,0.00012447866359927007,0.012560883440910267,2.3625547122295167e-05,0.012838761578742692,4.19968172991907e-05,0.9783563129412333,0.0036916310066204988,0.003184040719568866,7.157267199583821e-06,0,868.6084500321072,22,3
2,Y,2579,0.07380752727250703,8.246555614070889e-05,-3.4045937699241805e-05,0.0001588652635098219,0.10437960607400154,0.0001166239079228304,0.01195961757533199,2.3986519132028252e-05,0.01228246256486478,5.1003584897206365e-05,0.9737149624655629,0.004490318753461272,0.003129124769760491,7.183987290263495e-06,0,764.5815059588799,22,3
2,Y,2600,0.07161333129865721,7.142345514714604e-05,0.00018114400936327445,0.00015669795688383974,0.10127654436927869,0.00010100801894064038,0.012563063969619901,1.783939286268576e-05,0.012670766861437298,2.113090552484941e-05,0.9914998916012586,0.0021717135929101546,0.00318929270733854,5.534198060155166e-06,0,670.0699785111242,22,3
2,Y,2632,0.07988873401164905,9.993873748967834e-05,-0.0005455057054057331,0.00018455508514118613,0.11297973112009085,0.0001413347179643476,0.010741561285257002,2.393483844687282e-05,0.010889820062706343,4.6733529163402354e-05,0.9863855622410995,0.004769655744951644,0.0030419906974942816,7.773471030400199e-06,0,433.78916291959973,22,3
2,Y,2653,0.07374090552754806,8.742297539453615e-05,-0.00035962283026685145,0.0001617110014146768,0.10428538869873161,0.00012363475746596242,0.01191121820985513,2.1325931516693774e-05,0.012102651187509932,3.97527927488244e-05,0.9841825584585662,0.003681735504177258,0.0031136484697491373,6.686061919832356e-06,0,500.35181197702514,22,3
2,Y,2674,0.07687359197642485,9.019275444242762e-05,-0.0002260336469878781,0.00017897273390434876,0.10871567636139556,0.00012755181656026737,0.011210699499701696,2.2011156949997693e-05,0.011249293040777219,4.219575659643991e-05,0.9965692474242047,0.004219236591421773,0.0030550253469450307,6.987601200460659e-06,0,154.20653174370153,22,3
2,Y,2695,0.07180498460091617,8.135388366059818e-05,-0.0005811213335007051,0.0001631538586514625,0.1015475830686069,0.00011505176562454089,0.012740822159703354,2.546757982388761e-05,0.012941481880573709,4.040636788213597e-05,0.9844948420341597,0.003649800931796534,0.0032430749012687934,7.451480968247165e-06,0,542.6636011224404,22,3
2,Y,2716,0.07708945184311984,9.342535261910173e-05,-0.0003426444374118391,0.00017953705100003423,0.10902094831244769,0.00013212340074342244,0.011200801677377656,1.9816692869781184e-05,0.011193468300257066,3.837328785743472e-05,1.0006551478883825,0.003860324709139807,0.0030608989839297595,6.56408673983979e-06,0,141.09262479842064,22,3
2,Y,2737,0.07180325335112273,8.28621304856613e-05,-0.0001587158021409525,0.00014678900106852874,0.10154513471166915,0.00011718474873995133,0.012752097787245125,2.441625474850895e-05,0.012908984916820207,5.679929528973383e-05,0.9878466718656818,0.00474020852762298,0.0032458667613750724,7.256362754525384e-06,0,345.9252534068668,22,3
2,Y,2758,0.07291823655007419,8.997813530204657e-05,-0.0004522445708452205,0.0001682261070481959,0.10312195907344446,0.00012724829926119563,0.012111294005931143,2.5480550245478555e-05,0.012249172051070375,4.4346785232249955e-05,0.9887438886020722,0.004140167446750333,0.0031306292317508874,7.635726855497717e-06,0,465.09614763546494,22,3
2,Y,2779,0.07160828271348539,8.952660828705855e-05,-0.0006203736139860056,0.0001744426226685078,0.1012694045916579,0.00012660974363282174,0.012416235929079663,2.8702924812484105e-05,0.012659249314670091,6.515164691932361e-05,0.9808034916170888,0.005533609716223404,0.003151796341421154,8.283374529821e-06,0,536.7133534790935,22,3
2,Y,2818,0.07323858220452636,7.489598709454806e-05,-0.0009143183520409206,0.00015523821203187102,0.10357499624261801,0.00010591892071643016,0.01233522997200203,2.2831374912504015e-05,0.012464989207870031,4.251278411812641e-05,0.9895901044353833,0.0038400538647283666,0.003202521920505248,6.7721282317727926e-06,0,391.47508246503236,22,3
2,Y,2839,0.07232862561666135,7.725954397518806e-05,-0.00019615087949606603,0.00013574525728004506,0.10228812329488857,0.0001092614949124715,0.012586964878294485,2.5991614594444726e-05,0.012727156760854806,5.479907592664702e-05,0.9889848231467131,0.004722644291913841,0.003227276422253074,7.503030247046711e-06,0,412.8697076170147,22,3
2,Y,2860,0.07284705066520443,8.763776017829777e-05,-0.00048386262415694173,0.00016965469709500172,0.10302128702961211,0.00012393850902014947,0.012430754245114401,2.6297103317869653e-05,0.012569408857066061,4.970296722248866e-05,0.9889688836182846,0.0044351279947236096,0.003210069135294141,7.812141547876202e-06,0,362.042336830513,22,3
2,Y,2881,0.07183253671071722,8.677416744969321e-05,-0.0006622368453028679,0.00016207376207357085,0.10158654763595953,0.0001227172044709901,0.012740275207901532,2.3063580684572695e-05,0.012856585637668923,4.504991773558677e-05,0.9909532411601872,0.003908353148990572,0.0032441800177218697,7.060416543609361e-06,0,423.55768762735937,22,3
2,Y,2902,0.07306414536463661,8.712606559406973e-05,-0.0004511609527486793,0.00017234038647082487,0.1033283052978684,0.0001232148635993413,0.012435520911554677,2.3230989140220814e-05,0.012582710582780246,3.812320151861579e-05,0.9883022286607306,0.0035177998392344418,0.0032208701970475174,7.138291413205408e-06,0,429.67807797075085,22,3
2,Y,2923,0.07122967301476414,8.310752659294083e-05,-0.0003287507383491531,0.00016031417282476087,0.10073396962088033,0.0001175317912430196,0.01288757687262446,2.261084587809271e-05,0.01293658536036753,3.508280535049817e-05,0.9962116365039254,0.003217716423932926,0.00325414688026396,6.8565074041153046e-06,0,475.759537108824,22,3
2,Y,2944,0.07312824619412016,9.57803681824394e-05,-0.00032824552490630154,0.00016310227262784013,0.10341895756028341,0.00013545389569269428,0.011956470432659242,2.5793133088600377e-05,0.012121072752432512,5.049472054631808e-05,0.9864201524786461,0.00462757755196959,0.0030995103025974703,7.822324774953161e-06,0,408.2233537689014,22,3
2,Y,2965,0.07585503109602813,8.352975904853553e-05,-0.0005026534207825824,0.00015519032955401365,0.10727521375023585,0.0001181289181081957,0.011520168535794309,2.0554153094613907e-05,0.01164646332194511,5.1554960297034465e-05,0.9891559538153675,0.004720944915149651,0.003097762766264164,6.4949071622299125e-06,0,719.2598303488716,22,3
2,Y,2997,0.07483217424147086,8.961900554143138e-05,-0.0006866483415224701,0.00016840929232651072,0.10582867571415466,0.00012674041308308182,0.012112989973312989,2.3642313782860496e-05,0.012208974042330418,5.694477867203123e-05,0.9921382362936773,0.0050163454907959475,0.0032132510159731454,7.358153144715442e-06,0,255.11472546790822,22,3
2,Y,3018,0.07361625377428122,7.70615298398278e-05,-0.00031256218428982977,0.0001610180073630038,0.10410910449868804,0.00010898146063670344,0.01242193926552265,2.4318207345833743e-05,0.012565360551688448,5.044600580922873e-05,0.9885859792422331,0.004415587748727599,0.0032416643624971105,7.196429319919278e-06,0,341.3304075799082,22,3
2,Y,3039,0.07297007330636504,8.814682153396804e-05,-0.0009419010581877737,0.0001715857968146638,0.1031952673172204,0.0001246584304934184,0.012343639211956543,2.8127885160943146e-05,0.012512154481884167,5.3469720196521864e-05,0.9865318742530225,0.0047777864362917415,0.003192956000711236,8.235019237451558e-06,0,351.5054155365781,22,3
2,Y,3060,0.07188063508506295,7.5060830379739e-05,-0.00022822483842399252,0.00015538449703675765,0.10165456900928738,0.00010615204432601333,0.012753876232818854,2.426722176359448e-05,0.01287219893731012,3.715763958865283e-05,0.9908078872096743,0.0034255581884393904,0.0032498179695077973,7.053554468792284e-06,0,359.4414125320926,22,3
2,Y,3081,0.07315189720223292,8.720377613155602e-05,-0.000520394575385697,0.00017990709185646795,0.10345240513672027,0.00012332476289539374,0.012415666964047391,2.488865501880919e-05,0.012437502367646246,4.648523894869476e-05,0.9982443899945976,0.004233714311839625,0.0032195900808376986,7.509014195134865e-06,0,450.0543712534944,22,3
2,Y,3102,0.07134605290022338,8.818774760697738e-05,-0.000335116482511054,0.00015628688914938875,0.1008985556332842,0.00012471630870092287,0.012886683268403126,2.886783424322839e-05,0.013023162509488363,6.776750447665941e-05,0.9895202689065884,0.005605942100432953,0.0032592377207477756,8.338818088181612e-06,0,468.5475400689947,22,3
2,Y,3123,0.07317294729986533,9.048141659784406e-05,-0.00022968231570634796,0.00016885756259601007,0.1034821744702813,0.00012796004649540116,0.012054334697288298,2.44008919614168e-05,0.01215569145161098,5.107703452777139e-05,0.9916617861907602,0.004625179425531948,0.0031267900835498237,7.416883206601389e-06,0,601.968517784711,22,3
2,Y,3144,0.07166442924837262,8.016217944225416e-05,-0.000940304100308459,0.00015014580254417526,0.10134880778277566,0.00011336644135662155,0.012535426365834355,2.143828405666933e-05,0.012729926468581416,4.5818939694e-05,0.984721034860091,0.003924068690872186,0.0031845471879984807,6.50774700487234e-06,0,811.5608272429688,22,3
