[
    [
        "XscanNumber_YscanNumber",
        "Type",
        "BCID",
        "xsec",
        "xsecErr",
        "SBIL",
        "SBILErr"
    ],
    [
        "1_2",
        "XY",
        "103",
        923.1192625091553,
        2.4396709468310296,
        0.07269859170521407,
        0.00021719541930393266
    ],
    [
        "1_2",
        "XY",
        "124",
        916.6901499523836,
        2.263232435637983,
        0.08125944129745519,
        0.00022888037225060682
    ],
    [
        "1_2",
        "XY",
        "145",
        918.1942243831716,
        2.4430608929303563,
        0.06579274991065773,
        0.00019851622904478258
    ],
    [
        "1_2",
        "XY",
        "166",
        919.0174000418766,
        2.311021343709196,
        0.07687358467570024,
        0.0002189951886676172
    ],
    [
        "1_2",
        "XY",
        "187",
        919.1575307534873,
        2.5091312147169313,
        0.06589291010541491,
        0.00020318699906177596
    ],
    [
        "1_2",
        "XY",
        "208",
        917.9533360415921,
        2.2745188211873755,
        0.07574743607120883,
        0.00021387151798437412
    ],
    [
        "1_2",
        "XY",
        "229",
        917.424712410945,
        2.2563895454728025,
        0.07130456638542229,
        0.00020111537486177013
    ],
    [
        "1_2",
        "XY",
        "250",
        918.1830319024297,
        2.299523053099476,
        0.07954708497193902,
        0.00022595336595841332
    ],
    [
        "1_2",
        "XY",
        "282",
        924.2916181447956,
        2.379648588910626,
        0.07377455646423864,
        0.00021698494272178468
    ],
    [
        "1_2",
        "XY",
        "303",
        916.305275402549,
        2.359160096299848,
        0.08061464501263502,
        0.0002363406693987536
    ],
    [
        "1_2",
        "XY",
        "324",
        919.554764505139,
        2.293890548059242,
        0.07234927207317318,
        0.00020577354215551425
    ],
    [
        "1_2",
        "XY",
        "345",
        914.5357735773824,
        2.2562376462456775,
        0.0833079930100285,
        0.00023497603174311489
    ],
    [
        "1_2",
        "XY",
        "366",
        921.8164935477503,
        2.3535863512670283,
        0.07367477579455554,
        0.00021468418990089683
    ],
    [
        "1_2",
        "XY",
        "387",
        916.1180121510075,
        2.1668509792216484,
        0.08306881916023212,
        0.000224558314077877
    ],
    [
        "1_2",
        "XY",
        "408",
        917.0447441569783,
        2.340681543465371,
        0.07017758754511394,
        0.00020187794863900317
    ],
    [
        "1_2",
        "XY",
        "429",
        916.5958753298886,
        2.2790995450997475,
        0.07979535896318686,
        0.0002250608824945489
    ],
    [
        "1_2",
        "XY",
        "464",
        920.2680812997265,
        2.423890684102198,
        0.07403932009894398,
        0.00022115608675319295
    ],
    [
        "1_2",
        "XY",
        "485",
        919.4076693581443,
        2.425219485461821,
        0.07801311727784532,
        0.00023532577203152073
    ],
    [
        "1_2",
        "XY",
        "506",
        922.869694884812,
        2.5042377475450053,
        0.06676013110868938,
        0.00020588153275715275
    ],
    [
        "1_2",
        "XY",
        "527",
        921.7649576077055,
        2.390126617771004,
        0.07468405064411618,
        0.00022102610778242603
    ],
    [
        "1_2",
        "XY",
        "548",
        920.8725069356034,
        2.4222078934241167,
        0.07253407233555198,
        0.00021616678282728786
    ],
    [
        "1_2",
        "XY",
        "569",
        920.1805489090891,
        2.218480082386164,
        0.08160816490714999,
        0.00022220436691402945
    ],
    [
        "1_2",
        "XY",
        "590",
        920.8682335289784,
        2.4774189283524946,
        0.07007377927750306,
        0.00021109313021934784
    ],
    [
        "1_2",
        "XY",
        "611",
        915.5676512159673,
        2.1410813893782743,
        0.07959101023063418,
        0.00021123482788167327
    ],
    [
        "1_2",
        "XY",
        "643",
        922.8755560131982,
        2.1996046923556793,
        0.07326884555805685,
        0.0001971154684334777
    ],
    [
        "1_2",
        "XY",
        "664",
        922.1446731126007,
        2.2687668289711356,
        0.07691902528551403,
        0.0002170199941808217
    ],
    [
        "1_2",
        "XY",
        "685",
        915.8513447370059,
        2.5750528717676477,
        0.06670006835085704,
        0.00021561096598999958
    ],
    [
        "1_2",
        "XY",
        "706",
        926.5438091420563,
        2.3730112215010855,
        0.07297544162260543,
        0.00021231328974115574
    ],
    [
        "1_2",
        "XY",
        "727",
        920.0793240700848,
        2.401613998080967,
        0.06990627655817777,
        0.00020789319594025633
    ],
    [
        "1_2",
        "XY",
        "748",
        918.8727294245791,
        2.282369142445532,
        0.079936140043712,
        0.00022498892285370103
    ],
    [
        "1_2",
        "XY",
        "769",
        916.6295661853063,
        2.603872088668312,
        0.06409040932148435,
        0.00020721568567158867
    ],
    [
        "1_2",
        "XY",
        "790",
        918.672059114187,
        2.3107381660315838,
        0.0729845127523994,
        0.0002090419393823154
    ],
    [
        "1_2",
        "XY",
        "822",
        926.101862020467,
        2.371922906309434,
        0.0744998397817085,
        0.00021645289653807098
    ],
    [
        "1_2",
        "XY",
        "843",
        924.8544153098896,
        2.275904890669106,
        0.07557641609391792,
        0.00021263494675810853
    ],
    [
        "1_2",
        "XY",
        "864",
        923.7632098691979,
        2.4914043554791223,
        0.07022003750860022,
        0.00021525367400391013
    ],
    [
        "1_2",
        "XY",
        "885",
        917.52262770651,
        2.1700052547065485,
        0.08238092718178523,
        0.00022411066082122477
    ],
    [
        "1_2",
        "XY",
        "906",
        921.8486392395885,
        2.318737538750088,
        0.0684636440024901,
        0.00019523548985327696
    ],
    [
        "1_2",
        "XY",
        "927",
        920.5641394990163,
        2.131856847323347,
        0.07900506644604861,
        0.00020724102470422263
    ],
    [
        "1_2",
        "XY",
        "948",
        919.7313755106954,
        2.458143523827955,
        0.06903208961841985,
        0.0002110351011206023
    ],
    [
        "1_2",
        "XY",
        "969",
        917.7569188561048,
        2.3890148908366733,
        0.0780256785145953,
        0.0002337007436304455
    ],
    [
        "1_2",
        "XY",
        "1018",
        920.1790523346093,
        2.316353683932534,
        0.07568641992678547,
        0.0002197998910079157
    ],
    [
        "1_2",
        "XY",
        "1039",
        920.9728533339177,
        2.4269292673096943,
        0.08030403883473422,
        0.0002435815047228866
    ],
    [
        "1_2",
        "XY",
        "1060",
        921.1623736491223,
        2.2944573903349967,
        0.07129681841737377,
        0.000202168703103819
    ],
    [
        "1_2",
        "XY",
        "1081",
        923.3204005596508,
        2.346650461270077,
        0.07773520041942289,
        0.0002247222904719764
    ],
    [
        "1_2",
        "XY",
        "1102",
        919.3937700255967,
        2.3584341047236133,
        0.06962367690293418,
        0.00020411522444377958
    ],
    [
        "1_2",
        "XY",
        "1123",
        919.1220111438996,
        2.279124825887115,
        0.07690085839474797,
        0.00021488512599241913
    ],
    [
        "1_2",
        "XY",
        "1144",
        920.9949832118896,
        2.211683933310444,
        0.07060127176007829,
        0.00019079949070383546
    ],
    [
        "1_2",
        "XY",
        "1165",
        919.6418397973889,
        2.103289322427019,
        0.08093706454664899,
        0.00021032855353552384
    ],
    [
        "1_2",
        "XY",
        "1197",
        920.5188663449431,
        2.4172865761035522,
        0.07333034803436232,
        0.00022058414381135748
    ],
    [
        "1_2",
        "XY",
        "1218",
        920.9410184029821,
        2.069925589399622,
        0.0808773136650538,
        0.0002051900186721296
    ],
    [
        "1_2",
        "XY",
        "1239",
        919.1806508088505,
        2.546386171446083,
        0.07106386372452152,
        0.00022668654787530597
    ],
    [
        "1_2",
        "XY",
        "1260",
        922.101493777007,
        2.168437440218303,
        0.07953725235376503,
        0.00021327892570721681
    ],
    [
        "1_2",
        "XY",
        "1281",
        917.8369193657951,
        2.4219713933281675,
        0.07273622014848626,
        0.00021964006403691103
    ],
    [
        "1_2",
        "XY",
        "1302",
        919.850984411147,
        2.176499080282312,
        0.08175261075253984,
        0.00022042222593368367
    ],
    [
        "1_2",
        "XY",
        "1323",
        919.3920278166048,
        2.526996667732572,
        0.06671745618162278,
        0.00020935155194671808
    ],
    [
        "1_2",
        "XY",
        "1344",
        919.9539812684715,
        2.26927648929232,
        0.07672483302286656,
        0.00021630870982943779
    ],
    [
        "1_2",
        "XY",
        "1376",
        921.110598727795,
        2.515080832575202,
        0.07201896556635484,
        0.00022497542255808708
    ],
    [
        "1_2",
        "XY",
        "1397",
        919.5982122819812,
        2.15081231761969,
        0.07963969549513049,
        0.0002122212486129131
    ],
    [
        "1_2",
        "XY",
        "1418",
        919.0726642146437,
        2.2729649619774706,
        0.07331616365437131,
        0.00020682729793750052
    ],
    [
        "1_2",
        "XY",
        "1439",
        924.0996390554533,
        2.150469184839987,
        0.07636400383841369,
        0.00020451674452998561
    ],
    [
        "1_2",
        "XY",
        "1460",
        921.1590550989667,
        2.420630013115362,
        0.07031732583805035,
        0.00020911210485446182
    ],
    [
        "1_2",
        "XY",
        "1481",
        917.5402843340122,
        2.192092202211153,
        0.07813914710036507,
        0.00021473694581550788
    ],
    [
        "1_2",
        "XY",
        "1502",
        918.7912333286428,
        2.5179695545023026,
        0.06965963031309702,
        0.00021925954412065096
    ],
    [
        "1_2",
        "XY",
        "1523",
        922.3621573632796,
        2.3741221992742583,
        0.07342414963030587,
        0.0002150196236681793
    ],
    [
        "1_2",
        "XY",
        "1555",
        925.5071444170701,
        2.3100985242847742,
        0.07257901870552767,
        0.00020593200661730835
    ],
    [
        "1_2",
        "XY",
        "1576",
        927.8672020185043,
        2.572356955432397,
        0.06947266432543296,
        0.00022011540836358712
    ],
    [
        "1_2",
        "XY",
        "1597",
        924.0407603802271,
        2.2373670397983463,
        0.0708483727582641,
        0.00019500729611822719
    ],
    [
        "1_2",
        "XY",
        "1618",
        924.8623154690486,
        2.206145954354988,
        0.0755789113767522,
        0.00020456594910585362
    ],
    [
        "1_2",
        "XY",
        "1639",
        919.0178060057717,
        2.306152939435764,
        0.07968636361567911,
        0.00022630808993925173
    ],
    [
        "1_2",
        "XY",
        "1660",
        921.0575110498723,
        2.089796742972333,
        0.08349596502199792,
        0.00021590658584517237
    ],
    [
        "1_2",
        "XY",
        "1681",
        920.0947901491991,
        2.275067575953845,
        0.0756529072514625,
        0.0002122457938733077
    ],
    [
        "1_2",
        "XY",
        "1702",
        920.7004791124847,
        2.2433937626558635,
        0.0822595626447857,
        0.0002289839107287867
    ],
    [
        "1_2",
        "XY",
        "1734",
        923.5277698883774,
        2.5034475419184616,
        0.07357241399648506,
        0.0002301679881000246
    ],
    [
        "1_2",
        "XY",
        "1755",
        922.3703003312047,
        2.356064624297223,
        0.07484978285991065,
        0.00021878870814515472
    ],
    [
        "1_2",
        "XY",
        "1776",
        920.4498312218169,
        2.3545378973780884,
        0.07459391312621501,
        0.00021721501486202935
    ],
    [
        "1_2",
        "XY",
        "1797",
        917.2384149032292,
        2.258470454333782,
        0.08211418036125169,
        0.0002292155085605291
    ],
    [
        "1_2",
        "XY",
        "1818",
        925.9104005750232,
        2.113548166014933,
        0.07538890473891834,
        0.00019381520462755607
    ],
    [
        "1_2",
        "XY",
        "1839",
        937.2334532381163,
        2.4646370581681114,
        0.06609278271372226,
        0.00019859427026700823
    ],
    [
        "1_2",
        "XY",
        "1860",
        920.3913164275705,
        2.514103681841794,
        0.07758313515931461,
        0.0002439227049720358
    ],
    [
        "1_2",
        "XY",
        "1881",
        919.1804506825215,
        2.2831392224889213,
        0.0808369057717654,
        0.00022950464363307563
    ],
    [
        "1_2",
        "XY",
        "1916",
        922.1354647739623,
        2.3882431871822325,
        0.07514849741583844,
        0.00022156675740491206
    ],
    [
        "1_2",
        "XY",
        "1937",
        924.2845645208822,
        2.405735547202962,
        0.0734119330667717,
        0.00021804941654792124
    ],
    [
        "1_2",
        "XY",
        "1958",
        921.794332645365,
        2.3772097869069717,
        0.07207000268558199,
        0.00020998166151610766
    ],
    [
        "1_2",
        "XY",
        "1979",
        919.8111742466311,
        2.1723067516151677,
        0.07824337410262308,
        0.0002105708884981175
    ],
    [
        "1_2",
        "XY",
        "2000",
        918.7421125848705,
        2.3195754176427417,
        0.07668292533369821,
        0.0002204178205356679
    ],
    [
        "1_2",
        "XY",
        "2021",
        918.5043469909009,
        2.1937996720944484,
        0.08102271376875265,
        0.0002207810612662915
    ],
    [
        "1_2",
        "XY",
        "2042",
        918.629437184438,
        2.341278631722179,
        0.07584110633551604,
        0.00021926628468274363
    ],
    [
        "1_2",
        "XY",
        "2063",
        920.5994704106113,
        2.2728723895265395,
        0.08061226882263929,
        0.00022657908227817627
    ],
    [
        "1_2",
        "XY",
        "2095",
        920.703602894675,
        2.6002114394967206,
        0.07416239311794894,
        0.0002371546751024668
    ],
    [
        "1_2",
        "XY",
        "2116",
        919.4975630536692,
        2.2960296529526065,
        0.07759748637675432,
        0.00022210392240187217
    ],
    [
        "1_2",
        "XY",
        "2137",
        922.705552334724,
        2.44095401461662,
        0.07333112711397187,
        0.00022342206765264458
    ],
    [
        "1_2",
        "XY",
        "2158",
        920.6370579640983,
        2.257250745329602,
        0.08026683817472322,
        0.00022277449255928545
    ],
    [
        "1_2",
        "XY",
        "2179",
        922.1881844534594,
        2.2925699191727715,
        0.07536650333644855,
        0.00021359170966369931
    ],
    [
        "1_2",
        "XY",
        "2200",
        918.9605325764456,
        2.1957090418867393,
        0.08218137748049026,
        0.00022181345815134045
    ],
    [
        "1_2",
        "XY",
        "2221",
        918.4280460956928,
        2.5667747232736358,
        0.0767975704302726,
        0.00024552003664622316
    ],
    [
        "1_2",
        "XY",
        "2242",
        920.4245727321651,
        2.1393013892886055,
        0.08062085116150537,
        0.00021197387310761
    ],
    [
        "1_2",
        "XY",
        "2274",
        923.0405516908061,
        2.411682113430291,
        0.07600018271380757,
        0.0002271504382196987
    ],
    [
        "1_2",
        "XY",
        "2295",
        919.3234275060836,
        2.317804648006692,
        0.08172260762341532,
        0.00023547840526709314
    ],
    [
        "1_2",
        "XY",
        "2316",
        919.0832479526994,
        2.2997215687897024,
        0.07528036550967976,
        0.00021573448240198203
    ],
    [
        "1_2",
        "XY",
        "2337",
        918.9249480281695,
        2.3157453731893782,
        0.07948111457876668,
        0.0002298760274120679
    ],
    [
        "1_2",
        "XY",
        "2358",
        925.3440732973938,
        2.330933300726619,
        0.07410844337824213,
        0.00021407932236532616
    ],
    [
        "1_2",
        "XY",
        "2379",
        921.6100430959901,
        2.2440224077888025,
        0.08050794419598865,
        0.0002227379395257437
    ],
    [
        "1_2",
        "XY",
        "2400",
        917.5276730129738,
        2.313243930090788,
        0.0726158323820322,
        0.00020813390970490794
    ],
    [
        "1_2",
        "XY",
        "2421",
        921.717753964945,
        2.3464204507674844,
        0.07929558108505938,
        0.0002304769950728447
    ],
    [
        "1_2",
        "XY",
        "2453",
        919.4802452053639,
        2.3536975294886213,
        0.07838559006219413,
        0.0002289619754260788
    ],
    [
        "1_2",
        "XY",
        "2474",
        917.7242084198831,
        2.020531880582205,
        0.08324924804537664,
        0.00020432247800781204
    ],
    [
        "1_2",
        "XY",
        "2495",
        920.2381075015518,
        2.5035993529554417,
        0.07488113767819933,
        0.0002335283201744616
    ],
    [
        "1_2",
        "XY",
        "2516",
        917.5374491970235,
        2.3983837771627345,
        0.081232839316265,
        0.00024297974989224928
    ],
    [
        "1_2",
        "XY",
        "2537",
        922.0653066415458,
        2.336830384722971,
        0.07620349739476398,
        0.00022108594347136764
    ],
    [
        "1_2",
        "XY",
        "2558",
        919.3621970502135,
        2.2897825662881384,
        0.08469460622900447,
        0.00024142990243754392
    ],
    [
        "1_2",
        "XY",
        "2579",
        921.4090857615955,
        2.227335870217348,
        0.07834422613132766,
        0.00021567751183847766
    ],
    [
        "1_2",
        "XY",
        "2600",
        918.5188950857882,
        2.1999322287628273,
        0.08296535795456607,
        0.00022718559265201007
    ],
    [
        "1_2",
        "XY",
        "2632",
        917.9489853393709,
        2.3559076923231244,
        0.0769161796398747,
        0.00022538302705867462
    ],
    [
        "1_2",
        "XY",
        "2653",
        919.4434972025938,
        2.3722647208017373,
        0.07939863953733026,
        0.0002334164079587216
    ],
    [
        "1_2",
        "XY",
        "2674",
        920.9449524383816,
        2.1490537820716464,
        0.07577720525529248,
        0.00019876571063644143
    ],
    [
        "1_2",
        "XY",
        "2695",
        919.5889405891606,
        2.2012057843944923,
        0.08431061155307575,
        0.0002303505660504163
    ],
    [
        "1_2",
        "XY",
        "2716",
        924.5750609032362,
        2.401910681661175,
        0.07156807452551182,
        0.00021088765747833156
    ],
    [
        "1_2",
        "XY",
        "2737",
        914.4927464365741,
        2.2460547403545275,
        0.08077450566491527,
        0.00022599106288038605
    ],
    [
        "1_2",
        "XY",
        "2758",
        921.5080480620776,
        2.3758740822462676,
        0.0734731419937881,
        0.00021473532850981424
    ],
    [
        "1_2",
        "XY",
        "2779",
        918.9531956146711,
        2.241016521060046,
        0.07957898542099626,
        0.00021781239585198661
    ],
    [
        "1_2",
        "XY",
        "2818",
        919.1248530299274,
        2.3297115487509927,
        0.07780053987825764,
        0.00022632616261956265
    ],
    [
        "1_2",
        "XY",
        "2839",
        920.7878840939171,
        2.1611076284550688,
        0.08225858496352706,
        0.0002198669309210162
    ],
    [
        "1_2",
        "XY",
        "2860",
        920.4713380460892,
        2.3150857097067172,
        0.07645305390854086,
        0.00021887379526347762
    ],
    [
        "1_2",
        "XY",
        "2881",
        918.0924796559725,
        2.2418964907816408,
        0.08311563416629741,
        0.00023089699177375456
    ],
    [
        "1_2",
        "XY",
        "2902",
        919.7403455851381,
        2.28217008879191,
        0.07714472113984512,
        0.00021827953290039782
    ],
    [
        "1_2",
        "XY",
        "2923",
        921.3879670759404,
        2.1871540920031114,
        0.08213557420162741,
        0.0002226947143628261
    ],
    [
        "1_2",
        "XY",
        "2944",
        921.2745045262061,
        2.26792488828496,
        0.07392583315183997,
        0.00020715379893226902
    ],
    [
        "1_2",
        "XY",
        "2965",
        918.4895274531465,
        2.2073380446459607,
        0.07845541583246132,
        0.0002150565770823469
    ],
    [
        "1_2",
        "XY",
        "2997",
        922.1964604224733,
        2.4184885324770464,
        0.07439069420507614,
        0.0002251397824312103
    ],
    [
        "1_2",
        "XY",
        "3018",
        922.1810771597505,
        2.2141663997579712,
        0.07892499425506669,
        0.0002175397219930281
    ],
    [
        "1_2",
        "XY",
        "3039",
        921.6678447276496,
        2.4327191251612725,
        0.07176911327422007,
        0.00021487404675881908
    ],
    [
        "1_2",
        "XY",
        "3060",
        918.3316806668531,
        2.328296762171865,
        0.07795918465077577,
        0.00022616251022852446
    ],
    [
        "1_2",
        "XY",
        "3081",
        919.3234916138365,
        2.185364332029603,
        0.07487533266730592,
        0.00020154038848698748
    ],
    [
        "1_2",
        "XY",
        "3102",
        919.7405753484921,
        2.385646076884892,
        0.08142506307176252,
        0.00024087467589890656
    ],
    [
        "1_2",
        "XY",
        "3123",
        919.3734177350896,
        2.215333532878356,
        0.07748071271964117,
        0.00021228146309657835
    ],
    [
        "1_2",
        "XY",
        "3144",
        915.0991651947659,
        2.3647882297408285,
        0.08363598125394307,
        0.00024853540253698826
    ]
]