[
    [
        "XscanNumber_YscanNumber",
        "Type",
        "BCID",
        "xsec",
        "xsecErr",
        "SBIL",
        "SBILErr"
    ],
    [
        "1_2",
        "XY",
        "103",
        951.3686020686251,
        1.708911726045926,
        0.06830234192911798,
        0.00014418900552290296
    ],
    [
        "1_2",
        "XY",
        "124",
        942.0410912170421,
        1.6608851030263136,
        0.07637427754878781,
        0.00015971343926994179
    ],
    [
        "1_2",
        "XY",
        "145",
        950.0285521382726,
        1.8262519318882793,
        0.061394598426421046,
        0.00013947902325399183
    ],
    [
        "1_2",
        "XY",
        "166",
        947.4909650999458,
        1.6931553583468906,
        0.07209267660811232,
        0.0001516356917426986
    ],
    [
        "1_2",
        "XY",
        "187",
        953.8894666201454,
        1.7964105963039256,
        0.061168299320231594,
        0.00013585678755158556
    ],
    [
        "1_2",
        "XY",
        "208",
        945.4806954444432,
        1.7122379934573153,
        0.07094613901939867,
        0.0001518217005762801
    ],
    [
        "1_2",
        "XY",
        "229",
        944.2973684043363,
        1.789786474049781,
        0.06658894365272527,
        0.00014863224571565566
    ],
    [
        "1_2",
        "XY",
        "250",
        950.76573500653,
        1.6443722899046256,
        0.07399612633113091,
        0.00015195956577395637
    ],
    [
        "1_2",
        "XY",
        "282",
        947.5201789078702,
        1.715761447364324,
        0.06967415687724976,
        0.00014962942726461987
    ],
    [
        "1_2",
        "XY",
        "303",
        947.3565258007118,
        1.6474743009823674,
        0.07494565098534847,
        0.00015513521262367335
    ],
    [
        "1_2",
        "XY",
        "324",
        946.0491679775073,
        1.7276158485609725,
        0.06777521871430416,
        0.00014537158646078514
    ],
    [
        "1_2",
        "XY",
        "345",
        939.9326948113423,
        1.6669076735481296,
        0.0781363562192399,
        0.00016395359884161263
    ],
    [
        "1_2",
        "XY",
        "366",
        951.2012882101478,
        1.7262668612085341,
        0.06872912345872637,
        0.0001482289210148495
    ],
    [
        "1_2",
        "XY",
        "387",
        943.0593734185468,
        1.6104960098830992,
        0.07778892579418378,
        0.0001579677255747802
    ],
    [
        "1_2",
        "XY",
        "408",
        953.3415733654165,
        1.6895254933790171,
        0.06498763223286756,
        0.0001353343415854231
    ],
    [
        "1_2",
        "XY",
        "429",
        948.9014999586879,
        1.6380975774488482,
        0.07420775488007615,
        0.00015148998377367988
    ],
    [
        "1_2",
        "XY",
        "464",
        949.5160281292967,
        1.750168976578145,
        0.06930630508052793,
        0.00015078935660945935
    ],
    [
        "1_2",
        "XY",
        "485",
        945.8914531239005,
        1.771284699825112,
        0.07321108151904475,
        0.00016273894087809855
    ],
    [
        "1_2",
        "XY",
        "506",
        950.1646288888361,
        1.8280843062122993,
        0.06269940101042083,
        0.0001442775595644572
    ],
    [
        "1_2",
        "XY",
        "527",
        946.4311707122095,
        1.7555699723176108,
        0.07032841203659013,
        0.00015379391582612793
    ],
    [
        "1_2",
        "XY",
        "548",
        949.8611481137996,
        1.782491706648785,
        0.06797959735600938,
        0.00014935206814682502
    ],
    [
        "1_2",
        "XY",
        "569",
        948.1513265935964,
        1.6148656391592262,
        0.07687276513629718,
        0.0001535336905816558
    ],
    [
        "1_2",
        "XY",
        "590",
        956.0033579200395,
        1.8104463936341058,
        0.06550438860782953,
        0.00014478633015383528
    ],
    [
        "1_2",
        "XY",
        "611",
        946.9199906059958,
        1.6062173439161367,
        0.07442415795338486,
        0.0001493200100040314
    ],
    [
        "1_2",
        "XY",
        "643",
        950.1013029241306,
        1.6065986302725124,
        0.06909739618604391,
        0.0001370269484616753
    ],
    [
        "1_2",
        "XY",
        "664",
        943.3060388380793,
        1.718153605682319,
        0.07291960370471921,
        0.00015724153705449256
    ],
    [
        "1_2",
        "XY",
        "685",
        943.4617228966163,
        1.8986774500069368,
        0.06212252233781474,
        0.00014999145682156932
    ],
    [
        "1_2",
        "XY",
        "706",
        951.0179088495261,
        1.6762064680651094,
        0.06908427212270785,
        0.00014473846651474762
    ],
    [
        "1_2",
        "XY",
        "727",
        945.7338425118736,
        1.7299329321937764,
        0.06575258702685897,
        0.00014335486282288939
    ],
    [
        "1_2",
        "XY",
        "748",
        947.6054516721731,
        1.6773335890137475,
        0.07505623302634867,
        0.0001560677788320784
    ],
    [
        "1_2",
        "XY",
        "769",
        946.3127220472857,
        1.9129312966062624,
        0.05979416360845233,
        0.00014264921574480414
    ],
    [
        "1_2",
        "XY",
        "790",
        945.384775155191,
        1.7061316411968084,
        0.06860422035889759,
        0.0001461172858756402
    ],
    [
        "1_2",
        "XY",
        "822",
        953.4873671879702,
        1.7207094207377998,
        0.07010348367906562,
        0.0001491186874372148
    ],
    [
        "1_2",
        "XY",
        "843",
        945.9348396109028,
        1.651277654786646,
        0.07188274982887356,
        0.00014900435997762678
    ],
    [
        "1_2",
        "XY",
        "864",
        950.5529271754604,
        1.795468711088051,
        0.06599861145844736,
        0.00014670752436429907
    ],
    [
        "1_2",
        "XY",
        "885",
        939.1479971282721,
        1.6687749158772796,
        0.07780121740070436,
        0.00016418531798485688
    ],
    [
        "1_2",
        "XY",
        "906",
        949.5577053621319,
        1.7249458691433022,
        0.06439940010804955,
        0.00013803493272360296
    ],
    [
        "1_2",
        "XY",
        "927",
        947.1628971244969,
        1.6064018655554377,
        0.07447403869493739,
        0.00014772876304322116
    ],
    [
        "1_2",
        "XY",
        "948",
        945.7900993089638,
        1.7684164764614794,
        0.06469652561531795,
        0.00014471685658456687
    ],
    [
        "1_2",
        "XY",
        "969",
        942.132177691765,
        1.7536853849675182,
        0.07308762350667898,
        0.0001626947002024528
    ],
    [
        "1_2",
        "XY",
        "1018",
        941.5482322675416,
        1.651495644183309,
        0.07130459875686847,
        0.00014986920299018622
    ],
    [
        "1_2",
        "XY",
        "1039",
        943.5427957202569,
        1.761987758531815,
        0.07571757018694893,
        0.00016923611321518337
    ],
    [
        "1_2",
        "XY",
        "1060",
        945.4169906759979,
        1.6717120637078846,
        0.06729492433248095,
        0.0001401537988770453
    ],
    [
        "1_2",
        "XY",
        "1081",
        950.4254095062909,
        1.8041338953649995,
        0.07322932540428913,
        0.00016290106185775657
    ],
    [
        "1_2",
        "XY",
        "1102",
        945.7151482329363,
        1.7399740855217587,
        0.065389032456239,
        0.0001431437504188689
    ],
    [
        "1_2",
        "XY",
        "1123",
        951.0299410981806,
        1.632571543165658,
        0.07208546878336232,
        0.00014569561009710664
    ],
    [
        "1_2",
        "XY",
        "1144",
        949.8753426661399,
        1.6745359266783904,
        0.06650527957639593,
        0.00013677519039301326
    ],
    [
        "1_2",
        "XY",
        "1165",
        947.1435484092427,
        1.5888605533841702,
        0.07596169264019473,
        0.00014957664619802036
    ],
    [
        "1_2",
        "XY",
        "1197",
        945.0447974146407,
        1.7635586398159682,
        0.06910135884860384,
        0.00015296274064232753
    ],
    [
        "1_2",
        "XY",
        "1218",
        946.683685344086,
        1.5419565773984036,
        0.07654598050626611,
        0.0001458949797129679
    ],
    [
        "1_2",
        "XY",
        "1239",
        941.8291106023299,
        1.8668589173043935,
        0.06675444678799655,
        0.00015676055221970164
    ],
    [
        "1_2",
        "XY",
        "1260",
        944.7264088197343,
        1.6272321411673991,
        0.07543994324234334,
        0.0001531532405840593
    ],
    [
        "1_2",
        "XY",
        "1281",
        946.9652722877157,
        1.7760318154314862,
        0.06784821330995684,
        0.00015131435556387042
    ],
    [
        "1_2",
        "XY",
        "1302",
        944.7665795469437,
        1.6414657446383554,
        0.07734658056954234,
        0.00015958929225040968
    ],
    [
        "1_2",
        "XY",
        "1323",
        947.3801979796631,
        1.777818819951701,
        0.06235379787889527,
        0.00013976458444560678
    ],
    [
        "1_2",
        "XY",
        "1344",
        947.9384971508565,
        1.6894452925272478,
        0.07174727700545935,
        0.0001511420540198148
    ],
    [
        "1_2",
        "XY",
        "1376",
        946.5046251752178,
        1.8502605520930777,
        0.06747964136563354,
        0.00015532791699276668
    ],
    [
        "1_2",
        "XY",
        "1397",
        943.8104441795214,
        1.6328764588915632,
        0.07512212407976161,
        0.00015256186159958373
    ],
    [
        "1_2",
        "XY",
        "1418",
        945.9960291505207,
        1.6815227030971722,
        0.06874444152870407,
        0.0001445522772465671
    ],
    [
        "1_2",
        "XY",
        "1439",
        943.8076472992291,
        1.630473768869723,
        0.0727565210324011,
        0.00014934214284014437
    ],
    [
        "1_2",
        "XY",
        "1460",
        953.5412374795524,
        1.7083586471608507,
        0.06553482393450578,
        0.00013863450402244715
    ],
    [
        "1_2",
        "XY",
        "1481",
        937.8550053616788,
        1.7220752963509043,
        0.0736717427999018,
        0.00015867028561840913
    ],
    [
        "1_2",
        "XY",
        "1502",
        946.3524334024685,
        1.8044865871020137,
        0.06473453649161676,
        0.00014745176862208996
    ],
    [
        "1_2",
        "XY",
        "1523",
        946.1016812818383,
        1.736293692056592,
        0.06947735531648395,
        0.0001509198653515028
    ],
    [
        "1_2",
        "XY",
        "1555",
        949.1869429503107,
        1.6918504652930775,
        0.0687147395810569,
        0.00014378911336347176
    ],
    [
        "1_2",
        "XY",
        "1576",
        955.1366656992288,
        1.721951199697027,
        0.0651135736742935,
        0.0001412524400756452
    ],
    [
        "1_2",
        "XY",
        "1597",
        949.3614459771076,
        1.6728286492675517,
        0.06689900233336217,
        0.00013810784945656428
    ],
    [
        "1_2",
        "XY",
        "1618",
        950.7094707631328,
        1.2703739915229249,
        0.07140500812770459,
        0.00011686927959047452
    ],
    [
        "1_2",
        "XY",
        "1639",
        949.9902052419197,
        1.6612307607632666,
        0.07454820379298492,
        0.00015394892030472568
    ],
    [
        "1_2",
        "XY",
        "1660",
        944.3969447244305,
        1.5639685884427026,
        0.07896684973036015,
        0.00015367889372941448
    ],
    [
        "1_2",
        "XY",
        "1681",
        949.5666619299705,
        1.5338906259431182,
        0.07086660360687205,
        0.0001401276059386897
    ],
    [
        "1_2",
        "XY",
        "1702",
        945.6434501699999,
        1.689948647113962,
        0.07736058212079776,
        0.00016331199856389392
    ],
    [
        "1_2",
        "XY",
        "1734",
        948.5270630291923,
        1.8243727158777425,
        0.06869420616551913,
        0.00015734823867088029
    ],
    [
        "1_2",
        "XY",
        "1755",
        946.6448315334178,
        1.756516417275732,
        0.07059459946023046,
        0.00015569927757124003
    ],
    [
        "1_2",
        "XY",
        "1776",
        947.6563727300164,
        1.6901922216984664,
        0.07005967741866363,
        0.00014798792394826268
    ],
    [
        "1_2",
        "XY",
        "1797",
        948.283844157929,
        1.6319426987114025,
        0.07668243621033297,
        0.0001556990065808674
    ],
    [
        "1_2",
        "XY",
        "1818",
        950.14152191741,
        1.4917313593818344,
        0.07155261029913255,
        0.0001313229825498108
    ],
    [
        "1_2",
        "XY",
        "1839",
        956.8746142812548,
        1.665965796928004,
        0.06316342962912722,
        0.00013252617974032885
    ],
    [
        "1_2",
        "XY",
        "1860",
        947.785693199048,
        1.7905214853576994,
        0.07207122492995302,
        0.00016297402745730046
    ],
    [
        "1_2",
        "XY",
        "1881",
        943.150896886838,
        1.6872755820171206,
        0.07620099456521015,
        0.00016062579874970965
    ],
    [
        "1_2",
        "XY",
        "1916",
        947.2954569052794,
        1.7446766249812025,
        0.07078261404750269,
        0.00015362848854381621
    ],
    [
        "1_2",
        "XY",
        "1937",
        947.4478339144057,
        1.7678817394531747,
        0.06952795662920405,
        0.00015364913427329588
    ],
    [
        "1_2",
        "XY",
        "1958",
        954.074453327783,
        1.6952846152138017,
        0.06735118244113326,
        0.00014118927779907121
    ],
    [
        "1_2",
        "XY",
        "1979",
        945.2566543554594,
        1.5957524854862615,
        0.07364941226171662,
        0.0001471904298043248
    ],
    [
        "1_2",
        "XY",
        "2000",
        946.8957538647184,
        1.7307970010542735,
        0.07174659332380177,
        0.00015488528379758665
    ],
    [
        "1_2",
        "XY",
        "2021",
        942.3017198552947,
        1.6132675469155435,
        0.0764085929719204,
        0.00015465100945041978
    ],
    [
        "1_2",
        "XY",
        "2042",
        951.3233064755366,
        1.7118206141926822,
        0.07056228588280604,
        0.00015150225298547727
    ],
    [
        "1_2",
        "XY",
        "2063",
        951.5463229631326,
        1.6977581902517864,
        0.07526092590770567,
        0.00015911831075892112
    ],
    [
        "1_2",
        "XY",
        "2095",
        951.1564108901898,
        1.8235449950390883,
        0.0692557884050451,
        0.00015581858044030805
    ],
    [
        "1_2",
        "XY",
        "2116",
        944.8419938924679,
        1.722855043337406,
        0.07278037459478783,
        0.00015736639819857208
    ],
    [
        "1_2",
        "XY",
        "2137",
        946.0175911155667,
        1.8007791327771303,
        0.06884329228208459,
        0.00015605195783874014
    ],
    [
        "1_2",
        "XY",
        "2158",
        952.7518013809646,
        1.5840813317049967,
        0.0748953540231899,
        0.000147168094736918
    ],
    [
        "1_2",
        "XY",
        "2179",
        949.7061613751716,
        1.6979338514346118,
        0.07069276055435364,
        0.0001498427422098715
    ],
    [
        "1_2",
        "XY",
        "2200",
        947.6275328260286,
        1.6015120246704195,
        0.07728022282711333,
        0.0001540980690969362
    ],
    [
        "1_2",
        "XY",
        "2221",
        950.4401776229811,
        1.8202655518294886,
        0.07104590382132762,
        0.00016181843109494925
    ],
    [
        "1_2",
        "XY",
        "2242",
        950.6113648052553,
        1.600410554630128,
        0.07544230938221755,
        0.00014858801785419388
    ],
    [
        "1_2",
        "XY",
        "2274",
        948.4422848162651,
        1.7146984010507478,
        0.07123174412568954,
        0.00015266767542863497
    ],
    [
        "1_2",
        "XY",
        "2295",
        944.2019601060284,
        1.6924236076012387,
        0.07703360218509671,
        0.00016437897397922517
    ],
    [
        "1_2",
        "XY",
        "2316",
        945.7665740819056,
        1.6796581416215333,
        0.07044428743267762,
        0.0001491180577668818
    ],
    [
        "1_2",
        "XY",
        "2337",
        941.5805269536396,
        1.6388065507145146,
        0.07485132315551452,
        0.00015694072418441846
    ],
    [
        "1_2",
        "XY",
        "2358",
        947.3496289194161,
        1.6725059803035123,
        0.0700803038280052,
        0.00014781273357236015
    ],
    [
        "1_2",
        "XY",
        "2379",
        949.1059958707556,
        1.7049624919560327,
        0.07567888073460279,
        0.00015942643337692815
    ],
    [
        "1_2",
        "XY",
        "2400",
        949.2098051121175,
        1.7397107928088102,
        0.06756948072090696,
        0.00014597725530306858
    ],
    [
        "1_2",
        "XY",
        "2421",
        952.0402749086592,
        1.7446675598184844,
        0.07383095605210073,
        0.00016081128795459424
    ],
    [
        "1_2",
        "XY",
        "2453",
        946.6875654392638,
        1.7075723912508611,
        0.0734494546667988,
        0.0001568836723626994
    ],
    [
        "1_2",
        "XY",
        "2474",
        953.7685160721174,
        1.5295296326399999,
        0.07791217490697942,
        0.00014425214325322085
    ],
    [
        "1_2",
        "XY",
        "2495",
        948.3654057533762,
        1.8075232649393256,
        0.0697868584199885,
        0.0001586441956787503
    ],
    [
        "1_2",
        "XY",
        "2516",
        943.3629262746422,
        1.7586993863964309,
        0.07594845911455729,
        0.0001670864782847394
    ],
    [
        "1_2",
        "XY",
        "2537",
        949.8688404564366,
        1.6532181187134989,
        0.07112765736378196,
        0.0001491811683197351
    ],
    [
        "1_2",
        "XY",
        "2558",
        948.990077621998,
        1.6867741381685564,
        0.07879706207496309,
        0.0001663848085726186
    ],
    [
        "1_2",
        "XY",
        "2579",
        949.887403256375,
        1.6279897711024893,
        0.07334016346854039,
        0.00014861853438877994
    ],
    [
        "1_2",
        "XY",
        "2600",
        941.3966336103691,
        1.669074645097265,
        0.07827187757115864,
        0.00016404872685879044
    ],
    [
        "1_2",
        "XY",
        "2632",
        945.0391253986339,
        1.6963805774163925,
        0.0719408099292434,
        0.00015228047710673763
    ],
    [
        "1_2",
        "XY",
        "2653",
        947.2035100528343,
        1.7193100725739867,
        0.07438002364320233,
        0.00016041306622968941
    ],
    [
        "1_2",
        "XY",
        "2674",
        952.0337088483839,
        1.6087850237682908,
        0.07110565809198555,
        0.00014010311983986742
    ],
    [
        "1_2",
        "XY",
        "2695",
        943.381691415997,
        1.6711901798409559,
        0.07969984731607219,
        0.00016645640938987166
    ],
    [
        "1_2",
        "XY",
        "2716",
        951.1197652597934,
        1.3833300425110815,
        0.06736838576127963,
        0.00012010285570018974
    ],
    [
        "1_2",
        "XY",
        "2737",
        943.026125302365,
        1.6493309849567022,
        0.07564888453106967,
        0.00015743638003375314
    ],
    [
        "1_2",
        "XY",
        "2758",
        951.830050424998,
        1.7405305648979583,
        0.06861464949140429,
        0.00014727634946963208
    ],
    [
        "1_2",
        "XY",
        "2779",
        951.5325385139028,
        1.698424610177656,
        0.07455408167484943,
        0.00015412792815459278
    ],
    [
        "1_2",
        "XY",
        "2818",
        943.2361548705652,
        1.7178687374798682,
        0.07304433060357664,
        0.00015795051920652176
    ],
    [
        "1_2",
        "XY",
        "2839",
        946.0640377882572,
        1.5664389655064312,
        0.07769225737780759,
        0.00015237087340838685
    ],
    [
        "1_2",
        "XY",
        "2860",
        950.2280599754804,
        1.677132815660724,
        0.07142535109540625,
        0.00014927687309625607
    ],
    [
        "1_2",
        "XY",
        "2881",
        946.30038761768,
        1.5889891991474985,
        0.07782738734808836,
        0.00015498063152005767
    ],
    [
        "1_2",
        "XY",
        "2902",
        946.5426415398626,
        1.6718607844353974,
        0.07217820310208808,
        0.00014972642012824094
    ],
    [
        "1_2",
        "XY",
        "2923",
        948.0550048606033,
        1.6544707707426556,
        0.07717938108844674,
        0.00015908261709600473
    ],
    [
        "1_2",
        "XY",
        "2944",
        949.6323202389846,
        1.6990826881909407,
        0.06924441273807556,
        0.0001463486077813644
    ],
    [
        "1_2",
        "XY",
        "2965",
        947.6146197374673,
        1.603423961670702,
        0.0731502327875528,
        0.00014650983441798015
    ],
    [
        "1_2",
        "XY",
        "2997",
        944.7710477894194,
        1.6851505951159127,
        0.06985086956694964,
        0.00015001662833308394
    ],
    [
        "1_2",
        "XY",
        "3018",
        943.011121981109,
        1.6623987232438364,
        0.07490654487494074,
        0.0001564025975850603
    ],
    [
        "1_2",
        "XY",
        "3039",
        950.2716998484968,
        1.7323252821353092,
        0.0672895467756776,
        0.00014420289833380766
    ],
    [
        "1_2",
        "XY",
        "3060",
        946.2561997085903,
        1.7558374293978722,
        0.07285496254330479,
        0.00015963458734688643
    ],
    [
        "1_2",
        "XY",
        "3081",
        946.7616483596624,
        1.577889561844613,
        0.07047743992431572,
        0.00013937238558188429
    ],
    [
        "1_2",
        "XY",
        "3102",
        949.5779277147119,
        1.734776087691962,
        0.07591182450287043,
        0.0001644422009235193
    ],
    [
        "1_2",
        "XY",
        "3123",
        947.1940932538394,
        1.651178720958868,
        0.07264232970120674,
        0.00014912176075759434
    ],
    [
        "1_2",
        "XY",
        "3144",
        942.4423489162078,
        1.676192506924889,
        0.07762653794800929,
        0.0001651362681065271
    ]
]