Scan,Type,BCID,sigma,sigmaErr,Mean,MeanErr,CapSigma,CapSigmaErr,peak,peakErr,rate0sep,rate0sepErr,peakRateRatio,peakRateRatioErr,area,areaErr,fitStatus,chi2,ndof,covStatus
1,X,103,0.08873522381735365,9.129360131383e-05,-0.0023323836991353086,0.00016018137243360643,0.1254905569827136,0.0001291086491359006,0.010088861881742149,1.5565678259459872e-05,0.010356240586290493,3.220006890998067e-05,0.9741818759113904,0.0033813798377914637,0.003173534014964596,5.885091294694177e-06,0,878.8661256326584,16,3
1,X,124,0.08652584755242736,7.871778105643422e-05,-0.0020687637171969107,0.00014648033358566925,0.12236602710446964,0.00011132375356992519,0.010873038044611809,1.602583505282544e-05,0.01116613054048884,2.8918573258029682e-05,0.9737516505996178,0.002901666820725746,0.0033350450264035742,5.776527545505659e-06,0,1700.2074011742516,16,3
1,X,145,0.08769218695502072,8.369470071866385e-05,-0.0025069112921579503,0.00016327454810200097,0.12401548010594732,0.00011836218085509165,0.01050736622738502,1.7018462563612903e-05,0.010856739597991015,2.9047487364632854e-05,0.9678196785091313,0.0030269352917200454,0.0032663273143848253,6.140553803455735e-06,0,1460.8275927486713,16,3
1,X,166,0.0857144680634703,8.10166659739346e-05,-0.0024280844546815295,0.00014502675118419528,0.12121856322695523,0.00011457486779858916,0.011053225851025807,1.640813914215313e-05,0.011399513746568595,3.1288105844169024e-05,0.9696225730990478,0.003025618722603306,0.00335852132628351,5.910452076023871e-06,0,1497.6097145322708,16,3
1,X,187,0.0882651386671416,9.536927510361505e-05,-0.0029928804530093586,0.00016236575115171324,0.12482575618781355,0.00013487252228522317,0.010377219487385321,1.7594923863738327e-05,0.010769124390864008,3.561741337166434e-05,0.9636084709160608,0.0035813957946340524,0.003246946571660334,6.528126976745643e-06,0,1574.0067210961327,16,3
1,X,208,0.08569115384726594,8.335571378940664e-05,-0.0031350256669801604,0.00014843139836373992,0.12118559194620293,0.0001178827809422689,0.010804475646894136,1.6500517558023475e-05,0.01118344304992267,3.4140559715431875e-05,0.966113530391595,0.003297797988401262,0.0032820456523677544,5.942725633961927e-06,0,1550.4664902232298,16,3
1,X,229,0.08737884249408528,8.998741839147494e-05,-0.003469435109935772,0.00015497989680120138,0.12357234411959794,0.00012726142753216596,0.010552427923066512,1.7354418019311352e-05,0.01090100697489205,3.354223545179698e-05,0.9680232245857278,0.003377348743629012,0.003268613828783203,6.342521696711853e-06,0,1531.6244602076326,16,3
1,X,250,0.08656017374282327,7.663304644970675e-05,-0.0027853976054496754,0.0001454449942401814,0.12241457166847214,0.00010837549361514265,0.010997506620170055,1.659517077045667e-05,0.011443095245656867,3.6113824247248537e-05,0.9610604809344804,0.003361936873239729,0.003374561004099753,5.90388670142172e-06,0,1883.8957684438076,16,3
1,X,282,0.08840859759834464,8.471890345034982e-05,-0.0012461876043858714,0.0001507277571116633,0.12502863775396444,0.00011981062224886152,0.01036448493027254,1.6815355549056255e-05,0.010705522873136088,4.03435397385215e-05,0.968143737872035,0.003972177264054176,0.0032482328785746195,6.120535469542203e-06,0,1012.453900801343,16,3
1,X,303,0.08631622181032601,8.034811808306603e-05,-0.002228794619427558,0.0001418740619446846,0.1220695715369674,0.00011362939830422691,0.0110078594063994,1.6725021497013676e-05,0.01142071586683907,3.533397249889462e-05,0.9638502117333616,0.0033221933940505073,0.003368218279411844,6.001654636570225e-06,0,1626.0003072724064,16,3
1,X,324,0.08689936129188475,8.281050753562806e-05,-0.0023812401745331993,0.0001433131232731921,0.12289425530054299,0.0001171117428638846,0.010706615610302776,1.545378678062625e-05,0.011105159246768212,3.369241641394168e-05,0.9641118485913277,0.0032392111177604915,0.003298175242025821,5.704483401985927e-06,0,1629.3894717190162,16,3
1,X,345,0.08506824460143128,8.175226791530526e-05,-0.002926591024872547,0.00014120536910587885,0.12030466524261596,0.00011561516604058353,0.011157561740531145,1.6566143507583804e-05,0.011486329545912338,3.11532855342959e-05,0.9713774705777798,0.003003509289158282,0.003364664002942312,5.950824040425596e-06,0,1585.6151587505778,16,3
1,X,366,0.08724017627461227,8.191718593414957e-05,-0.0033751908738081193,0.00014569478070725525,0.12337624047137619,0.00011584839533951286,0.010678844099710094,1.7405288613678607e-05,0.011048447759661528,3.728443388522321e-05,0.9665470056978613,0.003622251381863605,0.003302521949482088,6.212093403714236e-06,0,1687.2090346237499,16,3
1,X,387,0.08515568617156054,7.721656187532837e-05,-0.0031364332247091242,0.00013897965043024963,0.12042832629700795,0.00010920070904391066,0.011135068423792274,1.6862602557321522e-05,0.011522649141018708,3.174269686474188e-05,0.9663635755560142,0.003037870501758942,0.0033613325018612143,5.933055676536741e-06,0,1914.4871721354284,16,3
1,X,408,0.08738185716382535,8.940818067372897e-05,-0.002660856795663037,0.00015816847575468934,0.1235766075064304,0.00012644226169589157,0.010623749385915583,1.6458583932290173e-05,0.011037895530230987,3.273019032288031e-05,0.9624796100686833,0.003220043867094589,0.00329081918013034,6.109781470070514e-06,0,1904.810020827204,16,3
1,X,429,0.08598626790179946,8.043368554122481e-05,-0.002918545547703738,0.0001501516052058376,0.12160294624457113,0.00011375040896405286,0.011114499943887236,1.6828639154963275e-05,0.011551127541628849,3.334187173197819e-05,0.9622004348780618,0.0031362715911200556,0.0033878483319737763,6.029576258566024e-06,0,1768.4672968794823,16,3
1,X,464,0.08874018270387339,8.672394496129201e-05,-0.00182142223134091,0.00016020541505513727,0.1254975699072841,0.00012264617914675702,0.010355200846314302,1.651626953604541e-05,0.010693182194863218,3.192104700448875e-05,0.9683928186773741,0.0032775805097232085,0.0032574951464322895,6.093357692314604e-06,0,1207.1626129030096,16,3
1,X,485,0.08651984197377975,8.42971921894982e-05,-0.0017959139687671567,0.00015232533619975887,0.1223575339336963,0.00011921423246435969,0.01085371884147289,1.6642164118752606e-05,0.011194370158780815,3.148635716665644e-05,0.969569407436405,0.003106000204088562,0.0033288882545013613,6.04753206253857e-06,0,1097.426148580313,16,3
1,X,506,0.08736916493831574,8.88801642172906e-05,-0.0015197852146624257,0.00016800116556990718,0.12355865798897803,0.00012569553366204023,0.01064730630124608,1.822169546969036e-05,0.010936910954594682,3.4498301463321815e-05,0.9735204341928982,0.003493631958466854,0.003297637133010258,6.565316690926916e-06,0,959.0895154585189,16,3
1,X,527,0.08615173394883296,8.688604981819775e-05,-0.0010505651665630535,0.00015278880326342155,0.12183695057239818,0.00012287543003391965,0.010987525945042187,1.7102008699519197e-05,0.011248521553935038,3.917814502800081e-05,0.9767973410868784,0.0037264117988002514,0.003355589821494989,6.223502506988829e-06,0,955.875540490632,16,3
1,X,548,0.08700833500358449,9.242034523077863e-05,-0.0011508945459413715,0.00016085938027419908,0.12304836740157088,0.00013070210566457074,0.010745417828512866,1.626783931388585e-05,0.011093067279559493,3.506026086189086e-05,0.9686606560399017,0.0033946141164030957,0.003314279247403361,6.129412726558339e-06,0,1166.5768752744625,16,3
1,X,569,0.08537761771103798,8.041215858445801e-05,-0.0007103561284185235,0.00015139420981656937,0.12074218489005528,0.00011371996524983663,0.011112599610248502,1.5922576917904262e-05,0.011354839526393394,3.487122131673114e-05,0.9786663725557877,0.0033165596679807312,0.003363292442705359,5.76693865156554e-06,0,1002.7008936000569,16,3
1,X,590,0.08757704127529245,8.790707991508046e-05,-0.0011919770065370358,0.00017277536964580828,0.12385263952402692,0.0001243193846445223,0.010652746297882033,1.7715678095343902e-05,0.010912840174990121,4.028217856423286e-05,0.9761662525119567,0.0039520934603741575,0.0033071720195836066,6.424066150826994e-06,0,1099.190350729932,16,3
1,X,611,0.08617562778216556,8.072584762035772e-05,-0.002066551985593249,0.00014706799296444742,0.12187074155555422,0.00011416358853877373,0.010959794327371845,1.698469834406083e-05,0.011232255583799247,2.7928271785830564e-05,0.97574296147424,0.002858779455238195,0.0033480488972719236,6.062811768995993e-06,0,1421.7008622035992,16,3
1,X,643,0.088433744978054,7.402315332732013e-05,-0.0021555803174722176,0.00013894611490925665,0.12506420151940756,0.00010468454736511923,0.010372651758623659,1.480775989427321e-05,0.010683580603721534,3.252228032588287e-05,0.9708965695462094,0.0032643998495480936,0.003251717036674581,5.381196852213754e-06,0,1158.0609375121542,16,3
1,X,664,0.08610473711963526,8.528548229804018e-05,-0.0009898992127590346,0.00015148798934026312,0.12177048701915827,0.00012061188573941894,0.01077318659010866,1.6587772905409768e-05,0.011043838305609843,3.017704586189567e-05,0.9754929664839712,0.0030595660785213796,0.003288335787587495,6.020279553584457e-06,0,1011.8747631079066,16,3
1,X,685,0.08905486745379279,8.911627339940586e-05,-0.0009508067261496697,0.0001573669670679347,0.1259426013484921,0.00012602944246958847,0.010185421380225356,1.7901506810687778e-05,0.010572602987613328,3.562810085618074e-05,0.9633787811911989,0.0036614631805155767,0.003215448769093474,6.503162872814177e-06,0,1252.642460148505,16,3
1,X,706,0.08656794358880378,8.264647278662347e-05,-0.0008674562005648098,0.00015199396113710074,0.12242555989003534,0.00011687976269714184,0.010263564835919529,1.5428661442279643e-05,0.010556508164513824,3.5139188730952616e-05,0.9722499784939269,0.003551019482517908,0.003149635256109632,5.608828768807907e-06,0,859.8968614773263,16,3
1,X,727,0.08743995905322967,8.725751151342242e-05,-0.0011264316298131582,0.0001579525613708985,0.1236587759864255,0.0001234007562012085,0.010649466076603973,1.6185132005446235e-05,0.010911962934877775,3.090960537780977e-05,0.9759441211594674,0.0031372668544185035,0.0033009786243180027,6.001651451364211e-06,0,1228.849307853603,16,3
1,X,748,0.08575917737652405,7.800526532829595e-05,-0.0011611231968807658,0.0001464644436367418,0.12128179174384024,0.0001103161041637879,0.011107830236539353,1.6780604039138442e-05,0.011299602360132135,3.666402462206447e-05,0.9830284183920133,0.003518419461533015,0.0033768733464858876,5.9547604771122215e-06,0,1164.904294470994,16,3
1,X,769,0.08829142474978985,8.549917673462657e-05,-0.001506689069440455,0.00016245529336696716,0.12486293032239637,0.0001209140953098431,0.010443993291502855,1.7032212823124313e-05,0.010757345581427413,3.389899016783431e-05,0.970870854008301,0.0034448648475876855,0.003268812734845471,6.199813715951884e-06,0,1173.946337489077,16,3
1,X,790,0.08669042024755425,8.014256553127917e-05,-0.0017458935908927,0.0001436016794198523,0.12259876804191439,0.00011333870309770955,0.010879930979366091,1.7170983532807257e-05,0.011209408665136462,3.8805771940418934e-05,0.9706070413156482,0.003692837436126621,0.0033435065671884884,6.11545312557695e-06,0,1326.746926887913,16,3
1,X,822,0.08836692191031326,8.347127461370093e-05,-0.001707046047602339,0.00015243032296702091,0.12496969943072922,0.00011804620862726489,0.010310835660259098,1.553954084406008e-05,0.010530983923019903,2.7748793752835672e-05,0.9790951857518672,0.0029720698979654792,0.00322989589382614,5.74489491321168e-06,0,1004.5713514477324,16,3
1,X,843,0.0866898312257284,8.135659435241506e-05,-0.0011479442019409034,0.00015215446365135407,0.12259793503925975,0.00011505559912167174,0.010277020349467172,1.58923552818606e-05,0.010524921695006018,3.25982280861962e-05,0.9764462527396786,0.0033802887381283323,0.0031582049211061813,5.7128489804390815e-06,0,836.071358892245,16,3
1,X,864,0.08746919732002821,9.145267308437637e-05,-0.0009077840377025505,0.0001656097781800291,0.12370012513987227,0.00012933361059119797,0.010688498861304097,1.7331230071839076e-05,0.011020423634235766,3.9580647225759556e-05,0.9698809425165363,0.0038219464344305975,0.003314185313650578,6.3942027869455686e-06,0,876.541968806114,16,3
1,X,885,0.08518448964832323,7.902202944707125e-05,-0.0016081582147735567,0.00014485540670697774,0.12046906056448925,0.00011175402577029425,0.011191919019061927,1.8171327183691594e-05,0.011501217498556232,3.755444210347461e-05,0.9731073271561788,0.003548577475773031,0.003379636695272142,6.319705867035222e-06,0,1359.5459014790674,16,3
1,X,906,0.08753080358836131,8.486773046220135e-05,-0.0012132236883097914,0.00015761409690181913,0.12378724956007614,0.00012002109542746942,0.010665449089306443,1.6272942428201795e-05,0.01092503997596501,2.70578452653211e-05,0.9762389073880129,0.0028398155370520355,0.003309367477319714,5.98257131139773e-06,0,1255.0555653811002,16,3
1,X,927,0.08609199465300517,7.829658682310401e-05,-0.0017294724775126166,0.00014812294720427014,0.1217524664500319,0.00011072809497275626,0.011083116770876497,1.596221404992701e-05,0.011356400941007372,2.718745811351905e-05,0.975935670856419,0.002726616715004483,0.003382436179615021,5.7614321522585096e-06,0,1304.1088990287435,16,3
1,X,948,0.0876907266898638,8.397521445534099e-05,-0.0012363995614969997,0.00015953147599805854,0.12401341497915774,0.00011875888718593242,0.01057704086351,1.7152190584144913e-05,0.010882806254836916,2.893672392990956e-05,0.9719038100865743,0.0030269284493439443,0.0032879316690577177,6.192129461497868e-06,0,1082.8509239628743,16,3
1,X,969,0.08571983648072189,7.936241972123905e-05,-0.0016900768700053323,0.00013768369055312343,0.1212261553154409,0.00011223541031252227,0.011074457302254646,1.7345776362585985e-05,0.011383622128928529,3.6117742487329554e-05,0.9728412606135072,0.0034422355939846493,0.0033651832530922662,6.122807079660191e-06,0,1303.881915473686,16,3
1,X,1018,0.08665528438507995,7.841716422822427e-05,-0.001937961153701671,0.00013551193190241564,0.12254907842867757,0.00011089861717439309,0.010670858491750793,1.6883018110207013e-05,0.011009811109731763,3.282827189219678e-05,0.969213584628953,0.003271571978022751,0.003277927505931486,5.974589586253127e-06,0,1080.087771372984,16,3
1,X,1039,0.08509999641868178,8.285508458231379e-05,-0.002224607449474329,0.00015276406245061505,0.1203495690932016,0.00011717478432787809,0.011136056196644411,1.8546119282253578e-05,0.011348449023991585,3.472411017331066e-05,0.9812844180823161,0.003418482872130132,0.0033594322550000123,6.480773164402093e-06,0,824.4096956928753,16,3
1,X,1060,0.085892789476278,7.928951370161089e-05,-0.0018579330296018114,0.00015076846923938337,0.1214707477874094,0.00011213230563078547,0.011001452133369874,1.5306329723619297e-05,0.01121992991047141,2.4463892549282705e-05,0.9805277057125256,0.0025361090189702255,0.003349744268878025,5.593041909142414e-06,0,941.4299660720338,16,3
1,X,1081,0.08543820460348063,7.906476823068392e-05,-0.002136279436939236,0.00014585491593593756,0.12082786769504972,0.00011181446753771862,0.010715806837229854,1.6391882645771128e-05,0.010988265708777175,3.155682200257638e-05,0.9752045610500949,0.0031731737487978133,0.003245502305425404,5.802398923017669e-06,0,897.2532063024769,16,3
1,X,1102,0.08617221094471605,8.33916391754397e-05,-0.0018604456995917516,0.00015188616017705034,0.12186590941769271,0.00011793358711043034,0.010892864185541829,1.7727982877112718e-05,0.01122451150862234,3.39873086840576e-05,0.9704532956444697,0.0033360477898959667,0.0033274708281075495,6.300455366456028e-06,0,1153.2594855500965,16,3
1,X,1123,0.08530639400822923,8.12510931256157e-05,-0.0018488986869871836,0.00015359227082199973,0.12064145936358073,0.00011490639785588508,0.01126645185337938,1.6783721661715343e-05,0.011567356741581533,3.466961904340489e-05,0.9739867201362882,0.0032599329497864107,0.0034070121423919295,6.024165136738601e-06,0,1117.3831639887426,16,3
1,X,1144,0.08635158715975694,8.45141928669243e-05,-0.001579586748924848,0.00015670098505720287,0.12211958569377068,0.00011952111776541985,0.010880231070495848,1.4673009278065117e-05,0.011105557425443198,2.5894748803090537e-05,0.9797104867126146,0.002638950911516078,0.003330530194103418,5.549707900859205e-06,0,1180.5814064502488,16,3
1,X,1165,0.08630878362586099,8.047373125377575e-05,-0.0020374672628059886,0.00014434371654956283,0.12205905235561754,0.00011380704215385729,0.011060559021563877,1.572816546931274e-05,0.011349801248021638,2.5874964538506865e-05,0.9745156571346852,0.0026184311870406122,0.00338405182658753,5.754335356057618e-06,0,1541.6405950166497,16,3
1,X,1197,0.08668834497707606,8.151230281946644e-05,-0.0019262089396130046,0.0001455558011285039,0.12259583316625855,0.00011527580414755212,0.010701091757976915,1.762809051338724e-05,0.010956411099766762,3.458696867700455e-05,0.9766968088852305,0.003477768574765186,0.003288468844509695,6.237525199259976e-06,0,791.6861362421132,16,3
1,X,1218,0.08485950823741145,7.590864092774301e-05,-0.002030000677828174,0.00014665834127240409,0.12000946744565866,0.00010735102950132358,0.011332684759468319,1.4717299849234545e-05,0.01150838163244934,2.510939156499627e-05,0.984733138108175,0.0025003150780698027,0.003409088305568429,5.375868712613016e-06,0,984.4059948902511,16,3
1,X,1239,0.08581615361349948,8.802647806006339e-05,-0.0018954404218751342,0.00014657537664523253,0.12136236831090386,0.00012448823912047935,0.010904694292093415,1.804312313887599e-05,0.011192523450859295,4.8956303251780787e-05,0.9742838011437195,0.004556253946693358,0.003317320800550824,6.4580859011840675e-06,0,912.1713632478339,16,3
1,X,1260,0.08435055624594417,7.692671305286342e-05,-0.0018823196182543576,0.00014291069892255178,0.11928970063672883,0.00010879080090814286,0.011145163655108096,1.5768690962150257e-05,0.011320535082273599,3.076404269803287e-05,0.9845085567165363,0.003016330855268631,0.003332570402483769,5.609728630585521e-06,0,873.9851063558679,16,3
1,X,1281,0.0859942550501593,7.714666982618388e-05,-0.0018360520449837087,0.00015316347474943784,0.12161424177810631,0.00010910186676010847,0.010951992117513607,1.6611997999554685e-05,0.011216480571953165,2.6702201566825608e-05,0.9764196574190204,0.002756211211299942,0.0033386238630585393,5.883466834848376e-06,0,1069.2237678414635,16,3
1,X,1302,0.08398240611771753,8.182742119021347e-05,-0.002020814532175255,0.00015217917552150063,0.11876905773240132,0.00011572144882121549,0.011522783669204378,1.889622724816517e-05,0.011728158229119432,3.501948604832758e-05,0.9824887628643058,0.003346966985618507,0.0034304465234133927,6.543629213579568e-06,0,1031.9224658586961,16,3
1,X,1323,0.08691641760690157,7.72897079991869e-05,-0.0022038714366605645,0.00014644983112260368,0.12291837657256388,0.00010930415328430643,0.0107598861232102,1.5787392958863792e-05,0.011168623973799674,3.7173347408889327e-05,0.9634030251579491,0.003504308326282386,0.0033152358106536407,5.687885688909893e-06,0,1163.9996048097278,16,3
1,X,1344,0.08662578930149588,7.920846570376268e-05,-0.0017706180003451233,0.00014230037249007125,0.12250736608144963,0.00011201768645302534,0.010948727071572732,1.672156581837258e-05,0.011268744951389348,3.375335705858935e-05,0.9716012846863519,0.0032667186064875837,0.003362139791584301,5.984805787769025e-06,0,1353.6773138813087,16,3
1,X,1376,0.08834353731366326,9.21618846644119e-05,-0.0029090952438187807,0.00016603473671278395,0.12493662861699617,0.00013033658722627628,0.010467901324448489,1.783808855495169e-05,0.010818285491736732,3.745816137982163e-05,0.967611857945894,0.0037341143726836406,0.0032782293690605934,6.550048915478037e-06,0,1095.0255979042877,16,3
1,X,1397,0.08551769667938283,7.784504717986235e-05,-0.0026390121161365574,0.00013858223337101717,0.12094028646689181,0.0001100895214853348,0.011052881409397124,1.5945955972940068e-05,0.011365807972483198,3.12392314852303e-05,0.9724677239098466,0.0030186900718707035,0.0033507068806845636,5.715861573088025e-06,0,1480.76089588519,16,3
1,X,1418,0.0868876971500447,8.015022257977046e-05,-0.002577655950243037,0.00014381416453963976,0.12287775971295933,0.00011334953179953366,0.010763112547601955,1.636304514125035e-05,0.01105097507844754,3.2592576977396886e-05,0.9739513908227885,0.0032316429332710952,0.0033151340992410416,5.8951695841556335e-06,0,1514.128290664477,16,3
1,X,1439,0.08614116777771125,7.914837236103615e-05,-0.0029177725416655222,0.00014349928449301652,0.12182200774989549,0.00011193270163273317,0.010382311727368108,1.5594607588827066e-05,0.010659284715584007,3.9658414524739396e-05,0.9740157997833606,0.003908051184833226,0.0031703685516626086,5.58232125017066e-06,0,976.2121192104864,16,3
1,X,1460,0.08751443031077905,8.644779924460127e-05,-0.003307821917799959,0.0001637982835298309,0.12376409424885881,0.00012225565012902173,0.010734228929083746,1.6713477940043964e-05,0.011030189648026559,3.0063776481678803e-05,0.9731681205503331,0.003054751791577716,0.0033300860453575943,6.140468884442715e-06,0,1293.1291425275347,16,3
1,X,1481,0.08576239709037974,8.314121640989202e-05,-0.003015170105427407,0.000138973138220156,0.12128634510684189,0.00011757943583906583,0.01105637161095574,1.6555257761100163e-05,0.011414762015322844,3.1580014696140774e-05,0.9686029017612446,0.003047037617046798,0.0033613556865582385,5.995912830905746e-06,0,1467.3134559448097,16,3
1,X,1502,0.08770717276440962,8.94099917522212e-05,-0.0029611590498626137,0.0001548479077482721,0.12403667324082823,0.0001264448229476578,0.010547587030881385,1.7352131239879135e-05,0.010964009296525485,3.789583969245756e-05,0.9620191615692933,0.0036825416316966755,0.0032793907046206714,6.346830851459046e-06,0,1456.4763015220483,16,3
1,X,1523,0.08723939036551663,7.987672750141145e-05,-0.00208348793731902,0.00014901476083536392,0.12337512902807435,0.00011296275135047606,0.010249142420481992,1.5537964047022083e-05,0.01054014243567752,3.380516457680838e-05,0.9723912634984403,0.0034495865984450484,0.0031696045535251193,5.613569816954232e-06,0,1302.5292214035233,16,3
1,X,1555,0.08790479962068316,8.407257630124577e-05,-0.0033125005692947753,0.00015141158348750962,0.12431615982125943,0.00011889657762886863,0.00986130328777997,1.508604008395726e-05,0.010109551982431384,3.197481120839716e-05,0.9754441447966412,0.003427108856554032,0.0030729241190880887,5.544108689827312e-06,0,1096.7057597813744,16,3
1,X,1576,0.08974278015496225,8.533273033263347e-05,-0.0030723746863436426,0.00015821820689304172,0.12691545682021466,0.00012067870455073626,0.009458646546430088,1.5641434583052207e-05,0.009696108785799688,3.6260723926524475e-05,0.9755095322654206,0.003988880791545079,0.0030090780203421356,5.739962372290481e-06,0,944.3251210699513,16,3
1,X,1597,0.08760564764940044,8.682293652862687e-05,-0.00270227737809661,0.00015404222724837362,0.12389309504626078,0.00012278617436384254,0.00998280927636118,1.5288191636250434e-05,0.010279021040664343,3.0304033864100034e-05,0.9711828818005787,0.003226446923821171,0.003100200703872218,5.6552586261935465e-06,0,1092.6164046294357,16,3
1,X,1618,0.08592677729808572,7.84932652203611e-05,-0.002781519139979016,0.00014501655507423786,0.12151881382596541,0.00011100624022958305,0.010504124311357716,1.5566293474783113e-05,0.010796643501666673,2.748302805255977e-05,0.9729064694723132,0.0028656586958256606,0.0031995824692039616,5.5699917788201766e-06,0,1303.0800296270031,16,3
1,X,1639,0.08684048746696903,7.929521291369399e-05,-0.002372378772070232,0.00015468496726125868,0.12281099513887839,0.00011214036553380824,0.010673506586907074,1.591712966531772e-05,0.010950939968676425,3.163446884766301e-05,0.9746657928394358,0.0031686001901756094,0.003285748415135203,5.745529362326981e-06,0,1440.0443921679318,16,3
1,X,1660,0.08504475584649618,7.876126936548575e-05,-0.0033610357848211365,0.00014023021848219084,0.12027144712682347,0.00011138525532639054,0.010863952341370043,1.5589356129054875e-05,0.01118269814039531,3.3901527357270285e-05,0.9714965212309666,0.003258461629717836,0.003275218831903796,5.593633876089395e-06,0,1376.8795459174344,16,3
1,X,1681,0.08752677390700729,4.9641474748919235e-05,-0.0033422762380070975,0.00018115071572740495,0.12378155073005326,7.020364684612312e-05,0.01061985227476102,1.7646966293934784e-05,0.0109058739991268,3.0802525522808376e-05,0.9737736082052039,0.003191015564940047,0.0032950676016872786,5.785543289426667e-06,0,1335.4773502740495,16,3
1,X,1702,0.08585471393450761,7.963884183739875e-05,-0.0020449333395282173,0.00014682219041389498,0.12141690083984302,0.00011262633021813517,0.011126829483776818,1.7182123234792738e-05,0.011447062738320876,3.217306402302239e-05,0.9720248537232153,0.003117158297851631,0.003386417580844409,6.100268136454021e-06,0,1426.5066458845795,16,3
1,X,1734,0.08754804304061228,8.576388707129611e-05,-0.003102311296392454,0.00014639042441292314,0.12381162982725735,0.00012128845225806151,0.01056743920272841,1.6236693667990563e-05,0.010884229046339238,3.2996880508256585e-05,0.9708945996760904,0.0032998306064549393,0.0032796019250547173,5.97611314070907e-06,0,1231.2897775302145,16,3
1,X,1755,0.08652943107106184,8.594958633797061e-05,-0.002470657463605847,0.00015431287963313067,0.12237109496512355,0.00012155107067951532,0.010564919477196849,1.5802540794444134e-05,0.010847573071898979,3.224724519147737e-05,0.9739431490501452,0.0032411381354477383,0.0032406712152495535,5.818722771029414e-06,0,1209.683842778973,16,3
1,X,1776,0.08689656944023293,8.811659368767336e-05,-0.0030338354926902796,0.00015121272008893953,0.12289030702607284,0.00012461568186322713,0.010692247123674701,1.723386911457525e-05,0.011035186191756237,3.8391058482553793e-05,0.9689231280630565,0.0037150525042417924,0.0032936432069943854,6.271954610872349e-06,0,1255.0570523104218,16,3
1,X,1797,0.08516271655870289,7.491330881105663e-05,-0.0027660083012121368,0.0001391439079778159,0.1204382687658534,0.00010594341732284018,0.01125038580532618,1.6655806378712693e-05,0.011587846841735054,3.177505643012018e-05,0.9708780206523384,0.0030254809091715363,0.003396423632957582,5.8489139084573276e-06,0,1391.860328628592,16,3
1,X,1818,0.08717184847041776,7.289690419027154e-05,-0.0033490288039423823,0.000135960132154321,0.12327961036399715,0.00010309179056089413,0.010041781246258081,1.4004884373121007e-05,0.010354188801914507,3.3243914998724886e-05,0.9698279062094501,0.0033948828006922067,0.0031030726503932225,5.046080616738888e-06,0,1300.6074022237872,16,3
1,X,1839,0.0903168016589957,8.185627524937314e-05,-0.002865776286854051,0.00015391849171479137,0.12772724581631256,0.0001157622546230086,0.008936875277495001,1.4049020462927509e-05,0.00910987908635479,2.7321953087112326e-05,0.981009209099282,0.0033218734111304556,0.002861272222762958,5.192003614366176e-06,0,449.38860625684066,16,3
1,X,1860,0.08717379710586745,8.220979499073631e-05,-0.0027647584958582013,0.00014175833889974718,0.12328236615067822,0.00011626220703581103,0.010496155493748008,1.6973988796659936e-05,0.010908793250265952,3.757799772378325e-05,0.96217384021758,0.003661507536984123,0.003243554138840902,6.072094118738961e-06,0,1436.4513849266868,16,3
1,X,1881,0.08562551154879694,8.460417468399327e-05,-0.002436222881020864,0.00014283775460397608,0.12109275971744271,0.00011964837127148575,0.010744459965635198,1.658317036435793e-05,0.011102993185611946,3.483257025652982e-05,0.9677084175426351,0.003383425198827913,0.0032613146633722234,5.976681924291023e-06,0,1485.1901004289339,16,3
1,X,1916,0.08810805356599918,8.920585266302075e-05,-0.0012386219078488598,0.00015849498446328836,0.1246036043073312,0.00012615612667910003,0.010441743021541671,1.7298514618487865e-05,0.0108085328386648,3.578197906575275e-05,0.9660647913460529,0.00357628862307854,0.003261320947044806,6.332027123982861e-06,0,1123.2395674580189,16,3
1,X,1937,0.08643267368813491,8.650623606598954e-05,-0.0019768661243285343,0.00016052058585909167,0.12223425936192855,0.00012233829227437099,0.010298139075063262,1.590709051844824e-05,0.01054998416898796,3.386484448065718e-05,0.976128391295126,0.0034772231691953836,0.0031553070819664696,5.8075375060013554e-06,0,1098.1575313301444,16,3
1,X,1958,0.08810711365420104,8.739445688552743e-05,-0.0013435663136464322,0.0001596942029355236,0.12460227507131882,0.0001235944262037436,0.010597696725922742,1.6835811127747296e-05,0.010960152032917145,3.098961392819656e-05,0.9669297190489855,0.0031359526547046664,0.0033099954239924133,6.199181643688435e-06,0,1321.645489640067,16,3
1,X,1979,0.08583039699718191,7.798943917333087e-05,-0.0019070773031715762,0.00013805923537877658,0.12138251149728163,0.00011029372260079606,0.011106698557757127,1.5021955454620687e-05,0.011397496897953201,3.1663309030293215e-05,0.9744857714988019,0.0030110023600407433,0.0033793333813282984,5.506270001132638e-06,0,1547.8599077015347,16,3
1,X,2000,0.08730139250527254,9.000437753909278e-05,-0.001206270595272932,0.00015271493904353784,0.1234628132950133,0.0001272854113887334,0.010664061487246803,1.6149323663409165e-05,0.010957261927673859,2.9273256286068796e-05,0.9732414500664127,0.0029887672249423918,0.003300264466934063,6.04605840043521e-06,0,1484.9195760405046,16,3
1,X,2021,0.08602202048668345,7.801230161149072e-05,-0.0022058526976660334,0.00014130074223708312,0.12165350803500397,0.00011032605497091064,0.010938362984417473,1.6426375512671476e-05,0.011276724754815016,3.517381388495048e-05,0.9699946768450594,0.003357957694514135,0.0033355457533245756,5.8515899588884785e-06,0,1491.1338235963278,16,3
1,X,2042,0.08776992897972723,8.621727498086614e-05,-0.0018718315690044814,0.00015874520542142993,0.1241254239316536,0.00012192963958879144,0.010519733595223358,1.7164613803072964e-05,0.010869011787289782,3.380827709994912e-05,0.9678647701463652,0.00339962326703698,0.003273070958639029,6.233668808162267e-06,0,1411.6247539682183,16,3
1,X,2063,0.0861765021237385,7.744734144178887e-05,-0.0021581999755214917,0.00014883135206867091,0.12187197806126482,0.00010952708063671768,0.011132132009264002,1.5856258061811685e-05,0.01144731573533271,2.5281503962156522e-05,0.9724665822664542,0.0025556338881953795,0.003400729916726204,5.727477493244263e-06,0,1806.0370265688114,16,3
1,X,2095,0.08830939760910755,9.28393144674408e-05,-0.0019227858303943102,0.00016609994970174992,0.12488834778379809,0.00013129461764127548,0.010499526730796164,1.8087380782981913e-05,0.010831660411336576,4.706703035705583e-05,0.9693367712864414,0.0045310092328817745,0.0032868628128397462,6.6333321797401395e-06,0,1141.7278046321894,16,3
1,X,2116,0.08635061377806194,8.863075807601178e-05,-0.0024071691159950276,0.000155491597485239,0.12211820912417626,0.0001253428201145046,0.011012392937459156,1.753402434013337e-05,0.011317708841174313,3.3284885136545434e-05,0.9730231703253927,0.0032540825479843243,0.0033709480537912153,6.385821439325531e-06,0,1292.9264131966024,16,3
1,X,2137,0.08769134781552519,9.062817925252344e-05,-0.002363052906934005,0.00015389112713373076,0.12401429338349201,0.0001281676002320986,0.010594557354563307,1.7840478548418796e-05,0.01095506723788389,3.9985524942507436e-05,0.9670919515606533,0.0038873971511288797,0.0032934000946577245,6.507043848247426e-06,0,1328.467345440088,16,3
1,X,2158,0.08619452154769922,7.585327976675244e-05,-0.0012903104741025875,0.00013860116225261154,0.12189746137501623,0.00010727273699662199,0.011035491504474486,1.6844296799193614e-05,0.01145294135646134,4.206585700316891e-05,0.9635508609540426,0.0038324910905834656,0.0033719123429770403,5.940945085236527e-06,0,1609.982308196562,16,3
1,X,2179,0.08768940798237494,8.070664359595364e-05,-0.0021712041020403978,0.00014913885862789927,0.1240115500451422,0.00011413642994700934,0.010643700669405036,1.4648568334865095e-05,0.010870446775287583,2.7266417909537382e-05,0.979141049989038,0.002801389703481607,0.0033086034824417565,5.477901560262934e-06,0,1581.620525428032,16,3
1,X,2200,0.08522847183394097,7.729518888795103e-05,-0.0012366507364383942,0.0001429528838149608,0.12053126076789267,0.0001093119044315305,0.011170444954305934,1.593766807906191e-05,0.01145013809737251,3.629996256747878e-05,0.9755729458729623,0.003391607190579583,0.0033748937623910074,5.705642003192737e-06,0,1460.73336858343,16,3
1,X,2221,0.08812085184216667,8.550127761960726e-05,-0.0019523688764920076,0.00015646647706819941,0.12462170380306226,0.00012091706640987576,0.010530565977488303,1.781641080448023e-05,0.010957766588853795,3.878072331845715e-05,0.9610138975035261,0.0037697884159197978,0.0032895412158486246,6.415763889371428e-06,0,1391.0819066906117,16,3
1,X,2242,0.08567977873126634,7.947627005913598e-05,-0.0022381567754538754,0.0001448726154168397,0.12116950510288271,0.00011239641900445685,0.011213308381702597,1.5423964417723237e-05,0.011456772474755779,3.3497643515481314e-05,0.978749329831797,0.0031625556130014886,0.0034057834777745724,5.650368343379123e-06,0,1538.0504294901314,16,3
1,X,2274,0.08750727192161584,8.670971927143919e-05,-0.0018117668386006594,0.0001568590730823506,0.12375397075781946,0.00012262606098323303,0.010612770219482759,1.7358276955772974e-05,0.010987521277809232,3.26983997256037e-05,0.9658930300245849,0.003279988629307614,0.0032921365318305078,6.295690516038592e-06,0,1260.0877394913612,16,3
1,X,2295,0.08531385746480198,8.418742769790744e-05,-0.0021910157782268685,0.00014658308580665927,0.1206520142850881,0.00011905900203168507,0.010901737284384495,1.869540352302598e-05,0.011240734816519382,3.6794618562132986e-05,0.9698420487923355,0.0035838998941894536,0.0032970096858229918,6.523293511588143e-06,0,1269.4148130794295,16,3
1,X,2316,0.08697870971391004,8.308304918456582e-05,-0.0013813822070721732,0.00014895522097187487,0.12300647091512407,0.00011749717496012391,0.010738050844899783,1.710511231421089e-05,0.011064007311417344,3.247318120531632e-05,0.9705390228564659,0.003241057606794449,0.0033108793021616894,6.149595233194318e-06,0,1445.8599852923883,16,3
1,X,2337,0.08567350536118247,7.772274084662748e-05,-0.001723800752703648,0.0001374425485972068,0.12116063321782833,0.00010991655421010993,0.010771817239365121,1.604635851072095e-05,0.011112340190219283,3.7977604195571943e-05,0.9693563241382873,0.0036139085352910913,0.0032714511891668388,5.7059368739648104e-06,0,1358.6601320575355,16,3
1,X,2358,0.08714965061386953,8.323478287267025e-05,-0.0016066651969993142,0.00014757654382548726,0.12324821785421103,0.00011771175879971008,0.010225375877307215,1.6558844297985417e-05,0.010566634752357543,3.631589230181543e-05,0.9677041098658029,0.0036765527157737385,0.003159001729521943,5.939083610672166e-06,0,1281.0929628277556,16,3
1,X,2379,0.08547502386927597,8.629376465037243e-05,-0.0016889843593739676,0.00015329775972241057,0.12087993800009411,0.00012203781231678867,0.010988892095502694,1.549900009445435e-05,0.011260065028285306,2.973424684977567e-05,0.9759172853707838,0.0029216453667822227,0.003329646067740579,5.775324418953621e-06,0,1502.8384788457258,16,3
1,X,2400,0.08739713110333695,8.467202696557613e-05,-0.0018072137777896194,0.00015294654259379012,0.12359820811883859,0.00011974432888833819,0.010657879768954147,1.6587514595531442e-05,0.01100777368361377,3.2683865327248704e-05,0.968213925475187,0.0032457825530483896,0.003301968496453261,6.053393752935879e-06,0,1609.8695269692475,16,3
1,X,2421,0.08563157938329445,8.507473919996798e-05,-0.00188787961120588,0.00013851530000181118,0.12110134093128333,0.00012031384999194872,0.011172976074027681,1.8112189028531027e-05,0.011543520598253339,3.6353646481486036e-05,0.9679002154436555,0.003428302575227586,0.003391624430973796,6.448465865505179e-06,0,1528.8159480126374,16,3
1,X,2453,0.08761007938823322,8.978113616571323e-05,-0.0013822359593092476,0.00016046158956175042,0.12389936247142297,0.00012696970041081723,0.010469212103131145,1.7497680470040252e-05,0.010804433053788205,3.678983130040799e-05,0.9689737583649031,0.0036754502185019433,0.003251419488179663,6.374420012200623e-06,0,1177.631853329542,16,3
1,X,2474,0.0853522164240037,7.740574873048418e-05,-0.0014641568967180317,0.0001423586083215075,0.12070626204542967,0.00010946825966029472,0.01122605562658666,1.4892487454959902e-05,0.011537292104439083,2.6457951826187083e-05,0.9730234378192892,0.002577848561094258,0.003396619708584974,5.458244126796786e-06,0,1474.001908813585,16,3
1,X,2495,0.08763804273376835,8.463273253088351e-05,-0.0019316647065221592,0.00015214286261430846,0.12393890861392809,0.0001196887581658701,0.010595552656895095,1.6545519225960287e-05,0.010977846279795339,3.3549737246193395e-05,0.9651758994290298,0.0033124501665783997,0.0032917073395569534,6.043703559138353e-06,0,1561.879790108465,16,3
1,X,2516,0.08555722835960433,9.161941849359971e-05,-0.0018507374026573212,0.00015586727427819677,0.12099619270520445,0.0001295694242103851,0.01118021854175309,2.007958511139673e-05,0.01168169997053956,4.5435649748382276e-05,0.9570711942567288,0.004100196605987182,0.0033908761833993835,7.0903530514501565e-06,0,1432.9519276905187,16,3
1,X,2537,0.08771509940478377,7.57682439519095e-05,-0.0020042946419346597,0.0001470337941547239,0.12404788320314941,0.00010715247819398366,0.010637916727458655,1.618109137224845e-05,0.010925144140581121,3.68306763441764e-05,0.9737095081376942,0.003601219600543342,0.003307774373788538,5.78607630901243e-06,0,1491.653208525663,16,3
1,X,2558,0.08479852526319365,8.082384771551983e-05,-0.0020507009090390887,0.00014257412126194078,0.11992322449644599,0.00011430218160246586,0.011350130403781463,1.7850404836082836e-05,0.011726035051265087,3.9771930189145005e-05,0.9679427320624401,0.0036187928741691034,0.0034118826290033244,6.274389466790228e-06,0,1577.0183207036146,16,3
1,X,2579,0.08752290519920676,7.814578617009736e-05,-0.001229015481553131,0.00014341752432192256,0.12377607955101289,0.00011051483064405954,0.010576147744373843,1.633203215624736e-05,0.010991914565783908,3.52322871322088e-05,0.9621752135242863,0.003423308812930011,0.0032813621640545,5.853213444908382e-06,0,1640.6586655576305,16,3
1,X,2600,0.08474150617987053,8.087961631805484e-05,-0.001927982100050221,0.0001372620441525094,0.11984258733549635,0.00011438105031652546,0.011235305094828524,1.7757084966615862e-05,0.011620202931112437,3.609989411242854e-05,0.9668768403989426,0.0033701117370843747,0.003375094840068245,6.231437323136742e-06,0,1543.7461684694183,16,3
1,X,2632,0.0883638618060584,8.686012250225017e-05,-0.00261315872988382,0.00015243028490528556,0.12496537178978973,0.00012283876327207066,0.010405177867353206,1.59661335883309e-05,0.010806805781797685,3.493085059447903e-05,0.9628356498160673,0.0034450523826606047,0.003259335960641426,5.939476234636284e-06,0,1566.866418782829,16,3
1,X,2653,0.08645260360288227,8.366858466975228e-05,-0.0021132365037312226,0.0001550339633049577,0.12226244451766122,0.0001183252471845253,0.01106184053381182,1.7206330194147223e-05,0.01140733500620213,3.387880135417694e-05,0.969712954673246,0.003251050872283182,0.0033900835558655076,6.210527210188104e-06,0,1447.602981761867,16,3
1,X,2674,0.08720645680112277,7.938153517044716e-05,-0.0017374125993090187,0.00014430578751580345,0.12332855393465125,0.00011226244364004323,0.010746898814968087,1.4595750682900935e-05,0.011037537472386614,2.2884331477750515e-05,0.9736681612048305,0.002413279984536349,0.003322283837146461,5.431834883570331e-06,0,1708.3952515251467,16,3
1,X,2695,0.08416349763008119,8.241448391002608e-05,-0.0009952788461180606,0.00014825306545730057,0.11902515980521666,0.00011655168088153811,0.01147643100319399,1.8275037890068667e-05,0.011828072805638513,3.993057740595381e-05,0.9702705750782247,0.003621662318651346,0.0034240142026916685,6.400799409769762e-06,0,1156.0409544449988,16,3
1,X,2716,0.08895843488452908,1.9850033220662083e-05,-0.002223590970561372,0.00015329207019649596,0.1258062251011849,2.8072186194216808e-05,0.010238563792108878,1.2293655445126487e-05,0.010595572630511243,3.7712658507329964e-05,0.9663058476543009,0.0036297921984995646,0.0032287253681078237,3.943172495391578e-06,0,1350.9470841294224,16,3
1,X,2737,0.08458931624385363,8.217038551321037e-05,-0.0018146637280067855,0.00014658352599265608,0.11962735826392457,0.0001162064736182078,0.01129244938756528,1.80595508167149e-05,0.011649415742522632,3.389661605394428e-05,0.9693575744185732,0.0032185209643425783,0.00338616876407331,6.336076987838713e-06,0,1423.8247133166349,16,3
1,X,2758,0.08780144515550398,8.796378998862376e-05,-0.0011331211913911642,0.00015908476528400604,0.12416999453487121,0.0001243995847996504,0.01062604852409918,1.7441936875286902e-05,0.010986091315001454,3.731670674320541e-05,0.9672273986644697,0.003648899809521252,0.0033073365546439407,6.360069829691915e-06,0,1474.5082278937018,16,3
1,X,2779,0.08569142673542213,8.419847381569975e-05,-0.0019323707862048559,0.00015127701627193395,0.1211859778683344,0.00011907462360127852,0.011213836661087983,1.635872417205975e-05,0.011530171764964629,3.81822984945268e-05,0.9725645801012387,0.003519313548806178,0.0034064069620855482,5.991356366814181e-06,0,1462.8802470668695,16,3
1,X,2818,0.08700521175575847,8.209560129245979e-05,-0.0016661135308625986,0.00014882914564154717,0.12304395046213668,0.00011610071275897083,0.010685134713059622,1.613318330246997e-05,0.010991570536253614,4.0605786551079275e-05,0.9721208336712874,0.0038796409410307296,0.0032955674314389953,5.867627226880526e-06,0,1588.1173608889508,16,3
1,X,2839,0.08530791667221496,7.535586245423224e-05,-0.0008502875515126609,0.000140423153847919,0.12064361273564028,0.00010656928268709676,0.011090320970319643,1.580909355582743e-05,0.011370304057792298,3.905514820995118e-05,0.9753759366460586,0.0036273126791631655,0.003353809445594146,5.624307700337779e-06,0,1371.7524294380055,16,3
1,X,2860,0.08705591951934644,8.354540662373575e-05,-0.0008901404385652927,0.00014591534022235895,0.12311566206912039,0.00011815104712126212,0.010724889600416725,1.614036733637303e-05,0.011122287742989685,3.400655325839345e-05,0.9642701077551749,0.0032860611124535676,0.003309756695742764,5.907554559845818e-06,0,1593.9185785569227,16,3
1,X,2881,0.0849089455890286,7.783986806365385e-05,-0.0012721723379213912,0.0001427738974462109,0.12007938241880345,0.00011008219710895162,0.011297352657991139,1.7179828142696084e-05,0.011679448703250276,3.587833869971224e-05,0.9672847533331943,0.003315573531877865,0.003400439604380754,6.0379927246595396e-06,0,1542.2188525687266,16,3
1,X,2902,0.08638459713741452,8.281556793989342e-05,-0.0014969598182329833,0.00014384959830447946,0.12216626885186765,0.00011711889935622777,0.010805883409102206,1.5833955846592122e-05,0.011125271508190147,3.5384677250501765e-05,0.971291658019059,0.0034013435116041807,0.0033090362255160342,5.794315804004931e-06,0,1421.1994647879949,16,3
1,X,2923,0.08482883836131787,7.524093187349012e-05,-0.0013311186100905116,0.00014147665208805117,0.11996609369093081,0.00010640674630107982,0.01135337130658816,1.667439820106324e-05,0.011665701035938744,3.425479854491237e-05,0.973226664356614,0.003195277183991475,0.003414076854685742,5.857629197345592e-06,0,1667.7733384595883,16,3
1,X,2944,0.08792243522323401,8.304317733286685e-05,-0.0017287438339099728,0.00014449144649671193,0.12434110032956747,0.0001174407876466943,0.010544814881855028,1.687022105221655e-05,0.010925175510635004,3.4291664217728224e-05,0.9651849411105828,0.003400336618304152,0.003286575400988116,6.105993362933823e-06,0,1621.4629856575527,16,3
1,X,2965,0.0865561514406734,7.950427195316508e-05,-0.0013525088594132477,0.00013171558257763915,0.12240888327421984,0.00011243601966276495,0.010907733937974232,1.5773593275098803e-05,0.011344622755176476,3.399507659035667e-05,0.9614893481581048,0.0031991279448358666,0.003346858921687106,5.733666527944381e-06,0,1752.1606339685388,16,3
1,X,2997,0.08740736089018945,8.070971252654253e-05,-0.001380238172994497,0.00014528772851950117,0.12361267522214558,0.00011414077007027013,0.0102273879387125,1.7337364600239896e-05,0.010612638422319796,3.912584715714458e-05,0.9636988967044177,0.003910479184430967,0.003168966654441415,6.117245780820049e-06,0,1355.9827354674019,16,3
1,X,3018,0.08529943190056512,8.64667378132771e-05,-0.001006119782132403,0.0001398338517253086,0.12063161345649942,0.00012228243330969502,0.010721256822925986,1.7408230869026713e-05,0.011072301797314535,3.724528528390744e-05,0.9682952126111942,0.003616781373085831,0.003241878768852648,6.20546473859754e-06,0,1158.4185178276216,16,3
1,X,3039,0.08681753325608224,8.291493099954325e-05,-0.0010095132216080716,0.00015052521484441522,0.12277853298252872,0.00011725941994278344,0.010795543766851398,1.5213627049253548e-05,0.011082107992655965,2.8072833886869436e-05,0.9741417223154231,0.0028238223082072533,0.0033224380858026914,5.656058819085757e-06,0,1366.6650643200057,16,3
1,X,3060,0.0853294125018391,7.915917835556073e-05,-0.0013827683079394178,0.00014578957397552475,0.12067401242942921,0.00011194798361674474,0.01124799218950296,1.6214752712348727e-05,0.01161603439192639,3.132619955330301e-05,0.9683160199078583,0.002961034800397416,0.0034023476978082877,5.83254836838792e-06,0,1593.229763571905,16,3
1,X,3081,0.08667505739898614,8.048377802518538e-05,-0.0012366363623405301,0.0001510203403512915,0.12257704169311268,0.00011382125043424285,0.010789193760520276,1.6209388919352503e-05,0.011108765756682872,2.9707026314820567e-05,0.9712324480358814,0.0029790807372127924,0.0033150345761487144,5.854921604660865e-06,0,1537.7116513937935,16,3
1,X,3102,0.08448508860553174,7.940307180879659e-05,-0.0013867875493090394,0.00014136044576941727,0.11947995812423562,0.00011229290104608491,0.011447567884943038,1.7317824285583295e-05,0.011826429033494805,4.171912879373123e-05,0.9679648736335578,0.0037153513885388235,0.0034284531841073484,6.105979487225401e-06,0,1547.7349742483914,16,3
1,X,3123,0.08739333429299675,8.221972408273486e-05,-0.001784377207628032,0.00014530386557533678,0.12359283861816173,0.00011627624889237742,0.010585804635285275,1.638010105023333e-05,0.010961310769779522,3.5997652488491095e-05,0.9657425884202169,0.0035059805157138337,0.0032794960780183646,5.938916549048634e-06,0,1505.9589479981103,16,3
1,X,3144,0.08490511096026035,8.163906357605327e-05,-0.001698656052908895,0.00013765644423970226,0.12007395943479271,0.00011545507092869389,0.011239337410758402,1.8055129857526817e-05,0.011681885803068807,4.025082339367596e-05,0.9621166993265634,0.003657636627829037,0.003382824560423568,6.333331002166002e-06,0,1631.8831772624183,16,3
2,Y,103,0.08485016892836618,8.218098631451039e-05,0.0008391616125304256,0.00015517587406480192,0.11999625966814365,0.0001162214654151783,0.010021513888028919,1.5973641752500877e-05,0.01038326235586726,3.561241820467718e-05,0.96516042305009,0.0036503094574664953,0.003014331250038915,5.622114192746873e-06,0,1749.7863024934577,16,3
2,Y,124,0.07967635432652616,8.029373314727658e-05,0.0015566481888705862,0.00013948056426947114,0.11267938088901752,0.00011355248639044468,0.010874728490379054,1.8481536368218728e-05,0.011243627828278969,3.739086860820752e-05,0.9671903638635128,0.0036120823560016283,0.003071516191262217,6.06874179298586e-06,0,1878.324148054667,16,3
2,Y,145,0.08205898503385514,9.420234996257555e-05,0.0016075717323001646,0.00016544445153041936,0.11604892954944879,0.00013322224092449098,0.010504747722202905,1.891693811313884e-05,0.010840212454536029,3.257090230300884e-05,0.9690536754939014,0.0033945549883768232,0.003055742116684105,6.525810755697136e-06,0,1743.196809937443,16,3
2,Y,166,0.07975860566078716,8.245662867898876e-05,0.0022431827961851055,0.00015044984813059202,0.11279570184145271,0.00011661128258538822,0.011004641552207803,1.8159940455815644e-05,0.01138349062105102,3.765665852118559e-05,0.9667194289120222,0.0035737369606781318,0.0031114181884804677,6.058869465163453e-06,0,1883.2407130776128,16,3
2,Y,187,0.08220809581222568,8.191717942925651e-05,0.0016810863926075153,0.00016361108975926112,0.11625980403451641,0.00011584838614020487,0.010545319612989094,1.7240882067761315e-05,0.010908515609703203,2.7986938929533115e-05,0.9667052778114885,0.0029409663691436294,0.003073118222650666,5.8839887202211e-06,0,1909.5247999243948,16,3
2,Y,208,0.08137493859937399,8.271347375563599e-05,0.0016052925277368622,0.00014832072382604832,0.11508154180451258,0.00011697451637621148,0.010775260633916893,1.8254379824436123e-05,0.011183016099937198,3.1686031891278546e-05,0.9635379702240977,0.003180868010569717,0.0031083033010410703,6.140883087382613e-06,0,2187.7050400666053,16,3
2,Y,229,0.08149033145174954,8.707988395253606e-05,0.0016510271056256953,0.00015046145149878382,0.11524473194134299,0.00012314955289555174,0.010554087500661497,1.783284884039714e-05,0.01095788980714529,3.2610539868779457e-05,0.9631496288436404,0.003296091690419933,0.003048819452466449,6.095236212960721e-06,0,2228.2205605574463,16,3
2,Y,250,0.07912995182670196,7.837715252466104e-05,0.0020621750112271324,0.00014292062975354778,0.1119066510632516,0.00011084203208056032,0.01109447292659302,1.7976513786591155e-05,0.01144324846204573,2.872097367372843e-05,0.9695212826489343,0.0028963902199547714,0.003112092579602345,5.910089446407209e-06,0,2307.0635695806386,16,3
2,Y,282,0.08232571158712572,8.345382843066409e-05,0.001737323197820895,0.00014799652425739277,0.11642613785852907,0.00011802153599860254,0.010354983281983456,1.7015828308103444e-05,0.010721845181334313,3.243658775483117e-05,0.9657836973817223,0.003324960935661475,0.0030219677641032503,5.83471873168922e-06,0,1692.2357722972179,16,3
2,Y,303,0.07928033124526973,7.507820426158821e-05,0.0011390671080983299,0.00014173402739661904,0.11211931967649191,0.00010617661470535555,0.011025245603672981,1.8231500007202423e-05,0.011454769896135596,3.474005011930454e-05,0.9625025822118417,0.003324792058103437,0.0030985510864032467,5.904542300508633e-06,0,1999.2391561823301,16,3
2,Y,324,0.081020894247364,8.72630929391319e-05,0.0016984201428072358,0.00015063496497762712,0.11458084748021846,0.0001234086495291442,0.010678924491770094,1.8451820324937525e-05,0.011076283168987549,3.398937731939934e-05,0.9641252691760339,0.003395341281224325,0.003067110904397097,6.244842624858515e-06,0,1878.8962864188065,16,3
2,Y,345,0.07897597228232796,7.750843609410242e-05,0.0018323115230432013,0.0001385609488344044,0.11168889110326985,0.00010961348152260797,0.011109065341256644,1.8693408215651578e-05,0.01150930973054061,3.660388786391479e-05,0.9652242924506677,0.003472970612719587,0.0031101220655534874,6.058527519476303e-06,0,1982.884858264743,16,3
2,Y,366,0.08091959781824402,8.307522339490156e-05,0.0019017764043322725,0.00015257723242018188,0.11443759269633702,0.00011748610762224443,0.010765971264044903,1.7931448670366368e-05,0.011139797803045654,3.2091369121893e-05,0.9664422509627109,0.0032159503756927703,0.0030882458315912675,6.0423184800352855e-06,0,2079.0196103871267,16,3
2,Y,387,0.07892227304917245,7.430709188528488e-05,0.0020835797516497727,0.0001347924763681986,0.11161294891945228,0.00010508609712467365,0.011197873162136019,1.783222545814978e-05,0.011542223937918658,3.073598827574492e-05,0.9701659942109272,0.0030101852309363975,0.0031328533140041292,5.795702886460308e-06,0,2199.722795415531,16,3
2,Y,408,0.0813198936218772,7.705743219309923e-05,0.002538112872352647,0.00014740425504751245,0.11500369645079611,0.00010897566568912609,0.010728842097811537,1.6564138818691205e-05,0.011094009422654129,3.2882782946927196e-05,0.967084278466817,0.0032319954870917763,0.0030928195894495856,5.602621999662093e-06,0,2155.2235655889376,16,3
2,Y,429,0.0789049735859089,7.558749007728386e-05,0.001401585647718231,0.0001359558280066281,0.1115884837838832,0.00010689685361303658,0.0111446095860555,1.746819536900005e-05,0.011532435086431437,3.250751800651011e-05,0.966370892403094,0.0031168060929741372,0.0031172682043625207,5.726329349976661e-06,0,2312.731297612936,16,3
2,Y,464,0.08220984898658258,8.645674478024448e-05,0.0018936387870457105,0.00015420657235504213,0.11626228339746913,0.00012226830102685105,0.010359480781029275,1.73396080478658e-05,0.010714910439190735,3.132007747918465e-05,0.96682849939077,0.0032566080873747878,0.003019025431956535,5.967876545600795e-06,0,1741.5859536259463,16,3
2,Y,485,0.08039645384861108,8.515787449148777e-05,0.002103706271514101,0.0001517813803571889,0.1136977553994084,0.00012043142104872784,0.010788850727827154,1.988450364887961e-05,0.011159113686641627,3.800686420401251e-05,0.9668196803785852,0.0037441083247232334,0.003074800970854469,6.5362687594656e-06,0,1650.2393811208287,16,3
2,Y,506,0.08158264060350263,8.450320170629328e-05,0.0015068377151181518,0.00015591397523829337,0.11537527679568338,0.00011950557391698924,0.010568671285746213,1.9631665854674612e-05,0.010959541359555186,3.643712912132704e-05,0.9643351796406892,0.003672588878222587,0.0030564907127130893,6.5005684110805485e-06,0,1766.1328827910054,16,3
2,Y,527,0.07996807229512652,8.317690823093354e-05,0.0015210255039892772,0.00014707332412225535,0.11309193239660009,0.00011762991169644854,0.010876418598975097,1.8680160264452094e-05,0.01128493022134959,3.525949421984234e-05,0.9638002526943726,0.0034363404060153667,0.003083241003371971,6.1908234054865994e-06,0,1981.312018293262,16,3
2,Y,548,0.08113596666714065,8.46071185828206e-05,0.0020988152718536463,0.00015465089665422677,0.11474358445692168,0.00011965253457313363,0.010668985742219085,1.828138868534395e-05,0.011047482089417044,3.625907253929829e-05,0.9657391300447964,0.0035756309754888796,0.0030686084847917575,6.155220620783023e-06,0,1769.9246549431189,16,3
2,Y,569,0.07987411860755615,7.683370508786994e-05,0.001933474760720995,0.00013857582959571306,0.11295906181740312,0.00010865926778264035,0.011015681364788631,1.67160206549568e-05,0.01140729611327906,3.029967240328328e-05,0.9656698007484388,0.0029540576667453546,0.0031190502821457924,5.603926629043207e-06,0,1994.943020649185,16,3
2,Y,590,0.08158257670652772,9.229648537446706e-05,0.0019596810278404166,0.0001704221271189053,0.11537518643171485,0.00013052694137594134,0.010642950882022325,1.6589579361578223e-05,0.010938573159318319,2.4892307214113772e-05,0.9729743291935512,0.00268375627711424,0.0030779701789474703,5.928241442491262e-06,0,1788.1151509563413,16,3
2,Y,611,0.07966132068934308,7.352374466202057e-05,0.002075308184671988,0.00014009497898722484,0.11265812011542142,0.00010397827685748595,0.010993588898352268,1.6271435772621195e-05,0.011380764944012469,3.0301536740625856e-05,0.9659797871615038,0.0029426211659208295,0.00310450187772498,5.41510313590394e-06,0,2537.938745334016,16,3
2,Y,643,0.08248109002987512,8.592751094162761e-05,0.0011295783019627202,0.0001550152169089992,0.11664587615956568,0.0001215198513546123,0.010358223419484478,1.5558315385622013e-05,0.010667339018198678,2.5849447699761943e-05,0.9710222391744705,0.0027683737732919775,0.0030286186889153808,5.536158555891842e-06,0,1851.9541324967274,16,3
2,Y,664,0.08129270497523113,8.144116863818724e-05,0.0019260723872472879,0.000142679138984494,0.11496524589796664,0.00011517520522363878,0.010675175187911196,1.838467567101747e-05,0.011088926401495109,3.534389133477398e-05,0.9626878925332097,0.0034876560254929047,0.003076320061255847,6.129210031664223e-06,0,1616.9472266896164,16,3
2,Y,685,0.08273963564858251,9.318409326778756e-05,0.0021710243663525543,0.0001620862472595756,0.1170115148800338,0.0001317822084967446,0.010193122602666587,2.0465340815779913e-05,0.010598879706782397,3.4704882405048544e-05,0.9617169818564731,0.0036938870990974354,0.002989687420184624,6.882452258266648e-06,0,1907.7033440615094,16,3
2,Y,706,0.08518865747785931,8.13394136009663e-05,0.001503875905804129,0.00015460304963762345,0.12047495476554482,0.00011503130186996113,0.01026081067567324,1.7395314187401995e-05,0.010509952014536722,3.0924225946658035e-05,0.976294721563059,0.0033153320716207903,0.003098620433927598,6.02900082140124e-06,0,1161.0315302445072,16,3
2,Y,727,0.08087034059962649,7.848557736194552e-05,0.002425792046235113,0.0001430568935960871,0.11436793246972332,0.00011099536795594611,0.010636327399815642,1.9393095043512183e-05,0.01104801087462359,3.5812431501178886e-05,0.962736869154107,0.0035805376619210184,0.003049199930786816,6.2981101983221985e-06,0,1774.4021293900205,16,3
2,Y,748,0.07942082420559339,8.386786310597145e-05,0.0016615064836317263,0.00014859569783735844,0.11231800672639958,0.00011860706945171495,0.011034977340401493,1.7384392579802862e-05,0.011397576367981827,3.1990449216738416e-05,0.9681863041866559,0.0031162738894303954,0.003106781908144,5.892227528722297e-06,0,2055.3986163039003,16,3
2,Y,769,0.0820012155797542,0.0001018483378425401,0.0016296492767606044,0.0001746344003274573,0.11596723120396835,0.00014403530068207715,0.010358528945412733,2.012077763612276e-05,0.010820504932658232,4.051378539350199e-05,0.9573055056006515,0.004037951491151731,0.003011087017242013,6.942306861972085e-06,0,1642.751757491704,16,3
2,Y,790,0.07966901770338937,8.441883337504423e-05,0.001546522316335023,0.00015473224740741786,0.11266900533707547,0.00011938625907870204,0.010905600772384297,1.767528122620634e-05,0.011185286877439094,3.101286992669746e-05,0.974995178208712,0.003131301311192215,0.0030799522938290396,5.964009552430604e-06,0,1991.0131313791107,16,3
2,Y,822,0.08364981307705022,8.75796778739736e-05,0.0014846689271365676,0.00015991550150194642,0.11829870014353872,0.00012385636823764035,0.010218758910727956,1.7119436209560975e-05,0.010585076557377043,3.590311803890086e-05,0.9653930092367835,0.0036521138760570145,0.0030301774357004937,5.986253790899761e-06,0,1669.790413646689,16,3
2,Y,843,0.08445291030834126,8.086503983049069e-05,0.0018851760424933267,0.0001438449950436386,0.11943445113993478,0.00011436043605012047,0.01028655255255969,1.661016756538795e-05,0.010550629894812506,3.3600997109991305e-05,0.9749704667033523,0.003481335887171976,0.0030795651867253165,5.781256423483296e-06,0,1163.4804273953926,16,3
2,Y,864,0.08118646621901152,8.518992943102149e-05,0.0016118474730757025,0.00015085796617564907,0.11481500160807123,0.00012047675357895749,0.010615329558971865,1.7973452556790676e-05,0.010980643037357577,3.182419119629971e-05,0.9667311397754332,0.003244877780825157,0.0030550762359836947,6.085545249810288e-06,0,1728.7039410985208,16,3
2,Y,885,0.07875204041367241,7.87872427094788e-05,0.001959775116793644,0.0001307181199067274,0.11137220361756961,0.00011142198718172569,0.011088934710329878,1.769620234444687e-05,0.011452042382143165,3.178247764778214e-05,0.968293195248782,0.003099872963570125,0.003095683649319109,5.83075125322531e-06,0,2265.904559120817,16,3
2,Y,906,0.08105396365012589,8.365488524780751e-05,0.0010609657908137527,0.00015192545800411954,0.1146276146781039,0.00011830587327621434,0.010635861317713451,1.79622820122689e-05,0.011009824816417064,3.506295625233374e-05,0.9660336558538166,0.003482344326418467,0.0030559894821622657,6.048537570780615e-06,0,1916.7441522390877,16,3
2,Y,927,0.07920150168647203,7.884353968502333e-05,0.002001464725903674,0.00013517005705938222,0.11200783784532431,0.00011150160312806134,0.011024840820090174,1.6201950245900805e-05,0.011387328885040304,3.0336637151543767e-05,0.9681674193650158,0.002945672190781277,0.0030953565052182367,5.4942916032267585e-06,0,1961.1825724080186,16,3
2,Y,948,0.0815518656617581,8.439476460187643e-05,0.0023681946916955933,0.00014576264577832311,0.115331754455687,0.00011935222069325846,0.010471758340335103,1.9338007879142634e-05,0.010964620185159386,3.918949579318135e-05,0.9550498023186091,0.0038422185742507157,0.003027320795408185,6.408466839181565e-06,0,2044.0731316883966,16,3
2,Y,969,0.07954185228072821,8.404112707845738e-05,0.00197941386376174,0.00014803541710614143,0.11248916627168315,0.0001188521017114752,0.010917046839548698,2.05027291500026e-05,0.011393889038063142,3.9119300443124815e-05,0.9581493029358567,0.00374965931751759,0.003078263592151804,6.633204915780062e-06,0,2041.8253270828177,16,3
2,Y,1018,0.08141902382796598,7.79343112558554e-05,0.0019888955845542506,0.00013679945626548663,0.11514388773268769,0.00011021575995223687,0.010568517885324601,1.789160020015499e-05,0.010955682729566872,4.0953595999283305e-05,0.9646608199781652,0.003958573585152292,0.0030503165411904223,5.932213091349577e-06,0,1860.524303011955,16,3
2,Y,1039,0.07984097150465767,8.104302028241415e-05,0.0019636932194847818,0.0001413824749033812,0.1129121847349307,0.00011461213841906792,0.010965679444921706,1.9828112681109585e-05,0.011458930667484641,4.106501305033252e-05,0.9569548645614409,0.003841224483922824,0.003103603914789738,6.435706788671827e-06,0,1815.7240263914173,16,3
2,Y,1060,0.08041280704641551,8.288320736109773e-05,0.0019014364868854903,0.00014211303862308135,0.11372088231353161,0.00011721455594304597,0.010783750543482955,1.8465282210120707e-05,0.011253275651287326,3.67224883215445e-05,0.9582765834274521,0.003531479158707199,0.003073972568713235,6.143672813377229e-06,0,1813.8114121253338,16,3
2,Y,1081,0.0826736843908039,9.78493914448577e-05,0.001074273817216807,0.00015435816698294256,0.11691824571682774,0.00013837993645127167,0.010699226959414908,1.8671951704168063e-05,0.01108849250963121,3.293102088615236e-05,0.9648946374019556,0.003323715005853013,0.003135628656261342,6.611962277031936e-06,0,1440.4952677241615,16,3
2,Y,1102,0.08058499142744442,8.222163781328325e-05,0.0015818320588229086,0.0001493410893210922,0.11396438780041152,0.00011627895531607368,0.01078213436985949,1.862726455128082e-05,0.011172914958990008,3.093682214268655e-05,0.9650242939676109,0.003149513626855881,0.0030800930435509683,6.179904965913485e-06,0,1943.9126080981864,16,3
2,Y,1123,0.07885828962873555,7.48652967313982e-05,0.0023761051403063827,0.00014522318331138594,0.11152246269850341,0.00010587551798862949,0.011233696623580395,1.7164165844576686e-05,0.011550107855668046,3.187405470593797e-05,0.9726053439464311,0.003067965639648479,0.0031403277471841744,5.64894847457391e-06,0,2048.406298537205,16,3
2,Y,1144,0.08094035838334948,8.202711592683124e-05,0.001663147356075887,0.00015162537139778526,0.11446695256907169,0.00011600385982607486,0.010749508899048365,1.760799300475799e-05,0.011104438481383096,3.358989740381274e-05,0.9680371427218242,0.003329991352002005,0.003084314663389497,5.940944272725726e-06,0,2062.67703268676,16,3
2,Y,1165,0.07931959008768792,7.446343740910839e-05,0.0013489673262151185,0.00013179175462012412,0.11217484006388279,0.00010530720308488117,0.010958587420311213,1.6377645772602458e-05,0.011305571681934135,3.524307144497261e-05,0.9693085611780793,0.003350951283363582,0.00308134246879658,5.43823624932113e-06,0,2410.3411070418815,16,3
2,Y,1197,0.08134477223982296,8.837385991748245e-05,0.002242802770436777,0.0001568914139887226,0.11503888012970809,0.00012497951125456375,0.010628481575529787,1.828497988535685e-05,0.011019046246874284,3.897639598670194e-05,0.9645554921366006,0.0037939492669812344,0.0030648258607682815,6.235983812827699e-06,0,1665.8819143266371,16,3
2,Y,1218,0.07865167489513729,7.345677236407393e-05,0.0011783912162642248,0.00013092292561620297,0.11123026534006264,0.00010388356372542651,0.011241731988441377,1.6825403287665502e-05,0.011593189102601823,3.235668861602111e-05,0.9696841730907702,0.0030709781673995736,0.0031343402125690407,5.529555916127962e-06,0,2186.98621290441,16,3
2,Y,1239,0.08073302968541299,9.169646273860352e-05,0.0020158160620212143,0.0001568200041202707,0.11417374551258075,0.00012967838122657227,0.010731055267986516,2.04258421657054e-05,0.011231123168008481,4.02584603096964e-05,0.9554748093720142,0.003877864316957342,0.003071132926837632,6.807320280727386e-06,0,1752.287200805426,16,3
2,Y,1260,0.08037495314791913,7.955020951087278e-05,0.001321344243167929,0.00014004531985026424,0.11366734881688934,0.00011250098517989748,0.011032587376813537,1.7879510941794844e-05,0.011356127329083423,3.603717683794622e-05,0.9715096579234992,0.00346171690417274,0.0031434245486620296,5.969160919035544e-06,0,1737.095192225077,16,3
2,Y,1281,0.08064028480270258,9.033567288940405e-05,0.0017948892156259687,0.00015227926466460123,0.11404258444161097,0.00012775393376629474,0.010781659071514195,2.0313025686455225e-05,0.011240407947108752,4.4186856091052e-05,0.9591875243538153,0.004181322538802611,0.003082070578848084,6.755645783492688e-06,0,2020.4599624864318,16,3
2,Y,1302,0.07768591026754153,7.083232908261107e-05,0.002005564831164307,0.00013303934151383004,0.10986446790565652,0.0001001720404431028,0.011524199341443562,1.7335072082389468e-05,0.011821095592313981,2.8007595207388908e-05,0.9748842018447545,0.0027359784883002948,0.003173642130416486,5.582412435723949e-06,0,2216.7765515048986,16,3
2,Y,1323,0.08070342628297934,8.934859713550977e-05,0.002630831189741413,0.00015763638784773053,0.11413187997936669,0.0001263579978480478,0.010735766912098352,2.1122770331464143e-05,0.01117061306671638,4.109953015010846e-05,0.9610723107119624,0.004009874905181151,0.003071354731980584,6.933940646298782e-06,0,1951.6389973252267,16,3
2,Y,1344,0.07977592889299548,8.285051718492157e-05,0.0013430631582060349,0.0001469698826037037,0.11282020059138587,0.00011716832505254127,0.010882654386688223,1.7936742050686294e-05,0.011322262990322851,4.401672011954239e-05,0.961173079621065,0.004058630203602156,0.003077596211756355,5.995481587384067e-06,0,2187.730704279658,16,3
2,Y,1376,0.08131345213300738,9.1123986549844e-05,0.001208043114067536,0.00014908988673857922,0.11499458680987451,0.0001288687776362929,0.010502449123735994,1.820479203899154e-05,0.010915126956309567,3.9174601796603186e-05,0.9621921179455434,0.0038349946799918493,0.003027317125325712,6.248666511914459e-06,0,1730.2664680997548,16,3
2,Y,1397,0.07948552175275611,8.079166651287955e-05,0.0015916595985950284,0.00014013279448229677,0.11240950287504936,0.00011425667050923849,0.011045521423522822,1.7270359293547695e-05,0.011358467270158282,3.265880398201218e-05,0.9724482327419606,0.00318274106013795,0.003112283739303178,5.804105960942127e-06,0,1919.9353220632468,16,3
2,Y,1418,0.08055720739983191,8.240098934098831e-05,0.0014303214193022958,0.0001468049278695244,0.11392509525174455,0.00011653259667898652,0.010747201724592067,1.778551776716608e-05,0.0111428655768382,2.8865594918709648e-05,0.9644917324437109,0.0029648320393006076,0.003069055450657787,5.970859376501275e-06,0,1774.4873027305034,16,3
2,Y,1439,0.08386673840967114,8.004808636551172e-05,0.0017828610341394054,0.00014468411062719627,0.11860547889095352,0.00011320508938011953,0.010410016150247132,1.697674213689393e-05,0.010660336059175018,3.105754033188348e-05,0.9765185724410212,0.0032603557129323893,0.003094896207842971,5.848080193459046e-06,0,1120.4694706120272,16,3
2,Y,1460,0.08109818020817837,7.981697620450463e-05,0.0016067672004200385,0.0001447097704721173,0.11469014633418317,0.00011287825025602105,0.010648780731699465,1.7298400117977707e-05,0.011076771328142571,4.052412806374183e-05,0.9613614307126015,0.003848244433912861,0.0030613707305485577,5.814579852590364e-06,0,1977.1541723278146,16,3
2,Y,1481,0.07882525166826411,8.505347847985417e-05,0.0017420893691579003,0.00013395520962184007,0.11147573996673155,0.00012028378279321794,0.011023348051312247,1.8543105617541092e-05,0.011418026441758471,3.882776475612731e-05,0.9654337470262995,0.0036627416587580977,0.003080234764022389,6.155811238251556e-06,0,2018.097299639782,16,3
2,Y,1502,0.08155028231644845,8.330111050007392e-05,0.001380469517253389,0.00014653283433092997,0.1153295152672762,0.00011780556022994437,0.010510186670361236,1.9688618627311743e-05,0.01098010597571765,3.941796688717038e-05,0.9572026621240602,0.003876010257436576,0.0030383711970605057,6.482927118310917e-06,0,2225.056319268318,16,3
2,Y,1523,0.08386596749402743,9.104227448708198e-05,0.002349052399383235,0.00016362183287786704,0.11860438865159473,0.00012875321932892536,0.010331530108711625,1.8190417182867408e-05,0.010587452064513,3.2671258156499696e-05,0.9758278050052124,0.0034669243193221925,0.0030715340854478297,6.353265443442158e-06,0,1183.1046671579568,16,3
2,Y,1555,0.08687591872452279,8.946403684738582e-05,0.001164259577479518,0.00015925809231728867,0.12286110250384286,0.00012652125425421934,0.00992022714071772,1.557894957010173e-05,0.010232549203108506,3.0743448619986544e-05,0.9694775899737764,0.0032866725124780587,0.0030551037166847927,5.737332512834173e-06,0,1117.6138151108096,16,3
2,Y,1576,0.08953734574245438,8.446841072894012e-05,0.0017099976563554585,0.000159251706594576,0.1266249286878679,0.00011945637204496817,0.009459644966654055,1.662778375308876e-05,0.009844168475742389,3.369828223483468e-05,0.9609389548710121,0.0036977832897287064,0.0030025066987380074,5.989755908021563e-06,0,1286.27588103221,16,3
2,Y,1597,0.08621750905300461,8.472466062239604e-05,0.002192563845209461,0.00015224569007112396,0.12192997061678423,0.0001198187641196502,0.010021527002176829,1.5141235477746326e-05,0.010323175108997046,2.4514462371199836e-05,0.9707795224206437,0.0027323503321296768,0.0030629104833941843,5.52038226887935e-06,0,1435.24484715996,16,3
2,Y,1618,0.0837361789741551,2.024258127958818e-05,0.001376321385520152,0.00014545337610599824,0.11842083996655095,2.8627332983033327e-05,0.01052524697102249,1.23467146690733e-05,0.010781934662470597,3.05423454156613e-05,0.9761927984648638,0.002993020605987693,0.0031242830063278578,3.741975681397933e-06,0,1383.2713072989102,16,3
2,Y,1639,0.08175464919537406,8.245216615415596e-05,0.0021321929837873218,0.00014694962393968592,0.11561853367915265,0.00011660497162224726,0.01062281259464464,1.7147849827499123e-05,0.010990180844644523,3.3361762801292266e-05,0.9665730477784721,0.0033231908800053223,0.0030786258465896046,5.859856629424508e-06,0,1787.3805813946929,16,3
2,Y,1660,0.08127919154116467,7.448839752867152e-05,0.001993710346632696,0.00013149754987240098,0.11494613501623563,0.00010534250202448581,0.010880465815902022,1.5844088376479697e-05,0.011177846933035017,2.617920848130783e-05,0.973395492091226,0.002684482828662427,0.0031349584993993,5.3939405788998604e-06,0,1869.6479519299305,16,3
2,Y,1681,0.08115300139796258,8.064305118305217e-05,0.0016885301567834108,0.00014400049893119676,0.11476767520428144,0.00011404649669422007,0.01065664256259856,1.664905034455444e-05,0.011009467945660616,2.7802296533519926e-05,0.9679525491328469,0.002874348653972012,0.0030657018633416344,5.676356450745632e-06,0,2065.4205734272787,16,3
2,Y,1702,0.07896006571686359,8.168348836635927e-05,0.0019346868735847015,0.00013816640457388902,0.11166639582265936,0.00011551789706965021,0.01107434263895211,1.809233839825472e-05,0.011477264762064083,3.56560467154586e-05,0.9648938896623038,0.003386820694565278,0.003099776557532655,5.994043099523882e-06,0,2070.18621446264,16,3
2,Y,1734,0.08216061812385225,8.967636061739594e-05,0.001772553698014402,0.00015402390517410124,0.11619266044370857,0.00012682152540938185,0.010420012873941627,2.0454702429024358e-05,0.010958547703798213,4.2994762607411616e-05,0.9508570985487492,0.00417149103444836,0.003034847588635339,6.816440065008817e-06,0,1586.7265414306903,16,3
2,Y,1755,0.08247122807889881,8.38597227451429e-05,0.0015887925926842345,0.00015052191621308053,0.11663192925474353,0.00011859555724302862,0.010547640181745319,1.9602996872058242e-05,0.010892199973503871,3.3228948712387154e-05,0.9683663729460787,0.0034592413317563546,0.0030836331066337193,6.532683163780404e-06,0,1536.6865617900776,16,3
2,Y,1776,0.08114248474047746,7.577276383712635e-05,0.0020940382386394475,0.0001447265349036891,0.11475280240463515,0.0001071588702769577,0.010698210956977792,1.700003695306302e-05,0.01100174978007608,2.8602056019896467e-05,0.972409950310996,0.0029628861663950033,0.0030772614193558573,5.67178571236123e-06,0,1793.4386255768186,16,3
2,Y,1797,0.07881772812535713,7.985914381968641e-05,0.0018282868143190982,0.00014463827062356346,0.1114651000703154,0.00011293788426930407,0.011234208944500055,1.7597402561096523e-05,0.011585683851299888,3.399146857596063e-05,0.9696629986359936,0.003224990885179443,0.0031388556333249306,5.855667777341528e-06,0,2149.033562352804,16,3
2,Y,1818,0.08599506240504028,7.985412156297621e-05,0.0020581475681049205,0.0001451157907785435,0.12161538355032864,0.00011293078172575077,0.010130669228530535,1.309429931195598e-05,0.010336139398771826,3.102855298718714e-05,0.980121188161829,0.0032034151860145517,0.0030882793937246173,4.915061773122122e-06,0,1215.6092805795968,16,3
2,Y,1839,0.09474939357965156,8.675372121249093e-05,0.0010767235771687656,0.00016706935507155324,0.1339958774269695,0.00012268828912503915,0.008859443473294334,1.5394351813249657e-05,0.009063858602552032,2.6101601184006148e-05,0.9774472287994274,0.0032875165103365142,0.0029756908706797705,5.844541383951737e-06,0,851.0539052032667,16,3
2,Y,1860,0.08242624782785009,8.779042192038165e-05,0.0022134093958371586,0.00014984633289609,0.11656831757367148,0.00012415440532626,0.010497051430622552,1.9820979115325455e-05,0.010938281434054403,4.031278713394207e-05,0.9596618530898136,0.003973996964246357,0.003067169575309766,6.649360532607899e-06,0,1972.0453035553383,16,3
2,Y,1881,0.08133488218325509,8.056086656465632e-05,0.0022912583968466294,0.0001460982578630907,0.11502489347757716,0.0001139302700922662,0.010809213183367649,1.739229912401512e-05,0.011106213982641045,2.981345658464943e-05,0.9732581418170398,0.0030459924983982506,0.0031165626108674077,5.888588693075846e-06,0,1473.5423076632017,16,3
2,Y,1916,0.08144732564943928,8.339340740924892e-05,0.0019029700340287916,0.00014891749324257524,0.11518391255245508,0.00011793608777066478,0.010567632818921088,1.6816051047304587e-05,0.010831349874873697,2.927042559202087e-05,0.9756524293833059,0.003059728670064672,0.003051121313279307,5.773417272054939e-06,0,1660.7103627424385,16,3
2,Y,1937,0.08455311650702357,8.77692109455072e-05,0.0015102095142482317,0.00015582344632960994,0.11957616410514516,0.0001241244084779214,0.010335121914475687,1.8548814118141014e-05,0.0106414947699106,3.380208385903038e-05,0.9712096033443348,0.0035433656256260593,0.0030977770339320207,6.422638689653583e-06,0,1148.0358762482626,16,3
2,Y,1958,0.08118012851662615,7.855279642229586e-05,0.0019154694243726704,0.00015133843189866423,0.11480603874340356,0.00011109043006274355,0.010631897342497068,1.6556680505333035e-05,0.01093725815770462,2.7481155188696658e-05,0.9720806795629631,0.002873534410578334,0.003059605557451524,5.6095120229655735e-06,0,1709.252823314161,16,3
2,Y,1979,0.07928730157294057,7.435105225696122e-05,0.00234904367384227,0.00013677370389267494,0.1121291772084182,0.00010514826647850528,0.011000062449425248,1.8272135401903743e-05,0.011391889323493254,3.392811528373238e-05,0.9656047506307888,0.0032928850894539184,0.0030917453784395643,5.897534167004878e-06,0,2016.7890716420623,16,3
2,Y,2000,0.0810747281295582,7.937136686171301e-05,0.0018167772717934548,0.00014701457586123112,0.11465698008653269,0.000112248063479925,0.010627897879181891,1.8371728840041875e-05,0.011059727684392954,3.6340801626842517e-05,0.9609547524555742,0.0035678603105149765,0.0030544836568059206,6.068046734633348e-06,0,2094.9821896102508,16,3
2,Y,2021,0.07964694974834376,7.73464831475673e-05,0.0020887872118970498,0.00013431677518331402,0.11263779653575612,0.00010938444546915171,0.010950909531791163,1.699002814271487e-05,0.01125806710070034,3.3188905463100794e-05,0.9727166691971422,0.0032404510496051053,0.0030918916853891216,5.659202986038813e-06,0,1809.846499586197,16,3
2,Y,2042,0.08198108267024891,7.780717942734585e-05,0.0013152865764407544,0.0001475955992846611,0.11593875897029593,0.00011003596839614938,0.010522356312369295,1.7689948954425486e-05,0.010868921047070497,3.479151517165759e-05,0.9681141547352935,0.0035003475122550374,0.0030579584873074647,5.9036215080328575e-06,0,2262.857383470887,16,3
2,Y,2063,0.07922185038554666,8.264435306681365e-05,0.0022068647334514643,0.0001469748613441061,0.1120366152515323,0.00011687676496063837,0.0110506607956429,1.9547603847269148e-05,0.011446244000016313,3.8198455943903884e-05,0.9654399116100576,0.0036464972550178565,0.003103402904778175,6.3731727012891925e-06,0,1934.1151919202323,16,3
2,Y,2095,0.08120564881604272,8.837045236171656e-05,0.001834755392148766,0.00015927431760098744,0.1148421298969543,0.00012497469224298507,0.0106100200015491,1.7044881663198766e-05,0.010919432707368636,4.256735198703115e-05,0.9716640310800453,0.004096879539126728,0.0030542696402123667,5.926426451291169e-06,0,1457.598595622576,16,3
2,Y,2116,0.07927299525002666,7.607246756962771e-05,0.002104858588567121,0.0001333655722927139,0.11210894501252566,0.00010758271536015496,0.01095551107763367,1.8555326166869156e-05,0.011328576936556206,3.5285581804944965e-05,0.9670686034961118,0.0034286944306862127,0.0030786678908805323,5.99312791857871e-06,0,2158.983026655587,16,3
2,Y,2137,0.08111297433679629,8.272956588092712e-05,0.0020544626130767217,0.00014563381689353268,0.11471106839151812,0.00011699727407804561,0.010573074402004924,1.898900496364195e-05,0.010940447522429375,3.7145584470883086e-05,0.966420649642413,0.0037120211862085215,0.0030401607461023597,6.2790861052507e-06,0,1579.8083855938205,16,3
2,Y,2158,0.0794085234469168,7.505443088620438e-05,0.0016855522826579638,0.0001426554995785002,0.11230061082665166,0.00010614299407546435,0.011118558225531977,1.595219820953835e-05,0.011423670128788376,3.537546383690109e-05,0.9732912540526273,0.0033217479590365914,0.003129828402701558,5.377306997398124e-06,0,2022.9142341649383,16,3
2,Y,2179,0.08121422722333423,8.328944522554482e-05,0.002026345694950938,0.00014706999631704275,0.1148542615968895,0.00011778906304049652,0.01058044085757185,1.923359555341593e-05,0.010941556403123715,4.396329835149744e-05,0.966995961794908,0.004264548012956481,0.003046076542308778,6.357706942981744e-06,0,1834.0542385497695,16,3
2,Y,2200,0.07924785337922693,7.574066720771261e-05,0.0012041906421136938,0.00014171029025429155,0.11207338903785724,0.00010711347878833433,0.011159394130706258,1.7451706365616965e-05,0.011500639427974399,2.919796848054866e-05,0.9703281457170034,0.0028933390612677105,0.003134967591248901,5.745719308553425e-06,0,1993.5499381913905,16,3
2,Y,2221,0.08137367313025522,8.93759197853637e-05,0.002573154028706823,0.0001559166010555376,0.11507975216092203,0.0001263966379100312,0.010564569149909579,1.8948498647562622e-05,0.010959620824604012,3.50748958731162e-05,0.9639538921084246,0.0035364580144818776,0.003047478442834286,6.4093567968311125e-06,0,2147.1843462704087,16,3
2,Y,2242,0.07922761232549932,7.635577195939795e-05,0.0023513890164763296,0.00013664504589610724,0.11204476386515894,0.00010798336827044785,0.011074544359258068,1.677087263451541e-05,0.01151317962655409,3.506896464319746e-05,0.9619014658396929,0.0032720649862438868,0.0031103364286149547,5.583128563446614e-06,0,2275.659362157929,16,3
2,Y,2274,0.08134730337502666,7.977592594306966e-05,0.0013743077279141723,0.0001369308286135886,0.11504245969544136,0.00011282019641956076,0.01059249624419083,1.7160108388027908e-05,0.011046245213545242,3.7385211042736626e-05,0.9589227868309487,0.0035980473965756665,0.0030545441837356614,5.784487548785527e-06,0,1720.9590393329588,16,3
2,Y,2295,0.08037355682970258,7.62052849610141e-05,0.0013339089738327588,0.000145241140931775,0.1136653741247301,0.0001077705475163726,0.011013807066729643,1.7149923017396305e-05,0.011360582446292527,3.117333373293509e-05,0.9694755633170857,0.0030587126948019338,0.0031380191127340965,5.720858563178107e-06,0,1579.4491582319545,16,3
2,Y,2316,0.0807041401518744,7.718367576947316e-05,0.0011636260508137476,0.00013746398465670927,0.11413288954243983,0.00010915420106699658,0.010705431611213694,1.782134908066173e-05,0.011110386984697075,3.282402422146969e-05,0.9635516409967404,0.003267483489340319,0.0030627033122619315,5.879984023184102e-06,0,2000.34563496527,16,3
2,Y,2337,0.08095981165213822,7.413532216645544e-05,0.0015290821610175023,0.0001440620681074081,0.11449446364562521,0.00010484317805870003,0.01083354609174644,1.951859871695684e-05,0.011174841165866941,3.994213305309804e-05,0.9694586196747949,0.003880452509630801,0.003109174209127555,6.283741838066353e-06,0,1729.468876765528,16,3
2,Y,2358,0.08413089999269341,7.859564849926633e-05,0.0012875473851129795,0.00014471639549580242,0.11897905978432155,0.00011115103205117105,0.010338701806806683,1.7001486942867517e-05,0.010589990218675387,3.246815468853952e-05,0.9762711384354672,0.0033965449771649002,0.003083375918758367,5.831544052578884e-06,0,1259.138711151469,16,3
2,Y,2379,0.08060247227749982,8.045175174376425e-05,0.0014122874867671892,0.00013786163055990063,0.11398910945564167,0.00011377595843270472,0.010936494261893522,1.8497965214558977e-05,0.011309237601585719,3.1901140341288515e-05,0.9670408074510759,0.0031806325653843054,0.003124866184214805,6.137074143633107e-06,0,1765.990080110111,16,3
2,Y,2400,0.08107418259462283,8.549480227274707e-05,0.0018824090278299476,0.00015295982501913708,0.11465620858362835,0.00012090790888652503,0.01066287583336549,1.787940240627875e-05,0.01106651686932251,2.927651765548986e-05,0.9635259187038377,0.0030179005647481155,0.003064515785144374,6.070254729274253e-06,0,2218.1313656943603,16,3
2,Y,2421,0.07914409593978651,7.855217938538016e-05,0.0015111853337163408,0.00015018900810409556,0.1119266538598035,0.00011108955744076887,0.011184510364495102,1.9100127543529005e-05,0.01160963849912042,3.705701936669915e-05,0.9633814494174364,0.003487478940911684,0.0031379096216589734,6.198019593625186e-06,0,2184.5988527313325,16,3
2,Y,2453,0.08216034777405513,7.7719218273346e-05,0.0016790336639459647,0.00013922235126438232,0.1161922781113589,0.00010991157253920081,0.010462775152271293,1.6344216262885504e-05,0.010824898372657224,2.9824899340539232e-05,0.9665471944475134,0.0030612929304246177,0.0030472921523535656,5.5650126017455156e-06,0,2087.375300205422,16,3
2,Y,2474,0.07916666083082476,7.481917143498755e-05,0.0018359498439615386,0.0001454883815467691,0.11195856543474325,0.00010581028696887707,0.01123892163408862,1.4500701734994645e-05,0.01151569135098377,2.2487749608713227e-05,0.9759658618436743,0.0022842748978656783,0.0031540741731358075,5.04440570632543e-06,0,2663.9278378608465,16,3
2,Y,2495,0.08179491354970427,8.82411977644739e-05,0.0013620363302190065,0.00015629138214601784,0.11567547607512663,0.00012479189863856543,0.01046049562331001,2.0182081481191576e-05,0.010971797258798686,4.17101528605747e-05,0.953398552358535,0.004064480077081733,0.003033077391522872,6.7045892648616495e-06,0,1590.0945224495056,16,3
2,Y,2516,0.07811851705090389,7.675040671673432e-05,0.0019293091496046884,0.00012830301595498345,0.11047626628586216,0.00010854146609645676,0.011283840861570756,1.6879173878134617e-05,0.011720410825742135,2.9305198294833138e-05,0.9627513087499869,0.002805129317008633,0.003124754304045699,5.592272460093699e-06,0,2360.0984051977507,16,3
2,Y,2537,0.08117632761942242,7.754801621006183e-05,0.0017841488493455173,0.00013594347406148407,0.11480066346302886,0.00010966945625939806,0.010593550755914,1.886667606355794e-05,0.011072335710999687,3.2508782653850916e-05,0.956758450287048,0.003285476278722152,0.003048427592042788,6.160854997353934e-06,0,2186.1165383352864,16,3
2,Y,2558,0.07870248882392336,7.675931415231766e-05,0.0016626801792397916,0.000137737102714777,0.11130212708730935,0.00010855406311266469,0.01128093696240617,1.8627419021422347e-05,0.011731986821391125,3.321072958546273e-05,0.961553838590873,0.003151184043800731,0.0031473031090869254,6.035760276851402e-06,0,2548.0026861817655,16,3
2,Y,2579,0.08141457653126526,8.023385367626442e-05,0.0014138584836492594,0.00014368223279399156,0.11513759830537762,0.00011346780403043155,0.010640089676659427,1.6107463844509294e-05,0.010991950306581393,2.910667870744783e-05,0.967989244846632,0.0029525469603986906,0.0030708060571862333,5.546981470540214e-06,0,1942.8452917932682,16,3
2,Y,2600,0.07861756551835838,7.795579735881643e-05,0.0016209586980479238,0.0001418597660179133,0.11118202739681782,0.0001102461458904469,0.011254050038549063,1.779145259198644e-05,0.011568097824860325,2.8587080012990634e-05,0.9728522535799826,0.0028539664617880252,0.0031364138653142038,5.8529713540061585e-06,0,2056.1807382771526,16,3
2,Y,2632,0.08156912366485322,8.14545410393121e-05,0.0015038221620898753,0.00014197553598946927,0.11535616095772361,0.00011519411665467105,0.010462274766382442,1.712277993691506e-05,0.010792435203296178,3.429705201348426e-05,0.9694081613005284,0.0034652027243643434,0.0030252192139682997,5.800001868537267e-06,0,1679.0891747631592,16,3
2,Y,2653,0.07891034871016368,7.89556305121522e-05,0.0019466228169807542,0.00014039667778258406,0.11159608535750376,0.00011166012349600463,0.011036079152684187,1.914609776986612e-05,0.011424974711405191,4.204390751447649e-05,0.9659609260812821,0.0039299481177489,0.0030871213497246793,6.182650559912327e-06,0,1849.8731654575133,16,3
2,Y,2674,0.0811589176182733,8.115253435662222e-05,0.0014911358841968342,0.00015144684419619444,0.11477604200328284,0.0001147670147080837,0.010661666764305154,1.6053735015147088e-05,0.010997199885092858,3.588671733646955e-05,0.969489222320808,0.0034842485199963868,0.003067370826510417,5.544315045149895e-06,0,1915.0755654097445,16,3
2,Y,2695,0.07767755712601428,7.593717539929299e-05,0.0020262401869801656,0.0001353035387996608,0.10985265477962025,0.0001073913833379847,0.01148972130475386,1.7646808062938953e-05,0.011865673997017507,3.139006768284093e-05,0.9683159429158307,0.002962055435394284,0.003163807021745397,5.760051292947853e-06,0,2043.3751368367516,16,3
2,Y,2716,0.08313506789608086,8.32070551878311e-05,0.0025981615722275647,0.00014511069295181528,0.11757074052744565,0.00011767254593175736,0.010229838741969668,1.7162750285646328e-05,0.010505136515055519,3.8182201096386804e-05,0.9737939842389192,0.0038982426767245554,0.0030147963137912804,5.88963357798462e-06,0,1287.032426035441,16,3
2,Y,2737,0.07861945871772148,7.218783017663443e-05,0.0018276411413038196,0.00013493175609387043,0.1111847047850334,0.0001020890084740822,0.011275821820410419,1.7939532990143894e-05,0.011625202382211758,3.3750343162460776e-05,0.9699462813364916,0.0032110634531287564,0.003142557161525835,5.7726257785501535e-06,0,2228.197029450765,16,3
2,Y,2758,0.08073015138259296,8.378348525387798e-05,0.0022210483546063714,0.00014816258762569005,0.11416967497769603,0.00011848774114892047,0.010745801234667946,1.651326278301586e-05,0.011147690082238449,3.140627456874137e-05,0.9639486885080497,0.0030934529063727377,0.003075243449008365,5.702545137764281e-06,0,1958.0458515523956,16,3
2,Y,2779,0.07853791400982638,8.358211532732636e-05,0.0015297130596123364,0.00015637901948602778,0.11106938315318837,0.00011820296106773709,0.01128847004176196,1.6831066037849663e-05,0.011597282144278707,2.4980925325743364e-05,0.9733720281463452,0.002549961021793532,0.0031428190640012312,5.757149886328587e-06,0,1945.603458406627,16,3
2,Y,2818,0.08105641628617215,8.372033313101406e-05,0.0021299618551401008,0.0001416366932427936,0.11463108322926407,0.00011839843056027366,0.010601543935637593,1.886486931946507e-05,0.01100680813570429,3.642213394994722e-05,0.9631805883167813,0.0036188261655271422,0.003046221282993419,6.2675484534066665e-06,0,1722.8972349991861,16,3
2,Y,2839,0.07935911070241669,7.34207608176471e-05,0.002428018899019703,0.00013364452850887914,0.11223073065322553,0.00010383263570806767,0.011150690665307838,1.7227902786800353e-05,0.011428806493930561,3.005393447840076e-05,0.9756653655156012,0.002975729414572767,0.003136920356990835,5.6490618061236376e-06,0,1670.8334894318118,16,3
2,Y,2860,0.08095922086537616,7.853341596189193e-05,0.0016528248920625334,0.0001485878636089816,0.11449362814697384,0.00011106302195279527,0.01073281960717335,1.7790599074471953e-05,0.011097390875575389,3.447528832194752e-05,0.9671480195219188,0.003405492616175808,0.0030802437280795223,5.915809218306801e-06,0,1783.1384754363114,16,3
2,Y,2881,0.07855804359616425,7.171392083715297e-05,0.0017787946532293853,0.00012977348101481375,0.11109785068719236,0.00010141879945885224,0.011281664966285826,1.7000007255514088e-05,0.011610761037996277,3.4551389386611274e-05,0.9716559430830174,0.0032410353456894204,0.003141729496974246,5.535157635526634e-06,0,2028.682800651062,16,3
2,Y,2902,0.08092939392738405,8.161066428730511e-05,0.0015095512433837897,0.00014068257656422864,0.11445144648674133,0.0001154149082693845,0.010742649878741678,1.7290333623321507e-05,0.011190316868405806,3.511159349560634e-05,0.9599951462564882,0.0033853293687210097,0.003081929086296429,5.853563383882133e-06,0,1977.6135150326108,16,3
2,Y,2923,0.07845473708145763,8.058575280489264e-05,0.0013081155951126648,0.0001424149360282548,0.11095175321301276,0.00011396546455072487,0.011318688352513718,1.8457358678924635e-05,0.011705426016015206,3.3909593738323017e-05,0.9669608211634195,0.0032145123360046157,0.0031478947669307854,6.066735130655311e-06,0,1902.8588729506064,16,3
2,Y,2944,0.0811395601855052,8.28856780209085e-05,0.001436742038642109,0.0001533760147761414,0.11474866645932946,0.00011721804998365837,0.010640906726248043,1.6836319032477014e-05,0.010940212529191131,2.9824005158336165e-05,0.9726416829522765,0.003065751513342581,0.0030606679631109035,5.764256020381755e-06,0,2258.7570808456403,16,3
2,Y,2965,0.07970987485012089,7.437685561685685e-05,0.00233967901671878,0.00014090036592027372,0.11272678606810305,0.00010518475794002446,0.010951846329039644,1.7323362463731538e-05,0.011323117353341489,3.115005038645296e-05,0.967211235853501,0.003069290582958364,0.003094599140863481,5.683186780216051e-06,0,2233.527346500953,16,3
2,Y,2997,0.08373331626148844,7.933853270864716e-05,0.0011624493794412827,0.00013652539938912819,0.1184167914794726,0.00011220162897535024,0.0103173406438379,1.7419460454221125e-05,0.010673094998338437,3.38449899230135e-05,0.96666811692804,0.0034727725328225706,0.003062464009617298,5.929145342067331e-06,0,1501.1933857612992,16,3
2,Y,3018,0.08174261927688627,7.440060968186979e-05,0.002337429557523898,0.0001417951308258036,0.11560152080527297,0.00010521835126092727,0.010803698469504007,1.6640134718276167e-05,0.011067070767192006,2.5887385010765702e-05,0.9762021673821082,0.0027340376837356227,0.0031305881445795685,5.600801149271362e-06,0,1355.263583181999,16,3
2,Y,3039,0.08095142139438517,8.646560631417479e-05,0.0014773292380496027,0.0001578213033517907,0.11448259802931904,0.00012228083312831872,0.010724146016650947,1.8889137687884072e-05,0.011115225757242409,3.782063352723287e-05,0.964815852675179,0.0036966518152130212,0.0030774579630832334,6.339325697045986e-06,0,1364.5043255757753,16,3
2,Y,3060,0.07879569196639011,8.715354806265372e-05,0.0021493631839947127,0.0001459816778165405,0.11143393623544162,0.00012325372967914028,0.01115095678033609,2.0468676310061598e-05,0.011633446556461879,4.1157417470064234e-05,0.9585256377992482,0.0038203975945194485,0.003114723778020683,6.675116525067505e-06,0,1914.2209661763584,16,3
2,Y,3081,0.08051239374035593,7.121063452648015e-05,0.0016965462486800593,0.0001370980005054862,0.11386171916673404,0.00010070704513254203,0.010803355141025175,1.6295565310935154e-05,0.011100256833143337,2.8196421247456987e-05,0.9732527186910065,0.0028752362669691527,0.0030833748378039385,5.391494031637585e-06,0,1982.6507712912112,16,3
2,Y,3102,0.0781159508483222,8.186733756345419e-05,0.0018422334851051784,0.00014264882651981488,0.11047263712736732,0.00011577789909761327,0.01145219341759599,2.027581888534497e-05,0.011876522697918885,3.7843047090728916e-05,0.9642715893266259,0.0035149732555880744,0.003171270807550041,6.524602479782893e-06,0,1844.1206967429678,16,3
2,Y,3123,0.08095313970519699,8.008149702669665e-05,0.0017879712207630731,0.00014491254540849178,0.1144850280877735,0.00011325233919029509,0.010722412141319285,1.6286991495659764e-05,0.0110667814731013,2.4611420748726372e-05,0.9688826121109346,0.002609334979350178,0.003077025713926343,5.5776916290639315e-06,0,2233.8489623995183,16,3
2,Y,3144,0.07877640577624348,7.374218290452242e-05,0.0011844912249328928,0.0001315555652486663,0.11140666144376976,0.00010428719518257301,0.011186306859819624,1.8952807769320546e-05,0.011771925724663682,4.085989128751677e-05,0.9502529256010244,0.0036702619097934955,0.0031238331015805976,6.04675969880524e-06,0,2636.8856437547756,16,3
