XscanNumber_YscanNumber,Type,BCID,xsec,xsecErr,SBIL,SBILErr
2_1,XY,103,138.49353370536272,0.7966197193107636,0.06874566266380865,0.0004656691839619274
2_1,XY,124,138.3645577286302,0.7547746646890822,0.0756903704730858,0.00048554728176716577
2_1,XY,145,138.10825102359374,0.8879228647402088,0.06149870039378922,0.0004733473141595894
2_1,XY,166,137.5578439309345,0.8019393941098174,0.07183231541297176,0.0004971656719246413
2_1,XY,187,137.40541727339127,0.8596896056527829,0.06222823900495584,0.00046019493013437944
2_1,XY,208,136.85622604565063,0.8133844440701661,0.07060793250057931,0.000495854478373032
2_1,XY,229,136.47493120631407,0.8366361841797822,0.06709538135565436,0.0004830480504358031
2_1,XY,250,137.48456466884284,0.8078231315649048,0.0736387364274123,0.0005159338549478757
2_1,XY,282,138.4404712002474,0.8050644206742562,0.069338312702487,0.00047679753752663426
2_1,XY,303,137.56145693105975,0.8183026714706133,0.07473594184138288,0.0005345031885529734
2_1,XY,324,137.70871584959872,0.830768063119838,0.06769409383349546,0.00047635447243590183
2_1,XY,345,136.79994257136931,0.8123224617674407,0.07781431609193751,0.0005475047886754939
2_1,XY,366,136.67414401918833,0.8476577502438521,0.06925570835627506,0.0005070965372043217
2_1,XY,387,136.86831812966983,0.7528684172947073,0.07773830180931328,0.0005023055943750191
2_1,XY,408,137.68168812504558,0.8489023973130023,0.06532043715890588,0.0004787933711688176
2_1,XY,429,137.62442124983738,0.7705809162055549,0.07410418615862803,0.0004806841109006639
2_1,XY,464,137.3918279865534,0.8288538626215032,0.06979883524968412,0.0004967790640367885
2_1,XY,485,137.34035488149908,0.7634103294281038,0.07382154093894727,0.00048521403855978225
2_1,XY,506,136.77991823660824,0.8615828050085252,0.06324517612229356,0.0004700245965153115
2_1,XY,527,137.10319583849906,0.8198443372528319,0.07053163761787717,0.0005016363514234401
2_1,XY,548,138.27216194791743,0.818462328231748,0.06821666799762666,0.0004777031514225063
2_1,XY,569,137.38143490439163,0.7837380034553174,0.07671373152628229,0.0005158893942833124
2_1,XY,590,137.1010009556719,0.8303246315295764,0.06631662979104506,0.0004746455981322252
2_1,XY,611,136.7600014944139,0.7780228545517397,0.0749567362893111,0.0005017353775080911
2_1,XY,643,137.49407853828606,0.7783317121272143,0.06964958236830071,0.00046930687902734544
2_1,XY,664,137.25698362710435,0.7992866382238226,0.07308436710945045,0.0005032318701272677
2_1,XY,685,135.69579122030152,0.8696901429185044,0.06390394950582315,0.0004868901336042372
2_1,XY,706,138.7698666175927,0.803411541260914,0.06974270424995957,0.00047040925564901707
2_1,XY,727,136.75474522650504,0.8593298044747458,0.06616960056177684,0.0004899940038281383
2_1,XY,748,135.5217591891439,0.7861496022606499,0.07634635748641962,0.0005238937850219825
2_1,XY,769,137.69100401851767,0.8778308214313831,0.06054498603969592,0.0004537230738141451
2_1,XY,790,135.6798658310914,0.6461535976962507,0.06948334504372868,0.00039797973595601105
2_1,XY,822,138.17736106192254,0.8044488202760783,0.0707989275665557,0.0004850286799837744
2_1,XY,843,136.58877932373676,0.8519200550970873,0.07187189458356774,0.0005400826239010486
2_1,XY,864,136.9628123409536,0.8925750191416646,0.06711413996059248,0.0005190810701782638
2_1,XY,885,135.86657169723364,0.7714778409063621,0.07832132783052263,0.0005211133938352921
2_1,XY,906,135.67163611810122,0.87931903773986,0.06502243163515403,0.0004947103769671941
2_1,XY,927,135.51989648374732,0.8002312532476623,0.07627618309844719,0.0005299924139919168
2_1,XY,948,137.21956529883963,0.8857422564073589,0.0649643062981666,0.0004921113930981589
2_1,XY,969,137.01967101687484,0.7877950340431005,0.07262062985148585,0.000490331177912382
2_1,XY,1018,137.36441043725387,0.7562306491929951,0.07193731029306097,0.00046953029040907457
2_1,XY,1039,136.1758830957665,0.8205927244859895,0.07601696566327991,0.0005330289107996056
2_1,XY,1060,136.3729558312015,0.7846705355557434,0.06772637022707612,0.00045718601550322966
2_1,XY,1081,137.51691234836454,0.7702199564279254,0.07367721703166777,0.000489168618219803
2_1,XY,1102,137.54651725787912,0.7730218265136182,0.06598507836345009,0.00042675495233642386
2_1,XY,1123,136.1232947988373,0.7809840765674825,0.07362149169548524,0.0004940417922413371
2_1,XY,1144,137.04545102320643,0.8656584612481409,0.06656824783601896,0.0004954167250132727
2_1,XY,1165,135.48391266036387,0.8027512934758184,0.07695734483768965,0.0005426461971884527
2_1,XY,1197,137.26566463117467,0.8081740654432507,0.06937423489569879,0.0004808196529598688
2_1,XY,1218,137.32181567226652,0.7146203136141136,0.07620331123013228,0.00046718737416324
2_1,XY,1239,135.34396019801167,0.8599788982683695,0.06746126268591882,0.000517786478818945
2_1,XY,1260,137.26538407919622,0.7980231018499369,0.0752555153858304,0.0005134373860643686
2_1,XY,1281,136.8138204075461,0.825766212960878,0.06834671144147463,0.0004812696201735068
2_1,XY,1302,135.95204039071152,0.8104248960264179,0.0770654161187174,0.0005423294935303048
2_1,XY,1323,136.44351614648235,0.8469564788770017,0.06328760907664022,0.0004606637341579431
2_1,XY,1344,136.01090691417838,0.7881330104300892,0.07341370108137069,0.0004978141081316566
2_1,XY,1376,137.37128080295489,0.8262401922518687,0.06811957163401682,0.0004885244696382112
2_1,XY,1397,137.40887343883597,0.7925963834477593,0.07489437723790185,0.0005032485897648258
2_1,XY,1418,136.98936785089705,0.8460829003678212,0.06922873202703034,0.0005077753832544764
2_1,XY,1439,135.46396252579294,0.8148714969159975,0.07432025499068329,0.0005308068056525564
2_1,XY,1460,138.2020259595548,0.7641232443473375,0.06631479610662783,0.0004300138722403298
2_1,XY,1481,137.6374107782599,0.8096608532694329,0.07367788153244292,0.0005126511352942825
2_1,XY,1502,136.3024844855346,0.8251696626884781,0.06581621898101614,0.0004631088162323103
2_1,XY,1523,137.01571001435045,0.8625135042488187,0.06982742058496111,0.0005179574483876134
2_1,XY,1555,137.4183131982404,0.7685608561509675,0.07019872000462599,0.00046454827304424624
2_1,XY,1576,138.25604384615463,0.6138158394668326,0.0665444885398974,0.00036338908859809076
2_1,XY,1597,137.46842290882043,0.765699143371026,0.06803684261706457,0.00044209462570011094
2_1,XY,1618,136.9681291312065,0.7255734087364444,0.0724689044438933,0.0004524026149158307
2_1,XY,1639,137.08659923980662,0.7843187857514654,0.07561735779856994,0.0005099791878009618
2_1,XY,1660,137.6847146015108,0.763794780015327,0.07829879512372134,0.0005234024348656901
2_1,XY,1681,138.01476592845594,0.8403644359071791,0.07105740811831489,0.0005131532515780437
2_1,XY,1702,136.6046876853708,0.8222971338676933,0.0777793638142081,0.0005577643012862802
2_1,XY,1734,135.7029725522387,0.8081192633155505,0.07058348610805873,0.0004959007622898036
2_1,XY,1755,135.67634093649264,0.8050521330213993,0.07121691193880757,0.0004993479633880523
2_1,XY,1776,137.75896282987466,0.8180441350766628,0.07024065198358417,0.00048354518867339016
2_1,XY,1797,137.92216258519485,0.7751708511905723,0.07665297022267836,0.0005126986811984567
2_1,XY,1818,136.14246485593605,0.8024185776921081,0.07274791199310936,0.0005054209581910068
2_1,XY,1839,137.88229598243225,0.8018477190103491,0.06328988722334922,0.0004359317625160703
2_1,XY,1860,138.5560954711588,0.7831389065884162,0.07253458557158304,0.00047656925338091665
2_1,XY,1881,136.1663789869415,0.6902529368903068,0.07729209950369206,0.00045537240863920895
2_1,XY,1916,138.33449144158172,0.7874152308734004,0.07082802178695441,0.00047963838331785836
2_1,XY,1937,136.78622028388932,0.8109491942713279,0.07075105502990173,0.0004983692418465616
2_1,XY,1958,136.70049913992747,0.8523907781247189,0.06846704467752726,0.000504389752929076
2_1,XY,1979,136.8719586542402,0.8066618115165559,0.07347502371499538,0.0005072513461239992
2_1,XY,2000,137.74212692996952,0.7918845259941758,0.07240330457168218,0.0004891249573681174
2_1,XY,2021,138.3751926522827,0.7705570665011255,0.07597577966773353,0.0004995831593488166
2_1,XY,2042,136.6514841453545,0.7841087340548203,0.0720454025505247,0.0004844893918316763
2_1,XY,2063,136.11244063404754,0.7938857893074202,0.07647839623628896,0.0005239466061559944
2_1,XY,2095,137.18042571130562,0.8171277964709013,0.07019253740953284,0.0004828222603867028
2_1,XY,2116,136.86161187728737,0.7763555765505229,0.07327958229848282,0.0004906868957807683
2_1,XY,2137,137.39252375667664,0.819180027673158,0.06921699414810006,0.00048321995275211007
2_1,XY,2158,136.88448737044027,0.836750167023068,0.07520948869770047,0.000543486689475794
2_1,XY,2179,136.43397326049077,0.799653732231523,0.07182685759249169,0.0004982111331376429
2_1,XY,2200,136.85048900291474,0.7748996172391657,0.07702261473270662,0.0005166995556359998
2_1,XY,2221,135.69061945650924,0.8429404465179441,0.07299826281372389,0.0005333231359041124
2_1,XY,2242,136.53861831345685,0.7641018140076627,0.0763324752715121,0.0005065998244753159
2_1,XY,2274,137.52702688951047,0.7713514189148158,0.07213408933713988,0.00048510859145547194
2_1,XY,2295,138.00436945033115,0.7908398263715223,0.07647708985960028,0.0005165238523281216
2_1,XY,2316,137.82110350075868,0.7409547423416006,0.07083467500488243,0.000448153543111941
2_1,XY,2337,136.32477958146572,0.8188902701649345,0.07552491107710876,0.0005373298911078171
2_1,XY,2358,138.3521399512879,0.7754172044390405,0.07009887156820205,0.00045791935553136964
2_1,XY,2379,138.08833229999533,0.796831095702081,0.07548576690819739,0.0005182677333770896
2_1,XY,2400,137.52270589692893,0.838952673458483,0.06798031626378472,0.00048782977915321776
2_1,XY,2421,137.33565380026025,0.7255509535541903,0.0742120388935149,0.0004640306211335483
2_1,XY,2453,137.95224260777786,0.8028859166245981,0.07387513973310889,0.0005029957436896931
2_1,XY,2474,138.25378718417787,0.5561154801563879,0.0776593348121875,0.00038805406295742577
2_1,XY,2495,136.99459961851625,0.815161060121098,0.07098064364124068,0.0005039469879499708
2_1,XY,2516,137.75926125057433,0.7798442256996281,0.07554424898681705,0.0005060271940151674
2_1,XY,2537,137.0683777406535,0.7788925783552668,0.07180868446393393,0.00048239099517894177
2_1,XY,2558,136.8982574211978,0.8232032880937081,0.07913425624264231,0.0005654336229322283
2_1,XY,2579,137.46666151178772,0.7761642990680793,0.07363893694283495,0.000494964345547311
2_1,XY,2600,136.49376856291266,0.7627975244791383,0.07838805729287447,0.0005176547749352074
2_1,XY,2632,136.07945922925376,0.7466834073022743,0.07344893716680974,0.00047200500807452407
2_1,XY,2653,136.259574813443,0.8601872765595313,0.07473362764700908,0.0005578278106719329
2_1,XY,2674,138.02601534219914,0.833771052182615,0.06789519273262418,0.0004764646209639832
2_1,XY,2695,134.96103742099092,0.72174192475467,0.08028104772887198,0.000508164765660894
2_1,XY,2716,136.63432970957595,0.792447019185068,0.06688028330414113,0.0004564868430105696
2_1,XY,2737,135.94852824348297,0.8464544554713884,0.07603932495792473,0.0005572275652625135
2_1,XY,2758,137.42835627178533,0.8464001855543628,0.06944370564686779,0.0005011407305362126
2_1,XY,2779,136.3783024453787,0.7689280132086219,0.07525657228419237,0.0004914161994800647
2_1,XY,2818,136.92512725897424,0.8318594593097632,0.07263642874822472,0.0005163698424308798
2_1,XY,2839,135.14808206125204,0.7838149105185529,0.07837245370092577,0.0005319372414563515
2_1,XY,2860,137.27669514546167,0.759510679403406,0.07211733163382732,0.00047269614132318123
2_1,XY,2881,137.28003743699182,0.7583537126702447,0.07701827604596385,0.0004947651586134246
2_1,XY,2902,135.0938145026506,0.7783822129459746,0.0735896468889165,0.0005023803640962544
2_1,XY,2923,136.1515768842653,0.764434275110079,0.07788724168313022,0.0005096241918840403
2_1,XY,2944,136.9039243238558,0.8345297332290301,0.06956215473195589,0.0004998770453147181
2_1,XY,2965,137.62851217097477,0.7750878851227764,0.07356725505826119,0.00048209473723674607
2_1,XY,2997,136.26275349026034,0.7285025468916959,0.07181762769440933,0.00044363007499670745
2_1,XY,3018,136.10075535962483,0.7848789324580875,0.07556763971486224,0.0005160485870467487
2_1,XY,3039,136.4404207352312,0.7923868948089646,0.06789697774842346,0.000463746756579667
2_1,XY,3060,136.7949363951666,0.814001288975868,0.07337635664351172,0.0005101412356529732
2_1,XY,3081,135.5377478519254,0.8137057717358167,0.07164937581624013,0.0005006244187466638
2_1,XY,3102,137.0919922842406,0.853107724643501,0.07624665512718305,0.0005629353587053174
2_1,XY,3123,137.6236263731361,0.8126252294550631,0.07242208756377205,0.0005033296744798174
2_1,XY,3144,135.44534843185764,0.7907996444466019,0.07840677223474962,0.0005433419608238171
