XscanNumber_YscanNumber,Type,BCID,xsec,xsecErr,SBIL,SBILErr
2_1,XY,103,135.43484024557267,1.1261484952666878,0.07218309228561798,0.0006818608121731713
2_1,XY,124,134.2364787168523,1.0156534338744738,0.08023384534072053,0.0006853135041726325
2_1,XY,145,134.39732149343624,1.208511127911974,0.0653556086655825,0.0006726945487368514
2_1,XY,166,134.15157697608316,1.1536038048640112,0.0761577831189989,0.0007471952567018762
2_1,XY,187,133.84918263805272,1.1439519567751235,0.06576959965211353,0.0006404362355810054
2_1,XY,208,133.52650407482778,1.0767470627444655,0.07517583560494975,0.0006966542183758465
2_1,XY,229,133.42168031173549,1.0486113873324603,0.07062548428448308,0.0006346508148520878
2_1,XY,250,133.5521074634028,1.0949362078537634,0.07893246687090076,0.000743029812229778
2_1,XY,282,134.557069074632,1.193536194002481,0.07331590249481452,0.0007310561944944918
2_1,XY,303,133.09642548517567,1.1572689496925894,0.0805978246607862,0.0008033284868604826
2_1,XY,324,134.16855142115648,1.0950573266644186,0.07164125984429397,0.0006636644493385385
2_1,XY,345,134.15572912172465,1.043482326171902,0.08202029614660604,0.0007379323308155504
2_1,XY,366,133.44449213727927,1.1005805071026273,0.07348014306502387,0.0006970849889208831
2_1,XY,387,133.936276936922,0.9457378723618535,0.08157940734758362,0.0006579066334514263
2_1,XY,408,133.68680957613324,1.1776298683499287,0.06960562694247031,0.0006986235531117828
2_1,XY,429,134.4117841878159,1.0408073210276274,0.07815044069778217,0.0006861862491709444
2_1,XY,464,134.381938190276,1.1283030199016235,0.07373854251059454,0.0007100447355928748
2_1,XY,485,134.28009066156264,1.0437495775142651,0.0774944558199502,0.0006845969086871717
2_1,XY,506,133.96085685328947,1.1436346675154276,0.06613777608322037,0.0006447465177384411
2_1,XY,527,134.99149354454318,1.0772460352942759,0.07298539484848453,0.0006681589531410415
2_1,XY,548,133.7982856321873,1.2134887247080055,0.07266870073640394,0.000742006550134924
2_1,XY,569,134.3244287895464,1.1023086214785853,0.08058386080848386,0.0007522410047103458
2_1,XY,590,132.96273876582597,1.179995983061726,0.07075108881283772,0.0007112278345898439
2_1,XY,611,133.97308005910054,0.9947294333742365,0.07852447362036045,0.0006665258230252961
2_1,XY,643,134.63132113890035,1.1004956470962644,0.07264783173686241,0.0006728531642121497
2_1,XY,664,133.90486507749827,1.1527367637940846,0.07704228556317694,0.000754055096172401
2_1,XY,685,133.64641304605928,1.2165624386781886,0.06665269402953784,0.0006974373065169998
2_1,XY,706,135.73878616912435,1.092320527147214,0.07274761597767698,0.0006581576975865487
2_1,XY,727,133.81892175281885,1.1711942817740184,0.06916281869512508,0.0006862681572410918
2_1,XY,748,132.9574109565451,1.008611126129032,0.08037445801102715,0.000703959131991991
2_1,XY,769,134.22349263652592,1.2125587038193943,0.06387831732869285,0.0006536046255231714
2_1,XY,790,133.1038797726088,1.080321489466849,0.07327344422296382,0.0006836731333952674
2_1,XY,822,134.7339184315978,1.16776497476175,0.07474615714882653,0.0007351546636545543
2_1,XY,843,134.44288357769662,1.2994299705265802,0.07483382595909434,0.0008259279324232769
2_1,XY,864,134.7793276054035,1.2185835127818274,0.07020268499134681,0.0007313039284954421
2_1,XY,885,133.47405044402643,0.9960443698932469,0.08169483976593586,0.0006963585894923872
2_1,XY,906,133.13491185084723,1.1541920556452376,0.0684062415098085,0.0006808431750549476
2_1,XY,927,133.25398689097213,1.0402191534158807,0.07943725701023853,0.0007080739894838301
2_1,XY,948,133.22177596673802,1.1529076527832554,0.06889586114656884,0.000674368338679545
2_1,XY,969,133.3074737878934,1.118015401437528,0.07731571524097003,0.0007383411445712845
2_1,XY,1018,133.40218102672875,1.1014619172855276,0.07600963160324811,0.0007084097362083932
2_1,XY,1039,133.40067860787943,1.065044720091566,0.07962425632327247,0.000721986529536854
2_1,XY,1060,133.46419059631307,1.1271663559458571,0.07103828627583207,0.0006795698846079367
2_1,XY,1081,134.85344443681925,1.001199137664165,0.07681170117671206,0.0006545976277150034
2_1,XY,1102,134.89397836807757,0.9984612145888904,0.06846125622316794,0.0005678073877190084
2_1,XY,1123,133.57545569045897,1.0244988643190962,0.07674418136387615,0.0006695711079566556
2_1,XY,1144,134.05983592828753,1.2079259047192075,0.06992252880111718,0.0007182990021532091
2_1,XY,1165,133.16073131743514,1.040459888976951,0.08034034116078559,0.0007226291357099109
2_1,XY,1197,134.65235184895727,1.103293529137664,0.07234754214787804,0.0006741351722151531
2_1,XY,1218,134.3216840989752,0.9473223011133545,0.07948542590586202,0.000634260160690389
2_1,XY,1239,134.23397293793707,1.0833086516995465,0.06961262815616279,0.0006615491817152691
2_1,XY,1260,135.51904103420404,0.9760679426040431,0.0776978639629523,0.0006443516231243721
2_1,XY,1281,133.94877433317168,1.1059662768453355,0.07154608803656316,0.0006687635511390246
2_1,XY,1302,133.29825294071046,1.0724498682967836,0.08076634467936838,0.0007434730720461929
2_1,XY,1323,134.1031645031211,1.0652173372556168,0.0657063000424985,0.0005961471378269916
2_1,XY,1344,132.94197226721383,1.029388868561465,0.07723740917931021,0.0006792746151656975
2_1,XY,1376,134.47683866381266,1.1574090792918483,0.07166862934220748,0.0007061060439613329
2_1,XY,1397,135.02475879429036,1.0226498293166986,0.07807131981948534,0.0006764290213126127
2_1,XY,1418,133.84400029231355,1.1489565117038276,0.07309674636245063,0.0007188012821235445
2_1,XY,1439,132.92588374309767,1.0589223872134528,0.07775705844759633,0.0007124275557689886
2_1,XY,1460,134.7505470061828,1.012102164884294,0.06957891992387347,0.0005914273446239504
2_1,XY,1481,134.78952724925642,1.0948343029578567,0.07722857599824338,0.0007162696562309725
2_1,XY,1502,132.75722964799414,1.080587425877798,0.06959919407332248,0.0006407862127190905
2_1,XY,1523,134.69324193667842,1.0831288223311077,0.07267825411240167,0.000671825926848163
2_1,XY,1555,134.49606095721697,1.0471730546902154,0.073298148658966,0.0006481961554413099
2_1,XY,1576,136.30379665193033,1.0127667426462876,0.06855884609746891,0.0005770769348291749
2_1,XY,1597,134.09539345200972,1.1041284784095715,0.07171945349903411,0.0006664769214849625
2_1,XY,1618,133.97237418267216,0.9709759092719604,0.07569768516018208,0.0006222791172144546
2_1,XY,1639,134.1259898780516,1.0341507665128145,0.07928359680550782,0.0006971953478219334
2_1,XY,1660,134.39721247381206,1.1365164652137658,0.08282045709026403,0.0008012565230494952
2_1,XY,1681,134.87191460636657,1.2166112664721258,0.07495104014972769,0.0007705706661664513
2_1,XY,1702,133.78493807175556,1.1017343741826995,0.08229069066691964,0.0007845343488357985
2_1,XY,1734,133.45255157761966,1.1057231396756122,0.0736846361172466,0.0007006078574586042
2_1,XY,1755,133.47065790598865,1.007381646329454,0.07422410837212853,0.0006460135865488854
2_1,XY,1776,134.87546205793535,1.1000084063352369,0.07329079666640646,0.0006729879972298683
2_1,XY,1797,134.74623304763864,1.031910201452894,0.08063071649746788,0.0007064471721222152
2_1,XY,1818,133.3498162142043,1.0390107181568704,0.07684023377771106,0.0006904554317052126
2_1,XY,1839,135.69230091077029,1.0164314908370047,0.06549256909285002,0.0005635120016061095
2_1,XY,1860,133.75686122787172,1.07451177681672,0.07744436583535862,0.000697186763507543
2_1,XY,1881,133.69435478591612,0.9537561638167732,0.08018446656538837,0.0006446350422566648
2_1,XY,1916,134.88111557536945,1.1258220938262598,0.07452129331148447,0.0007036456394543446
2_1,XY,1937,134.778976744732,1.041008250193617,0.07342802990437167,0.0006553394590482734
2_1,XY,1958,133.9491008637743,1.1453071473810572,0.07200924397770676,0.0007065068152061806
2_1,XY,1979,133.997207386643,1.018151289486311,0.07697632691144951,0.000668689946273338
2_1,XY,2000,134.58285511850184,0.9863103988532729,0.07596874735400842,0.0006344045346215203
2_1,XY,2021,134.771339384165,1.0365822695159428,0.08024148265429125,0.0007032960535330362
2_1,XY,2042,133.68903327885548,1.1028603328091453,0.07569207857145856,0.0007091116104522187
2_1,XY,2063,133.39891991078318,1.0592099617066655,0.08089771781865869,0.0007383110818777331
2_1,XY,2095,134.00141602494028,1.091696017141513,0.07387855979448468,0.0006812780179236326
2_1,XY,2116,134.11409119073087,1.033779023782879,0.07674865130876356,0.0006760935411295813
2_1,XY,2137,134.58371372499624,1.1100439488541018,0.07266695457899579,0.00068449507507209
2_1,XY,2158,134.1948585783283,1.1539688248060518,0.07895210995031282,0.000776820500695196
2_1,XY,2179,133.03591439583124,1.0720227089775385,0.07644996637987514,0.0007040067883289254
2_1,XY,2200,133.82442688704563,1.0622287483174322,0.08125765916903181,0.0007386818514062846
2_1,XY,2221,132.65830769410272,1.1107423469855788,0.07725492082411742,0.0007401466498354793
2_1,XY,2242,133.2009438247723,1.0513143950631898,0.08061807331159457,0.000724980606650628
2_1,XY,2274,133.9859746640398,1.1450476040567041,0.07614497792395102,0.0007387308257811542
2_1,XY,2295,134.7224843264454,1.0472637138318717,0.08041155007124284,0.0007130286551452844
2_1,XY,2316,134.75616312235493,0.985911250308287,0.07405647947445947,0.0006128726982880203
2_1,XY,2337,133.7273651190919,1.0590610115865664,0.07890532394007904,0.0007178080853101881
2_1,XY,2358,134.55840833625433,1.1088989460394771,0.07425784768875442,0.0006908176953646565
2_1,XY,2379,134.36055662884226,1.1820361523057685,0.0799793587267873,0.0007973018574853934
2_1,XY,2400,135.2947448415242,1.061379445114623,0.07077505097349816,0.0006371048194932687
2_1,XY,2421,133.45939179154595,1.0214163413670492,0.07836193907664936,0.0006734231416759369
2_1,XY,2453,135.48984063094093,1.0536582284014622,0.0769992285779566,0.000682367193293649
2_1,XY,2474,134.20827765497197,0.9532644469498072,0.08218912753529334,0.0006618216546231549
2_1,XY,2495,133.89436539482372,1.0911698706664397,0.07481052636768337,0.0006994525615111092
2_1,XY,2516,134.88541862244628,1.0585407002390532,0.07924831012937586,0.0007098240210259758
2_1,XY,2537,133.54070534448303,1.0963641393218484,0.07602139126429981,0.000709597496449766
2_1,XY,2558,133.94818672446172,1.0590780904697348,0.08317954057823392,0.0007566571207720045
2_1,XY,2579,133.97904296988003,1.056148959254333,0.07822294740875722,0.0007079300814975181
2_1,XY,2600,132.56004265032527,1.0363895639632248,0.0835365838455749,0.000745364610300322
2_1,XY,2632,133.83534818729578,0.940366741643704,0.07649107069779455,0.0006146917809803646
2_1,XY,2653,134.33810671812464,1.1265765458416517,0.07820681814626504,0.0007628091798708497
2_1,XY,2674,135.23897495767565,1.0825914105151435,0.07106978176787183,0.0006466950308474766
2_1,XY,2695,133.04492426531158,0.9305640961346113,0.08327933087360484,0.0006705564003794069
2_1,XY,2716,134.37187290824627,1.0520010241852473,0.06955290741084835,0.0006241779802267835
2_1,XY,2737,132.91933231811072,1.1174943449172297,0.08056044098608311,0.0007787709242904231
2_1,XY,2758,133.1251714406317,1.1112042123494115,0.07417449526934225,0.000702776713483806
2_1,XY,2779,133.6704992589849,0.989226782532063,0.07866526794596519,0.0006601433924011029
2_1,XY,2818,132.82166423276374,1.136980721987485,0.07769302755115506,0.0007563945906402546
2_1,XY,2839,132.08420851764834,1.0212493425554139,0.08283362847266021,0.0007317868854564042
2_1,XY,2860,133.89895477670836,1.0379378502611947,0.07617070642571681,0.0006741298317050673
2_1,XY,2881,132.96555663749317,1.0446910350549126,0.08192502546853561,0.0007230844472792616
2_1,XY,2902,132.82206953008355,1.0167142530506827,0.0770348759005941,0.0006803321117779308
2_1,XY,2923,133.7053666849636,1.027051927435976,0.08158655219643128,0.0007160907022183371
2_1,XY,2944,133.64047186958754,1.0923329316393648,0.07358328767904004,0.0006888591277379256
2_1,XY,2965,133.62036944612848,1.0636767518167543,0.07815868692336052,0.0007032952211638401
2_1,XY,2997,134.21182449142876,0.927349893353757,0.07416123663281383,0.0005774031875730015
2_1,XY,3018,133.94873489987881,1.0154622890660474,0.07854237448160759,0.0006829894388050526
2_1,XY,3039,133.96050578613233,1.0475901070339253,0.07086769404751898,0.0006329835285342963
2_1,XY,3060,134.0813454129434,1.0446845624300456,0.0766935491795349,0.0006802868874708771
2_1,XY,3081,132.4425827818666,1.0797833704623983,0.07524261589277154,0.0006930859804230244
2_1,XY,3102,134.59889764449426,1.1087577834458955,0.07993474785498168,0.0007569558999688782
2_1,XY,3123,133.87713103859346,1.1484258299253283,0.07675790976604871,0.0007463291278672102
2_1,XY,3144,132.97605705380457,1.0446809692278511,0.08284412331494194,0.0007534516104750053
