[
    [
        "XscanNumber_YscanNumber",
        "Type",
        "BCID",
        "xsec",
        "xsecErr",
        "SBIL",
        "SBILErr"
    ],
    [
        "1_2",
        "XY",
        "103",
        301.638160094624,
        1.8051441341458752,
        0.06872155322873577,
        0.00048526791913394365
    ],
    [
        "1_2",
        "XY",
        "124",
        302.5389420630772,
        1.828026033637998,
        0.07606485199453432,
        0.0005409158327209977
    ],
    [
        "1_2",
        "XY",
        "145",
        301.7483574904181,
        1.946637318367615,
        0.06173062607936268,
        0.00047334022142743123
    ],
    [
        "1_2",
        "XY",
        "166",
        301.66036570587465,
        1.804281811364026,
        0.07279619994333243,
        0.0005100440169245804
    ],
    [
        "1_2",
        "XY",
        "187",
        301.70879565328636,
        1.9953280717022812,
        0.0616616102369225,
        0.0004772591197065391
    ],
    [
        "1_2",
        "XY",
        "208",
        300.5962124019345,
        1.8098150402036874,
        0.07139225150185924,
        0.0005053588426586142
    ],
    [
        "1_2",
        "XY",
        "229",
        302.29353391753324,
        1.8281284287033301,
        0.06615227875537931,
        0.0004751642162057403
    ],
    [
        "1_2",
        "XY",
        "250",
        303.49237093825064,
        1.9539685767122474,
        0.07392462683417135,
        0.0005618676793557525
    ],
    [
        "1_2",
        "XY",
        "282",
        303.50943632465254,
        1.7116721281868952,
        0.06969378206117266,
        0.00046303303562309346
    ],
    [
        "1_2",
        "XY",
        "303",
        299.91296283869036,
        1.75677539812745,
        0.07565872595727399,
        0.0005233002921494752
    ],
    [
        "1_2",
        "XY",
        "324",
        302.7987075822711,
        1.8660328942151845,
        0.06761944297364053,
        0.0004901745866977937
    ],
    [
        "1_2",
        "XY",
        "345",
        302.5404267725037,
        1.6813040449224252,
        0.07787146230422572,
        0.0005107551934101698
    ],
    [
        "1_2",
        "XY",
        "366",
        300.3961957141617,
        1.9380423166541534,
        0.06923159434658162,
        0.0005285695210872342
    ],
    [
        "1_2",
        "XY",
        "387",
        301.298538094425,
        1.7477811645065366,
        0.07808187196240574,
        0.0005286505828014351
    ],
    [
        "1_2",
        "XY",
        "408",
        302.27682474261206,
        1.9142838519223218,
        0.06520016942062,
        0.0004880846765051817
    ],
    [
        "1_2",
        "XY",
        "429",
        301.1881872536213,
        1.7945982122435595,
        0.07484235315817903,
        0.0005295808425620181
    ],
    [
        "1_2",
        "XY",
        "464",
        302.96245889199554,
        1.7398444950327816,
        0.06969809511151473,
        0.00046532138715512695
    ],
    [
        "1_2",
        "XY",
        "485",
        300.3851734319232,
        1.7811194643447967,
        0.07419632088640064,
        0.0005231893777039746
    ],
    [
        "1_2",
        "XY",
        "506",
        304.85279208333776,
        1.9731412889758313,
        0.06254631848141567,
        0.00048039416823707725
    ],
    [
        "1_2",
        "XY",
        "527",
        302.47256589505633,
        1.7788188975891854,
        0.07021062457265138,
        0.0004879396390914586
    ],
    [
        "1_2",
        "XY",
        "548",
        302.45207689292624,
        1.8436132650483914,
        0.06865586034400861,
        0.00048715912191755366
    ],
    [
        "1_2",
        "XY",
        "569",
        300.1051581628231,
        1.8885610195258262,
        0.07719682789837197,
        0.0005710009839066031
    ],
    [
        "1_2",
        "XY",
        "590",
        300.3197910796796,
        1.8964801375710454,
        0.06581387252556001,
        0.0004912067037623931
    ],
    [
        "1_2",
        "XY",
        "611",
        301.9650425512093,
        1.8372857915075465,
        0.0744800375518317,
        0.0005349044390780724
    ],
    [
        "1_2",
        "XY",
        "643",
        302.46397601566184,
        1.82560682225936,
        0.06920518042522358,
        0.0004936644044981067
    ],
    [
        "1_2",
        "XY",
        "664",
        301.88683217521094,
        1.7915736037733696,
        0.07310237012404484,
        0.0005105815387591361
    ],
    [
        "1_2",
        "XY",
        "685",
        300.7904866650274,
        2.001299449838,
        0.062140770254869374,
        0.0004829943922181275
    ],
    [
        "1_2",
        "XY",
        "706",
        303.3197383213071,
        1.8308794102608341,
        0.06878251791928022,
        0.00048774058550524695
    ],
    [
        "1_2",
        "XY",
        "727",
        301.98756847617017,
        1.961316535664199,
        0.06578754883742281,
        0.0005046842117239109
    ],
    [
        "1_2",
        "XY",
        "748",
        300.2101816193999,
        1.8456510543580789,
        0.07597919272021524,
        0.0005538054536787504
    ],
    [
        "1_2",
        "XY",
        "769",
        298.77715118530887,
        1.97524389628088,
        0.06019744959008732,
        0.0004684469802005442
    ],
    [
        "1_2",
        "XY",
        "790",
        299.7532646475448,
        1.8447477071800162,
        0.06919205582123249,
        0.000504023440642142
    ],
    [
        "1_2",
        "XY",
        "822",
        302.8271831775174,
        1.8495064957795722,
        0.07050627437371765,
        0.0005120991268026466
    ],
    [
        "1_2",
        "XY",
        "843",
        299.05586945460755,
        1.7505077419666553,
        0.0727299111995807,
        0.0005022537247928283
    ],
    [
        "1_2",
        "XY",
        "864",
        301.6935872308793,
        1.8783722340976,
        0.06617450595421992,
        0.0004920048183818469
    ],
    [
        "1_2",
        "XY",
        "885",
        299.59916456121965,
        1.7572233389888814,
        0.07806688213360291,
        0.000539363437909191
    ],
    [
        "1_2",
        "XY",
        "906",
        300.7794882240925,
        1.9053715719426025,
        0.06414940271615323,
        0.0004827076463336706
    ],
    [
        "1_2",
        "XY",
        "927",
        302.1735524277349,
        1.6981539054390886,
        0.07444222262121533,
        0.000494079191421484
    ],
    [
        "1_2",
        "XY",
        "948",
        302.91204106716594,
        1.9096512946935786,
        0.06432866909731709,
        0.00047955200787509197
    ],
    [
        "1_2",
        "XY",
        "969",
        301.31714960340594,
        1.7858174737516408,
        0.07305371037728534,
        0.0005117005684668298
    ],
    [
        "1_2",
        "XY",
        "1018",
        299.69295292167817,
        1.7752061408387494,
        0.0718362022934537,
        0.0005000177060729163
    ],
    [
        "1_2",
        "XY",
        "1039",
        301.20267883113377,
        1.7407269663892135,
        0.07613065652450188,
        0.0005178830748897237
    ],
    [
        "1_2",
        "XY",
        "1060",
        301.17427913051415,
        1.7875102653505885,
        0.06769540688832401,
        0.0004756008166945399
    ],
    [
        "1_2",
        "XY",
        "1081",
        299.29058046689784,
        1.8091171912783799,
        0.07414209801671315,
        0.000529497863007837
    ],
    [
        "1_2",
        "XY",
        "1102",
        299.999906713236,
        1.8555516620724477,
        0.06594724106988877,
        0.0004734522428102975
    ],
    [
        "1_2",
        "XY",
        "1123",
        300.89875922560316,
        1.845190738474995,
        0.07269892196224352,
        0.0005242714145552938
    ],
    [
        "1_2",
        "XY",
        "1144",
        302.2427624840026,
        1.8557052286147553,
        0.06654247968950427,
        0.0004856230182595095
    ],
    [
        "1_2",
        "XY",
        "1165",
        302.8065845005026,
        1.6837696687108554,
        0.07572765832303668,
        0.0004929491895055718
    ],
    [
        "1_2",
        "XY",
        "1197",
        300.1120302704458,
        1.733138778312954,
        0.06983615788560693,
        0.0004793274793561632
    ],
    [
        "1_2",
        "XY",
        "1218",
        301.16109128558014,
        1.7890504417487205,
        0.07714154926740255,
        0.0005378618155970819
    ],
    [
        "1_2",
        "XY",
        "1239",
        298.47622440866775,
        1.7946151694654655,
        0.06764661407559247,
        0.00048485740744553385
    ],
    [
        "1_2",
        "XY",
        "1260",
        299.97239118360494,
        1.7453773987788115,
        0.07616885785364111,
        0.0005241783072801045
    ],
    [
        "1_2",
        "XY",
        "1281",
        300.65121044138795,
        1.8521149580575855,
        0.0684422195946728,
        0.0004985708464210653
    ],
    [
        "1_2",
        "XY",
        "1302",
        299.9651592318903,
        1.7155244893139059,
        0.077726856787347,
        0.0005222704599759707
    ],
    [
        "1_2",
        "XY",
        "1323",
        302.02118345751506,
        1.987936038746416,
        0.06237299569738155,
        0.00048442607076071547
    ],
    [
        "1_2",
        "XY",
        "1344",
        301.63391268189673,
        1.8407503748097311,
        0.07198780215083712,
        0.0005193994521934175
    ],
    [
        "1_2",
        "XY",
        "1376",
        301.9546865358614,
        1.878743236017226,
        0.06751953114826224,
        0.0004959590271131303
    ],
    [
        "1_2",
        "XY",
        "1397",
        300.8697388008295,
        1.798357741873385,
        0.07577679996057089,
        0.0005317139848051341
    ],
    [
        "1_2",
        "XY",
        "1418",
        300.5162876495019,
        1.999442302669899,
        0.06849147402590472,
        0.0005380506310268324
    ],
    [
        "1_2",
        "XY",
        "1439",
        301.02074077276677,
        1.7702025337759812,
        0.07251679822247323,
        0.0005077368392759646
    ],
    [
        "1_2",
        "XY",
        "1460",
        301.9124155760101,
        1.9504513905076972,
        0.06608547935424779,
        0.0005043888822230521
    ],
    [
        "1_2",
        "XY",
        "1481",
        302.29344768871414,
        1.8601093181296948,
        0.07354505184356977,
        0.0005335670253336847
    ],
    [
        "1_2",
        "XY",
        "1502",
        303.52538379510474,
        1.9453071185695994,
        0.06493032831422067,
        0.0004899763976383336
    ],
    [
        "1_2",
        "XY",
        "1523",
        298.57149772972946,
        1.8540558269410896,
        0.07003376945009784,
        0.0005150897064050926
    ],
    [
        "1_2",
        "XY",
        "1555",
        302.1014243688861,
        1.8006389820746802,
        0.06911970629817196,
        0.0004892083156864721
    ],
    [
        "1_2",
        "XY",
        "1576",
        302.31906016497265,
        1.6914433916016918,
        0.06651012403975834,
        0.000439590758439962
    ],
    [
        "1_2",
        "XY",
        "1597",
        302.8479505141243,
        1.7954074317598725,
        0.06687847972090571,
        0.00046759436856913647
    ],
    [
        "1_2",
        "XY",
        "1618",
        304.7104093879784,
        1.8046318469493792,
        0.07143341777275436,
        0.0004982030712167922
    ],
    [
        "1_2",
        "XY",
        "1639",
        304.45106153852987,
        1.7283899531032005,
        0.07455144475911257,
        0.0005014853428848993
    ],
    [
        "1_2",
        "XY",
        "1660",
        300.09933785685195,
        1.7364837417748382,
        0.0787755060071918,
        0.0005374618418512837
    ],
    [
        "1_2",
        "XY",
        "1681",
        302.00101515325923,
        1.7555674580728098,
        0.07131533741526451,
        0.00048568319718148847
    ],
    [
        "1_2",
        "XY",
        "1702",
        302.9377169613239,
        1.7725546230273237,
        0.07747127008362835,
        0.0005317304369464851
    ],
    [
        "1_2",
        "XY",
        "1734",
        305.82507588101686,
        1.868477314378271,
        0.06880679690965978,
        0.0004966708487838582
    ],
    [
        "1_2",
        "XY",
        "1755",
        302.8501131914325,
        1.870606854007975,
        0.06987379079019522,
        0.0005090876546834723
    ],
    [
        "1_2",
        "XY",
        "1776",
        301.8482043528767,
        1.8077539056987242,
        0.07000506065190076,
        0.0004932546745384862
    ],
    [
        "1_2",
        "XY",
        "1797",
        302.042368427936,
        1.7350060562886138,
        0.07739009203037142,
        0.0005271139430372418
    ],
    [
        "1_2",
        "XY",
        "1818",
        300.96260916750595,
        1.7601747101047847,
        0.07197549158623254,
        0.000489971397266407
    ],
    [
        "1_2",
        "XY",
        "1839",
        305.1649665775917,
        1.8062683157023793,
        0.0632131169086149,
        0.00044406093328199604
    ],
    [
        "1_2",
        "XY",
        "1860",
        301.51813042959606,
        1.7673989078716636,
        0.07253958788042733,
        0.0004956937949179681
    ],
    [
        "1_2",
        "XY",
        "1881",
        300.7310110232385,
        1.7291958422893028,
        0.07653545341532131,
        0.0005210541063193956
    ],
    [
        "1_2",
        "XY",
        "1916",
        300.74180309734766,
        1.7311938231287318,
        0.07138653500061769,
        0.0004833164610505387
    ],
    [
        "1_2",
        "XY",
        "1937",
        302.35887822474524,
        1.8355871614692787,
        0.06980436171280961,
        0.0004979181526211766
    ],
    [
        "1_2",
        "XY",
        "1958",
        301.141416834609,
        1.8074180005550375,
        0.06781911820697419,
        0.0004808646566818905
    ],
    [
        "1_2",
        "XY",
        "1979",
        301.90093061346846,
        1.7953595635448685,
        0.07371299661340042,
        0.0005161246186181841
    ],
    [
        "1_2",
        "XY",
        "2000",
        300.6861245202694,
        1.8222725475333748,
        0.07202551160150973,
        0.0005169403961123284
    ],
    [
        "1_2",
        "XY",
        "2021",
        301.8812668019603,
        1.8350735769424484,
        0.07591507539969027,
        0.0005442380259916728
    ],
    [
        "1_2",
        "XY",
        "2042",
        298.567825833034,
        1.8406722697045654,
        0.07223120785408434,
        0.000523810077114609
    ],
    [
        "1_2",
        "XY",
        "2063",
        301.4498744152472,
        1.8602326615552291,
        0.07546346238427712,
        0.0005503696584980281
    ],
    [
        "1_2",
        "XY",
        "2095",
        301.78586531112603,
        1.7950091259751122,
        0.06973394348430678,
        0.000485703697075739
    ],
    [
        "1_2",
        "XY",
        "2116",
        302.97752324150383,
        1.7570719318383288,
        0.07293494334028372,
        0.0004942706621914876
    ],
    [
        "1_2",
        "XY",
        "2137",
        303.2892619503967,
        1.9082241038369068,
        0.06861558530709895,
        0.0005107343628231047
    ],
    [
        "1_2",
        "XY",
        "2158",
        301.8589780634466,
        1.7690137718615038,
        0.07566334195499111,
        0.000525008924315897
    ],
    [
        "1_2",
        "XY",
        "2179",
        305.654781277024,
        1.7655252741206287,
        0.07015087406367719,
        0.00047639242167160325
    ],
    [
        "1_2",
        "XY",
        "2200",
        301.5450985202407,
        1.7608938991086833,
        0.0779612855917301,
        0.0005330458433514226
    ],
    [
        "1_2",
        "XY",
        "2221",
        301.2952887869042,
        1.847693858789211,
        0.07160614842348703,
        0.0005168153549581231
    ],
    [
        "1_2",
        "XY",
        "2242",
        300.972993851725,
        1.7341731421741429,
        0.07619098426651735,
        0.0005089468555214297
    ],
    [
        "1_2",
        "XY",
        "2274",
        300.0233630300229,
        1.8255547895080708,
        0.0717770487019557,
        0.0005157427961575214
    ],
    [
        "1_2",
        "XY",
        "2295",
        301.8283555777048,
        1.7762739815806254,
        0.07738561600546282,
        0.000535336133044676
    ],
    [
        "1_2",
        "XY",
        "2316",
        304.0379557302638,
        1.7007225842114055,
        0.07083261817958787,
        0.0004633883779802212
    ],
    [
        "1_2",
        "XY",
        "2337",
        299.93495445579566,
        1.769474140886643,
        0.07504962797571786,
        0.0005222294035616775
    ],
    [
        "1_2",
        "XY",
        "2358",
        302.3359946185115,
        1.8223018801799562,
        0.07002342268444255,
        0.0004992602501671347
    ],
    [
        "1_2",
        "XY",
        "2379",
        301.3885527866025,
        1.8001508487974216,
        0.07591981045792698,
        0.000535368262037165
    ],
    [
        "1_2",
        "XY",
        "2400",
        302.94626350685087,
        1.8390782221327666,
        0.06755407029194749,
        0.0004857802700395151
    ],
    [
        "1_2",
        "XY",
        "2421",
        303.18114628114387,
        1.8095201207285943,
        0.07440959799995714,
        0.0005235880907038539
    ],
    [
        "1_2",
        "XY",
        "2453",
        302.28599232244727,
        1.8163531767843528,
        0.07339496462653974,
        0.0005202343270374213
    ],
    [
        "1_2",
        "XY",
        "2474",
        302.269950681371,
        1.720575165627496,
        0.07758707683439604,
        0.0005226779791207189
    ],
    [
        "1_2",
        "XY",
        "2495",
        298.62138219199755,
        1.8099879775236258,
        0.0709893329210029,
        0.0005070670100644095
    ],
    [
        "1_2",
        "XY",
        "2516",
        302.82972708992776,
        1.7347320488174685,
        0.07588693829230068,
        0.0005131103675003784
    ],
    [
        "1_2",
        "XY",
        "2537",
        302.3176415870661,
        1.8030487947744764,
        0.07125445537550125,
        0.0005020439961172075
    ],
    [
        "1_2",
        "XY",
        "2558",
        300.2563962152785,
        1.65679658473269,
        0.07998317580673696,
        0.0005194006315369013
    ],
    [
        "1_2",
        "XY",
        "2579",
        303.72367289331913,
        1.7801442836427988,
        0.07344102816208718,
        0.0005096416518585669
    ],
    [
        "1_2",
        "XY",
        "2600",
        301.207495941244,
        1.827013549114236,
        0.07729880433933506,
        0.0005533155156406559
    ],
    [
        "1_2",
        "XY",
        "2632",
        303.733003491282,
        1.779318704310935,
        0.07142458907552696,
        0.0004932856580029857
    ],
    [
        "1_2",
        "XY",
        "2653",
        300.85262941964066,
        1.7695667441729988,
        0.07490426446541994,
        0.0005228740497235485
    ],
    [
        "1_2",
        "XY",
        "2674",
        302.08046075656915,
        1.8788525146356623,
        0.07181534739930848,
        0.0005263744066044078
    ],
    [
        "1_2",
        "XY",
        "2695",
        300.9065425009127,
        1.7486714358391737,
        0.07972940582921033,
        0.0005438392053624605
    ],
    [
        "1_2",
        "XY",
        "2716",
        303.1138786903295,
        1.8454598957850374,
        0.06756959615544994,
        0.000482878928849119
    ],
    [
        "1_2",
        "XY",
        "2737",
        300.0590731405555,
        1.7577190709986437,
        0.07702909962106443,
        0.0005313860040016037
    ],
    [
        "1_2",
        "XY",
        "2758",
        303.9827164449241,
        1.888404595197719,
        0.0682378458079971,
        0.0004961037509297434
    ],
    [
        "1_2",
        "XY",
        "2779",
        300.42009492194785,
        1.7622613923710422,
        0.07473767912521166,
        0.0005218972802406062
    ],
    [
        "1_2",
        "XY",
        "2818",
        301.30839987297,
        1.8683779338565112,
        0.0727751611047415,
        0.0005268146292207289
    ],
    [
        "1_2",
        "XY",
        "2839",
        300.30520147591466,
        1.7596619911191786,
        0.07786004277166207,
        0.0005375804460169574
    ],
    [
        "1_2",
        "XY",
        "2860",
        302.6251367121282,
        1.7805239090988385,
        0.07209813174950089,
        0.0005030122256267153
    ],
    [
        "1_2",
        "XY",
        "2881",
        301.86229621223055,
        1.664852652349647,
        0.07782534182099915,
        0.0005042052922165118
    ],
    [
        "1_2",
        "XY",
        "2902",
        299.5270486094578,
        1.8207514512993659,
        0.0728908183961399,
        0.0005188712969446127
    ],
    [
        "1_2",
        "XY",
        "2923",
        300.37966602472534,
        1.8125861520499853,
        0.07814342965294949,
        0.0005590057271249622
    ],
    [
        "1_2",
        "XY",
        "2944",
        302.79322644380284,
        1.8374083610055136,
        0.06915788000224699,
        0.0004961098101434214
    ],
    [
        "1_2",
        "XY",
        "2965",
        302.9950580071135,
        1.769679775722728,
        0.0736748328919237,
        0.0005057202488862236
    ],
    [
        "1_2",
        "XY",
        "2997",
        303.6041010040491,
        1.724558804879634,
        0.06990317046268954,
        0.000471361690963577
    ],
    [
        "1_2",
        "XY",
        "3018",
        301.12996864643276,
        1.7570091740558835,
        0.07463010328621153,
        0.0005154353502841703
    ],
    [
        "1_2",
        "XY",
        "3039",
        302.5260225379251,
        1.8421368199317107,
        0.06748641846401808,
        0.0004848342891113015
    ],
    [
        "1_2",
        "XY",
        "3060",
        301.3750280711223,
        1.466290274081691,
        0.07327225013626479,
        0.0004347697130669835
    ],
    [
        "1_2",
        "XY",
        "3081",
        300.84173424466223,
        1.8634260220839125,
        0.07088556005931484,
        0.0005184261043115645
    ],
    [
        "1_2",
        "XY",
        "3102",
        299.27640304911404,
        1.7651268311553459,
        0.07711447818145663,
        0.0005354451369608838
    ],
    [
        "1_2",
        "XY",
        "3123",
        303.0733778118093,
        1.8321452643955654,
        0.07186711739966166,
        0.0005168871931710456
    ],
    [
        "1_2",
        "XY",
        "3144",
        300.0821106082138,
        1.765314355519379,
        0.07829042969437293,
        0.0005403362385788253
    ]
]