[
    [
        "XscanNumber_YscanNumber",
        "Type",
        "BCID",
        "xsec",
        "xsecErr",
        "SBIL",
        "SBILErr"
    ],
    [
        "1_2",
        "XY",
        "103",
        293.780099115319,
        2.658036536594605,
        0.07325989816640002,
        0.0007561231803449539
    ],
    [
        "1_2",
        "XY",
        "124",
        294.5356290520867,
        2.5701861599025424,
        0.08094109974144936,
        0.0008032466582019143
    ],
    [
        "1_2",
        "XY",
        "145",
        293.25838748383234,
        2.717786462742767,
        0.06607044889590724,
        0.0006995040267638203
    ],
    [
        "1_2",
        "XY",
        "166",
        292.9560875627164,
        2.5057366378615704,
        0.07744707256508884,
        0.0007495124824541704
    ],
    [
        "1_2",
        "XY",
        "187",
        292.41834757910965,
        2.8670413045939007,
        0.0664387073530377,
        0.0007407960876387647
    ],
    [
        "1_2",
        "XY",
        "208",
        292.54271329517746,
        2.4260106274163085,
        0.07615990463083416,
        0.0007210228131359086
    ],
    [
        "1_2",
        "XY",
        "229",
        293.0241868268145,
        2.5413662646219777,
        0.07102371249521221,
        0.0007033004481473386
    ],
    [
        "1_2",
        "XY",
        "250",
        294.7815197593872,
        2.6936853588960985,
        0.07927514586501609,
        0.0008270130815302405
    ],
    [
        "1_2",
        "XY",
        "282",
        292.33572065486896,
        2.6493663343562606,
        0.07533531504478147,
        0.0007671488700476577
    ],
    [
        "1_2",
        "XY",
        "303",
        291.3269478702344,
        2.4634609866661137,
        0.08082198385289378,
        0.0007783343496398384
    ],
    [
        "1_2",
        "XY",
        "324",
        293.40843906492955,
        2.6327793759844575,
        0.07248118291516407,
        0.0007380261739452621
    ],
    [
        "1_2",
        "XY",
        "345",
        292.5357802313935,
        2.28743172636349,
        0.08391261215129701,
        0.0007477323838520225
    ],
    [
        "1_2",
        "XY",
        "366",
        292.9978840089788,
        2.531420256218438,
        0.07408970956188898,
        0.0007376117283340339
    ],
    [
        "1_2",
        "XY",
        "387",
        292.30270833017005,
        2.29944359626474,
        0.0832833774441674,
        0.0007385237111177873
    ],
    [
        "1_2",
        "XY",
        "408",
        293.5080622245963,
        2.645040815931144,
        0.06975904512207677,
        0.0007147933070829673
    ],
    [
        "1_2",
        "XY",
        "429",
        292.3968799777765,
        2.4171144041633834,
        0.08010341264943503,
        0.0007558896718256147
    ],
    [
        "1_2",
        "XY",
        "464",
        292.14177150857466,
        2.623777298535981,
        0.07474262826576708,
        0.0007495911285253692
    ],
    [
        "1_2",
        "XY",
        "485",
        294.6896274725468,
        2.39212594746326,
        0.07794149724940568,
        0.00072738654969037
    ],
    [
        "1_2",
        "XY",
        "506",
        297.4229703544834,
        2.806578580252413,
        0.0663385812780963,
        0.0007162074834719073
    ],
    [
        "1_2",
        "XY",
        "527",
        296.14387137234866,
        2.3717298688749127,
        0.07382918319437248,
        0.0006762570711346108
    ],
    [
        "1_2",
        "XY",
        "548",
        293.61529978995236,
        2.489021692410901,
        0.07296819046358456,
        0.0006982585541522882
    ],
    [
        "1_2",
        "XY",
        "569",
        292.86841157182545,
        2.520264541111754,
        0.08211487414976142,
        0.0008101826589559003
    ],
    [
        "1_2",
        "XY",
        "590",
        291.83897892176776,
        2.6247147660723824,
        0.07046528441912417,
        0.0007253902217968496
    ],
    [
        "1_2",
        "XY",
        "611",
        294.7432629392269,
        2.399820767789055,
        0.0788384435846695,
        0.0007355696057558337
    ],
    [
        "1_2",
        "XY",
        "643",
        295.56197769436227,
        2.474020069389248,
        0.07325572879452866,
        0.0007027078563355937
    ],
    [
        "1_2",
        "XY",
        "664",
        292.9105512498365,
        2.352933130908844,
        0.07785909957761818,
        0.0007101198482880041
    ],
    [
        "1_2",
        "XY",
        "685",
        292.6545965687872,
        2.7010187486948705,
        0.06605398827890502,
        0.0006914565463973539
    ],
    [
        "1_2",
        "XY",
        "706",
        295.81695910861697,
        2.526004000306582,
        0.07251029119414479,
        0.0007043747690035585
    ],
    [
        "1_2",
        "XY",
        "727",
        291.442551346608,
        2.862775298015808,
        0.07075209822965207,
        0.0007844410948711308
    ],
    [
        "1_2",
        "XY",
        "748",
        293.53783399196686,
        2.5237165754718096,
        0.0801185776691372,
        0.0007872383343203643
    ],
    [
        "1_2",
        "XY",
        "769",
        289.23132337389626,
        2.744767900120172,
        0.06460312992347138,
        0.0006941929542947087
    ],
    [
        "1_2",
        "XY",
        "790",
        293.0098077931592,
        2.465407365650577,
        0.07295040746051046,
        0.0007013673202005699
    ],
    [
        "1_2",
        "XY",
        "822",
        294.2408728009513,
        2.7935822099866234,
        0.07524566135754529,
        0.0008114234109962193
    ],
    [
        "1_2",
        "XY",
        "843",
        294.8064669118661,
        2.2761021601036417,
        0.07534497156894593,
        0.0006648092617163488
    ],
    [
        "1_2",
        "XY",
        "864",
        294.9001227234597,
        2.5984798082891665,
        0.0700913984082265,
        0.0007112427946927907
    ],
    [
        "1_2",
        "XY",
        "885",
        292.6878391529457,
        2.3036265132956624,
        0.08254308822104671,
        0.0007429569683270454
    ],
    [
        "1_2",
        "XY",
        "906",
        292.8698727623449,
        2.66224657519849,
        0.06826947400151633,
        0.0007085543629502013
    ],
    [
        "1_2",
        "XY",
        "927",
        295.7032092970797,
        2.3225882990997655,
        0.07823516494391898,
        0.0007003450407263301
    ],
    [
        "1_2",
        "XY",
        "948",
        294.38108219186427,
        2.6930283400358244,
        0.0687450974712976,
        0.0007152804535597804
    ],
    [
        "1_2",
        "XY",
        "969",
        292.8736167362153,
        2.4656941986101946,
        0.07790051878451253,
        0.00074884687905213
    ],
    [
        "1_2",
        "XY",
        "1018",
        293.37201259271814,
        2.371883486320556,
        0.07533750636364366,
        0.0006948856912713761
    ],
    [
        "1_2",
        "XY",
        "1039",
        293.69631850144214,
        2.4492189066479573,
        0.08040777667800789,
        0.0007613093240574088
    ],
    [
        "1_2",
        "XY",
        "1060",
        293.15144944959974,
        2.5536818201913207,
        0.07183569847846602,
        0.0007092302316990123
    ],
    [
        "1_2",
        "XY",
        "1081",
        291.80704701408445,
        2.5354670269303345,
        0.07861175910520846,
        0.0007783528463809577
    ],
    [
        "1_2",
        "XY",
        "1102",
        292.68184289489653,
        2.4234869497977574,
        0.06961039094421738,
        0.0006540616806976317
    ],
    [
        "1_2",
        "XY",
        "1123",
        293.11989189683254,
        2.488603521465974,
        0.07720813709197194,
        0.0007467548616545365
    ],
    [
        "1_2",
        "XY",
        "1144",
        296.05849336220797,
        2.4096621586747733,
        0.07018868657266224,
        0.0006583583043036908
    ],
    [
        "1_2",
        "XY",
        "1165",
        293.9971789355472,
        2.24322312069759,
        0.0806779511746153,
        0.000699716085275647
    ],
    [
        "1_2",
        "XY",
        "1197",
        292.5157528013538,
        2.3969390915071713,
        0.07397224745320757,
        0.0006926905530194756
    ],
    [
        "1_2",
        "XY",
        "1218",
        294.5905716490818,
        2.2887720469114057,
        0.08116487513477685,
        0.0007207511810606192
    ],
    [
        "1_2",
        "XY",
        "1239",
        292.443954955244,
        2.468960794558013,
        0.07105037611362919,
        0.0006873172462580796
    ],
    [
        "1_2",
        "XY",
        "1260",
        294.8687582680849,
        2.3589297197077346,
        0.07922743029056001,
        0.0007238522218247472
    ],
    [
        "1_2",
        "XY",
        "1281",
        291.96114763027924,
        2.6086953491696003,
        0.07293991858867256,
        0.0007403690363744357
    ],
    [
        "1_2",
        "XY",
        "1302",
        292.685532956256,
        2.393959569285315,
        0.08190580701859339,
        0.0007586232301017847
    ],
    [
        "1_2",
        "XY",
        "1323",
        293.10896472678746,
        2.8789902284073268,
        0.06668412677202515,
        0.0007444197091636943
    ],
    [
        "1_2",
        "XY",
        "1344",
        292.3631241950074,
        2.6589295293075206,
        0.07755469625595447,
        0.0008042023209098531
    ],
    [
        "1_2",
        "XY",
        "1376",
        294.44723411536637,
        2.5278108916989654,
        0.07162877390008829,
        0.0007008522428884042
    ],
    [
        "1_2",
        "XY",
        "1397",
        291.98496035133604,
        2.4041692955655805,
        0.08048531961101235,
        0.0007477440808409822
    ],
    [
        "1_2",
        "XY",
        "1418",
        292.26733061305134,
        2.7781500744741345,
        0.07333750846593981,
        0.0007984413600259091
    ],
    [
        "1_2",
        "XY",
        "1439",
        294.44568829893814,
        2.496450278466084,
        0.07625487700076804,
        0.0007384774142302247
    ],
    [
        "1_2",
        "XY",
        "1460",
        293.8910155976976,
        2.6453804576797446,
        0.07044911108399873,
        0.0007234719409912879
    ],
    [
        "1_2",
        "XY",
        "1481",
        292.9869934630766,
        2.48539906219171,
        0.0790651574034538,
        0.0007661000545731727
    ],
    [
        "1_2",
        "XY",
        "1502",
        292.66329156870523,
        2.6900855795634584,
        0.07017601248048298,
        0.0007312869581558299
    ],
    [
        "1_2",
        "XY",
        "1523",
        291.5188076806598,
        2.5312010255889077,
        0.0743161952610821,
        0.0007406417232247975
    ],
    [
        "1_2",
        "XY",
        "1555",
        295.884022121917,
        2.5332028768364254,
        0.0728035394454925,
        0.0007153194124573727
    ],
    [
        "1_2",
        "XY",
        "1576",
        295.4604160008172,
        2.3264476211734864,
        0.0697480051150104,
        0.0006211672042906847
    ],
    [
        "1_2",
        "XY",
        "1597",
        294.5146340442891,
        2.5241553169475113,
        0.07118843619776773,
        0.0006938537010377875
    ],
    [
        "1_2",
        "XY",
        "1618",
        297.1990885154802,
        2.520082989215241,
        0.0754112730593228,
        0.0007257504326716058
    ],
    [
        "1_2",
        "XY",
        "1639",
        295.3754294120379,
        2.574774800937738,
        0.07936258008843798,
        0.0007801964148187416
    ],
    [
        "1_2",
        "XY",
        "1660",
        292.5213529865685,
        2.5763425238660562,
        0.08356928875661286,
        0.000835967689064079
    ],
    [
        "1_2",
        "XY",
        "1681",
        293.22406077592893,
        2.4130783232969137,
        0.07642258313061995,
        0.0007150090640834939
    ],
    [
        "1_2",
        "XY",
        "1702",
        294.2997053455754,
        2.4018582488907647,
        0.08244543778481384,
        0.0007626192320097417
    ],
    [
        "1_2",
        "XY",
        "1734",
        295.9541465646947,
        2.639060007989453,
        0.07387573450341754,
        0.0007482711951868551
    ],
    [
        "1_2",
        "XY",
        "1755",
        294.1722535948681,
        2.60602901128446,
        0.07498899836006373,
        0.0007602694861381763
    ],
    [
        "1_2",
        "XY",
        "1776",
        294.12122544543956,
        2.553136568755945,
        0.07436343549443934,
        0.0007352179395122192
    ],
    [
        "1_2",
        "XY",
        "1797",
        293.7806285526314,
        2.4015394895800366,
        0.08232773159483252,
        0.0007663192355218368
    ],
    [
        "1_2",
        "XY",
        "1818",
        294.5338299135989,
        2.3538628693106753,
        0.07554800181731922,
        0.0006851415382215999
    ],
    [
        "1_2",
        "XY",
        "1839",
        299.751611190123,
        2.6230908433289355,
        0.06582193029054371,
        0.0006553800488418501
    ],
    [
        "1_2",
        "XY",
        "1860",
        293.63974519941513,
        2.3343840268574514,
        0.0766183540084886,
        0.000687123985766886
    ],
    [
        "1_2",
        "XY",
        "1881",
        293.7542465371961,
        2.3762351070427195,
        0.08066512747532202,
        0.0007429656643175105
    ],
    [
        "1_2",
        "XY",
        "1916",
        294.12127925516995,
        2.388748726336217,
        0.0750681151205484,
        0.0006922518797379925
    ],
    [
        "1_2",
        "XY",
        "1937",
        296.49796502228514,
        2.307659959442993,
        0.07308517731932804,
        0.0006488646362362623
    ],
    [
        "1_2",
        "XY",
        "1958",
        292.38669641552195,
        2.625655896361454,
        0.07262727790148549,
        0.0007419865570502359
    ],
    [
        "1_2",
        "XY",
        "1979",
        293.047799595238,
        2.3492146279039114,
        0.07858980641175366,
        0.0007163908186051572
    ],
    [
        "1_2",
        "XY",
        "2000",
        292.3791725973441,
        2.444051350394843,
        0.07694378885293496,
        0.0007362672283791849
    ],
    [
        "1_2",
        "XY",
        "2021",
        293.34084031531233,
        2.6094355994381035,
        0.08107031248660451,
        0.0008204062058274536
    ],
    [
        "1_2",
        "XY",
        "2042",
        289.8906721062146,
        2.478854608450634,
        0.07734711806180683,
        0.0007533956688239353
    ],
    [
        "1_2",
        "XY",
        "2063",
        291.86166593974593,
        2.664817154761539,
        0.08166360863434462,
        0.0008508729900489264
    ],
    [
        "1_2",
        "XY",
        "2095",
        294.4006637959908,
        2.405122894958294,
        0.07383176259979518,
        0.0006866647558284659
    ],
    [
        "1_2",
        "XY",
        "2116",
        292.5898229838355,
        2.3080478667629567,
        0.07841784106571284,
        0.0007002449817764417
    ],
    [
        "1_2",
        "XY",
        "2137",
        295.7893937358278,
        2.780696291822723,
        0.07286983827023669,
        0.0007832176221329397
    ],
    [
        "1_2",
        "XY",
        "2158",
        292.34122882051577,
        2.422619822103577,
        0.08074215354652253,
        0.0007579743502109024
    ],
    [
        "1_2",
        "XY",
        "2179",
        295.0198312832013,
        2.5570001422224045,
        0.07567612946047819,
        0.0007431078496921044
    ],
    [
        "1_2",
        "XY",
        "2200",
        293.8521593430069,
        2.3073318563891347,
        0.0825188108457387,
        0.0007355380001498402
    ],
    [
        "1_2",
        "XY",
        "2221",
        290.97958910215885,
        2.5718115578175764,
        0.07724565010097201,
        0.0007733704886439633
    ],
    [
        "1_2",
        "XY",
        "2242",
        293.68012521089247,
        2.1947567100743473,
        0.08037640442350473,
        0.0006809634251728317
    ],
    [
        "1_2",
        "XY",
        "2274",
        293.7492861867835,
        2.4943974656390666,
        0.07560691190026819,
        0.0007346864479307095
    ],
    [
        "1_2",
        "XY",
        "2295",
        294.0262806010271,
        2.430266913240862,
        0.08217287561400544,
        0.0007741236581947455
    ],
    [
        "1_2",
        "XY",
        "2316",
        293.81099576789853,
        2.3266098700910725,
        0.07562070973786329,
        0.0006718149795490467
    ],
    [
        "1_2",
        "XY",
        "2337",
        292.99413873157187,
        2.3254277822742018,
        0.07945842696945817,
        0.0007239025234897617
    ],
    [
        "1_2",
        "XY",
        "2358",
        294.2459626296683,
        2.552517023322476,
        0.07444673433229405,
        0.000736400068906209
    ],
    [
        "1_2",
        "XY",
        "2379",
        294.3297280612685,
        2.347254177018071,
        0.0798860680830457,
        0.0007288342731806459
    ],
    [
        "1_2",
        "XY",
        "2400",
        292.2439768502326,
        2.7160160053438935,
        0.07301677147691774,
        0.000767856390625666
    ],
    [
        "1_2",
        "XY",
        "2421",
        293.3924645056504,
        2.593647476169785,
        0.0800740518874303,
        0.0008034943501343141
    ],
    [
        "1_2",
        "XY",
        "2453",
        292.9829224639638,
        2.5167672218794293,
        0.07832307582295349,
        0.0007627771292777839
    ],
    [
        "1_2",
        "XY",
        "2474",
        292.9836828847937,
        2.3936782875166718,
        0.08323133971875292,
        0.0007749973549181304
    ],
    [
        "1_2",
        "XY",
        "2495",
        290.4825327364344,
        2.5027053172603795,
        0.07547802820954755,
        0.0007388172012297252
    ],
    [
        "1_2",
        "XY",
        "2516",
        294.29346043696063,
        2.5301671882349317,
        0.08090694928979729,
        0.0007865348372393978
    ],
    [
        "1_2",
        "XY",
        "2537",
        291.13460738830196,
        2.592146618369778,
        0.07720236119620781,
        0.000778821504848412
    ],
    [
        "1_2",
        "XY",
        "2558",
        291.5157840412771,
        2.192562450120497,
        0.08473087419213494,
        0.0007193205197292154
    ],
    [
        "1_2",
        "XY",
        "2579",
        293.0876626368464,
        2.431954146485467,
        0.07906991305589686,
        0.0007450614105309664
    ],
    [
        "1_2",
        "XY",
        "2600",
        294.07820390850327,
        2.3882955013045373,
        0.08210282435911341,
        0.0007664017578093466
    ],
    [
        "1_2",
        "XY",
        "2632",
        294.8645993863839,
        2.475636189723634,
        0.0759734069659203,
        0.0007236748613871481
    ],
    [
        "1_2",
        "XY",
        "2653",
        292.18893153948744,
        2.6124981235202585,
        0.08026092613673425,
        0.0008171399388660119
    ],
    [
        "1_2",
        "XY",
        "2674",
        293.26456832344644,
        2.5032259035686537,
        0.07653041969527674,
        0.0007419930047313946
    ],
    [
        "1_2",
        "XY",
        "2695",
        291.49971112174114,
        2.4658231961952928,
        0.08544374697377027,
        0.0008193379067347202
    ],
    [
        "1_2",
        "XY",
        "2716",
        295.0742428075501,
        2.572650875295895,
        0.07168754534926339,
        0.0007096127812221289
    ],
    [
        "1_2",
        "XY",
        "2737",
        292.84977765696533,
        2.2665906564657696,
        0.08151076550609689,
        0.0007218695443061659
    ],
    [
        "1_2",
        "XY",
        "2758",
        294.68520900766794,
        2.6485385325842556,
        0.0732432585706629,
        0.0007474379304054641
    ],
    [
        "1_2",
        "XY",
        "2779",
        292.95735076273235,
        2.436577218147729,
        0.07925448377080378,
        0.0007536641883188349
    ],
    [
        "1_2",
        "XY",
        "2818",
        292.1192203477952,
        2.525488668543101,
        0.0781500468116458,
        0.0007685621280536392
    ],
    [
        "1_2",
        "XY",
        "2839",
        292.7170637600285,
        2.394582805425978,
        0.08246711684587789,
        0.0007700843906606352
    ],
    [
        "1_2",
        "XY",
        "2860",
        294.3909641556931,
        2.5934390606823094,
        0.07691148750899647,
        0.0007724670285781453
    ],
    [
        "1_2",
        "XY",
        "2881",
        294.085401390971,
        2.24317372511524,
        0.08258279347023169,
        0.0007170045002728524
    ],
    [
        "1_2",
        "XY",
        "2902",
        291.63335300596833,
        2.4999800499321405,
        0.07800143535371888,
        0.0007627025852369652
    ],
    [
        "1_2",
        "XY",
        "2923",
        292.6740247464482,
        2.511578508392223,
        0.08286067458175662,
        0.0008106752051124426
    ],
    [
        "1_2",
        "XY",
        "2944",
        293.7690278757404,
        2.55019695296423,
        0.07408371485169438,
        0.0007323172727493804
    ],
    [
        "1_2",
        "XY",
        "2965",
        292.1847217357425,
        2.4137926979461293,
        0.07910842834751192,
        0.0007349782354380411
    ],
    [
        "1_2",
        "XY",
        "2997",
        296.090272269305,
        2.395687625729721,
        0.07378491081019713,
        0.0006800775176226804
    ],
    [
        "1_2",
        "XY",
        "3018",
        295.33347727272894,
        2.4499644898708177,
        0.07819278417189353,
        0.0007409171502175746
    ],
    [
        "1_2",
        "XY",
        "3039",
        293.42001218920115,
        2.4707634569027426,
        0.07181437459151555,
        0.0006857889099451918
    ],
    [
        "1_2",
        "XY",
        "3060",
        294.5591240963167,
        2.4063100039493532,
        0.07732018427146235,
        0.0007240141113964149
    ],
    [
        "1_2",
        "XY",
        "3081",
        293.2313241370925,
        2.5175339460603174,
        0.07530930816932896,
        0.0007395030175948857
    ],
    [
        "1_2",
        "XY",
        "3102",
        291.7038437198123,
        2.2604365339036,
        0.08175330448183167,
        0.0007246442759484484
    ],
    [
        "1_2",
        "XY",
        "3123",
        293.2370747923784,
        2.6636628566101677,
        0.07725566083424794,
        0.0007995389640365769
    ],
    [
        "1_2",
        "XY",
        "3144",
        293.1540573590414,
        2.3307055153837863,
        0.08314577112929092,
        0.0007578024808968864
    ]
]