XscanNumber_YscanNumber,Type,BCID,xsec,xsecErr,SBIL,SBILErr
1_2,XY,103,128.30503193712332,0.8463612729492451,0.0648494702510718,0.000505549442343657
1_2,XY,124,127.82827320024354,0.8274552545164398,0.07878897809346581,0.0006039862880766434
1_2,XY,145,127.82786484801258,0.9122177141566808,0.0642081461816114,0.0005464457483687836
1_2,XY,166,127.69439273972613,0.8506833867235921,0.0737701485839334,0.0005810432020508598
1_2,XY,187,128.80814592101166,0.8808426597173694,0.06412842501239183,0.000504698568328386
1_2,XY,208,126.99378811163055,0.8451337205678683,0.06780692037837728,0.0005248847257542268
1_2,XY,229,127.96451866269038,0.8755908729814255,0.06811144292314084,0.0005515936308823805
1_2,XY,250,127.70325356717026,0.8444970498602502,0.07611781752925761,0.0005887642212686225
1_2,XY,282,127.68742956982824,0.8314080308623812,0.07546227116618835,0.000587647302113406
1_2,XY,303,127.35254055138388,0.8248088730399098,0.07869982923208123,0.0006058676048494607
1_2,XY,324,126.12500616714873,0.8693577751145465,0.07095797558625327,0.0005769959518942129
1_2,XY,345,126.2199162068372,0.920214453243338,0.0796412046827765,0.0006929978647755403
1_2,XY,366,127.45869593601394,0.9225209603270047,0.07209843683835118,0.0006152955267732104
1_2,XY,387,126.96584830244586,0.7946600243300099,0.07878274364915853,0.0005860549896736678
1_2,XY,408,127.65927467156165,0.8714034203806311,0.06745773579884166,0.0005414141295532983
1_2,XY,429,126.78938933822658,0.8650206191567966,0.07618800893281018,0.0006164173594223592
1_2,XY,464,128.02758008488453,0.8617133657238727,0.07475377731393924,0.0005981503556529633
1_2,XY,485,127.25184067731877,0.8704357107507352,0.07772486651034903,0.0006223833289358552
1_2,XY,506,127.65956920478185,0.8632754575322208,0.06678604678428302,0.0005316415688306467
1_2,XY,527,126.9466581488477,0.8562976499615055,0.0736878527476428,0.0006004444801910125
1_2,XY,548,127.26453349498165,0.8270337529397387,0.07243885522520727,0.0005619951407681081
1_2,XY,569,127.95539332504747,0.8024536746908896,0.08075466718967902,0.0005990254733599906
1_2,XY,590,126.58137743824621,0.8929114009557471,0.07076791824499751,0.0005957567499551036
1_2,XY,611,127.28871274415255,0.820231002687957,0.07806169807600374,0.000602492979113857
1_2,XY,643,127.5638205706051,0.8173771101363265,0.073153411056143,0.0005493973290492016
1_2,XY,664,126.5752703570614,0.7883491395661979,0.07760167083963626,0.000567034160893689
1_2,XY,685,127.7612118123104,0.8391903968338649,0.06693248918568255,0.0005087493158633579
1_2,XY,706,129.13794185918817,0.8752930860460265,0.06979565611657722,0.0005608822269861583
1_2,XY,727,127.65685241967194,0.8680107578675311,0.06952486582555534,0.0005555294301296523
1_2,XY,748,127.32132449596372,0.8414860351215552,0.07895020535780939,0.000606403376069147
1_2,XY,769,126.9720092986153,0.8777183547982019,0.06399472819266704,0.0005256811107329796
1_2,XY,790,127.1502471439969,0.8186987523378574,0.07210834420750795,0.000562166380513869
1_2,XY,822,128.38532338328685,0.8210812490582409,0.06677429631898861,0.0005084797608231397
1_2,XY,843,127.39069300248286,0.7947460939095278,0.07826450686654646,0.0005769626132615029
1_2,XY,864,127.42703894465045,0.8468326578210009,0.07032319823559016,0.0005471363921912316
1_2,XY,885,126.89441375956044,0.8043759332831993,0.08030888337840932,0.0006145755769081039
1_2,XY,906,126.65043185091888,0.9114213611640114,0.06925749442969918,0.0005865299782888133
1_2,XY,927,127.15866349101536,0.8166130908781656,0.07800993481121593,0.0005861311851746352
1_2,XY,948,127.63148171344368,0.9204788892735681,0.0681459419123052,0.0005773804250857508
1_2,XY,969,128.06544365843425,0.7988043788155375,0.0760659350384734,0.0005640786173588546
1_2,XY,1018,127.69463870167031,0.8274761855477898,0.07475480164374271,0.0005642968031173339
1_2,XY,1039,127.31421173573005,0.8259434492365777,0.07820015598018161,0.000588941844815908
1_2,XY,1060,126.60647572472418,0.8872682686017052,0.07012506049378688,0.0005804932051589094
1_2,XY,1081,127.04135763653802,0.8410116760133445,0.07786749263401434,0.0006100020579220812
1_2,XY,1102,128.09010107591394,0.8891707460558156,0.06769910248619458,0.0005534309956891664
1_2,XY,1123,127.44405717451359,0.8560242561624108,0.07476697775635725,0.0005963852250967891
1_2,XY,1144,126.68289068391633,0.8464120737855706,0.07019811477665899,0.0005567282006537866
1_2,XY,1165,128.0087115461133,0.7639628611914023,0.08015837571724031,0.0005700677129687335
1_2,XY,1197,126.7389039252028,0.8886456986570194,0.07230643878022465,0.0006079315522083789
1_2,XY,1218,126.79251937700944,0.877904936377528,0.07884133166831733,0.0006377611936002921
1_2,XY,1239,126.96238557373567,0.8837038539315833,0.06983005743855052,0.000570216182988407
1_2,XY,1260,126.79658002070971,0.800032598029324,0.07883658712723567,0.0005855069104481705
1_2,XY,1281,127.72523873789126,0.8983306543525217,0.07044596643277123,0.0005770891954662416
1_2,XY,1302,126.58441736241468,0.8194300408282782,0.07959335603372922,0.0006099164165888371
1_2,XY,1323,126.79068190921193,0.8518832544658035,0.06507186974596275,0.0005014342384094525
1_2,XY,1344,127.59233351609818,0.8129159936771982,0.0756654798967957,0.0005597350071900364
1_2,XY,1376,127.12279589565998,0.8708523233683285,0.07169538468773769,0.0005716115646149812
1_2,XY,1397,128.89415215781702,0.8611567275426347,0.06926388487284857,0.0005555801279494365
1_2,XY,1418,127.5151832180478,0.8298222907600382,0.07296768852161373,0.000562982088021732
1_2,XY,1439,128.5752780133366,0.8255384812663196,0.06550695164778536,0.0004916003342744588
1_2,XY,1460,127.1458741198684,0.6481556856125321,0.07024963078350582,0.00043605781141322676
1_2,XY,1481,127.19397703150754,0.8896925521933131,0.07710927733040601,0.0006358905093543141
1_2,XY,1502,127.5780394288865,0.9118164324125135,0.06940828323942369,0.0005965461478917128
1_2,XY,1523,129.83776533190377,0.8879306219447,0.06202215248999742,0.0005076575176611261
1_2,XY,1555,127.90107723003034,0.8564184566668178,0.06478013179666216,0.0005112338334459948
1_2,XY,1576,128.63911734251775,0.9154356556157573,0.06786518012910035,0.0005639643621503586
1_2,XY,1597,128.91482702758606,0.9219284746237033,0.05995367720886605,0.0005038401774002787
1_2,XY,1618,128.76342564630758,0.827348841407441,0.0663241658638084,0.0005015090296186201
1_2,XY,1639,127.08975867572246,0.8000608956422014,0.0800379222052671,0.0005959488543724515
1_2,XY,1660,127.10361708766699,0.8343482878865579,0.07905288340087893,0.0006130686691662361
1_2,XY,1681,126.66138107347142,0.8721592070589878,0.07587100156087444,0.0006153939758730999
1_2,XY,1702,125.95709783047535,0.7738649777707132,0.08297381049088805,0.0006023691099060265
1_2,XY,1734,127.34655850500157,0.8918283924330692,0.07370648506765759,0.0006126668339112747
1_2,XY,1755,129.43466400350542,0.8836896028229777,0.06126284860130559,0.000497196266042169
1_2,XY,1776,126.95609369496773,0.8263096677110264,0.07455089514911643,0.000569483500565551
1_2,XY,1797,126.59181873317569,0.8453339591405697,0.08036362651391192,0.0006406761929060692
1_2,XY,1818,128.87450742319518,0.8167028561345516,0.06784007195575285,0.0005032333461185179
1_2,XY,1839,129.65266924834214,0.8967803099902263,0.062185916620997365,0.0005093732415081835
1_2,XY,1860,127.54024513249064,0.8220147698881041,0.07637932981864098,0.0005876935642594659
1_2,XY,1881,126.79241637542454,0.7963556972273536,0.08080650359484515,0.0006058473293380296
1_2,XY,1916,128.4930059303418,0.7953677528728799,0.07196746530603566,0.0005236417819931794
1_2,XY,1937,129.0394220796067,0.8737909675120902,0.062421625725947616,0.0005018588157308995
1_2,XY,1958,127.50026944645987,0.7978750829128431,0.07200239042026556,0.0005332784970566887
1_2,XY,1979,126.29346640838973,0.776131380686151,0.0777011540539162,0.0005640151813423832
1_2,XY,2000,127.15979005017807,0.8019869073332807,0.07685347516011272,0.0005732224166815558
1_2,XY,2021,127.0682429991369,0.8178682916057973,0.08001645757709296,0.0006124219758962158
1_2,XY,2042,127.35464489958521,0.8268221552224456,0.075364331648557,0.0005784950466829659
1_2,XY,2063,127.65701534193472,0.8632631014765257,0.0792303009340772,0.0006377441158618678
1_2,XY,2095,126.99719859342663,0.7867859935893924,0.07494269742206605,0.0005368192010562276
1_2,XY,2116,126.67112875399002,0.8260632818165142,0.0769512232642946,0.0005948263034080114
1_2,XY,2137,127.46128843098364,0.7630725838598447,0.07422128677003292,0.0005212271432083452
1_2,XY,2158,127.85024113787544,0.83748883633878,0.07902126809228804,0.000614831233521229
1_2,XY,2179,126.35462263307683,0.7452360262672119,0.0759824796841649,0.0005215044145455098
1_2,XY,2200,126.51977375257918,0.8274347671339166,0.08102433366517425,0.0006288392949779352
1_2,XY,2221,127.01487993663898,0.7724543108852961,0.0769106177284247,0.000546340972464279
1_2,XY,2242,126.97470282242693,0.8388561886287124,0.07948443522830505,0.0006226044059901791
1_2,XY,2274,127.88376739976528,0.8374287244869044,0.07624560135534002,0.0005887447733825074
1_2,XY,2295,128.14387603225856,0.816115955062003,0.0773086063979186,0.0005863070749355481
1_2,XY,2316,127.8272467143187,0.849178698202841,0.07475766619931543,0.000578896301732854
1_2,XY,2337,128.15559562474078,0.8682953233920473,0.06877165855475999,0.0005463839315193676
1_2,XY,2358,129.37089014931078,0.8660445644034822,0.06406501847564756,0.0005033990374226566
1_2,XY,2379,128.52696205681696,0.8065704386790985,0.07707614109254744,0.0005707353065579151
1_2,XY,2400,128.08590827831466,0.8620308360760555,0.07263435003772717,0.0005703570440863259
1_2,XY,2421,126.25372810938937,0.8420717622271785,0.07834990379507624,0.0006270420394071488
1_2,XY,2453,128.07889164685596,0.7861379352864916,0.07719119705768904,0.000567348960896112
1_2,XY,2474,127.1838123278055,0.7504623110741553,0.08179906486987874,0.0005701251161619713
1_2,XY,2495,127.15956795548128,0.8845569349087395,0.07424216807500382,0.0006301461690673831
1_2,XY,2516,127.20091586117886,0.7931118696669252,0.0788280450541009,0.0005693985205507937
1_2,XY,2537,127.62785588908713,0.8213585648007026,0.07651999339876073,0.0005862686817354245
1_2,XY,2558,126.75368890855003,0.8187652372792924,0.08402620652724901,0.0006410458593238092
1_2,XY,2579,127.37579011409606,0.8176731383842946,0.07829019456988874,0.0006021283351194927
1_2,XY,2600,127.66755545804196,0.7741580475298377,0.08072106561480148,0.0005757249559832311
1_2,XY,2632,128.65672886561376,0.9164612024974526,0.07198162297702773,0.0006059959843165875
1_2,XY,2653,126.9530450971807,0.8277688872797,0.07766180134081242,0.0005915385076655046
1_2,XY,2674,127.92279777049896,0.9080244065509585,0.0685802165167155,0.0005651567696790113
1_2,XY,2695,127.58506984362427,0.786233049549414,0.08174853982210643,0.0006033673862941501
1_2,XY,2716,127.13714988497377,0.7845886757522411,0.06888157169319523,0.0004961301584936591
1_2,XY,2737,128.0539531623649,0.8842942539557107,0.07773699911970434,0.0006386550258306571
1_2,XY,2758,127.86648204544088,0.8133855500268906,0.07310577368237357,0.0005568978909024709
1_2,XY,2779,126.62762437765755,0.8251654113449967,0.07874428012791883,0.0006188027590621336
1_2,XY,2818,127.10820820979751,0.7749559472188726,0.07672428287409423,0.0005467805674975121
1_2,XY,2839,126.9799444952133,0.8124740470613496,0.08097818279110565,0.0006215904495206651
1_2,XY,2860,127.2951096516937,0.8367687950844737,0.07572815542168947,0.0005806283490360598
1_2,XY,2881,127.41546479163392,0.8016861481047901,0.0799347655548316,0.000592911580545647
1_2,XY,2902,126.88880712535405,0.881985168417051,0.0766896584581091,0.0006246981443802362
1_2,XY,2923,127.36594756710585,0.848629942631142,0.08009291795555654,0.0006308519194539918
1_2,XY,2944,127.73927794514177,0.9080567280098167,0.07406538156242408,0.0006238921345674234
1_2,XY,2965,127.19431269137723,0.8275173060427915,0.07682374840853712,0.0005918696210199249
1_2,XY,2997,126.90979161362732,0.8636038524579747,0.07543736455728606,0.0006134627268594814
1_2,XY,3018,126.06799806536056,0.8286544988471738,0.07987224763648443,0.000624827730579353
1_2,XY,3039,127.35792456240208,0.8366827838714991,0.07179445553553476,0.000546812234642847
1_2,XY,3060,128.1139557949285,0.7911403496998041,0.07585937819987594,0.0005573931656621628
1_2,XY,3081,127.38803823943118,0.8401042582569728,0.07375063851560365,0.0005805183259744023
1_2,XY,3102,127.8241873992054,0.8161093841726298,0.07856347327657252,0.0005899226610431046
1_2,XY,3123,127.2577406648869,0.8093391132239904,0.07728634343565997,0.0005859995267497541
1_2,XY,3144,126.77284479713103,0.8046413999976957,0.08098967783876691,0.0006041562506249699
