XscanNumber_YscanNumber,Type,BCID,xsec,xsecErr,SBIL,SBILErr
1_2,XY,103,127.7742609463663,0.9700313739167946,0.06555647719712163,0.0005765733650184892
1_2,XY,124,126.21858050494332,1.038748205859861,0.08108887558096232,0.0007672125563649105
1_2,XY,145,126.79433784675913,1.0807044584239822,0.06595094230202236,0.0006575748642163993
1_2,XY,166,126.84852407550946,0.9885393567582681,0.07570149113982888,0.0006890252238828867
1_2,XY,187,126.89481540575217,1.0767196773129006,0.06609702875332213,0.0006301269440200011
1_2,XY,208,126.14219872618679,1.0228477721527824,0.0694055505597006,0.0006450858009938767
1_2,XY,229,125.93819708070022,1.1281282495082579,0.07081948668393077,0.0007283569995547026
1_2,XY,250,126.62557726544172,0.960595587711664,0.07806983281698138,0.0006838954121540468
1_2,XY,282,127.2864514798758,0.9641236864256232,0.07630144460940297,0.0006768981282080229
1_2,XY,303,126.27634896327496,0.9578696302150147,0.08067020582458533,0.0007132779304959324
1_2,XY,324,124.51637226935838,1.090169952133651,0.07312950826697424,0.0007359126124458957
1_2,XY,345,125.02477196730648,1.1335126324134897,0.0820292855019722,0.0008667593761975434
1_2,XY,366,126.12623543721813,1.0868126200497001,0.0746399082433517,0.0007476149805313295
1_2,XY,387,125.92940801308963,0.9226754551057014,0.08067771359217525,0.0006893586201055366
1_2,XY,408,126.02610246295203,1.1023462290155246,0.06959990707716476,0.0006959464901397695
1_2,XY,429,125.02246417380536,1.052701990925576,0.07896738460934513,0.0007719309620034197
1_2,XY,464,126.80348523270419,1.0776926767259203,0.07646288921654348,0.0007498575163628708
1_2,XY,485,126.08731734913671,1.0325907527148306,0.07922655764062082,0.0007453627087134918
1_2,XY,506,126.9089305686726,1.0044024138735816,0.06771691527698792,0.0006182247267532636
1_2,XY,527,125.99644655582705,1.0847837582421451,0.07517368732776243,0.0007560794404374128
1_2,XY,548,126.02305039297534,1.0210683080831497,0.0740161605240789,0.0006938591719269915
1_2,XY,569,125.86872513356641,1.0213448373290936,0.0832443252424777,0.0007698847108490295
1_2,XY,590,125.13367876466064,1.1200327070425538,0.07266464066755746,0.0007505870635708463
1_2,XY,611,126.51142946621229,1.0074731586582055,0.07937947930002312,0.0007389697391937403
1_2,XY,643,126.64874119072496,1.0057735248374577,0.07445060805655382,0.0006726869216761121
1_2,XY,664,126.16643692559497,0.9144587417618314,0.07843222733316525,0.0006531869749456661
1_2,XY,685,126.45854964747633,1.0033139536283104,0.06815617787845961,0.0006082607592155481
1_2,XY,706,128.2880350718291,1.0342535345379618,0.07104743457917691,0.0006641793084430278
1_2,XY,727,127.16308024559062,1.0221906529258753,0.07034515029913453,0.0006471981728490905
1_2,XY,748,126.64754238367415,1.007392010598021,0.07995192104255151,0.0007221504391273135
1_2,XY,769,125.93139483294475,1.0345158813956399,0.06517868442996196,0.000620208709755744
1_2,XY,790,126.16585553130928,1.0557590127856482,0.07344108733152495,0.0007136410753323142
1_2,XY,822,127.7108533437922,0.8553884308841666,0.0680725789284016,0.0005371235690563092
1_2,XY,843,127.07342873107503,0.9238642737652865,0.07894462666951502,0.0006635822962908087
1_2,XY,864,126.77553134515489,0.9856662905278158,0.07130105030288207,0.0006371516630622453
1_2,XY,885,126.29486610949716,0.9559571406807469,0.08156727564049845,0.000727639648256092
1_2,XY,906,125.81070329135845,1.0827887286013758,0.07052113304226286,0.0006995191598978294
1_2,XY,927,126.35901145987017,0.9452386614605206,0.07923676314789833,0.0006818287348328017
1_2,XY,948,126.43839504287183,1.1013108571891155,0.06966883751878217,0.0006975779625905287
1_2,XY,969,128.54968373003894,0.9156922590060249,0.07620155621319619,0.0006307398606361617
1_2,XY,1018,127.41293000110672,0.9392086071526172,0.07544118474215268,0.0006345633320641371
1_2,XY,1039,126.6429750181069,0.680805871911117,0.07908550241915037,0.00048435173263091204
1_2,XY,1060,125.82224085972622,1.0126214931479323,0.07131878277081719,0.0006688275209581958
1_2,XY,1081,126.0966967533972,1.0041422652833172,0.07925990248893292,0.0007282957262573803
1_2,XY,1102,126.98213652666466,1.025416037497573,0.06926717720110326,0.0006488212055830809
1_2,XY,1123,126.66002030743198,0.9551589254817854,0.07590787874785022,0.0006689270006962685
1_2,XY,1144,126.76325029876712,0.9472656642680614,0.07064812598005542,0.0006162593840655984
1_2,XY,1165,126.93383724404482,0.8974701660312893,0.08188837496855013,0.0006729078330865219
1_2,XY,1197,125.86306955838945,1.094044222584381,0.07349115393873026,0.0007430664082610026
1_2,XY,1218,126.30410770426164,1.084529919989052,0.07985205733266029,0.0007729486396625989
1_2,XY,1239,126.55653131484476,1.0083458521040194,0.07050133057714722,0.0006490532357399166
1_2,XY,1260,126.57254053031981,0.7945875920222937,0.07931114789795667,0.0005810488046561579
1_2,XY,1281,126.95695500168402,1.0451199617970355,0.0715220859974948,0.000673234017826647
1_2,XY,1302,126.51327841773262,0.9149364877383479,0.08023309794194348,0.0006792821866506492
1_2,XY,1323,125.92228890760727,1.0339943513629595,0.0661546642669055,0.0006119694044139937
1_2,XY,1344,127.12834808138874,0.9782657722800088,0.07638139789782272,0.0006679008442490139
1_2,XY,1376,125.7260768002739,1.0730533863286769,0.07338664373145634,0.0007129529208126484
1_2,XY,1397,128.0862579192572,0.975389872015635,0.07047452670920937,0.0006326685684192041
1_2,XY,1418,127.13043819569097,0.9691297231666275,0.07383873060822528,0.0006545110086394903
1_2,XY,1439,127.88379625657912,0.939044590580409,0.06628712798473008,0.0005589382651229217
1_2,XY,1460,125.34013685872085,1.0514550326766035,0.07233637492471653,0.0006886021340941478
1_2,XY,1481,125.62541949070281,1.097216963004457,0.0797861090017056,0.0008056545896503029
1_2,XY,1502,126.7200930305016,1.1209642188382218,0.07099371444441291,0.0007332523312840692
1_2,XY,1523,129.4981896709571,0.7093434224168058,0.06257918490569861,0.0003965304752696027
1_2,XY,1555,127.65066377218888,1.036141368441979,0.0654208948067505,0.0006105843389206955
1_2,XY,1576,127.99489000028993,1.0629269695693357,0.06906962931020519,0.0006625681859968996
1_2,XY,1597,128.0406269769469,1.0962294177853877,0.0610427538254723,0.0006040284500947123
1_2,XY,1618,128.2747764543215,0.9495391567900623,0.06724571350299623,0.000575507937346453
1_2,XY,1639,126.27233817511542,0.9123921271321832,0.08143485523449041,0.0006842142530622575
1_2,XY,1660,126.82456387761458,0.9543780310709626,0.0798647751143466,0.0006995518740144405
1_2,XY,1681,125.79843378918262,0.9868265847535287,0.07727983659886026,0.0007031960224205309
1_2,XY,1702,124.8748875461682,0.9570956361367813,0.08452985012091846,0.0007404188466974742
1_2,XY,1734,126.03730128953985,1.072939822293102,0.07550632452559063,0.0007451281757965869
1_2,XY,1755,128.44040440101617,1.0908283824257732,0.06249292871748014,0.0006153119517558275
1_2,XY,1776,126.07189771029572,1.0532118857006023,0.0759363742539446,0.0007276393886764055
1_2,XY,1797,125.20314450048468,1.02369221656297,0.08236916316557143,0.0007816986404295387
1_2,XY,1818,128.11668749905334,0.9354121813592294,0.06892589883414149,0.0005812110525683421
1_2,XY,1839,128.84577837358034,1.0515605190023558,0.06309848438952155,0.0005972523463696008
1_2,XY,1860,126.70285295533658,0.973963303526713,0.0777765460993912,0.0006959647437087362
1_2,XY,1881,126.38630220735764,0.6655882919768215,0.0814399593566101,0.0004932539327675152
1_2,XY,1916,128.62741783837916,0.8964633815867543,0.07240052125641272,0.0005805354291609857
1_2,XY,1937,128.6574572868595,0.7236469405703259,0.0629218183820648,0.0004053254162087381
1_2,XY,1958,126.2758329215879,0.9973530469868231,0.07361651882066889,0.0006683416180229469
1_2,XY,1979,126.32519590226295,0.8555592729861154,0.07839303934883306,0.0006222186266772297
1_2,XY,2000,126.6377155773813,0.9299456310179731,0.0776899525248894,0.0006576827594695213
1_2,XY,2021,126.43459463311433,0.9995570478676171,0.08113575665752552,0.0007444099563355082
1_2,XY,2042,126.05165852217644,1.0278506672249164,0.0771964775293236,0.0007248609107219518
1_2,XY,2063,126.8496768659501,1.058481623852659,0.08059383747725132,0.0007821448075909001
1_2,XY,2095,125.86374250640466,0.916788300758804,0.07666689040936488,0.0006362516861216687
1_2,XY,2116,125.99048661023053,0.9814006751542733,0.07812467994508715,0.000706951029279811
1_2,XY,2137,126.52161623484312,0.9000964767044645,0.07546132904022064,0.0006151424816665718
1_2,XY,2158,127.57108589870857,0.9297570102324837,0.07982362530887097,0.0006815061682066753
1_2,XY,2179,125.56741458542824,0.960580196574965,0.07709774882695691,0.0006654833625937981
1_2,XY,2200,125.70075379390899,1.1089242396303496,0.0825333504380907,0.0008389132877780953
1_2,XY,2221,126.05340209238209,0.8938419495044659,0.07810111000250787,0.000633640472622431
1_2,XY,2242,125.48323396566967,1.0278262513674492,0.08180713578602788,0.0007741830231718712
1_2,XY,2274,127.24685777562158,0.9623475043045792,0.07752580350423864,0.000681361759950498
1_2,XY,2295,127.26224229707935,0.9679970539903257,0.07881881728831343,0.0007003932737173675
1_2,XY,2316,126.84039500531365,1.000184623706013,0.0761305529987599,0.0006879858295585032
1_2,XY,2337,127.42090135833212,0.7023450960710992,0.06967470230221781,0.00043666820384151184
1_2,XY,2358,128.75369588516307,1.0697697627100873,0.06493326976575822,0.0006146007186342847
1_2,XY,2379,127.41350118804442,0.9538004062675204,0.07878056251287782,0.000681231099061923
1_2,XY,2400,126.40132985853491,1.018686782664262,0.07434539457114722,0.0006841906615273382
1_2,XY,2421,125.88269169250451,0.9535108100469395,0.07942089558867534,0.0007107571681726655
1_2,XY,2453,126.78492549040608,0.9325618553323388,0.07895894105856377,0.0006760871423957123
1_2,XY,2474,126.11573425472308,0.9275559661022452,0.08360493861848031,0.0007099826644797983
1_2,XY,2495,126.42416356739511,1.0780227831383478,0.07551085817665527,0.0007621939577899601
1_2,XY,2516,125.20505262371748,0.9624767599113175,0.08134225460026605,0.000707224852430564
1_2,XY,2537,126.46380195571541,0.9697488811216409,0.07834945215075306,0.0007000796690581979
1_2,XY,2558,126.14351395018753,0.9490859310343168,0.08527208371401052,0.0007426656303949716
1_2,XY,2579,126.88914310181339,3.1643924144621995,0.0794802012936882,0.0020155438197057727
1_2,XY,2600,126.73367225228044,0.986719829662579,0.08226303369346363,0.0007325032464810114
1_2,XY,2632,126.9099383148059,1.1042914213034258,0.07414053829729866,0.0007446272831328301
1_2,XY,2653,126.81017934579297,1.4897920307814545,0.0783311683147547,0.0009783150606935767
1_2,XY,2674,126.84052600906173,1.1431806027551485,0.07009347404028568,0.0007195249355297407
1_2,XY,2695,126.12635303301327,1.1047933826907717,0.08365326736198105,0.0008367775306227608
1_2,XY,2716,126.11840244886425,0.9360916606634982,0.07012352981972157,0.0005960938166173904
1_2,XY,2737,126.7528673334208,1.0507600411670523,0.07968736972747424,0.0007654306233842215
1_2,XY,2758,126.29405450442758,1.0751330778874033,0.07517434755150473,0.000741075589755892
1_2,XY,2779,125.96181774737617,0.9733388519315136,0.08010576559347513,0.00073052190654011
1_2,XY,2818,126.7927231879025,0.8612615355960411,0.07746237063079026,0.0006070177244484863
1_2,XY,2839,125.96692873189787,0.9814034280477086,0.08270985565383382,0.0007518010154115109
1_2,XY,2860,126.00403879085164,1.0179581741822596,0.07746005288159491,0.0007114648728045757
1_2,XY,2881,126.37292081871543,0.9206394219249473,0.08155019597411213,0.0006882053590949306
1_2,XY,2902,125.9963297054974,1.0350554764115607,0.0783329615199925,0.0007423391684945951
1_2,XY,2923,126.20563609839557,1.0562828714097403,0.08186748868795286,0.0007890484650797307
1_2,XY,2944,126.70212787833015,1.0849444576063167,0.07581131885543071,0.0007560321232539211
1_2,XY,2965,126.62074168016467,0.912193208121876,0.07816002039104836,0.0006611502128038788
1_2,XY,2997,125.96746507357372,1.0375153543988582,0.07702895161807778,0.0007404116165216047
1_2,XY,3018,125.14738613221527,1.0625124568786906,0.08133882296184367,0.0008017346170959273
1_2,XY,3039,125.82665508325901,1.176030748605785,0.07365695777527212,0.0007732751493046322
1_2,XY,3060,127.90095736757158,0.8947245646202466,0.07649564183091309,0.0006252682228899969
1_2,XY,3081,126.49600078160748,0.9759525958953601,0.07532543933435673,0.0006796682959944625
1_2,XY,3102,127.04350193419984,0.969601626211144,0.0797247740102641,0.0007011072675065272
1_2,XY,3123,126.2873838497741,0.7325117957567655,0.07880057453918718,0.0005215096011820792
1_2,XY,3144,125.63300775341877,1.074766960098719,0.08301279598666927,0.0008037758470060097
