Scan,Type,BCID,sigma,sigmaErr,Mean,MeanErr,CapSigma,CapSigmaErr,peak,peakErr,rate0sep,rate0sepErr,peakRateRatio,peakRateRatioErr,area,areaErr,fitStatus,chi2,ndof,covStatus
1,X,103,0.0888044316507661,0.00031628951723355615,0.001314921429525887,0.000642961656086938,0.12558843163934796,0.0004473009249081339,0.0013871555513237574,8.73119037226517e-06,0.001370706879518841,2.0312319677448454e-05,1.012000138067951,0.01629342589834291,0.00043668144162425584,3.1581354970822586e-06,0,20.43935598627121,22,3
1,X,124,0.08513903164557984,0.0002914136637939546,0.0027058561287322393,0.0005343853384185747,0.12040477324049115,0.000412121155598244,0.0016363021620347479,8.615095564279046e-06,0.0016677585809187305,1.991096559828806e-05,0.9811385057502423,0.012802031667122066,0.0004938523702588524,3.1012804441255536e-06,0,49.84691584913202,22,3
1,X,145,0.08565456307043015,0.00032260539450788004,0.0017030714946294249,0.0005674838675803434,0.12113384477334399,0.00045623292420776673,0.0016066647553345493,1.0758747738990388e-05,0.0016312499902655193,2.2136001543917364e-05,0.9849285915232598,0.01490417438322465,0.0004878437023011489,3.7480297414675314e-06,0,69.72019452135025,22,3
1,X,166,0.08478428321295031,0.00032469237746640087,0.0009501691432446904,0.0005880100972491626,0.11990308319583587,0.00045918436381214844,0.001652438427469564,9.702433071914333e-06,0.0016574646638438135,2.3056022031643715e-05,0.996967515215321,0.01505305964024252,0.0004966444319852737,3.4815296810455204e-06,0,73.67787200828592,22,3
1,X,187,0.08583182836942321,0.0003592159758958592,0.0004660003460678408,0.000660366771286754,0.12138453576331809,0.000508008104933011,0.001601489732802005,9.723425171646782e-06,0.001607650371559121,1.9779363516844503e-05,0.9961679237811258,0.013667246800328402,0.0004872787300215011,3.59326818151288e-06,0,88.1688841979735,22,3
1,X,208,0.08538459718842575,0.00033187216155062475,-0.00015274932701900073,0.0005460201139872498,0.12075205536163536,0.00046933811183896834,0.0015156944856560784,9.284095952184225e-06,0.0015401708989763005,2.721344917191434e-05,0.984107988706649,0.01840352595058221,0.0004587711893036317,3.328117091545485e-06,0,67.68017825723494,22,3
1,X,229,0.0859899203395376,0.0003402103357028435,0.0003129270894581619,0.0006150489782095741,0.12160811157155615,0.0004811300708104649,0.0015920440339299666,9.867428267696245e-06,0.0016133935523164084,1.7264843347975933e-05,0.9867673213669477,0.01220264803196311,0.0004852969414777788,3.568428230026289e-06,0,94.05792644611707,22,3
1,X,250,0.08426265323287904,0.00029645033345835356,0.0011335352995453876,0.0005260560352629153,0.11916538700347867,0.0004192440821468302,0.0016578777868834491,9.249780657981046e-06,0.001696944264605623,1.6495794918237087e-05,0.9769783377468482,0.010950180549695973,0.0004952136130561093,3.266383141221344e-06,0,118.5942272249855,22,3
1,X,282,0.0857437470835369,0.00029929717725881523,0.0022461043235496424,0.0005617036168317448,0.12125997001422639,0.00042327012725940083,0.001611891449747049,1.0252570398398068e-05,0.0016046377614304793,2.3755677293486105e-05,1.0045204522110356,0.016185779104915636,0.0004899403208550294,3.5547294779706944e-06,0,28.704995886251027,22,3
1,X,303,0.08396345671218779,0.00029774582272335556,0.003688201908835156,0.0005540683261427032,0.11874225922610226,0.0004210761806353047,0.0016797465651801232,9.406603604832172e-06,0.0016831394036373138,1.4211230465527205e-05,0.9979842201722219,0.010111174134316475,0.000499964310315946,3.313946278173955e-06,0,91.29912404418941,22,3
1,X,324,0.08443004562764465,0.0003217108163651358,0.0014455010195354903,0.0006055736384552586,0.11940211559839431,0.00045496779966569534,0.0016131346553383825,9.337550608996865e-06,0.0016064028217300011,1.483695733910155e-05,1.0041906261102875,0.010945788317925954,0.00048280590966361207,3.3458547758602212e-06,0,70.00415926376779,22,3
1,X,345,0.08371924577785993,0.00031011428579020645,0.0022333040554587623,0.0005622145631976224,0.11839689281069599,0.000438567828850156,0.0016652780460284637,1.075303924239315e-05,0.0017101463748842277,2.2847287252042692e-05,0.9737634570264189,0.014449182581657267,0.0004942162212469501,3.679063977828251e-06,0,83.14278178274652,22,3
1,X,366,0.0842500129199189,0.0003439324476590492,5.6631343083125615e-06,0.0005706537093366689,0.11914751090145781,0.000486393932019602,0.0016299567339297162,1.0678130576144315e-05,0.001657069723444814,2.3162239670244283e-05,0.9836379911288623,0.015184313245061599,0.0004868004652938209,3.7576116103502594e-06,0,94.58722139993534,22,3
1,X,387,0.08375943996406378,0.000300676010221952,0.0015784655583976949,0.0005438171121854332,0.11845373597395403,0.00042522009153611595,0.001655911764193055,9.768502515089916e-06,0.0016647459771983399,2.042231203648706e-05,0.9946933567485459,0.013539977958705743,0.0004916724662888956,3.3952659972740725e-06,0,94.1314412435725,22,3
1,X,408,0.08536140657121784,0.00034429834581878663,0.0016573055646952601,0.0006282218431582026,0.12071925887626012,0.0004869113901595501,0.0016077981418873497,1.014105753403652e-05,0.0016618892234252117,1.9696284221129866e-05,0.9674520534970565,0.012988646719183969,0.00048651699668424494,3.642450228949217e-06,0,88.09580138539401,22,3
1,X,429,0.08365089785602325,0.00029584687383906995,0.0021941911499270324,0.0005081844595790824,0.11830023425267455,0.0004183906613688948,0.0016763149696228722,1.0503216723025886e-05,0.0016772072546099221,2.3347776300333226e-05,0.9994679936038927,0.015257602383481977,0.000497085576861155,3.5764819827821435e-06,0,97.11053431319756,22,3
1,X,464,0.08595243884934226,0.0003083993725952616,0.0033808745064810744,0.0005459115881489392,0.12155510473978393,0.0004361425753515724,0.0016090249767595722,9.685396036935213e-06,0.0016114368517937214,2.5297050951109554e-05,0.9985032767300409,0.016787763719305373,0.0004902593913639137,3.4355719355419746e-06,0,27.548169518046873,22,3
1,X,485,0.08320108429813547,0.00031885012881256887,0.00325871325257221,0.0005921571453825685,0.11766410181857034,0.0004509221765311433,0.0016628903577015734,1.114414311287503e-05,0.0016648162351626371,2.4164192971654075e-05,0.9988431891638325,0.01596859116232521,0.0004904531556916776,3.786310493185387e-06,0,29.045793583811303,22,3
1,X,506,0.08410514627485186,0.00030038499542193943,0.0027187443100167956,0.0005854275517997581,0.1189426385272685,0.00042480853445908684,0.0016480285925128495,9.770586629070327e-06,0.001630261744271037,1.6742806264725458e-05,1.0108981568783342,0.011987651016590347,0.0004913514530588595,3.400805630678502e-06,0,26.8375481832077,22,3
1,X,527,0.08342954347084783,0.0002957551739345898,0.0029316517632177828,0.0005629361990509572,0.1179871918790687,0.0004182609781203106,0.0016639048689749446,1.0180513319640643e-05,0.001648253143873491,2.304826012409993e-05,1.0094959473668415,0.015408366729781712,0.0004920999169271265,3.479748370153987e-06,0,31.444282649961888,22,3
1,X,548,0.0837426052242551,0.0002812046448854985,0.004519664649301588,0.0005343748696836468,0.11842992805659758,0.00039768342259938194,0.0016445622056340506,1.0210386216044784e-05,0.0016493309525638456,1.8049046923658687e-05,0.9971086779627933,0.012545402161346966,0.00048820441769636155,3.445987108575573e-06,0,46.140204124833886,22,3
1,X,569,0.08259811757170371,0.00029848551618318764,0.003723411784908413,0.0005982461260069712,0.11681137809639086,0.00042212226515819795,0.00169700976054823,1.1002042046485592e-05,0.001710451463607455,2.4243330530049346e-05,0.9921414297071748,0.015463535048286448,0.0004968890451350444,3.6880644096559265e-06,0,52.29423785935861,22,3
1,X,590,0.08351425130559813,0.00031255980837811994,0.004347170764601928,0.0006015821254862845,0.11810698684781185,0.000442026320061073,0.0016614910449092005,1.1297392900246123e-05,0.0016418429940218947,2.4173985959378815e-05,1.011967070517002,0.016412000578442772,0.0004918849433341319,3.8177652530365894e-06,0,49.34319243347785,22,3
1,X,611,0.08311523753647532,0.000309811812359851,0.0025504959350139884,0.0005511597982062599,0.11754269616394475,0.0004381400668226898,0.0016865250359764297,1.050013729245395e-05,0.0016939120841314584,2.4380528354676586e-05,0.9956390604776774,0.015613486125021031,0.0004969107302369336,3.6058081161941904e-06,0,39.50444023156873,22,3
1,X,643,0.08627562246969804,0.00030209918446924235,0.0029266099084035804,0.0005525634511440657,0.12201215539882793,0.00042723276385825404,0.0015627749826675318,8.76275605651677e-06,0.0015687554170107092,1.8487381230595765e-05,0.9961877841004857,0.013000942534520835,0.00047795772322443145,3.1596349714767615e-06,0,33.42136907680676,22,3
1,X,664,0.0832430845494388,0.00030057254127337327,0.003873890473841745,0.0005804751480377791,0.1177234991435866,0.0004250737643457514,0.0016493121751171272,8.76723698470786e-06,0.0016037202385687285,1.590291650755006e-05,1.0284288590066608,0.011571032322172941,0.00048669396545167684,3.1275277478625926e-06,0,48.57304106128277,22,3
1,X,685,0.0853350743223234,0.00031690072287533045,0.004503495865982346,0.0006810927637142326,0.12068201945274581,0.0004481653002161301,0.0016033737172626978,9.020446644878387e-06,0.001620325165702576,1.2647876446334925e-05,0.9895382428177445,0.009521234635489408,0.000485028505732739,3.2696028582133604e-06,0,41.803245433439244,22,3
1,X,706,0.08493260828751559,0.0003203861070008053,0.004397949080681726,0.0006268491137150384,0.12011284652792609,0.00045309437771645644,0.0015155675505521898,9.826119712489163e-06,0.001507840555818363,2.0605392113195517e-05,1.0051245436422374,0.01520302201945242,0.0004563044368699264,3.422740323934432e-06,0,42.79627047364191,22,3
1,X,727,0.08418231119662076,0.0003407541550282057,0.004191759116252151,0.000618740824645936,0.11905176620617353,0.0004818991474758727,0.0016349900995479359,1.0039334055730154e-05,0.0016308727164160426,2.0457350603984878e-05,1.0025246502013605,0.014001303201372451,0.00048791133114526155,3.588324881057499e-06,0,38.78328408415214,22,3
1,X,748,0.08264877692010315,0.00029382136711832076,0.002332728152453471,0.0005211522406880072,0.11688302123395833,0.0004155261622937334,0.0016931590421232264,9.499562406544269e-06,0.0016899124332852165,1.8640509288883185e-05,1.0019211698630435,0.012399127655536314,0.0004960656064677343,3.2948908626022532e-06,0,43.52527723086935,22,3
1,X,769,0.08436049310683164,0.00031635740548517215,0.003256023504871016,0.0006226488140250314,0.11930375348016331,0.0004473969333942951,0.0016230009841083672,1.0332400502377135e-05,0.0016127316539967687,1.831232809006119e-05,1.0063676620261954,0.01310063258720409,0.00048535870680662936,3.5861374864258425e-06,0,27.464029193304967,22,3
1,X,790,0.08355291601889953,0.0002920719794005129,0.0027644641634386215,0.0005667526845408733,0.11816166700974795,0.00041305215445736065,0.001661404442701808,1.0327157400322198e-05,0.0016565092506014283,1.805652386774569e-05,1.002955125121458,0.012585196849621451,0.0004920870215348121,3.509282694325903e-06,0,40.06898965112128,22,3
1,X,822,0.08812752274005102,0.0002976948160002666,0.002248656300139554,0.0005679752690802718,0.1246311378773235,0.00042100404623574006,0.0014194121118291086,7.2003989965159615e-06,0.0014320818497499772,1.5130493262784031e-05,0.9911529233311067,0.011616407641928846,0.0004434299278484829,2.7025307845165646e-06,0,39.403566541955925,22,3
1,X,843,0.08325766575342292,0.00028216728242366567,0.003335303335506921,0.0005297329958338946,0.11774412008001667,0.00039904479766150747,0.00162486867872764,9.014331541346288e-06,0.0016285512457521161,2.1183577890450005e-05,0.9977387466104726,0.014109292832356115,0.0004795649451591148,3.117658876670754e-06,0,27.287996895152833,22,3
1,X,864,0.08406853250770016,0.0003129909243748459,0.004054041654162588,0.0005593034248617485,0.11889085884119299,0.00044263601015059884,0.0016494165318200046,9.769069205503793e-06,0.001654214532643909,1.5723832587321273e-05,0.9970995292755434,0.011167065932342629,0.0004915511784251535,3.438748882326768e-06,0,40.23120129430217,22,3
1,X,885,0.08254963682372408,0.00023963965967279153,0.0023353297341105546,0.0005116947623142661,0.11674281596508407,0.0003389016567917347,0.0017059918777537313,9.75031620983709e-06,0.0016768602735292187,2.0664953232685556e-05,1.0173727082001893,0.013820406256759218,0.0004992258419491823,3.200202539345219e-06,0,29.221660822228742,22,3
1,X,906,0.083166846083192,0.0003278746738801168,0.004642580577475409,0.0005877870954646144,0.11761568167064584,0.0004636848105599167,0.0016711605114690116,1.0705200870901391e-05,0.001651779834636924,2.0590938037848133e-05,1.011733208279751,0.01417993070431576,0.0004926895252609256,3.705902836754147e-06,0,35.94533404861167,22,3
1,X,927,0.0827132204192638,0.0003108205159318778,0.00298273122462169,0.0005777981050704669,0.11697415810447809,0.0004395665890946643,0.0016925016492517384,9.298361109692065e-06,0.0016925294259642384,2.0015070830505863e-05,0.9999835886383576,0.013039180346119122,0.0004962596476674469,3.3031509667572222e-06,0,46.658217675594194,22,3
1,X,948,0.08506494838612493,0.00035378402669465576,0.003886886372258161,0.0006741373059116891,0.1203000036902252,0.0005003261687025473,0.0016093650292080877,1.0978461488083427e-05,0.0016019238733711682,1.911213258772576e-05,1.0046451369884761,0.013807087009430235,0.00048529982522242844,3.87728577950337e-06,0,45.29807257831103,22,3
1,X,969,0.0831319171567543,0.00026140635213000977,0.0033578014716119514,0.0005002869238871803,0.11756628470915853,0.00036968440847273687,0.001688849426840381,9.599044417445234e-06,0.0016823292234226502,1.852314717803337e-05,1.0038757000276473,0.012438932258988247,0.0004976954369113853,3.2328396544711585e-06,0,31.225896569087666,22,3
1,X,1018,0.08371534090776485,0.0003108992713182038,0.003592962300762276,0.0005844621682130432,0.11839137049044823,0.00043967796603011644,0.001661180662304843,8.98628618542379e-06,0.0016831614660786965,1.6577265721902768e-05,0.9869407634283224,0.011089986493636746,0.0004929772172671287,3.23475701728235e-06,0,21.127614425293487,22,3
1,X,1039,0.08267038106642388,0.0003098273171151234,0.002768362206444822,0.0005883124141729655,0.11691357411068859,0.00043816199385787735,0.001704451594963495,9.400483935168329e-06,0.0017115005543765415,2.3145787039628727e-05,0.9958814156413672,0.014544914377969452,0.000499504659333998,3.33074879360587e-06,0,24.3383370131396,22,3
1,X,1060,0.08374774638248299,0.00028697313468649735,0.00203027481445097,0.0005675415175451307,0.11843719875228975,0.0004058412991103655,0.0016769709317116875,9.574444768313086e-06,0.0016713569570846077,1.4417696344308452e-05,1.0033589321558647,0.01037934245982946,0.0004978558285200908,3.315089170836552e-06,0,32.83020120718046,22,3
1,X,1081,0.08275335822944875,0.0003172642698070877,0.003064400681940519,0.0005796590364083895,0.1170309215400056,0.0004486794332175803,0.001669669223168781,1.006372024091612e-05,0.0016591019224090314,1.9194226160098993e-05,1.0063692896843888,0.013128088503166746,0.0004898025039055899,3.498838187188549e-06,0,20.419801801734035,22,3
1,X,1102,0.08430631749702604,0.0003132228457602339,0.004140895130758537,0.000578261907589387,0.11922713759802639,0.0004429639965192189,0.001672611089144678,1.0551068039188884e-05,0.0016615820713398578,2.258451826710792e-05,1.0066376605736524,0.01508411988897264,0.000499873395902715,3.659540025137196e-06,0,43.689977858372,22,3
1,X,1123,0.0824183895899195,0.0002839731705931502,0.0023707097891583445,0.0005366524702571074,0.11655720434701367,0.0004015987092029216,0.0017422230729426634,1.071575846071894e-05,0.0017401825079735162,2.0886845881105387e-05,1.001172615492799,0.01350263767119864,0.0005090176216136425,3.5885450864400212e-06,0,48.827075383169586,22,3
1,X,1144,0.0834715178822713,0.00030306694101851615,0.002523024784147892,0.0005104966989596309,0.11804655266097641,0.0004286013782953124,0.0016851064265033355,1.0088004388976301e-05,0.0016647681688087537,2.079573099330206e-05,1.0122168708386197,0.01402133255652742,0.000498621014336743,3.4911156233039344e-06,0,22.644645566256877,22,3
1,X,1165,0.08494819085291196,0.0002639943651549478,0.0025678867677809436,0.0005206873358310603,0.1201348836032462,0.00037334441159220244,0.0016672562424261733,8.767089195694295e-06,0.001655365837465773,1.375994739348712e-05,1.00718294693009,0.009906581725107971,0.0005020667010252911,3.0666604034285727e-06,0,26.70265009785933,22,3
1,X,1197,0.08357348145709341,0.00030501742588776883,0.0017265454069602464,0.0005500473755858751,0.11819075093135789,0.00043135978045061307,0.0016588323663700387,1.0687109186654385e-05,0.0016600092768809793,2.3244144873889777e-05,0.9992910217266063,0.015402513382134162,0.0004914461381562107,3.638915202462987e-06,0,20.8317121104628,22,3
1,X,1218,0.08235159446251455,0.00032454527056404337,0.0029673711393342697,0.0005851602926493694,0.11646274177193716,0.0004589763232357158,0.00173051100863086,1.0813373340386885e-05,0.0017238598314078077,1.7195329339397697e-05,1.003858305125435,0.011815901348288693,0.0005051860046743408,3.7321244865516415e-06,0,23.388935914376447,22,3
1,X,1239,0.08361481883906831,0.0003399758319905102,0.0026867069647256462,0.0006241154402648783,0.11824921081757978,0.00048079843248005627,0.0016899636332562583,1.1673967139912294e-05,0.0016662711239882498,2.2021087316733625e-05,1.0142188800651482,0.015124281158835863,0.0005009167384862742,4.015158023041167e-06,0,41.679867385294344,22,3
1,X,1260,0.08187445545765037,0.00027130236296324503,0.0035239538248813063,0.0005393785084948587,0.11578796532012103,0.0003836794812064892,0.0017296635715450957,8.803540355519205e-06,0.0017358272126163678,1.3121830111760023e-05,0.9964491620902857,0.00908082616786801,0.0005020130366628871,3.0489045557990954e-06,0,45.347531530314065,22,3
1,X,1281,0.08414819304165039,0.00032316221733859254,0.0030881421557837217,0.000620918984400367,0.11900351584869129,0.00045702039060679933,0.001691872683976572,9.857946866509421e-06,0.001678735923615786,1.8809184945429735e-05,1.0078253882436083,0.012727674484850852,0.0005046815232493737,3.521883589562509e-06,0,28.509754792918496,22,3
1,X,1302,0.081737506741051,0.00028209265642054336,0.0026222402230972027,0.0005049406493937764,0.11559429058775661,0.0003989392605557862,0.0017768244979648475,1.040635750269377e-05,0.0017511671819010971,2.1091437217403746e-05,1.0146515514503283,0.01358891907993725,0.0005148383047655926,3.499837518151039e-06,0,29.677469064976925,22,3
1,X,1323,0.08397110227858075,0.0003348880098144421,0.0029517075588386082,0.0006163009317052048,0.11875307168978722,0.0004736031653557182,0.0016556041611679544,6.9947266989230035e-06,0.0016657295168229517,1.7329729121060426e-05,0.993921368653952,0.011160560241514914,0.000492823371449255,2.8632491915304377e-06,0,25.79218540866041,22,3
1,X,1344,0.08463558225832972,0.0002766270316476413,0.002339488866245565,0.0005180943537469178,0.11969278828907359,0.0003912096998751058,0.00166598402400319,7.564146251223277e-06,0.0016542392652988947,2.026711323621666e-05,1.007099794419505,0.013158635895505965,0.000499837402236087,2.79629921123181e-06,0,51.475379703796115,22,3
1,X,1376,0.08616738447376747,0.0003241669479478768,0.0025961453616247833,0.0005997675525980714,0.12185908375701882,0.00045844129426098057,0.0015870903917069132,9.244450168217595e-06,0.0016013961486652858,1.6744442153368746e-05,0.9910666970378966,0.011862168689912075,0.00048478536989953494,3.3615294438083944e-06,0,29.09637167126281,22,3
1,X,1397,0.08590605132809487,0.00029329033981097616,0.002591044429618027,0.0005540886119601273,0.121489502878111,0.0004147751762736962,0.0015153262835652735,1.0189255116945507e-05,0.00150957946470309,1.7087856256507085e-05,1.0038069005286274,0.01321627633932286,0.00046146083263783185,3.47997524856821e-06,0,24.35331943180812,22,3
1,X,1418,0.08469469608591594,0.0002823551391488923,0.001350155441645579,0.0005366026429107823,0.11977638786576983,0.000399310467190106,0.0016451348792483778,9.023839907067503e-06,0.0016311912450052018,1.789452880354867e-05,1.0085481296481158,0.012369949212070961,0.0004939268738076137,3.1704287965731635e-06,0,36.66770868263654,22,3
1,X,1439,0.08685151998115291,0.0003266543225959486,0.0008842903233331283,0.000638623370000253,0.1228265974700643,0.00046195897322298674,0.0013970221487838964,8.37569058844986e-06,0.0013988478872912497,1.817857329344004e-05,0.9986948269901678,0.014293023473605377,0.00043011604824833623,3.0441249721526046e-06,0,43.03897575328858,22,3
1,X,1460,0.08464521045034133,0.00030260828520656046,0.0011669826031552833,0.0005882515942582794,0.11970640460879756,0.00042795274102558345,0.0016426994658345297,8.454721944491106e-06,0.0016453293496433367,1.3469573723856921e-05,0.9984016064568609,0.00965458259821489,0.0004929075121092069,3.0888745892259217e-06,0,69.5669703546464,22,3
1,X,1481,0.08373137522585698,0.00031529918479761303,0.0018198088607885383,0.0005668146383512481,0.11841404644055753,0.00044590038334596516,0.0016745576067747155,1.0002049395615102e-05,0.001647931277147389,1.7236881653808868e-05,1.0161574271916347,0.01223960032702013,0.0004970421836875276,3.509551030885521e-06,0,28.03586840007238,22,3
1,X,1502,0.08442614337768259,0.00030463674504807505,0.0016630825315875671,0.0005586582023727835,0.11939659698357419,0.0004308214164441826,0.0016338504073798372,1.0631395344957165e-05,0.0016148404206578902,1.6787169277525425e-05,1.011772052816341,0.012408473663507844,0.0004889834650393159,3.6382633238678848e-06,0,39.97107824193921,22,3
1,X,1523,0.08844371910460906,0.0003238217974026265,0.002930142881451757,0.0006376266477218646,0.12507830706445455,0.00045795317767882704,0.0013654056941562948,9.43072983350818e-06,0.0013663240169300745,2.161588275526712e-05,0.9993278879955262,0.017250857191746197,0.0004280885758947059,3.3465113930189687e-06,0,19.865514710096797,22,3
1,X,1555,0.08755121363301337,0.00032278600117632833,0.0013687983476977578,0.0005540955142246923,0.12381611372203172,0.00045648834060774135,0.001355462360458847,7.713758743776342e-06,0.0013273168984963839,1.6860802247840212e-05,1.0212047793517487,0.014214576370832569,0.000420682615038021,2.852546680571791e-06,0,40.01618248702636,22,3
1,X,1576,0.08701411581103952,0.0003571492208490628,0.0014060586125609418,0.0006184861490867945,0.12305654269787525,0.0005050852719157284,0.0014462493517191082,8.642218690489569e-06,0.0014278137373431516,1.7279501304225583e-05,1.012911778261961,0.013671231536850438,0.0004461057497403268,3.234029364722547e-06,0,47.464470870007275,22,3
1,X,1597,0.08844302696242186,0.0003563739030036603,0.0014214187315985387,0.0006100608754422058,0.12507732822758633,0.0005039888069036103,0.0013278032660284246,9.076873002318377e-06,0.0013488376546220411,2.009800208143587e-05,0.9844055446394617,0.016137889765903482,0.0004162960234738307,3.3033871187255172e-06,0,23.714368746258575,22,3
1,X,1618,0.0859905188256076,0.0002992792554776979,0.002477617370906886,0.0005860920855708606,0.12160895795867321,0.0004232447820334828,0.0014425832352277924,7.717852941459014e-06,0.0014369896662692584,1.2193487421439602e-05,1.0038925603223412,0.010070268815137886,0.00043974041515022473,2.8066241226178495e-06,0,38.314639605136215,22,3
1,X,1639,0.08418291026816016,0.0002925351907927562,0.0017868338496334817,0.0005693068393749946,0.11905261342126938,0.0004137072342905168,0.0016306836553210873,1.0146368223705863e-05,0.0016217279366471146,1.913135980755708e-05,1.0055223311331052,0.013410895252932693,0.0004866296714250864,3.468096575925014e-06,0,33.817177259503474,22,3
1,X,1660,0.0841821983471426,0.00031453849509463895,0.001116626854213415,0.0005446170528767203,0.11905160661291103,0.0004448246056512617,0.001572478106108902,8.870231639179004e-06,0.0015725523225187641,1.8565827770179864e-05,0.9999528051252735,0.013083946088647713,0.0004692559653178843,3.175054502429787e-06,0,23.91389171171774,22,3
1,X,1681,0.08446059554885967,0.0003245367735384605,0.0015812322291218713,0.0005992278173173578,0.11944531971130601,0.0004589643066268967,0.0016322670742935069,1.062253896825373e-05,0.0016497221474255483,2.3760799000309135e-05,0.9894193860709934,0.015637704852474118,0.000488708948941291,3.693442148328825e-06,0,22.251787991168083,22,3
1,X,1702,0.08344445695902923,0.00027662321468398645,0.0029649400819127627,0.0005513796464170909,0.11800828273631714,0.000391204301873338,0.0016944642827348337,9.200450856572194e-06,0.0016714541865462359,1.5102385823198975e-05,1.0137665132396743,0.010686541817847688,0.0005012274456403918,3.1886641958533098e-06,0,50.357710584600035,22,3
1,X,1734,0.08541984104326537,0.00029560319615932297,0.0011609833141082808,0.0005645850659013999,0.12080189769913985,0.00041804604908934895,0.0015984163737931569,1.0490740393337686e-05,0.0016278883059518672,2.3784387981304793e-05,0.9818956054595666,0.015727033884372854,0.0004840091931927945,3.59118529004676e-06,0,42.50546065973275,22,3
1,X,1755,0.0875867442811028,0.000338945642084915,0.0016433891797392975,0.0006457762068697752,0.12386636164643972,0.00047934152394374374,0.0013799865533383737,8.937649143420033e-06,0.001406225814579425,1.7224827593927914e-05,0.9813406488708935,0.013597290051810013,0.0004284677806299044,3.232651886085303e-06,0,36.2190933840471,22,3
1,X,1776,0.08459125058778989,0.00030010804975079517,0.0013038598760714676,0.0005614464569446023,0.11963009383935352,0.00042441687413491413,0.0016435216591367229,9.795703196254496e-06,0.0016408227621490423,2.0887053648242426e-05,1.0016448437027687,0.014078978121915988,0.00049283984167257,3.4184176217930113e-06,0,32.99834674880601,22,3
1,X,1797,0.08333593973595363,0.00029834911254204627,0.0006834609759998495,0.0005622799080421371,0.11785481620769256,0.00042192936127893876,0.0016802370129977348,1.0754992509803147e-05,0.0016858690026084785,2.1723899976631388e-05,0.9966592958278315,0.014340021037933302,0.0004963726184974682,3.640418444642028e-06,0,36.58099756852416,22,3
1,X,1818,0.08648457321389844,0.0003195958056916303,0.001634991802463956,0.0005461771993741952,0.12230765637514407,0.00045197672288666,0.0014082881157256603,7.946883398882626e-06,0.001412476537457014,1.30411352704739e-05,0.9970346964212982,0.010788617480564705,0.0004317527306507937,2.9122929365701453e-06,0,35.26265797389098,22,3
1,X,1839,0.08856589828314113,0.00034121628728000494,0.0019295993546184988,0.0006479627919289561,0.1252510945157742,0.0004825527011739772,0.0013021424287450536,8.977912170165928e-06,0.001305076965600765,1.670552479643413e-05,0.9977514453683116,0.014506489381396497,0.00040881794792879206,3.228895200862077e-06,0,15.263478439534303,22,3
1,X,1860,0.08458514565428578,0.0002960373665742732,0.0023227481998119933,0.0005953587495602852,0.11962146015959463,0.0004186600587785527,0.001607237353406242,1.0392644091258635e-05,0.0016132342383875554,2.243972815542745e-05,0.9962826942060767,0.015282243799133007,0.0004819245501981811,3.543383333071452e-06,0,17.35601657816825,22,3
1,X,1881,0.08344839525508918,0.00028358379063146016,0.0028854730216800657,0.000523418660355527,0.11801385232801775,0.00040104804278018324,0.001652943552850863,1.0015988484742396e-05,0.001642775657305337,2.06693691373859e-05,1.006189460806964,0.014051520378756451,0.0004889685699806067,3.3970439943961746e-06,0,33.76542034424803,22,3
1,X,1916,0.0863503097857371,0.0003032466003926795,0.003087005266598299,0.000578433406608809,0.1221177792141076,0.0004288554550188617,0.0015541309787703039,8.810949260562459e-06,0.0015483977703357717,1.7237804708960956e-05,1.0037026715901876,0.012539383519137182,0.0004757255198529099,3.172581564089641e-06,0,26.8482893695596,22,3
1,X,1937,0.0877312256730908,0.00030973206481070786,0.0021533322276944735,0.000607953107030045,0.12407068919049968,0.00043802728675712554,0.0013627895514541695,9.015377966193333e-06,0.0013453325953515487,1.891624030777434e-05,1.012975940791845,0.015740778570099697,0.00042382632069078516,3.1780618638836213e-06,0,53.64642033879686,22,3
1,X,1958,0.0856782975907889,0.0002904411115544713,0.0038336207779229277,0.000534143505102879,0.12116741045393176,0.00041074575903105037,0.0016327474779673436,8.713415679235457e-06,0.0016382241309435064,2.0127512880500875e-05,0.996656957450011,0.013350371086037772,0.0004959007694832953,3.1352290547095305e-06,0,60.97090024171916,22,3
1,X,1979,0.08483748619456086,0.0002811250879512714,0.0010677727925724391,0.0005034198003174225,0.11997832357398819,0.0003975709121040172,0.0016649356972906174,8.467028180752804e-06,0.0016440868197376657,1.4992597549344488e-05,1.0126811293069538,0.010573687860757084,0.0005007145234604217,3.039251956872497e-06,0,37.34693524264742,22,3
1,X,2000,0.08521545768229144,0.0002818586760292508,0.0014877896104785238,0.0005471735538493001,0.12051285597812711,0.00039860836231309094,0.0016304129922057166,9.524254308368264e-06,0.0016497579685022079,1.7949937620763447e-05,0.9882740519119575,0.012204542868918459,0.0004925166766401457,3.3062785192445394e-06,0,37.836693156774615,22,3
1,X,2021,0.08483111175160413,0.00028573118071077887,0.003107475372303565,0.0005804313638408018,0.1199693087503062,0.0004040849109540612,0.0016486802796849918,9.404612588506505e-06,0.0016235463863997596,1.5174381671980344e-05,1.015480859367971,0.01111918281167114,0.0004957885970497893,3.2843652618064905e-06,0,30.80185324091178,22,3
1,X,2042,0.08505323427154853,0.0002963302298294178,0.0015579137101739396,0.0005812868336571603,0.12028343743052006,0.00041907422996589894,0.001612425057295769,9.299905565681568e-06,0.0016084956837308137,1.7028022315856418e-05,1.0024428872297881,0.012084972190947249,0.00048615561202357293,3.2758537516613827e-06,0,30.021674984739597,22,3
1,X,2063,0.08416454391911762,0.0002804073371354836,0.0022304245347925192,0.000516149442252663,0.11902663948136216,0.00039655585916592573,0.0016772364684912654,9.856044899656838e-06,0.001629995791095839,2.0739744902135345e-05,1.0289820855081269,0.014421423829529685,0.0005004127921944518,3.38034445690907e-06,0,32.07216575823608,22,3
1,X,2095,0.08562313778997735,0.0002923302231233728,0.002308662937397857,0.0005714316218852265,0.12108940271552626,0.0004134173662326268,0.0016194336609429956,7.622345543341631e-06,0.0015988402637259229,1.3899019253966353e-05,1.0128802092893772,0.01001294762034771,0.0004915404166830475,2.8581440578260895e-06,0,42.27030942913939,22,3
1,X,2116,0.08454833380687939,0.00030076517647824097,0.0022240392439840545,0.0005366433665579607,0.11956940034573649,0.0004253461916650658,0.0016605046421689113,8.58307834078333e-06,0.001646846636229084,1.558922598257726e-05,1.008293429175106,0.010874868854253874,0.0004976798752332379,3.1228222226554696e-06,0,41.325489141645825,22,3
1,X,2137,0.08539743703445343,0.0002856975275717763,0.0033828671021211175,0.000539593299647851,0.12077021364602647,0.00040403731822846733,0.0016326015835691334,8.337885244269544e-06,0.0016347297421247299,1.4649095271453958e-05,0.9986981587838303,0.010300894686205533,0.0004942309996525936,3.01744247953393e-06,0,23.24769032393974,22,3
1,X,2158,0.08507651558655609,0.00031914009073703663,0.0028008020215551806,0.0005477765271105396,0.12031636218195363,0.0004513322446172974,0.0016630158457897877,1.0387316751251324e-05,0.0016617665182825344,2.1985598544925917e-05,1.0007518068835233,0.014641553781797252,0.0005015462803667611,3.6542391848535936e-06,0,36.41197023883614,22,3
1,X,2179,0.08500170403228177,0.00030290213371533033,0.0039524667289723,0.0005706303893302746,0.1202105626672767,0.0004283683055719689,0.001613118155206652,8.00640080319626e-06,0.001589571249747051,1.702603703397703e-05,1.0148133689907564,0.011980034799430656,0.000486069916908949,2.96991619178879e-06,0,62.32168609245116,22,3
1,X,2200,0.08385225640081881,0.00029361496024488137,0.0023636739895681975,0.0005697160354989493,0.11858499823762414,0.0004152342588939484,0.0016817172232746803,9.884688593985565e-06,0.0017008170310579488,2.090364001179103e-05,0.988770216058227,0.013470539046948383,0.0004998879380684814,3.420081107311316e-06,0,23.21201510896272,22,3
1,X,2221,0.0852843819761704,0.0003032855729798106,0.0021973627208723137,0.0005709351046680947,0.12061032964930773,0.00042891057058014326,0.0016374942679130682,8.65174823766737e-06,0.0016318851043547384,1.6232866131434023e-05,1.0034372294614133,0.011302135522560562,0.0004950558844079283,3.1529272020572142e-06,0,47.3400416568375,22,3
1,X,2242,0.0843809032294953,0.00029807517462676354,0.0022920334179030843,0.000545199509175866,0.11933261775244397,0.00042154195456389765,0.001669301143205803,9.45943078325436e-06,0.0016983876455642624,2.3607263044464495e-05,0.982874049729209,0.014753465912959668,0.0004993255541514683,3.334284590917006e-06,0,38.60740548169793,22,3
1,X,2274,0.08561209507672683,0.000320435136183807,0.0021744811719861612,0.0005637875754349154,0.12107378596068197,0.0004531637154520096,0.0016204534434664409,8.401665155533468e-06,0.0015983779828309358,1.6554204376125847e-05,1.0138111641130132,0.011742133127427806,0.0004917865140192379,3.144775690310277e-06,0,44.05356800936621,22,3
1,X,2295,0.08492169606388703,0.0003016782192806075,0.0026622573333394553,0.0005621568629015319,0.12009741431327492,0.00042663742917919967,0.001604117372871247,9.968610824076544e-06,0.0016319504279642353,1.9324433575062412e-05,0.9829449138797014,0.01314485522664249,0.00048290281126128645,3.4566663366499772e-06,0,48.291442479466824,22,3
1,X,2316,0.08475355192091365,0.0002983994516690835,0.002889953845306986,0.0005743499019587265,0.11985962258584837,0.00042200055155511285,0.0016447946940911552,8.0778282662698e-06,0.0016446333724009995,1.1080087669999108e-05,1.0000980897584002,0.008337970214020203,0.000494167905859957,2.9861534524612277e-06,0,56.399936462860374,22,3
1,X,2337,0.08737900627608984,0.0003335130560822757,0.0017031589704396325,0.0006313714086311534,0.12357257574233005,0.000471658687140053,0.0014556108842177606,9.276684634163823e-06,0.0014567377008399072,1.8977204849874905e-05,0.9992264793987985,0.014491319212933453,0.00045087621713186876,3.3493817339204468e-06,0,37.55491749801205,22,3
1,X,2358,0.08790015174383947,0.00032838243898884566,0.002629200493101046,0.0005687395123230829,0.12430958673079084,0.000464402898863181,0.0013967277594532494,8.863432399324896e-06,0.0014108914990750621,1.8174999260756618e-05,0.9899611418517312,0.014215989762000994,0.00043521747150576857,3.2048828281231277e-06,0,36.42007462308542,22,3
1,X,2379,0.08429963434939966,0.0002941114020497327,0.003012337782698704,0.0005563038071715607,0.11921768620001383,0.0004159363336272981,0.001629069804569952,8.785985000442504e-06,0.001634964413242362,1.4049559139124597e-05,0.996394656284463,0.010108868488677175,0.0004868221351813402,3.1270304806129515e-06,0,44.16190523355117,22,3
1,X,2400,0.08487326606415714,0.0003168084674430917,0.0030159557009900896,0.000598158925609478,0.1200289239508312,0.0004480348313326554,0.0016508070607156634,1.0787583971301588e-05,0.0016136375245917101,2.4447880442596035e-05,1.0230346255323717,0.016880044182918587,0.0004966748446636291,3.7378195164950163e-06,0,21.366811107149818,22,3
1,X,2421,0.08366411065443609,0.0002795520444657368,0.0032206110024020824,0.000503602353598364,0.11831891997138688,0.0003953462926725715,0.001699910560450434,1.056454698141099e-05,0.001681916520112208,2.0371970416214693e-05,1.0106985335615977,0.013759333388228205,0.0005041621092606759,3.557399359714199e-06,0,42.59799353399012,22,3
1,X,2453,0.08484581614715,0.00028189390971438766,0.0020096886289050903,0.0005226165850944932,0.11999010390591369,0.00039865819026846383,0.0016041535033529599,9.117658551609564e-06,0.001571328059949267,1.931097727637051e-05,1.0208902547089707,0.013823147838979031,0.00048248219104446134,3.1764733720806993e-06,0,42.77986718419387,22,3
1,X,2474,0.08371150170819759,0.00023846349267020396,0.0033081820362581504,0.00044612112567703926,0.11838594104235156,0.0003372383054650596,0.0016917815804434117,7.91930590702772e-06,0.0016743931098657267,2.0281336889284696e-05,1.0103849391610789,0.013120557928322911,0.0005020354178488594,2.7509939159834955e-06,0,35.543435991252174,22,3
1,X,2495,0.08574564365524938,0.0002882978685152236,0.002592971087081298,0.0005159834692595117,0.12126265217166421,0.0004077147556574845,0.0015927296559910403,1.1207813841424337e-05,0.0015869188247529132,2.69069642828989e-05,1.0036617066654507,0.01842493158895365,0.000484126731525151,3.7756321858104365e-06,0,19.613668809246867,22,3
1,X,2516,0.08391048593946737,0.00028196760046230146,0.0029518318643210204,0.0005402685040209461,0.11866734724091166,0.00039876240472358493,0.0016910314320850092,8.493520405778191e-06,0.0016623916689647185,1.634796142990976e-05,1.0172280477910038,0.011232655424235526,0.0005030056326559446,3.0397213295426822e-06,0,52.17704552123821,22,3
1,X,2537,0.08482304646190973,0.00029470409202095457,0.00311873245013729,0.0005326636173446464,0.11995790270823592,0.0004167745238228826,0.0016446610503956234,9.58108316096192e-06,0.0016348203279446959,1.9486504151550747e-05,1.006019451974456,0.013346945795086291,0.0004945329185787518,3.3543868771674095e-06,0,39.305374691963,22,3
1,X,2558,0.08277827879973391,0.0002829836480701683,0.0028268806372708883,0.0005706765453974268,0.11706616454848495,0.00040019931303064693,0.001724490146166253,9.674976579691339e-06,0.0017160454481625759,1.5593832991072642e-05,1.004921022349798,0.01073201278564401,0.0005060367304518331,3.32457137996075e-06,0,39.58973806771235,22,3
1,X,2579,0.08540122898397774,0.00027563864496271223,0.0025116763135860248,0.0005352925582893975,0.1207755762724716,0.00038981191002041005,0.001611512693432111,9.01368875712957e-06,0.001599557377585966,1.556345280887469e-05,1.0074741400425336,0.011306853239082218,0.0004878685057493021,3.1505251323510095e-06,0,31.03099531147101,22,3
1,X,2600,0.08397994139481259,0.00028917331780527287,0.00306174603520047,0.0005741058428927016,0.11876557208784166,0.0004089528279166421,0.0016939744637695252,9.115002651673792e-06,0.001709658433500575,1.8007818782133303e-05,0.9908262554532975,0.011719315329546355,0.0005042981307705483,3.221599219537665e-06,0,31.603307787904743,22,3
1,X,2632,0.08698786247051807,0.0003165195791172304,0.0040199757627231445,0.0005739415630095521,0.12301941486765222,0.00044762628154421114,0.0015246746357674107,9.646738360756456e-06,0.0015386436425368392,2.244394270050791e-05,0.9909212202336877,0.015755576659500017,0.0004701546834467436,3.4315435294146408e-06,0,25.263263073454386,22,3
1,X,2653,0.0852914806136646,0.0003115636691793491,0.0029046185065462935,0.0005982234059264568,0.12062036863872638,0.0004406175664961598,0.0016420491140843366,9.100299991626685e-06,0.0016383929671957367,1.880441832335447e-05,1.0022315445450536,0.012773789236174619,0.0004964742500204434,3.2954104434274485e-06,0,34.27268871578971,22,3
1,X,2674,0.08862788873629142,0.00037866574549254306,0.0028638801899220135,0.0006141600746828863,0.125338762255357,0.0005355142328816731,0.0014732849735935353,9.588653380997834e-06,0.0015306245227729915,1.8974261177383602e-05,0.9625384617021713,0.013476562422749807,0.00046287326290364,3.6036746983884483e-06,0,56.742843230382974,22,3
1,X,2695,0.0821697569774674,0.00026341393021245914,0.003122743871491103,0.0005093766665837132,0.11620558473443565,0.0003725235526244597,0.0017316261349564874,1.0256627827949844e-05,0.0017154792504204097,2.15204866014451e-05,1.0094124627459764,0.01400348094124361,0.0005043953409790725,3.3970955039554235e-06,0,24.032089832268333,22,3
1,X,2716,0.08794429859118338,0.00030068438063312014,0.0029039496976525523,0.0005916961793986377,0.12437201980104062,0.00042523192908511254,0.0014924058360272455,7.744998473748262e-06,0.0014989801706922856,1.8044274246841943e-05,0.9956141283296605,0.013051215572998112,0.0004652641179139923,2.8914505700760303e-06,0,72.32578534589337,22,3
1,X,2737,0.08277932197561379,0.0003161380743962479,0.004399500072691367,0.000628716372149999,0.11706763982196222,0.00044708675239368834,0.001704405679863274,1.1392611137295584e-05,0.001735776387094842,2.1077730701650796e-05,0.9819269881392539,0.01361072398268894,0.0005001494202117762,3.850300294539084e-06,0,35.95991629626715,22,3
1,X,2758,0.08498538928788338,0.00030477580649050624,0.0019317373940687047,0.0005148028317143358,0.12018749013448182,0.0004310180790220719,0.0016384884524417432,1.0230201624389541e-05,0.0016224058864253862,2.2399170745944016e-05,1.0099127882553431,0.015302535277494813,0.0004936198151651143,3.5542170167880037e-06,0,31.951226222415713,22,3
1,X,2779,0.08380688619585816,0.00027343422318583063,0.002394065412739906,0.0005081282930086455,0.11852083507844113,0.0003866943868463535,0.001690394900475636,1.0511080902740021e-05,0.0016720195704931955,1.924969133780732e-05,1.0109899012587635,0.013228542527180956,0.0005021954930801344,3.5264728034463357e-06,0,57.20778889111115,22,3
1,X,2818,0.08445964928619729,0.0002905053799424192,0.0032505503688600133,0.0005383940747423623,0.1194439814938153,0.0004108366482569181,0.0016351852110536977,7.82182380659038e-06,0.001607470228907296,1.781341579401185e-05,1.0172413657484913,0.0122780759686723,0.0004895771686358388,2.8844389349739857e-06,0,45.436412412065266,22,3
1,X,2839,0.08235844794876994,0.00026015324978893785,0.004156761082344373,0.0004623495369936521,0.11647243406514907,0.0003679122541469515,0.0016944475157156269,9.396059044126758e-06,0.0016724031451860592,1.8374870291513382e-05,1.0131812539297247,0.01246936759890002,0.0004946991989729832,3.1570674268205695e-06,0,50.26325618111992,22,3
1,X,2860,0.08374976777370172,0.0003028220038716361,0.003912904821106395,0.0005507787274798808,0.11844005743116615,0.0004282549848602657,0.001641600058442925,8.890788096539935e-06,0.0016550588576009447,1.8202844653174216e-05,0.9918680842701095,0.012159794037021734,0.0004873667564273728,3.17373640125066e-06,0,41.08626531700169,22,3
1,X,2881,0.08288132405256034,0.0002870830338427594,0.003942578673040197,0.000540749607989338,0.11721189254257025,0.00040599671998764464,0.001692148186089772,8.882806088623077e-06,0.001695494658485822,2.8474882684062356e-05,0.9980262560077667,0.017560999338869305,0.0004971643796553262,3.1267755079658866e-06,0,41.418409338857714,22,3
1,X,2902,0.0835434313483597,0.0003344680648877841,0.00371255475832994,0.0006063486629652429,0.1181482536600359,0.0004730092735449887,0.0016591112140158955,1.0402474675441228e-05,0.0016509166264441928,1.9266933466826048e-05,1.0049636592426552,0.013313817498324993,0.0004913520130443817,3.6552080243214347e-06,0,34.86772595656194,22,3
1,X,2923,0.0820440175506341,0.00030928557278293595,0.004188931357296402,0.0005489766421251284,0.116027762331683,0.00043739585167595907,0.0017147838721578684,1.035393269470903e-05,0.0017200020462060622,2.307135697416434e-05,0.9969661814881535,0.014665288188765785,0.0004987251172493717,3.5500313321337914e-06,0,37.87005827339578,22,3
1,X,2944,0.08516691885958239,0.0003525944048155566,0.0027261762530062616,0.0006064780338267576,0.12044421171675035,0.0004986437893070295,0.0016351884046689469,1.0684030973140205e-05,0.0016350394534477872,2.2826662776391733e-05,1.0000910994660377,0.015415626811123618,0.0004936778779389926,3.81861560739071e-06,0,34.927048389268165,22,3
1,X,2965,0.085076069310238,0.0002852491074614371,0.002396255260642549,0.0005407659845284838,0.12031573105193205,0.0004034031564267848,0.0016491536264022332,9.390380967515985e-06,0.0016609533108681604,2.3499184308598616e-05,0.9928958361510116,0.015142508511750122,0.000497362986890915,3.2865147690961377e-06,0,39.78067877114419,22,3
1,X,2997,0.0836370193972342,0.0003083737155330486,0.004164046099043446,0.0005947175632096667,0.11828060714803024,0.0004361062907862201,0.0016065190044769772,9.883838582549578e-06,0.0016092999320224564,1.5798054816426318e-05,0.9982719644174817,0.01156528468192233,0.0004763096131429832,3.416355901296516e-06,0,39.22277448645151,22,3
1,X,3018,0.08195458605244112,0.0002959772497720102,0.003237033013393934,0.0005138869510409916,0.11590128709403513,0.0004185750407814659,0.0016648248320611098,1.0740155592218406e-05,0.0016358763347269407,2.1537648018406036e-05,1.017696018164479,0.014920860664794722,0.0004836673130454702,3.5759030185943817e-06,0,37.292050618859825,22,3
1,X,3039,0.08325589184996234,0.00029714386579599407,0.004916171137313887,0.0005655493356956746,0.11774161140168438,0.0004202248849846657,0.0016685551295555496,8.909805151131394e-06,0.0016861087293369185,1.4622601223968461e-05,0.9895892836114596,0.01007848229325657,0.0004924481041937493,3.162877337583008e-06,0,47.89070929793408,22,3
1,X,3060,0.08238579826301985,0.00026275100176944405,0.003031549747149359,0.0005291922806731531,0.11651111325049646,0.0003715860302294649,0.0017287670032663518,1.0486627234977173e-05,0.0017197331679659267,1.8534651768641684e-05,1.00525304475642,0.012432391559628829,0.0005048864910949256,3.4601237705480877e-06,0,65.43061059928158,22,3
1,X,3081,0.08375843497875253,0.00029572159934574283,0.0036034672562235345,0.0005129056062130754,0.11845231471009687,0.00041821349648141215,0.0016489149587996714,8.87898482081383e-06,0.0016459344776636898,1.4651466250916948e-05,1.0018108139639994,0.010422401855654524,0.0004895891040513129,3.1524728179915925e-06,0,47.70796297896283,22,3
1,X,3102,0.08180271085987476,0.0002854783307999441,0.00406193389789344,0.0005336861313943305,0.11568650313691975,0.00040372732718091386,0.0017374368210313637,9.612061746468475e-06,0.0017134721230545732,1.9326736372194687e-05,1.0139860448584768,0.012738700468369701,0.0005038272454957444,3.2955685522935063e-06,0,24.886463296856377,22,3
1,X,3123,0.08497557344255319,0.000284773615183393,0.0018722316708492544,0.000513253606603993,0.12017360843288971,0.00040273070879837114,0.0016235797339228236,1.0208057415909712e-05,0.0016052716327852512,2.1199113682093563e-05,1.0114049863983496,0.014793084655672046,0.0004890718401862225,3.484509747695625e-06,0,50.61870445155544,22,3
1,X,3144,0.08344494592744402,0.00028750500627632334,0.00428922957487912,0.0005486529140515831,0.1180089742420809,0.0004065934791261383,0.0016904157881352654,8.127530904913636e-06,0.0016795843423722668,1.3922302054703896e-05,1.0064488846970912,0.009644421988282637,0.0005000328192833606,2.9577279489322074e-06,0,42.1118945150288,22,3
2,Y,103,0.0831274356387568,0.0003062628863085828,0.0007246778965199288,0.0005571773778481093,0.11755994688562643,0.0004331211274691271,0.0013790522275442965,7.469667324650987e-06,0.0014004873629788212,1.4882521290975178e-05,0.9846945170651648,0.011744928939114089,0.00040637785110036204,2.6620841663342153e-06,0,64.86271148638792,22,3
2,Y,124,0.07337862169218275,0.0002677540294797866,0.001832432509623408,0.0005081976470306543,0.10377304198532944,0.00037866137987035975,0.0016201807050182458,1.0232285889562244e-05,0.0016505437836213848,2.2888331712059718e-05,0.9816041968080842,0.014957262998460421,0.00042144211978860304,3.0739445588316233e-06,0,75.0827596794556,22,3
2,Y,145,0.07413589272827521,0.0002894322710124849,0.002256533526455395,0.0005064961879262092,0.10484398495496372,0.00040931904305430145,0.001597144419769298,1.0243471649807245e-05,0.0016219596182125862,2.0425816217428866e-05,0.9847004831904295,0.013916209979915132,0.000419737374912231,3.151562421886033e-06,0,61.14897982537501,22,3
2,Y,166,0.07255046917181299,0.0002519084390908602,0.001833235680082958,0.0003892417763826389,0.10260185745930905,0.00035625233103853127,0.001651533743119171,9.931059841278541e-06,0.0016813495560563528,2.243680267045732e-05,0.9822667375562786,0.014377217906665494,0.00042474923823627834,2.9493333968799142e-06,0,124.08852968719549,22,3
2,Y,187,0.07449261964558862,0.0002795462270221588,0.0017956906098397939,0.0005169430207133594,0.1053484729994919,0.0003953380655649652,0.0016047932468371178,7.833673959974872e-06,0.001609717591251098,1.6927953402844756e-05,0.9969408643846943,0.011558353470529581,0.0004237768878848067,2.6092689818393357e-06,0,83.30342301490086,22,3
2,Y,208,0.07817052630522882,0.00028782332218903536,0.0009911379746297701,0.00047676063969802926,0.11054981847869738,0.0004070436458070148,0.0015124740301954863,7.554627100872011e-06,0.0015403739150024007,2.0059959406374416e-05,0.9818875894124246,0.013695194753070185,0.00041911759596803663,2.6007556586263424e-06,0,85.95827903615009,22,3
2,Y,229,0.07421662741616848,0.00026136799734894343,0.0009698723558408434,0.00047694407252408356,0.10495816104553635,0.000369630166621171,0.0015992067711544083,9.681183395742536e-06,0.001622383676469949,2.2487613630506942e-05,0.9857142883944875,0.0149091000906151,0.0004207370591631425,2.946664158755706e-06,0,91.3067460320403,22,3
2,Y,250,0.07267623259143913,0.00028385349509054943,0.0007693436357767495,0.00047641408895287424,0.10277971379299478,0.00040142946248405975,0.0016610251982969912,9.57991466566094e-06,0.0016919916044208087,2.1184980077183384e-05,0.981698250722457,0.01353293560272782,0.0004279308132297528,2.980759200504738e-06,0,95.33739192059238,22,3
2,Y,282,0.07428996990195762,0.00025702858492641245,0.0016617710422675307,0.0004583165726898505,0.1050618829836375,0.0003634933107204974,0.001578438750434161,8.975385355839227e-06,0.0015472154698422957,1.9463015387403594e-05,1.0201803053294496,0.014083448510932578,0.00041568355985754083,2.766828695192915e-06,0,95.21399147326919,22,3
2,Y,303,0.07225227086812709,0.00025078345987305015,0.0019234608854431716,0.00044029663093107704,0.10218014137395981,0.0003546613701713164,0.001661326194382158,1.0241812643317277e-05,0.0016610493400985712,2.09547758119514e-05,1.0001666743286328,0.01404346533054076,0.0004255115432724185,3.0104065289405415e-06,0,98.74691348186518,22,3
2,Y,324,0.07334547846602898,0.00027809440278337333,0.0014086374219776743,0.0004976426026325193,0.103726170385402,0.0003932848760362928,0.0016284021877350828,1.0412462971925316e-05,0.0016396535400693304,1.9936035337998217e-05,0.9931379696629253,0.013643291565105896,0.0004233893750519704,3.147433302270918e-06,0,94.44228101974126,22,3
2,Y,345,0.0723231846865886,0.0002969804220152676,0.0014198645195742396,0.0005144702008677821,0.10228042865778775,0.00041999374057327676,0.0016524835087129766,1.1524155741578713e-05,0.001698757750908601,2.6274795924472068e-05,0.9727599522822639,0.016504400864682932,0.00042366209330085684,3.4286833305122976e-06,0,84.4416216924695,22,3
2,Y,366,0.07374706240820254,0.0002882587824828282,0.0011872679437242193,0.0004899660761236262,0.1042940958428551,0.00040765947966037164,0.001634980981100275,1.0192652447275596e-05,0.00166392411364186,2.1268769976856532e-05,0.9826054972673984,0.013974129484513674,0.0004274274037149785,3.145077461410194e-06,0,112.2687439556593,22,3
2,Y,387,0.07305992698684445,0.00023250202337897702,0.0008013032028773245,0.0004312974734403202,0.10332233961078352,0.00032880751474173575,0.0016462173597930328,8.987796412508755e-06,0.001667730135298658,1.3978053227334408e-05,0.9871005655829487,0.009873829402514009,0.00042635498285754594,2.694323329341915e-06,0,70.70506897939676,22,3
2,Y,408,0.07378972607734809,0.0002609855207432804,0.002496322480428073,0.00046888990337695067,0.10435443138238132,0.0003690892630181519,0.0016178355250790046,9.08479527245997e-06,0.001646071479380833,1.8085513837942597e-05,0.9828464591875139,0.012127249477349857,0.0004231898061041653,2.8084713318329398e-06,0,76.88835750596228,22,3
2,Y,429,0.0725264875542605,0.0002820865531441847,0.0007123280768873701,0.0004977008109605578,0.10256794233051869,0.0003989306292195849,0.001649788764717727,9.944398013442061e-06,0.0016782899361546275,2.0266121470164668e-05,0.9830177308324903,0.013267084701004893,0.0004241602035934464,3.0427566491870186e-06,0,120.04557419570577,22,3
2,Y,464,0.07455716271032514,0.00027600506258989476,0.0007480104746779614,0.0005161053186199522,0.1054397506769994,0.0003903301027982642,0.0015706014059737857,9.772041534608461e-06,0.001590271967123029,1.7408359279780172e-05,0.9876306936449181,0.01243565484113764,0.00041510721925032125,3.0053198400900034e-06,0,90.64931541667639,22,3
2,Y,485,0.0730684277394547,0.00028097834219588966,0.0009853495087138848,0.0005104804716356447,0.1033343614904153,0.00039736338226653567,0.001668499475963905,8.244930087206878e-06,0.0016705479151364693,1.5394154103787902e-05,0.9987737920271523,0.010443539608064253,0.0004321761228775577,2.706052985290222e-06,0,72.53857404662286,22,3
2,Y,506,0.07363721190866498,0.00028836118446310473,0.0014571988505105156,0.0005292333392634044,0.10413874377657562,0.00040780429792969253,0.001632573813358287,9.71417692374826e-06,0.0016452688862159677,1.5086112838982696e-05,0.9922838917309871,0.010846478411337629,0.0004261623658304407,3.035639599419824e-06,0,49.50173344033772,22,3
2,Y,527,0.07304229172847632,0.00025332399170309466,0.0022739023022409757,0.00048222763517528114,0.10329739958922335,0.0003582542247410059,0.0016515807330278309,1.1231564040037076e-05,0.0016634650351132778,2.4336208734996947e-05,0.9928556946887449,0.01601789214734152,0.0004276407974651602,3.264527083354541e-06,0,58.74972515110564,22,3
2,Y,548,0.07327843954955075,0.00026420662495193326,0.0006565716064544215,0.0005197123938289759,0.10363136304051168,0.0003736445922758458,0.0016561285843475632,9.558439211937543e-06,0.001676930204535872,1.7446858068538985e-05,0.9875954168324697,0.011750103928130383,0.0004302047463948738,2.927625024166157e-06,0,50.50898547470384,22,3
2,Y,569,0.07280981694530261,0.0002369712784138811,0.0009288254533604322,0.00047063348546633015,0.10296863059794936,0.00033512799582580133,0.0016892372827519615,7.663655508384983e-06,0.001722784188286301,1.5138915316935979e-05,0.9805275055561605,0.00969690561594289,0.0004359990362138257,2.4343807666627993e-06,0,102.60526320780927,22,3
2,Y,590,0.07316602136256915,0.00028003405572468807,0.0018660405683540069,0.0005214391026394906,0.1034723797158249,0.00039602795953219694,0.001635516320447936,1.0088243899328826e-05,0.001667181568629461,1.781030995504879e-05,0.9810067188977167,0.012101469574369588,0.00042419862234338866,3.079340473054588e-06,0,79.59274548135157,22,3
2,Y,611,0.07295971571578258,0.0002259064253955741,0.002382512573908719,0.00043000342772699416,0.10318061947214519,0.0003194799306216467,0.0016542423918144073,9.545073197680982e-06,0.0016530660259376007,2.102124260367719e-05,1.000711626673314,0.013974298134893004,0.0004278457389192802,2.801678829898804e-06,0,78.80237943116354,22,3
2,Y,643,0.0755284976546763,0.0002770080218658111,0.0018154848884139956,0.0005068735451729994,0.10681342572890773,0.00039174850140877293,0.001552875284962819,8.495470787732176e-06,0.0015670691436281258,1.5415862688254865e-05,0.9909424171083832,0.011154323732519709,0.0004157692404769159,2.7384305254338376e-06,0,79.5750580502504,22,3
2,Y,664,0.07357235999410497,0.0002456994584437747,0.0009486758126867509,0.00044964332119401296,0.10404702931945897,0.0003474715063989109,0.0016400079607590402,9.00647907369913e-06,0.0016502305153905039,1.940410798744939e-05,0.9938053777723019,0.012897265689680196,0.0004277259261804459,2.7491752572727393e-06,0,67.69721829766988,22,3
2,Y,685,0.07423274180919465,0.00028486759431651604,0.002093108799824185,0.0005502826535809391,0.10498095023870335,0.00040286361536301385,0.0016065601234669742,8.327296985632525e-06,0.0016252762847665365,1.2468750085119049e-05,0.9884843201891359,0.009152040158597451,0.0004227634338668252,2.7265140291216873e-06,0,60.216636360064896,22,3
2,Y,706,0.08031773690635927,0.00029047960827582116,0.0006833854369346675,0.0005172958425112431,0.11358643283208736,0.0004108002016164902,0.0014973556920968665,8.519081543956782e-06,0.0015026213249424447,2.0873794427338744e-05,0.9964957020387156,0.014958912474978893,0.0004263255616200002,2.874126489488245e-06,0,75.41730980082659,22,3
2,Y,727,0.07355100494587985,0.0002573389152173844,0.0008976400132157098,0.0004904831490287132,0.10401682872063389,0.00036393218402680505,0.001646376911929543,9.423450888470108e-06,0.00163104291215268,1.775972672233729e-05,1.0094013466246727,0.012416961925678201,0.0004292623611753095,2.8796688898083734e-06,0,58.49967130108254,22,3
2,Y,748,0.07257335136925631,0.0002878276487772257,0.0017390111311420234,0.0005232898412368777,0.10263421777327031,0.0004070497645267124,0.001685214518333109,9.194179617057199e-06,0.0016767690222604917,2.120109355997617e-05,1.0050367677124854,0.013840228221068765,0.0004335481155199613,2.924281572275254e-06,0,67.5527335438041,22,3
2,Y,769,0.0741527731910388,0.00027777783243998965,0.001361786905412643,0.0005484187289513621,0.10486785753434313,0.0003928371779632345,0.0016074385512202672,9.935666120660073e-06,0.0015993684843107015,1.983219230556152e-05,1.0050457833755826,0.013925082492508106,0.00042253891168155195,3.0539396470702364e-06,0,71.98691385913716,22,3
2,Y,790,0.07296681619843805,0.00022979152285764842,0.0016868907315314742,0.0005211493078659141,0.10319066107101593,0.0003249742881436535,0.0016579247996122873,1.0306725888104126e-05,0.0016848150652122346,1.9636459821345737e-05,0.9840396336932327,0.012998446294855113,0.0004288398710356625,2.9885089557847055e-06,0,52.997933635467014,22,3
2,Y,822,0.08231093001483905,0.000289819810458608,0.0007946633464268317,0.0004746191826541913,0.11640523355852805,0.0004098671065949633,0.0013974555236141316,9.15335066585842e-06,0.0014309104340576952,2.0383165939292656e-05,0.97661984311017,0.015312067256974014,0.0004077560705029095,3.0322458554236486e-06,0,78.40233825674248,22,3
2,Y,843,0.07571764239044664,0.00026240476860148084,0.0005804446311163911,0.0004951406902322659,0.10708091677948561,0.0003710963825875879,0.0015912829678004618,8.848120342857772e-06,0.0015918994263246526,1.542463580881056e-05,0.9996127528448113,0.011167209814409535,0.00042711952936197786,2.7984601646277593e-06,0,48.68821984410971,22,3
2,Y,864,0.07340305765884696,0.00027404557254856953,0.001599181022888303,0.0005097531598817324,0.10380759966079567,0.00038755896540648704,0.0016370870158255748,9.01791717306882e-06,0.001674619188395023,1.670146736373265e-05,0.9775876373389586,0.01113807845637868,0.0004259816066066123,2.8346913639130687e-06,0,69.66904293489839,22,3
2,Y,885,0.07272440707627509,0.00026590397024340467,0.001081252942445109,0.0004415318332785179,0.10284784280281012,0.00037604500100707483,0.0016580955911782765,1.0630577604736928e-05,0.0016689734063083368,2.5700592059107884e-05,0.9934823316603221,0.01657167535265274,0.00042745921676173247,3.1549182640724114e-06,0,66.1728000149564,22,3
2,Y,906,0.07367467630883257,0.00029758212280893225,0.001609539726797566,0.0005236674592279315,0.10419172643939878,0.000420844673996168,0.0016185549654740676,1.0054451812455998e-05,0.001653188937967447,1.9589604931816504e-05,0.9790502030965915,0.013098855669048608,0.00042271788294815933,3.132207836960031e-06,0,58.952150382068986,22,3
2,Y,927,0.07296345000536648,0.0002518010528430456,0.0017282541282474617,0.00046943134383806726,0.10318590055512056,0.00035610046395045947,0.001660901709049635,9.197547360080875e-06,0.0017039218965704864,2.2058164893702934e-05,0.9747522538401326,0.013724725405978619,0.0004295900610217947,2.8030786511234606e-06,0,65.5677840026375,22,3
2,Y,948,0.07407372688871262,0.0002864143190106326,0.0017651061252838393,0.0005160681311453858,0.10475606918153801,0.00040505101440269087,0.0016143979523150537,9.213344422601762e-06,0.0016531484566533199,1.8245489186632617e-05,0.9765595738348183,0.012133763501208586,0.00042391591938832694,2.9222648861469795e-06,0,78.63294472103007,22,3
2,Y,969,0.07300272469181965,0.00026253485594495053,0.0024827992097808944,0.00048674739118539635,0.10324144334936058,0.00037128035387301583,0.0016696495799293598,9.449546235702514e-06,0.0016806646792447905,1.8223071930786534e-05,0.9934459863103803,0.012150817632453821,0.00043208514361051825,2.897354061444504e-06,0,55.91408950867144,22,3
2,Y,1018,0.0729581750039954,0.0002651571312608025,0.000267830156047028,0.0005230236252008952,0.10317844057664005,0.00037498881118896987,0.0016662865385439637,9.231993357665157e-06,0.001700504998667638,1.749548317886928e-05,0.9798774716037384,0.011450234466064682,0.00043095168160119676,2.855533822472699e-06,0,75.48930284360856,22,3
2,Y,1039,0.07197718714532535,0.0002635861878406603,0.001996624444649923,0.00048060178017920487,0.10179111424238552,0.000372767161698484,0.0017008235390271879,9.01579608295058e-06,0.0017098071491191734,1.3535753218159736e-05,0.9947458342909529,0.009477296764243585,0.0004339693526418043,2.795980311320521e-06,0,60.77014104391209,22,3
2,Y,1060,0.07201258009514548,0.0003050978002765037,0.0012234327208061006,0.0005275161682004436,0.10184116743203353,0.00043147344700122936,0.0016641681232332914,1.1186415819226046e-05,0.0017172639561355897,2.068168264553957e-05,0.9690811463708925,0.013365859394813185,0.0004248254266324337,3.3755359729773195e-06,0,59.986748406068656,22,3
2,Y,1081,0.07317475341629975,0.00024903765163946886,0.0009484092465948328,0.0004853634546244209,0.1034847287046381,0.00035219242449008314,0.001669345724499391,9.711333860735482e-06,0.00170365625546453,2.0717837331877563e-05,0.9798606492036837,0.013209160333054634,0.00043302451983840074,2.9185130731360402e-06,0,68.0342761985842,22,3
2,Y,1102,0.07243742983120861,0.00028746829359902495,0.0014504876088875063,0.00048238041081854826,0.10244199569074464,0.00040654155955999194,0.0016655904086472874,9.815409213027775e-06,0.001690702871137336,2.356594860290097e-05,0.9851467322148951,0.01490834175621671,0.0004276969723377012,3.0386682777746136e-06,0,98.67172671015689,22,3
2,Y,1123,0.07129157979671386,0.000273678159471385,0.002376847962812474,0.0005262257879749117,0.10082151903151648,0.00038703936484973944,0.0017098291518130079,1.0282266984163385e-05,0.0017281328167358283,1.7947499882017513e-05,0.989408415403283,0.0118738072076115,0.000432111563098033,3.0828813420481496e-06,0,58.517826378161516,22,3
2,Y,1144,0.07197790819806384,0.0002615038448817845,0.0023452617950421866,0.0004751704136364406,0.10179213396494746,0.00036982228404452977,0.0016707283024587443,1.019068614725139e-05,0.0016678350667382164,2.126024473893884e-05,1.0017347253204036,0.014155892358144004,0.00042629474873352887,3.026512082814393e-06,0,57.291592947545006,22,3
2,Y,1165,0.07199497161632575,0.00023876377237699297,0.0015022087500979851,0.0004372021704476091,0.1018162652824739,0.00033766296509890603,0.0016639640929348445,9.44269043843635e-06,0.0016646023179790336,1.749320013222888e-05,0.9996165900784255,0.01193867360029334,0.00042466947683832595,2.7912777446552914e-06,0,139.23770196146742,22,3
2,Y,1197,0.07312702956530462,0.0002766672747376928,0.0013653061992628568,0.0005405092645001697,0.10341723698731209,0.0003912666121988484,0.0016416973839564546,1.0968515597747647e-05,0.001666654673783627,2.445211827490513e-05,0.9850255183513724,0.015879631184284832,0.00042557486573555276,3.2675849942821575e-06,0,52.72188304190822,22,3
2,Y,1218,0.07108290236096063,0.00027459914454209866,0.0015344933053751911,0.0004955867942669559,0.10052640457171302,0.0003883418344274858,0.0017167693011730179,9.532831583589567e-06,0.001742329410274107,1.9082872804597264e-05,0.985329921569155,0.0120995416313996,0.0004325955252282557,2.92623634590552e-06,0,74.23603349710139,22,3
2,Y,1239,0.07195722511178848,0.00026631885203756543,0.0011018040800628598,0.0004985808284646046,0.10176288366382513,0.00037663173246715864,0.0016684759909559841,8.317732632142407e-06,0.0016565304519793088,1.6704726331077353e-05,1.0072111798261252,0.01133024733885949,0.00042559772805401903,2.64249330314327e-06,0,82.48700383454039,22,3
2,Y,1260,0.07171486275310388,0.00026327162160372073,0.0019352987960897063,0.0004778331015381086,0.10142013152916463,0.0003723222978599394,0.0017072615882597595,1.0191269190603129e-05,0.0017046994724182884,2.129063937220262e-05,1.0015029721560462,0.013863418283323978,0.0004340244274479098,3.041586147146369e-06,0,59.711486017188186,22,3
2,Y,1281,0.07213351909221434,0.0002980852072983503,0.002719938874719575,0.0005105910428851008,0.10201220100190811,0.0004215561429041226,0.0016571257161155423,1.0034410469151926e-05,0.00167659195925201,1.883441951013943e-05,0.9883893972954801,0.012613645023930973,0.0004237380943120576,3.1064247435780137e-06,0,62.81560776432385,22,3
2,Y,1302,0.07006257337601648,0.00025435850533479787,0.000353918657506817,0.000431424583546338,0.09908344148312265,0.0003597172479494204,0.0017411517883395566,9.989895832221984e-06,0.001772605448301731,1.6961759136742548e-05,0.9822556903498695,0.010959158805168975,0.0004324417837076094,2.93612695893605e-06,0,73.173202321038,22,3
2,Y,1323,0.07261642250403347,0.00028106028550461666,0.0010193406765796917,0.0005102255954957093,0.10269512955621896,0.0003974792676050831,0.0016537463324915764,1.0354227884503281e-05,0.0016846426574039716,2.188502679787619e-05,0.9816600127174707,0.014156496098965885,0.00042570492577886834,3.13353665201552e-06,0,64.75039855145006,22,3
2,Y,1344,0.0729790153401694,0.00028985479747809813,0.0015982668202301415,0.0005379147756283106,0.10320791326270173,0.00040991658571243317,0.0016217276683070166,9.775729759944805e-06,0.0016150222544540624,1.8347462054514423e-05,1.004151901829502,0.01291408982071546,0.0004195472296341569,3.028633925358816e-06,0,77.30420585969588,22,3
2,Y,1376,0.07376604406337132,0.0002963565299180907,0.001348346533650849,0.0005305328741801629,0.10432093995703107,0.00041911142390799183,0.001595964759104241,9.115296781134477e-06,0.0016385066841898205,1.752674647216343e-05,0.9740361601841039,0.011811245637474066,0.0004173349178245013,2.9142200527299276e-06,0,79.22364004949758,22,3
2,Y,1397,0.07986473527068431,0.0002911093790452753,-0.00011720136307265479,0.0005257305262017993,0.11294579177513864,0.00041169083197983847,0.0014746967382618186,8.500468324059219e-06,0.0014814326234195603,1.6516743371515642e-05,0.9954531275663463,0.012494033232516985,0.00041750598749171165,2.8473912823148044e-06,0,92.6368686458463,22,3
2,Y,1418,0.07319083557552204,0.0002743600432669718,0.002588339472125031,0.0004749685312414289,0.10350747231232249,0.00038800369416142066,0.0016287930261843374,1.0136691884447786e-05,0.0016645729696256608,1.9047643706503633e-05,0.9785050315641195,0.012745850997285518,0.0004225980983781277,3.070251779687099e-06,0,72.24441355977318,22,3
2,Y,1439,0.08536543147643773,0.00029562354031617896,0.0026950718858989027,0.0005536140533541554,0.12072495095180935,0.0004180748200718898,0.0013630354193798027,6.69154967962389e-06,0.0013682491590065716,1.5780426344755105e-05,0.996189480846782,0.012486916504323776,0.00041247165876884734,2.4780534601704393e-06,0,57.55758235384863,22,3
2,Y,1460,0.07351727417938259,5.993808567596532e-05,0.0003214126465821942,0.0005132998663859793,0.10396912621318422,8.47652536656307e-05,0.0016091513862283068,7.819032260445825e-06,0.0016458907026492494,1.631356900835521e-05,0.9776781554438538,0.010792283015044563,0.0004193640829509088,2.0662176672484344e-06,0,103.37766560099155,22,3
2,Y,1481,0.07270567214979307,0.0002877625270752321,0.001212231345660014,0.0004792664923475094,0.10282134761568917,0.0004069576685325482,0.0016507372488248039,1.0533735428208746e-05,0.0017260893668823787,2.5282074345085914e-05,0.9563451814817248,0.015279255307081564,0.00042545259507914513,3.194725794428429e-06,0,146.1267636317346,22,3
2,Y,1502,0.07396013760334998,0.0002890205430224198,0.001567890714667278,0.000517661404330939,0.10459542967363789,0.0004087367717467427,0.0016179313773176127,1.131209199488705e-05,0.0016636900815174178,2.1767095380060783e-05,0.9724956560671026,0.014426575451326374,0.00042419226015029485,3.3976366620823105e-06,0,88.01844941958298,22,3
2,Y,1523,0.08580560549375116,0.0003111098012130285,0.0019318058283035045,0.0005453977375868659,0.12134745101689826,0.00043997570026266253,0.0013575370339988623,7.807766278877404e-06,0.0013929613698518588,1.4527531010064985e-05,0.9745690464791827,0.011607110096478348,0.00041292604677308273,2.807438950299877e-06,0,72.61499247707249,22,3
2,Y,1555,0.08573294066945575,0.0003184271045664127,0.0005788731106287038,0.0005807290485445994,0.12124468743687222,0.0004503239299050166,0.0013565049033315668,8.295970393406427e-06,0.0013536984342988197,1.7401685095236683e-05,1.0020731862884962,0.01426505630669947,0.00041226267831407753,2.9498199562519543e-06,0,42.57610064328993,22,3
2,Y,1576,0.08169929209494914,0.0003203883118714394,0.0017579577261666434,0.0005204465302517094,0.11554024691695808,0.0004530974958744105,0.0014337021755322663,8.835128199689606e-06,0.0014268259744187658,1.95293652849038e-05,1.0048192289997395,0.01508291855608713,0.0004152237341193659,3.032966395762987e-06,0,74.99223914551409,22,3
2,Y,1597,0.0879228188111256,0.00034543064835977703,0.001094712191173113,0.0006037877872853566,0.12434164280476612,0.0004885127077697282,0.001310701000853347,7.291527150672855e-06,0.0013346845929705924,1.1991657019368965e-05,0.9820305169898864,0.010377581850032376,0.0004085170303532737,2.782214503259527e-06,0,56.20182655517445,22,3
2,Y,1618,0.0836255828420086,0.0003047196738747917,0.0010312617392099705,0.0005277368205359439,0.11826443341652337,0.0004309386955156369,0.0014072728353350166,8.338052063555043e-06,0.001423105269237618,1.8990781954809917e-05,0.9888747275097344,0.014438378864716942,0.00041717895723133395,2.9018083959997098e-06,0,87.64703361777512,22,3
2,Y,1639,0.0739917300925459,0.0002536354639354613,0.0019457937459553896,0.0004436613918391621,0.10464010820032787,0.0003586947129963214,0.0016166249910296027,7.981560734501893e-06,0.0016005025184259076,2.0975925797984022e-05,1.0100733815898968,0.014146028953389683,0.0004240307991684207,2.548637600000196e-06,0,91.11553998277179,22,3
2,Y,1660,0.07727316550153149,0.00026851729408650506,0.0015161806678376155,0.00047922203843051155,0.10928075865976661,0.0003797407990288604,0.0015372976618392808,9.287006333225729e-06,0.001543366667556845,2.0716327234645386e-05,0.9960676838206105,0.014661736696233826,0.0004211061675454308,2.9347862181835084e-06,0,70.06160119312756,22,3
2,Y,1681,0.07391032073044507,0.00027928205645776256,0.002059439792426573,0.0004836663799353767,0.10452497797634075,0.0003949644719700163,0.001597008625027974,8.87336209655726e-06,0.0016312151730412878,1.6145814215728804e-05,0.9790300209447305,0.011112864616595618,0.000418424668328225,2.8115545855363394e-06,0,129.267543353614,22,3
2,Y,1702,0.07127448418867426,0.0002448435326389542,0.0017614631460339076,0.00046289403460778516,0.10079734219076986,0.0003462610445173486,0.0016761666454156688,9.234671463759018e-06,0.001707263053864318,1.385643941814324e-05,0.9817858130425398,0.009630799305676221,0.0004235027251478839,2.749645633529201e-06,0,79.49330647300849,22,3
2,Y,1734,0.0739948341059668,0.0003052814282746553,0.0016162282880038475,0.0005573571247152015,0.10464449793820552,0.00043173313620664677,0.0016082013203840117,9.801844908414466e-06,0.0016351507776626091,1.7372108401424165e-05,0.9835186713991472,0.012046429104950976,0.00042183901787948904,3.104730960455459e-06,0,74.17194170128226,22,3
2,Y,1755,0.0862053985103668,0.0003033921861853415,0.0025894531531724598,0.0005391220063472845,0.12191284372313815,0.00042906134442133315,0.0013483496453823385,7.963272863976763e-06,0.0013700863952526916,1.5816032785449037e-05,0.9841347597161242,0.012761156263288435,0.000412042412341551,2.8328143392792657e-06,0,77.60616858166172,22,3
2,Y,1776,0.07365103243429398,0.00027350350789887565,0.001103001579089462,0.0004518165598080376,0.10415828895135926,0.0003867923702272069,0.0015996459815463215,8.496053266902504e-06,0.0015950001388965946,1.995249017045682e-05,1.0029127537587181,0.013629800254593151,0.00041764535009456994,2.7066208569382426e-06,0,88.94371677838438,22,3
2,Y,1797,0.07231791952001959,0.00025883808097524566,0.0007088963425673635,0.0004914561704992984,0.1022729825878177,0.00036605232457381787,0.001662848690212622,9.811693327894506e-06,0.0016755390679331582,1.7965055802173813e-05,0.9924260926149635,0.012145634073884852,0.0004262884720294996,2.941907554913528e-06,0,84.66412129325924,22,3
2,Y,1818,0.08484317664874438,0.00028947575680389324,0.0011704847837663796,0.0005360462141591312,0.11998637109147059,0.00040938054125028156,0.001387032211496498,7.278990121278868e-06,0.0013954960509860856,1.7648800426042024e-05,0.9939348882545336,0.013609514914442376,0.00041716551446233785,2.6112474885438633e-06,0,72.66918202157889,22,3
2,Y,1839,0.09029919160026217,0.0003348707874730105,0.0014826189123216304,0.0005894592656326087,0.12770234143241743,0.0004735788092868898,0.0012780446724679196,6.893897312558348e-06,0.0013125806631109995,1.83269241378878e-05,0.9736884813149503,0.014574397571336268,0.000409105038867157,2.6779651072304194e-06,0,62.75814348366709,22,3
2,Y,1860,0.07540291405325958,0.0002571686994516407,0.0024268340616756196,0.0004533143312796986,0.10663582369657254,0.0003636914625823606,0.0015753852831320422,8.4177245104074e-06,0.0015956119175118582,2.0620206826836073e-05,0.9873235877986192,0.01380687990362512,0.0004210947687399848,2.66931535623238e-06,0,106.12996020490553,22,3
2,Y,1881,0.07409544245509697,0.0002472799717480039,0.0010477240900473553,0.0004692459271574339,0.10478677963003336,0.0003497066897492629,0.0016107090550520617,8.844176215243642e-06,0.0016040975028075424,1.810615892255037e-05,1.0041216648195934,0.01260386291010273,0.0004230712639181914,2.7184498611094913e-06,0,50.02760811619976,22,3
2,Y,1916,0.07704735879436717,0.0002596966420097068,0.0008319828765594532,0.0005031195739691017,0.10896141975202,0.00036726651323287784,0.0015196857165173984,7.779420214954506e-06,0.0015222722330218564,1.6846796498810698e-05,0.9983008843961348,0.012172759104331968,0.0004150653399834701,2.543987601870319e-06,0,79.14463184499459,22,3
2,Y,1937,0.08610440214097916,0.0003291288279911922,0.0019145195608904395,0.0005667390703466154,0.12177001328779968,0.00046545845231310556,0.0013559210991057828,7.584110573310539e-06,0.0013743327715734178,1.645812261592964e-05,0.9866031918553785,0.01304013389944676,0.0004138707235773002,2.8038436066795074e-06,0,57.152619729350704,22,3
2,Y,1958,0.07379507458882029,0.0002553386234353352,0.0014821361193691302,0.00048153016106755483,0.1043619953198438,0.00036110334425992763,0.0015767203718652378,9.260828993903759e-06,0.0015979642906043484,1.7684934109318408e-05,0.9867056361246495,0.012362592952459736,0.00041246489066971146,2.811729236551386e-06,0,58.98882374201868,22,3
2,Y,1979,0.07165384579437414,0.0002467603092279497,0.001642575957243464,0.0004047830786359462,0.10133384051859429,0.0003489717759655453,0.0016416038316907995,9.56576211741274e-06,0.0016492723024397135,1.8244154333415947e-05,0.9953503913589222,0.01244472453953269,0.00041697766581140586,2.8223733666623103e-06,0,98.5174989617567,22,3
2,Y,2000,0.07313864277582958,0.0002635528433812463,0.0011778770996404573,0.0004936836294582942,0.1034336605471392,0.0003727200055117508,0.0016167542417739784,8.742664807336762e-06,0.0016375159760561898,1.3144178978204226e-05,0.9873212019999865,0.009555751542261173,0.00041917544879807264,2.7238822279557224e-06,0,80.15985041480609,22,3
2,Y,2021,0.07263322237567668,0.0002611769419177245,0.0013882284643611385,0.0004580743840730762,0.10271888816254293,0.00036935997343917615,0.0016335321496458632,9.815270159598875e-06,0.001648979019623409,1.701193351791202e-05,0.9906324642134783,0.011827034828638687,0.0004205987042049032,2.9451972446556983e-06,0,78.93156921027554,22,3
2,Y,2042,0.0747065939187836,0.00027183535532608664,0.0004113334705910498,0.0004891623299801097,0.10565107831864318,0.00038443324623466113,0.0015775343144217259,9.174399397739872e-06,0.00160547763824369,2.128631220104436e-05,0.9825950090139326,0.014225964635492992,0.00041777522611944815,2.866012859747898e-06,0,89.16436617448716,22,3
2,Y,2063,0.07244137065844483,0.00028581106901498195,0.001342283982590357,0.0005200753704032333,0.10244756886206907,0.0004041978900773402,0.0016551010634902488,1.0702652900985545e-05,0.0016706021437199873,2.2396391329609793e-05,0.9907212616193455,0.014746139763854124,0.0004250265978451355,3.2195995012005853e-06,0,63.68712860712517,22,3
2,Y,2095,0.07303926437949779,0.00027128128493025794,-3.686337670030363e-05,0.0004504801623080645,0.10329311827123988,0.0003836496723663707,0.001612532038477669,8.772878276982701e-06,0.0016343614211570732,1.7298950649231596e-05,0.9866434789778936,0.011741914102780701,0.0004175126847899755,2.7503127901961713e-06,0,96.07778336891609,22,3
2,Y,2116,0.07223079650257751,0.0002568342872240421,0.001412987187447957,0.000488618830330929,0.10214977203495623,0.00036321853227466727,0.0016406837918082407,1.0681700745553477e-05,0.0016582017595135029,1.7922276182847753e-05,0.9894355631908136,0.012484360970112686,0.0004200995571239471,3.116395854418832e-06,0,55.68756323054886,22,3
2,Y,2137,0.07283035417758897,0.00024342159301561644,0.0018595162954693442,0.0004615731758123392,0.10299767463038234,0.0003442501182171487,0.0016290771134885556,8.594008064293619e-06,0.001666451442824512,1.4396207681152644e-05,0.9775725062395999,0.009895199288124986,0.00042059005205980697,2.6266080968412165e-06,0,76.60242907234779,22,3
2,Y,2158,0.07184523020991251,0.0002405826166521103,0.0012588139095524625,0.00044822258938162165,0.10160449895467549,0.00034023519934062163,0.001665986091494895,9.3501802659333e-06,0.001662527829667717,1.5883017766568097e-05,1.0020801226695069,0.011103168214696965,0.00042430118442564823,2.7730058306726853e-06,0,83.47113422591498,22,3
2,Y,2179,0.07345895593361694,0.0002295680974239,0.0023769000354701623,0.0004285117982370246,0.10388665175908862,0.0003246583168650674,0.0016074973770554791,7.98112684753708e-06,0.0016433251855274146,1.4209820821831041e-05,0.9781979800544244,0.009753624961136194,0.00041860070596120045,2.45576308726561e-06,0,62.84816165021977,22,3
2,Y,2200,0.07229855631042835,0.0002611404549810582,0.0016350820991852609,0.0004326773672262626,0.1022455988742027,0.0003693083731184932,0.0016397820322257392,9.744704864141647e-06,0.0016541612329111358,2.0456622262970777e-05,0.9913072556657063,0.013601239270572803,0.0004202625395818431,2.9226180089761744e-06,0,62.891021079,22,3
2,Y,2221,0.0731550176769687,0.0002411402805053997,0.0010829869116541209,0.0004689994313824899,0.10345681815441266,0.00034102385512518874,0.001602625825744256,8.16106089853585e-06,0.0016060414161175834,1.1983953191663453e-05,0.9978732862433995,0.009014611668523055,0.0004156054065183347,2.521088509891195e-06,0,86.5189895271276,22,3
2,Y,2242,0.07189386065385656,0.00026370869040954597,0.001025063657689695,0.000486131483508851,0.10167327278804539,0.00037294040649282767,0.0016619038690517327,1.0347717774265483e-05,0.0017022170875106285,1.7573900063987997e-05,0.9763172284224622,0.011770834828017229,0.0004235480011183043,3.0607836941854353e-06,0,132.82927293868167,22,3
2,Y,2274,0.07332176314816558,0.0002552986891202554,0.00117250960548781,0.00046558694142126,0.10369263186124356,0.00036104686860993773,0.0016219535589992273,1.0270852109748569e-05,0.0016506147514185321,2.332688160335338e-05,0.982636049753782,0.01521720376312664,0.00042157635716150746,3.0465369906793493e-06,0,87.60633127825014,22,3
2,Y,2295,0.07559861159111896,0.0002506223897685045,0.0020295786244797337,0.0004446601204161785,0.1069125818087363,0.00035443358264497515,0.00157265069715507,8.467120935397634e-06,0.001583528666116977,1.598810346980527e-05,0.9931305512841891,0.011363715540039765,0.00042145481834357556,2.664768271215136e-06,0,100.86123422249128,22,3
2,Y,2316,0.0735886259094259,0.00029339772117658827,0.0018516155405682488,0.0005212769146789325,0.10407003279751026,0.000414927036457291,0.0016171377675492692,1.0162961619635515e-05,0.0016332186212122458,2.0030149518180463e-05,0.9901538878787454,0.013644969011603225,0.0004218544605941461,3.139673076674802e-06,0,58.991499712149974,22,3
2,Y,2337,0.0803841062442037,0.0003021265071134047,0.0014946953702570603,0.0005343529414700237,0.11368029324979267,0.0004272714039121883,0.0014482808217906092,7.685568353615704e-06,0.0014467962068688974,2.0727717606346046e-05,1.0010261396281406,0.015293546598972658,0.00041269375701050886,2.683699015820528e-06,0,95.2852245716975,22,3
2,Y,2358,0.08472379495964105,0.0003162741527411197,0.0007550434058972522,0.0005630086722457689,0.11981753988764166,0.00044727919623455126,0.001368059201930283,7.126539754396173e-06,0.0013911456162397067,1.4341462567936874e-05,0.9834047463903695,0.011358801816410509,0.000410880210117103,2.6332075653789167e-06,0,59.51861369902882,22,3
2,Y,2379,0.07558480953842064,0.00025918765428312987,0.0012547366570783856,0.00047539087292921184,0.10689306275862176,0.0003665466958868713,0.0015812933335441223,9.05812406217407e-06,0.001633691475591592,1.9524200967271095e-05,0.9679265376416957,0.01282782642149019,0.000423693591394318,2.828678773990143e-06,0,106.98318328165475,22,3
2,Y,2400,0.07320652655859156,0.00028353626453035224,0.0023058471557774597,0.000524243587838841,0.10352966271338637,0.0004009808307234297,0.0016301516704716461,7.729124833205804e-06,0.0016637731243450192,1.2775671686724634e-05,0.979792044130651,0.008842230454716254,0.00042304127916893214,2.58994359365753e-06,0,96.58829339289642,22,3
2,Y,2421,0.07174670255189014,0.000266092380370681,0.0012905179903644334,0.0004757026881504565,0.10146515980443138,0.00037631145316435743,0.0016476095752231824,1.0374607870390499e-05,0.001662260174008957,1.87598427201233e-05,0.9911863383272662,0.012809611803968172,0.0004190455037182646,3.0623094015086158e-06,0,82.9572862917085,22,3
2,Y,2453,0.07602585770665618,0.0002438573308028402,0.0017338539251605578,0.0004876631462987329,0.10751679905980027,0.00034486634450547893,0.0015559836530127918,8.950880118354506e-06,0.001578119029091334,1.9094657201092263e-05,0.9859735700092993,0.013209578382233614,0.00041934482750981316,2.7619613242633462e-06,0,118.20505272888172,22,3
2,Y,2474,0.07226722539721434,0.0002599291005303978,0.0023263855149622736,0.0004477253470238582,0.1022012902718139,0.00036759525922552827,0.0016542147220273296,9.560390387594845e-06,0.0016764221649269316,2.0131284124296733e-05,0.9867530724872217,0.013150321575884341,0.00042377779263633023,2.884754210625709e-06,0,94.50221888722803,22,3
2,Y,2495,0.07413888123528986,0.0002717556874989769,0.0013826475418882284,0.0005217071596699895,0.10484821134211508,0.0003843205789130777,0.0015908159985067102,1.0680302575553266e-05,0.0016005160604420404,2.015367217323786e-05,0.9939394160576863,0.014183490024732319,0.0004180910878887391,3.198054352052511e-06,0,73.14090829896605,22,3
2,Y,2516,0.07213639743814088,0.0002726389201206427,0.0015938889051448275,0.0004861934511843438,0.10201627159775462,0.00038556965846536784,0.0016535339041288885,8.754285790648967e-06,0.001679158223649038,1.8913389659389312e-05,0.9847397826129426,0.012255896124535478,0.0004228365158237122,2.7505198591649625e-06,0,123.94550386690398,22,3
2,Y,2537,0.07355300341537256,0.0002554446008953174,0.0013433318746330126,0.00047091038795920627,0.10401965498329446,0.0003612532190211404,0.001611091035614169,9.56113503991953e-06,0.0016530508526323106,2.279426595587688e-05,0.9746167415531561,0.014630989313523475,0.00042007363446820717,2.8884575384818684e-06,0,116.44173300985052,22,3
2,Y,2558,0.07102009208659503,0.00026151746628465743,0.00012140292261893259,0.0004547682772159803,0.10043757742984882,0.0003698415476172112,0.001707002844269895,1.002191799121634e-05,0.001721589225198596,2.2343641073757894e-05,0.991527374407784,0.014123984650503718,0.00042975447518827097,2.9783166616392254e-06,0,108.95337378788037,22,3
2,Y,2579,0.07364767223130335,0.0002639609530249414,0.0008367868886080334,0.0004939532779863165,0.10415353690671758,0.0003732971597047996,0.0016116622432673527,1.0255985479218845e-05,0.001620481557532153,1.8792901471282498e-05,0.9945575966453877,0.013156325658679904,0.00042076343165833727,3.073051183503902e-06,0,77.37012909502577,22,3
2,Y,2600,0.07221064635077883,0.0002374796549788283,0.0018359947293803323,0.00039875054260672096,0.10212127541699867,0.00033584694885874233,0.0016566354934818104,8.671201272133753e-06,0.0016742560001172806,2.1773911612855295e-05,0.9894756198369689,0.013871390377828995,0.0004240656801911234,2.6214221025492593e-06,0,103.17553281725894,22,3
2,Y,2632,0.0778476000494438,0.0003244266628611088,0.0011262409197211531,0.0006040813470347652,0.11009313178811986,0.0004588085866136238,0.001499095332044131,9.540879470319048e-06,0.0015160862707877028,2.0284501998290665e-05,0.9887928945265471,0.014650073025419324,0.00041369418099184536,3.147166490691542e-06,0,108.72092949920123,22,3
2,Y,2653,0.07207611541269723,0.0002664617513798531,0.0025963858881344923,0.0004550261654630863,0.10193101993980491,0.00037683382265507603,0.0016446975313403863,9.200835518481104e-06,0.0016539691034168143,2.108146361020993e-05,0.9943943498960927,0.013841585250881753,0.0004202254438745189,2.8177980507324678e-06,0,82.54857841911209,22,3
2,Y,2674,0.07757649409192803,0.0002965309343943555,0.0018327852235225637,0.0005489242817891517,0.10970973006616092,0.000419358069083664,0.001487913578490564,7.853556389671953e-06,0.0014941130095478443,1.4772131149653532e-05,0.9958507616106251,0.011161099443637868,0.0004091784828966177,2.6665992220990833e-06,0,35.90055019219711,22,3
2,Y,2695,0.07184867748661773,0.00024046818086893179,0.0010266339495367965,0.00047099318758351703,0.10160937414014526,0.00034007336270402977,0.0017078254957314308,9.484764547434274e-06,0.0017337474100415165,1.8066151317406277e-05,0.9850486211774846,0.011631339882179997,0.0004349779110583105,2.820495989258739e-06,0,57.58983186778893,22,3
2,Y,2716,0.07704049070256415,0.0002734525194628498,0.0008519254000402775,0.0004774529538239216,0.10895170680344457,0.00038672026168945495,0.0014941172289995638,7.940967128102094e-06,0.0015081974946981457,1.3118523491181637e-05,0.9906641764436825,0.010098221169973573,0.0004080455500984571,2.607855924542907e-06,0,59.31205009519972,22,3
2,Y,2737,0.07231290740724458,0.0002637295232910442,0.0012032143381618106,0.0004730443842900073,0.10226589438995515,0.0003729698686363858,0.0017002675328901355,9.987264220248819e-06,0.0017411415568965207,1.6158523776344986e-05,0.9765245830561642,0.010725304150043214,0.0004358509701660284,3.0134984011278944e-06,0,117.89660154278236,22,3
2,Y,2758,0.0738881502764434,0.0002341538286754597,0.001280232887258403,0.00045660059511463003,0.10449362421960762,0.0003311435201944213,0.001602353004634791,8.932541298356114e-06,0.0016313900891931751,1.767175878505379e-05,0.9822010169420946,0.011965773484174796,0.00041969899145557127,2.6912940115868083e-06,0,80.00476413588041,22,3
2,Y,2779,0.07162265119328234,0.00025352621127988124,0.0020700633133099748,0.0004608493045480127,0.10128972469065745,0.0003585402064090748,0.0016671242085521652,1.0342497885593448e-05,0.00169073307921042,2.535474904123822e-05,0.9860363111430456,0.01600225585074876,0.0004232756476437201,3.023293642936451e-06,0,81.31787942263537,22,3
2,Y,2818,0.07356250908219714,0.0002518069417124846,0.0016700441985259553,0.0004544326909968971,0.10403309802623717,0.0003561087920694872,0.0016208412138045381,9.124153066175526e-06,0.0016354650651396734,1.731880333158151e-05,0.9910582918297394,0.011885544745935782,0.00042267049937905546,2.7846846931184343e-06,0,62.03229943729684,22,3
2,Y,2839,0.07289857922956916,0.00026256853989073723,0.002154505694485157,0.0005125652667129561,0.10309415942418632,0.0003713279901659816,0.0016716604896900868,1.0748986403878248e-05,0.001700893624272281,1.7530715171790166e-05,0.9828130729840902,0.01193929670971906,0.0004319883890316386,3.1838369383148407e-06,0,68.76421203132963,22,3
2,Y,2860,0.0736086140585646,0.0002808411447558423,-0.00010572061116682251,0.0005194547765739082,0.10409830030910894,0.0003971693557860978,0.0016447937142863283,9.44561374622353e-06,0.0016594455675321823,1.8232599960688936e-05,0.9911706334136386,0.012287988301273716,0.0004291854697477135,2.9590694056230567e-06,0,99.38143304567592,22,3
2,Y,2881,0.07233796107535398,0.00025218817915309517,0.0008197648495364718,0.00046279441760572077,0.10230132562718264,0.00035664794322848303,0.0016902079261758647,9.883961171260935e-06,0.0016833362890665406,1.6757743720566356e-05,1.0040821534912283,0.011592696353090175,0.00043342237693977257,2.950789901388287e-06,0,105.06585153101527,22,3
2,Y,2902,0.07275978036969401,0.000274675066259901,0.0013470843303579967,0.0004599179725979846,0.10289786819410895,0.00038844920395048055,0.001663195760479413,9.531607047277836e-06,0.0017029084314847999,1.9887233374005553e-05,0.9766795029778785,0.012705397631850057,0.0004289826036252758,2.943913073544254e-06,0,104.23359653872075,22,3
2,Y,2923,0.0720017299535988,0.0002549799964632691,0.0009036003322900018,0.0004982911377171338,0.10182582301470455,0.00036059616913219905,0.0017167130414720625,1.002707489005718e-05,0.0017272517932175671,2.1587850472534816e-05,0.993898543462576,0.013711662612109715,0.0004381729561280705,2.9929631222671608e-06,0,88.40635051398125,22,3
2,Y,2944,0.07377825193464523,0.00026572603349029456,0.0016082473371882078,0.0004798113496017906,0.10433820449415432,0.0003757933604375818,0.0016003405582158507,9.981656940239232e-06,0.0016149858503792499,2.1990078665716537e-05,0.9909316281873554,0.014841016389012068,0.00041854841822078995,3.014562825412372e-06,0,89.37103307505271,22,3
2,Y,2965,0.07274098453899186,0.00027271500385942605,0.0006368307762045572,0.0004434463382710624,0.10287128687541391,0.0003856772571206313,0.0016220022029389547,9.697611256697672e-06,0.0016488902119768955,2.1523473432775067e-05,0.983693269059009,0.014123273492549906,0.0004182496118566011,2.9516058905115306e-06,0,109.00246644154049,22,3
2,Y,2997,0.07513634771386422,0.000269704477833399,0.0023292516322353605,0.0004793696953461192,0.10625884196412749,0.00038141973038474664,0.0016076346499165237,1.0350804260282352e-05,0.0015853904002762808,2.6805909253227457e-05,1.014030770992663,0.01834633258482689,0.00042819576814381145,3.1564571188326786e-06,0,67.31168417060606,22,3
2,Y,3018,0.07395944796776907,0.00025811305342131335,0.001843434746334933,0.00046174728351948554,0.10459445438164627,0.00036502698077395257,0.0016454043734331555,9.038773169579921e-06,0.0016749862482821,2.1037259372918026e-05,0.9823390341984692,0.013466356864445295,0.0004313911588995805,2.8075718451094573e-06,0,55.31604611379999,22,3
2,Y,3039,0.07306424642318278,0.00028829194344946176,0.0011809217003433228,0.0005044828570649607,0.10332844821623499,0.0004077063763491262,0.0016636077191947483,9.247774519781933e-06,0.0017000902653305928,2.2609734895024893e-05,0.978540818167234,0.014104846161615303,0.00043088439734182164,2.937285790385609e-06,0,69.04306413604192,22,3
2,Y,3060,0.07239337655649734,0.00025199675230983226,0.0006660415984372206,0.00044167793466469934,0.10237969495218102,0.00035637722479053835,0.0016899675810211707,8.673632798793513e-06,0.0016817095325672553,1.730522332068503e-05,1.0049105082025127,0.011555648605105861,0.00043369272680229403,2.6895492659446134e-06,0,54.99525222753953,22,3
2,Y,3081,0.07354404469926241,0.0002605296424093795,0.0007799925101227895,0.0004938758614718998,0.10400698544547005,0.0003684445536955572,0.0016424248012483385,1.101478893583461e-05,0.001673640528726737,2.2024703441355625e-05,0.981348606858758,0.014494597746086545,0.00042819139707835665,3.2476376663587715e-06,0,103.81925426255766,22,3
2,Y,3102,0.07180220247421841,0.0002585266451384073,0.0019165091396128073,0.0004718703232384689,0.10154364854729869,0.000365611887789552,0.001726163012452918,9.746831113843262e-06,0.0017440485881526373,2.1762107747257066e-05,0.9897447950583393,0.013555598926025009,0.00043936403555795185,2.9423347984689526e-06,0,55.87471489882709,22,3
2,Y,3123,0.07368990737421448,0.00025716772701821287,0.0007348869778107265,0.000438946642951978,0.10421326641863127,0.00036369008735381847,0.0016108835491600811,8.604591267293797e-06,0.0016510292227016718,1.8046862802288928e-05,0.975684456101935,0.01187018049987275,0.0004208013156917999,2.6849348872936828e-06,0,111.7537257082651,22,3
2,Y,3144,0.07205260317068113,0.0002602647972292444,0.0009706637105326648,0.00047244871720538887,0.10189776860826394,0.00036807000604988094,0.0016653887280107375,1.03440193244353e-05,0.0016855009987532985,2.08718920726613e-05,0.9880674821566778,0.013688292943065937,0.00042537330232055216,3.0563688932099394e-06,0,113.99865442372337,22,3
