Scan,Type,BCID,sigma,sigmaErr,Mean,MeanErr,CapSigma,CapSigmaErr,peak,peakErr,rate0sep,rate0sepErr,peakRateRatio,peakRateRatioErr,area,areaErr,fitStatus,chi2,ndof,covStatus
1,X,103,0.08843555419736952,0.00021617227504632536,-0.0036503355895514534,0.0004091134271202394,0.12506676014190088,0.00030571376317956034,0.03658319978798872,0.0001469811928685956,0.036587797448813776,0.0003291990991180337,0.9998743389560006,0.00985255815991842,0.011468682307886042,5.393600510278512e-05,0,36.83339261514526,22,3
1,X,124,0.08587515600884996,0.00020059222823408962,-0.0045645060878541045,0.0003598306944008489,0.121445810298621,0.0002836802496752888,0.040503186817828704,0.00017085972476393773,0.04166176058031474,0.00034457057680508486,0.9721909552945426,0.009026156531245378,0.012329959957660999,5.9454652152988035e-05,0,133.69870761720503,22,3
1,X,145,0.08592046199952236,0.00021388390265933072,-0.005120465896581782,0.0003812915847213037,0.12150988264508666,0.0003024775159141124,0.03992189006292239,0.00014058444900828798,0.04031109631682425,0.0003030633231529076,0.9903449350312157,0.00822182428136944,0.01215941356637999,5.243740909760578e-05,0,127.81727972387431,22,3
1,X,166,0.0843485305674718,0.00020294613331322747,-0.005411169733603967,0.0003515611203022565,0.11928683589476019,0.0002870091741627445,0.04135592312159767,0.00014830437413342355,0.04196087111402819,0.0002745089778819111,0.9855830449566554,0.007352859839232321,0.012365741755219144,5.340051949963765e-05,0,130.48695679746461,22,3
1,X,187,0.08574201443477104,0.00021532311280140592,-0.005730666936600333,0.00035782676280706485,0.1212575196788429,0.00030451286641614006,0.03978689390535807,0.00015682504885026856,0.04060471608520283,0.0004936604622865561,0.9798589361361699,0.012523286698579552,0.0120931280230173,5.651903516370306e-05,0,98.17780492882319,22,3
1,X,208,0.0859649963050397,5.3991934304307286e-05,-0.004903456752454705,0.0004060109863333049,0.12157286366394016,7.635612575190853e-05,0.037788689095714444,0.00011309196168718782,0.03849990361997852,0.00030611919276006457,0.9815268492283962,0.008338797000989773,0.011515648686946782,3.52141706039556e-05,0,147.53072181022753,22,3
1,X,229,0.08598222208146584,0.00022960623265854535,-0.004621840822481559,0.00041902171015434716,0.12159722459058442,0.0003247122482311071,0.03992047351972781,0.00015327865028903192,0.04023127239414048,0.0004074019820999543,0.9922746943877931,0.010746318060961354,0.01216772205607362,5.690738537908653e-05,0,108.66720572817859,22,3
1,X,250,0.0846687316755068,0.0002297515508220786,-0.005015165900009219,0.0004070982225309899,0.1197396686444302,0.00032491775914883503,0.041339485084752985,0.0001719890342519648,0.04249989072451783,0.0003321929027423755,0.9726962676848621,0.00861283370540785,0.012407750416924497,6.163074359227546e-05,0,153.3773989499502,22,3
1,X,282,0.08609496462610126,0.00021744202898726692,-0.003610657170178878,0.0003882423617679625,0.12175666662626428,0.00030750946642371657,0.039783897702379216,0.00015414327937331827,0.03949604251174154,0.00030799993326894497,1.0072882033827086,0.008771191998152806,0.0121419939866183,5.6156624514116306e-05,0,54.30921188814514,22,3
1,X,303,0.08550077018763211,0.00020726114981910727,-0.003964105559926974,0.0003812712465903573,0.12091634879269453,0.0002931115290272235,0.04098717456950223,0.0001500458156652559,0.040941152203441,0.00025390650526769154,1.0011241101821595,0.007209697114295881,0.012422898598980367,5.4544362457942923e-05,0,102.83571921903189,22,3
1,X,324,0.08570223971114103,0.00020189150710879188,-0.005656989882500974,0.0003973921975601217,0.1212012697252457,0.00028551770748119765,0.04004959431768496,0.00015213861370444042,0.04024613813212252,0.00025715296169475185,0.9951164553033055,0.007397158947072556,0.01216732826212363,5.438675413981803e-05,0,121.94844642796541,22,3
1,X,345,0.08392121025383817,0.00021527546464700185,-0.005270175435834528,0.0003711995918293212,0.11868251371174199,0.0003044454817499598,0.04168202969231418,0.00015951371096893188,0.04143621101726735,0.00031332774473471803,1.0059324602566677,0.008525207481128352,0.012400109748993023,5.712885472708777e-05,0,113.51145341807882,22,3
1,X,366,0.08493781681060633,0.00020973707826765076,-0.004970447561978496,0.00038675591685174927,0.12012021249192095,0.00029661302061861905,0.04051725550022645,0.00016741764455682534,0.04157561817449679,0.00032040873762087085,0.9745436695654581,0.008521878631579511,0.012199612774507958,5.872430855275044e-05,0,125.45258797926195,22,3
1,X,387,0.08366318356267642,0.00020170770052518387,-0.005469343379196296,0.0003487322741759709,0.1183176088656468,0.0002852577657178057,0.04166098007610856,0.00014858584325005321,0.0420794929477198,0.000276023560215193,0.9900542320666456,0.007392216726633237,0.01235574113790225,5.319133554212221e-05,0,135.7508395958269,22,3
1,X,408,0.08505256730114956,0.00022082940592076168,-0.005452619597806696,0.0004059543919431452,0.12028249419193615,0.00031229994082393464,0.040493787764195495,0.00017292573994586835,0.040895430407386024,0.00034014552280288175,0.990178789190149,0.009257851053804653,0.012209018774984794,6.1017945474082633e-05,0,126.2210992352126,22,3
1,X,429,0.08404742146729127,0.00021773696594163378,-0.0050966740949188035,0.0003780738242250526,0.11886100332153093,0.0003079265702646272,0.04162682521080413,0.00016180332288137436,0.042292843297230105,0.0003063643877386281,0.984252227220921,0.008091401934022356,0.012402310942493945,5.7933767261073085e-05,0,131.55438816821527,22,3
1,X,464,0.08659459456237999,0.00020676706805732403,-0.003913346360593978,0.00041735838651755814,0.12246325005831726,0.00029241279189878844,0.03974920214516143,0.0001543477953488038,0.03973971256406565,0.00023715003281830885,1.0002387934004424,0.00712139513353115,0.012201806429299248,5.562124319233778e-05,0,44.17433996097605,22,3
1,X,485,0.08402266839964855,0.00020122068256737228,-0.0033065553473069294,0.00039901560355336057,0.11882599719756026,0.0002845690183167493,0.041393580865249836,0.00015355036512430914,0.041388981396536184,0.0002701740923058508,1.0001111278547685,0.007508908309567003,0.012329185863533498,5.443834241005556e-05,0,45.76334312968752,22,3
1,X,506,0.08532099119990945,0.00024624981026481117,-0.0029704303256745043,0.0004387101496935003,0.12066210291002744,0.0003482498214082974,0.04054644014556506,0.00017455937324725913,0.04033980486435868,0.000471999087412903,1.0051223669004148,0.012531343002172233,0.012263475128673951,6.356267533401045e-05,0,35.15166670681884,22,3
1,X,527,0.0838663591806985,0.0001990928025268143,-0.003443158049086105,0.00035282513346546245,0.11860494258019716,0.0002815597415042892,0.04171890581592085,0.0001565065271806029,0.04193308783008143,0.0004154706224234743,0.9948922909033442,0.010540259410921293,0.012402968228453973,5.506267252559837e-05,0,20.932060247855766,22,3
1,X,548,0.0845800138696771,0.00020409869113343886,-0.0031316687571538732,0.00036863271792043396,0.11961420272020185,0.00028863913706350663,0.04093439385736386,0.00014844510061040895,0.04113930441854233,0.00035967378866284404,0.9950191048663888,0.009417943654910792,0.012273291465011944,5.346122493577423e-05,0,41.073770313738805,22,3
1,X,569,0.08353219706028019,0.00020539394765931794,-0.0034328948294894512,0.0003564341597506019,0.11813236597747023,0.00029047090640915707,0.0415342166047406,0.00016529760514347863,0.041267019218090256,0.0003547217263880279,1.006474840967753,0.009533712272600301,0.012298860054646433,5.753546466136895e-05,0,38.41333095051324,22,3
1,X,590,0.08479229887874248,0.00022753700556476145,-0.0036755120736828525,0.0004141727372337857,0.1199144190591106,0.00032178591921144806,0.04077879847219179,0.00015503992056398338,0.04087742767587157,0.00025880230949445,0.9975871964238593,0.007367222382616004,0.012257326858915363,5.704067720265414e-05,0,34.425625560467594,22,3
1,X,611,0.08434714817405983,0.000199330499398592,-0.002670891192815914,0.00035374071612716225,0.11928488089524847,0.0002818958956440909,0.04190200707452056,0.00013949989729863344,0.04180077833662179,0.00027992005949748644,1.0024216950479625,0.00749654685649816,0.012528819753390305,5.115122741696457e-05,0,50.98279567895451,22,3
1,X,643,0.08644220218465846,0.00021196437634072077,-0.004161884401075321,0.0003681924903661253,0.12224773469094119,0.0002997628957610021,0.0397355749308638,0.0001432894746580342,0.03957367528430528,0.00029448193417109554,1.0040910945317916,0.00830290486578619,0.012176157455791207,5.309773948465548e-05,0,33.95274490212443,22,3
1,X,664,0.0841394394321471,0.0002068080262976026,-0.0034490666617730944,0.00037278688149746796,0.11899113637541203,0.00029247071559768134,0.04092442119744845,0.00016329934591245354,0.04135761948965106,0.0005059644047245399,0.9895255506107886,0.012733398215822077,0.012206385793178775,5.7205638429816465e-05,0,46.69246887827228,22,3
1,X,685,0.0857548036587212,0.00021600264386977038,-0.0033016891373735535,0.0004153042006285336,0.12127560637280543,0.000305473868469075,0.039730918725123646,0.00017637832449388563,0.039585284327473,0.00034881615063740446,1.0036790034510268,0.009903151055111099,0.012077915770896857,6.164723888531385e-05,0,33.19027366238084,22,3
1,X,706,0.0841795792004607,0.00020494410073962515,-0.0039043574706898072,0.00039144682841852084,0.11904790258015163,0.00028983472679433575,0.03964577888682376,0.0001669931339731349,0.03945407616958833,0.0003735817716301579,1.0048588824234896,0.010413738624902025,0.011830650834711269,5.755746766417904e-05,0,36.00022588982422,22,3
1,X,727,0.08487607400014739,0.00021803696214251912,-0.0036558206563317235,0.00039231408526544114,0.12003289497199088,0.00030835082896057964,0.04058919352018378,0.00016425872236417786,0.040770384047918794,0.0004226030440095323,0.9955558297532333,0.011077966598143422,0.01221238921556166,5.853830033842779e-05,0,39.04911260366718,22,3
1,X,748,0.08340884021350124,0.0001961648544634561,-0.003347730183405589,0.0003478068763519634,0.11795791305174386,0.000277418997643164,0.04232437029740935,0.00017391815466841212,0.041969651870836,0.00037169467122555983,1.0084517838667095,0.00984565391760888,0.012514327602699722,5.925040190178253e-05,0,47.479860682130585,22,3
1,X,769,0.08539365036240866,0.00022421526414268095,-0.0033915846719762806,0.0003942391215846841,0.12076485848306451,0.0003170882674416453,0.04008336106815375,0.0001673961783202024,0.039872115928064715,0.0003216033706794381,1.005298066961637,0.009131014592447521,0.012133738800636236,5.9856093368138556e-05,0,52.91042809408157,22,3
1,X,790,0.08446634216646687,0.000216380429614802,-0.0026588573325580503,0.000429592484245165,0.11945344665586388,0.0003060081381933699,0.04149101677614551,0.00015549803705479227,0.04138284742113915,0.00024389911355241132,1.0026138693141522,0.007002641437887373,0.012423463750644997,5.6397781921611656e-05,0,30.80438911567563,22,3
1,X,822,0.08712590373273102,0.00020903786818050226,-0.005533441833037609,0.00037860655749585506,0.12321463469284089,0.0002956241882304256,0.03834988551811914,0.0001308839873006317,0.03786477779854374,0.00023217324868795276,1.0128115823670318,0.0071073727716458035,0.011844488204841446,4.941336004988394e-05,0,59.16375274564643,22,3
1,X,843,0.0842360289235244,0.00020003794684589983,-0.0033975985687373276,0.0003697516283397302,0.11912773454410053,0.00028289637741873985,0.03965501362047577,0.00015602767169444512,0.03959028566225982,0.00030716864036581373,1.0016349454704152,0.008713562732852724,0.011841341888278241,5.44194835793949e-05,0,12.944735369296469,22,3
1,X,864,0.08479056119028837,0.000198284730822678,-0.0031278538879231503,0.0003629517217645999,0.11991196159653161,0.0002804169555409297,0.04117727186098121,0.00016171395472486876,0.04175865347370824,0.0002970222328934427,0.9860775775949511,0.00801188798202683,0.012376846688386725,5.657191577273729e-05,0,53.276172011284835,22,3
1,X,885,0.08318366603144224,0.00019191458492324765,-0.0031703336674807326,0.00031242898593814613,0.11763946866957975,0.00027140820881565997,0.04237621604085956,0.00015532770899004568,0.04244197250090167,0.00032385954079037094,0.9984506737984266,0.008452237512973132,0.012495831563046678,5.4120493538601965e-05,0,47.989100974842685,22,3
1,X,906,0.08490996274667438,0.0002335658772444557,-0.004036398461683637,0.00042537189700481625,0.12008082089694117,0.00033031203130667874,0.040718115968702416,0.0001792758058039388,0.04111049304430821,0.0003642515727790864,0.9904555492637149,0.009799511931132262,0.012256070692679269,6.3627436887711e-05,0,37.00371342921005,22,3
1,X,927,0.08364702020406464,0.00019255888397764245,-0.004105990350034633,0.00036195869245947307,0.11829475042468451,0.00027231938527660926,0.04217024003620175,0.00015841823303976838,0.04214754115911456,0.00033807433469877743,1.0005385575638088,0.008862091650460494,0.012504360318519927,5.509260805313641e-05,0,54.691610663253044,22,3
1,X,948,0.08512266870547691,0.00022018367878994864,-0.00322434112914032,0.00038633085898078813,0.12038163254867729,0.0003113867447579466,0.04064745374457555,0.00015435392559452882,0.040405827411708506,0.00026137332778684304,1.0059799872529531,0.007545804953485202,0.012265450620563698,5.635562789162449e-05,0,60.12994189890242,22,3
1,X,969,0.08374355644790173,0.0001886991592301117,-0.0032776986900396573,0.000364355612099074,0.11843127328997949,0.00026686091019162417,0.042008906831244315,0.00014258497952720876,0.04216038740334821,0.00027040051809384366,0.9964070403183282,0.007230290334417517,0.012470897595858116,5.080674443864786e-05,0,66.30919536126346,22,3
1,X,1018,0.08453757533845377,0.00022150157185968274,-0.004700190007394284,0.00039702079947747743,0.11955418557377862,0.00031325052701092204,0.04148810429542209,0.00019014386938002791,0.04128600990942228,0.0004901399983413597,1.0048949846798754,0.012788046260013735,0.012433068049463529,6.56366631489623e-05,0,42.180939419937516,22,3
1,X,1039,0.08254747178768984,0.0001950032376509541,-0.003926397979313867,0.0003618056426676177,0.11673975414176141,0.00027577622339264307,0.04317697843468811,0.00018084337519149116,0.043117944828567956,0.000508212511153252,1.001369119199787,0.01252576345564194,0.012634584236039581,6.0755682682889125e-05,0,22.055610517034975,22,3
1,X,1060,0.08377769328166701,0.0002141283892852545,-0.004460882921638943,0.0003939537346833249,0.11847955006326683,0.00030282327221631267,0.041971410818292636,0.00016292051172008112,0.04180320270323557,0.0003704845176545269,1.0040238092820588,0.00971431601915591,0.012464845451497506,5.793176308539378e-05,0,42.78915218230678,22,3
1,X,1081,0.08273054004845104,0.0001875490654388181,-0.004259661435723567,0.00035855425355976116,0.11699865175896995,0.00026523443195397567,0.041852681058683325,0.0001481204731867803,0.04136482860488797,0.0002862139168354913,1.0117938952063663,0.007863487402001424,0.012274224861393113,5.1587385770169795e-05,0,39.89785641204074,22,3
1,X,1102,0.08450332783905862,0.00022310123674703158,-0.0035190675668177046,0.00041057072692428554,0.11950575229565663,0.00031551279478986283,0.04160898717091484,0.00018210955989543713,0.042082165007952914,0.00036462143263766954,0.9887558580470218,0.009598022291575303,0.012464242469153553,6.370895711519795e-05,0,44.2925969853542,22,3
1,X,1123,0.08283607162917511,0.00021195237055906258,-0.004439962941806264,0.00037011355942700275,0.11714789595168862,0.00029974591702175424,0.04368660074267572,0.0001741294799020972,0.04369659828337834,0.0004752036783806311,0.9997712055149515,0.01157985536378313,0.012828405535598273,6.07613672886252e-05,0,22.260820551436563,22,3
1,X,1144,0.08403525771525551,0.0002185180598892948,-0.003844279894790251,0.0003852130529462754,0.11884380117843263,0.00030903120391889694,0.04197356229438868,0.0001826869421052024,0.04188112996443897,0.00047149843540619823,1.0022070161437429,0.012096707731038141,0.012503808037206403,6.339476260715112e-05,0,36.05431685382559,22,3
1,X,1165,0.08478478045194646,0.0001885713162091856,-0.003972461743928799,0.0003729062738401238,0.11990378639796795,0.00026668011285757576,0.0419121783547441,0.00014423619824445146,0.041970557939670784,0.0002271892474084016,0.9986090348141046,0.006405469196601147,0.012596882125063233,5.16162860788919e-05,0,35.63990995548006,22,3
1,X,1197,0.0843860798904427,0.00020251764393339997,-0.004290044469841265,0.0003747583639366849,0.11933993865656356,0.0002864031986704596,0.04123378827256234,0.00017486967353823503,0.041127962502917455,0.0003580846014501464,1.002573085638205,0.009709460158078003,0.012334711071671228,6.01056073242208e-05,0,34.61363084299155,22,3
1,X,1218,0.08256375484184135,0.00019466710551404822,-0.0034481806465502724,0.0003400626166893664,0.11676278185777933,0.00027530086076588134,0.0433781109878367,0.0001756136228062216,0.04331599352261453,0.00038754448051857515,1.0014340538025461,0.00983432362446114,0.012695944149060234,5.9480164578054425e-05,0,23.48111749223361,22,3
1,X,1239,0.08443428877448103,0.0002145001989135568,-0.0038267090702330574,0.00040994303962665543,0.11940811631419745,0.0003033490904352787,0.041981268709213995,0.0001819433194452382,0.042256375339920646,0.0003508612553957882,0.9934895828500758,0.009305196799757534,0.012565487448467997,6.31241193349076e-05,0,49.69484012844677,22,3
1,X,1260,0.08270679128085036,0.00021004299111997612,-0.004288171089435247,0.0003640176020578073,0.11696506592973943,0.0002970456467232818,0.04267340817333034,0.00019109497102590757,0.04293426269081318,0.00039988028786834144,0.9939243275385592,0.010271606140332576,0.01251132869501274,6.440944130615053e-05,0,50.61491174654866,22,3
1,X,1281,0.08335772865086087,0.00021084119988462317,-0.0027586265289315914,0.00039025730401231535,0.11788563038666378,0.00029817448438385075,0.042378388513074745,0.00016737442251681169,0.04186121609064423,0.000335468958079434,1.0123544528976574,0.009044598940190302,0.012522621166169144,5.873144539034126e-05,0,31.535255811183095,22,3
1,X,1302,0.08191059813385647,0.00019071780998552334,-0.004322859813055394,0.00037763645534112276,0.11583907878299216,0.000269715713467622,0.04407706312547048,0.00015637751489521647,0.044263812665398056,0.0002313773826521438,0.9957809883812029,0.006290863607017288,0.01279845892186853,5.431180611263438e-05,0,20.495133946618786,22,3
1,X,1323,0.08473284645907364,0.00021295873473826984,-0.004649775525032944,0.00039360849508777946,0.11983034064089904,0.0003011691308926756,0.041507797425201665,0.00017970970375779985,0.04055715571868475,0.00038638158825638174,1.0234395556017493,0.010709776858855997,0.012467702093922969,6.241524088224447e-05,0,52.99622562527555,22,3
1,X,1344,0.0848062016100976,0.00021158850795570253,-0.004382238452260539,0.0003705918888308818,0.11993408049034704,0.00029923133759324205,0.04174823227272156,0.00016477959653852186,0.041541700901581824,0.00030395028913131697,1.0049716638138875,0.008354786397537516,0.012550777633014978,5.860491732020459e-05,0,33.049088533741774,22,3
1,X,1376,0.08543433773847131,0.00020092259825904587,-0.004759422644610133,0.00038241276976322126,0.12082239912210968,0.0002841474634451835,0.0405151218404274,0.00015886060825964193,0.04064580553481587,0.0002899139551442086,0.996784817211298,0.008113220648971018,0.012270281847688167,5.610251262044107e-05,0,22.24583862191482,22,3
1,X,1397,0.08465524817275859,0.00018823772067244106,-0.005246912463951592,0.00036088522774206243,0.11972060009197538,0.0002662083375251645,0.041086222239228525,0.00014600080864380158,0.04055409049821594,0.0002914581427336248,1.0131215306390855,0.008122621540338075,0.01232977155753742,5.16848806156496e-05,0,39.4591797855134,22,3
1,X,1418,0.0850069361936758,0.0002109407021853713,-0.005605022081086964,0.0003409074715232598,0.12021796206088065,0.00029831520188705607,0.041050094507227436,0.00016589983016152275,0.04087721587532822,0.0003541429848767703,1.0042292173817924,0.009600268969789504,0.012370107021746773,5.866420427366596e-05,0,68.18781890302044,22,3
1,X,1439,0.08729029271170476,0.00023745463476731278,-0.005259804275895128,0.0004182445593845621,0.12344711581641021,0.0003358115649362836,0.0349949875676655,0.0001347253868662024,0.035080503842208205,0.00032445876972435616,0.9975622848825846,0.009993807009515937,0.010828710055280279,5.104595917378643e-05,0,33.37676759206537,22,3
1,X,1460,0.08527121288147899,0.000212228951885149,-0.005580596948470772,0.0003782923769564933,0.12059170573699096,0.00030013706208420476,0.04083952769072211,0.00015468367564957039,0.04050476588680811,0.00026459629177016236,1.0082647509887972,0.007613506934130779,0.012344914409075926,5.594897820388189e-05,0,42.82047778367692,22,3
1,X,1481,0.08422878585031242,0.000200631867891684,-0.0048564803293098,0.00038227503090596497,0.11911749129173088,0.00028373630861666665,0.04172436222460591,0.00017676506811910967,0.04197414829975089,0.0004181751569030915,0.9940490495873514,0.01076160626376529,0.012458196581574137,6.054959734366447e-05,0,27.894414018582072,22,3
1,X,1502,0.08517367952993787,0.00020710151799775846,-0.0055034226411158505,0.00033396995409989516,0.12045377274845781,0.00029288577554048567,0.040830335690440596,0.00015292129354502562,0.0406329107763563,0.0003362651949335936,1.0048587440651477,0.009127864989898059,0.012328018909278574,5.5049068971775103e-05,0,71.11826886514379,22,3
1,X,1523,0.08779696595907462,0.0002297889970485363,-0.0038629673303190613,0.00042188734349912543,0.12416365999453227,0.00032497071611015116,0.035622105488876614,0.00014642114776090726,0.03559079563695674,0.0003616471252601679,1.0008797176730537,0.010970778029231212,0.011086744151960167,5.4025032580641024e-05,0,25.859438614958535,22,3
1,X,1555,0.08801942028426195,0.0002105344642596906,-0.005348238605204682,0.00037782781226761223,0.12447825791822076,0.0002977406947030081,0.034580403627111844,0.00014501112219462024,0.034705167868402935,0.00030441704854149436,0.996405024123088,0.00968742227957912,0.010789802467866842,5.208942436325158e-05,0,27.32154522777652,22,3
1,X,1576,0.08717768775482967,0.00011236697218044182,-0.005325263363459362,0.00036619211693138004,0.12328786835920702,0.0001589108960203811,0.036414065223728934,9.925236351172012e-05,0.03642325459540462,0.00037259757677671353,0.999747705915417,0.010583886762727104,0.011253288258164145,3.392935265484614e-05,0,53.855236561832946,22,3
1,X,1597,0.08846059008917746,0.00023374989138879145,-0.004727030383636946,0.0004449162039972086,0.12510216623964177,0.00033057226660526684,0.03368174669423018,0.00014686227975235685,0.03402348344179604,0.00028998477564731414,0.9899558565732851,0.009477502484233725,0.010562077977654124,5.385057499862127e-05,0,24.425689953502708,22,3
1,X,1618,0.08601382315961233,0.0002128303347747356,-0.005283857271612956,0.00041113303557261435,0.12164191526388479,0.0003009875459228373,0.037072862372511776,0.00015012517583058913,0.03680728830338468,0.0003117058292029807,1.0072152576668538,0.009454697124891522,0.011303925918228007,5.364385621624399e-05,0,39.78978999878096,22,3
1,X,1639,0.08510956274661688,0.00017571579087906532,-0.004708462092238697,0.0003541372583832281,0.12036309792390953,0.0002484996545842888,0.04049347054924464,0.00015113129774712263,0.04061715642936632,0.00031119648804706415,0.9969548365519686,0.00849644547769988,0.012217104579873895,5.210865122475542e-05,0,36.67296689526209,22,3
1,X,1660,0.08327658883286697,0.00018826987041101727,-0.005327329213416319,0.0003642399397509413,0.11777088135560831,0.0002662538041214857,0.041328961787476234,0.00014184711829770655,0.041714565805823944,0.00023311058534431365,0.9907561301214869,0.006497423305282761,0.012200632759018674,5.014260772811789e-05,0,47.165407073605266,22,3
1,X,1681,0.08539426366821279,0.00021480929766875176,-0.005239721478284043,0.0003733306122668324,0.12076572582845058,0.000303786222086988,0.040598175637332555,0.000165644512160792,0.040610619362270166,0.0003664133110414574,0.999693584458129,0.00989921189281621,0.012289667926949006,5.890705511625634e-05,0,51.730614549620306,22,3
1,X,1702,0.08424673597572406,0.00018809814552931816,-0.0037167115776421344,0.0003332633053543315,0.11914287660253431,0.0002660109484647899,0.04203292129857767,0.00014729140505461666,0.042784608516078536,0.00031590963732427415,0.982430896446829,0.008029454199897689,0.012553001778806925,5.215818547620024e-05,0,54.25909552825769,22,3
1,X,1734,0.08517325790389438,0.0002144255529763444,-0.004899177512453066,0.00037406888136628114,0.12045317647918885,0.00030324352513849684,0.04080384780733017,0.00016434020000582848,0.040990998725772124,0.00033762088664626423,0.9954343410929316,0.009126598354952609,0.012319960361234885,5.8515541075498735e-05,0,78.31847555833332,22,3
1,X,1755,0.08813405930050429,0.00022618257420750585,-0.005425834762012549,0.00040045268653667894,0.12464038196976779,0.0003198704640167138,0.03467627191401876,0.00014970341990929234,0.034718705791182844,0.00031934943704964584,0.9987777805595834,0.01014852439173972,0.010833807267311412,5.441128912892934e-05,0,33.55939197036451,22,3
1,X,1776,0.08519230582510977,0.00020207842435879402,-0.00492249215035677,0.00036434724735286497,0.12048011430770666,0.00028578204839119214,0.04062590030227394,0.00015656772475399803,0.040473032634237016,0.00031855014987474507,1.0037770252952978,0.008796661851124416,0.012268975620599278,5.552165449458332e-05,0,50.0890377962102,22,3
1,X,1797,0.08373898107577087,0.00019944825926710357,-0.005114589519839022,0.0003811018356989887,0.11842480273665912,0.00028206243324724323,0.04236240201953969,0.00015430721789605066,0.042359190760557115,0.0002722317189719552,1.0000758102061187,0.007387794350413122,0.012575150213627297,5.472875207267185e-05,0,37.74755099177779,22,3
1,X,1818,0.08703559651091515,0.00021037487198897082,-0.005297162583935877,0.00041466476305173115,0.12308692099496865,0.0002975149971493063,0.035685694983975405,0.00014368667075426007,0.035583011144792835,0.000322997249693198,1.0028857546306222,0.009958885956728817,0.011010220111849933,5.1706713085189105e-05,0,30.68766145390752,22,3
1,X,1839,0.08893142021614175,0.00021570231100808998,-0.004391903598295623,0.00042146128456072024,0.12576802059076853,0.00030504913366286024,0.033002553268223926,0.00012760672103106753,0.03248958450052469,0.00023221247091555062,1.0157887143090718,0.008254439465902383,0.010404176250281984,4.7488399485885666e-05,0,48.88608644684478,22,3
1,X,1860,0.0847945111398968,0.00018605986952784526,-0.005259429993990023,0.00034080097857240626,0.11991754766883855,0.00026312839089964735,0.04042898562612615,0.00015721643066143892,0.04054236756411828,0.0003234118245942645,0.997203371564011,0.0088496768364819,0.012152496862817753,5.426160019782046e-05,0,34.74954318310796,22,3
1,X,1881,0.08426611331458753,0.0001934030256654768,-0.004332857951293765,0.00035921644313593266,0.11917028029795773,0.0002735131819001091,0.04110281657608762,0.0001601175908155324,0.04145864401427694,0.00029216678279298,0.9914172919387624,0.00798309805784182,0.012278052272321434,5.5513787894265505e-05,0,33.822074230647395,22,3
1,X,1916,0.08624840062728344,0.00020375316582281955,-0.0038646745281381988,0.0003800425796568176,0.1219736579000924,0.0002881504904830856,0.04032004999420415,0.00014890033611385302,0.04032865202753234,0.0002694327384725815,0.999786701689848,0.007632029206096943,0.012327557709749378,5.404321025292394e-05,0,48.04533149990263,22,3
1,X,1937,0.08699006418356477,0.00023775919572763873,-0.0037710879728966706,0.00040984456547585513,0.12302252856010332,0.00033624227917694594,0.03590100857017232,0.00014736703226440122,0.035761310403734425,0.00034416179667970566,1.0039064051305935,0.010503575289338896,0.011070856785889762,5.4596014672499154e-05,0,23.276157748738207,22,3
1,X,1958,0.08642810665263409,0.00020750135326047663,-0.0041210266823495535,0.0003990634662051317,0.12222780059838345,0.00029345122799173673,0.04049448113500739,0.00014766295663152168,0.0405967493999281,0.00024005073709792814,0.9974808755274163,0.006929522648155983,0.012406685399512517,5.416628219250683e-05,0,46.43789894368598,22,3
1,X,1979,0.08505001585426696,0.00020888557363103516,-0.004475387279799249,0.00038573890514878047,0.1202788859011511,0.0002954088112130937,0.04156287034688729,0.00014989281542944025,0.04220706423043219,0.0002842936561830564,0.9847372970546381,0.007523786696730383,0.012530974995047527,5.4676275794351146e-05,0,57.51168020804906,22,3
1,X,2000,0.08565530983860453,0.00020161061836043752,-0.003612565944468048,0.00038272424563946903,0.12113490086302414,0.0002851204708037569,0.04074542504730493,0.00014318118700816675,0.04108298882824141,0.0003580179947112078,0.9917833684801329,0.009319129907105567,0.012371947688173235,5.2327061779312225e-05,0,68.19758710954999,22,3
1,X,2021,0.08457480750099225,0.00017535257055951146,-0.004051741277242408,0.0003292887914579165,0.11960683980299702,0.0002479859834822462,0.041588236431596745,0.00012869246538458292,0.040991958780472335,0.0002592502952842785,1.0145462102535208,0.007143287973052204,0.012468564443853549,4.644324127175774e-05,0,55.09914582163645,22,3
1,X,2042,0.08580731263123749,0.00021009339785558716,-0.0032767938602048068,0.0003648068959853736,0.12134986527388425,0.0002971169326124179,0.04052050875784576,0.00016114609196789468,0.040531677743205714,0.0004084587204226661,0.9997244381189766,0.010830856153152142,0.012325487971959192,5.7562232980224294e-05,0,47.5358743556159,22,3
1,X,2063,0.08427795202541911,0.00019922964770484287,-0.0034437254165918182,0.000344418801557006,0.11918702276337678,0.00028175326981100257,0.042069675986507335,0.00016163431372152095,0.04220042841252035,0.0003930869910078719,0.996901632733799,0.010044804440625355,0.012568633799371365,5.669797749791485e-05,0,48.70351736195099,22,3
1,X,2095,0.08609715855181163,0.00021278249965921687,-0.004001279727194623,0.00042253901430833256,0.12175976930575871,0.000300919896853713,0.040389646308503425,0.00014456490261675266,0.040746301641697104,0.0002263617096528997,0.9912469274799482,0.006550744825220785,0.012327181796614869,5.3618293533312735e-05,0,52.184268096317226,22,3
1,X,2116,0.08495737774795944,0.00020714949039117112,-0.003225852835106076,0.0003812022573659715,0.12014787583481845,0.00029295361874986936,0.04187304190010413,0.00013922153318365782,0.04169391908645936,0.0002622110342881686,1.0042961376039832,0.007144318090221015,0.012610739162511174,5.199511418041689e-05,0,35.75812358798461,22,3
1,X,2137,0.08610140136916293,0.00022443329056386543,-0.004159621519414306,0.0004230622040606943,0.12176576955559959,0.0003173966033634401,0.04062038346547954,0.0001722662389247002,0.04065108810772496,0.0003214546477836373,0.9992446784655786,0.008966295123462361,0.012398215218854768,6.171712006255914e-05,0,60.6680066760969,22,3
1,X,2158,0.0843991659940548,0.00019720855341375272,-0.003724191161820609,0.0003568114200148967,0.11935844520177041,0.00027889501085370805,0.04186058222873662,0.00015826988550646362,0.042083524989966946,0.00036195953029853183,0.9947023743547273,0.009345540249698706,0.012524152629386035,5.566537499260292e-05,0,36.682273693599704,22,3
1,X,2179,0.08656746020284097,0.0002012247959059974,-0.003960284025500236,0.00034929730645037515,0.12242487627905085,0.0002845748354560196,0.04035687081703552,0.00013087651069934483,0.04126474195157871,0.0003263687194324071,0.9779988655785484,0.00836011428382439,0.012384460508456721,4.941407392597295e-05,0,90.6303697866781,22,3
1,X,2200,0.08428014462315706,0.00019790296109599502,-0.0036150709689463404,0.0003572336871852736,0.1191901235648346,0.00027987705161575116,0.04198109626208533,0.00017276261560325506,0.042405442759885635,0.00037474039123036005,0.9899931124359883,0.009650746656304665,0.012542496237375987,5.942695503302026e-05,0,42.26983432174138,22,3
1,X,2221,0.08614496241341607,0.0002024909812220606,-0.004163546208785232,0.0003661642358496347,0.12182737417517353,0.00028636549190247385,0.04023096528860953,0.00016529107264540998,0.04077210614052586,0.0003529863471429676,0.9867276698914886,0.009455780867271722,0.012285568871547088,5.81530073263655e-05,0,22.688307038094703,22,3
1,X,2242,0.08485341333599505,0.00021091673111120674,-0.004280502168900907,0.0003724413241420673,0.12000084795341426,0.0002982813016688679,0.04200745489256501,0.00016096747792973296,0.04235288812451334,0.00032559463991526017,0.9918439273625733,0.00851966942444713,0.012635738188492337,5.771338097315377e-05,0,68.25731358201277,22,3
1,X,2274,0.08573332111359752,0.0001951204434089118,-0.0039240433723725324,0.00036343874139565255,0.12124522546613725,0.00027594197736513504,0.04062040145756436,0.00015090451963126653,0.040730700057384564,0.00024128514957003183,0.9972920033374136,0.006973483881471579,0.012345218782756308,5.378449972635108e-05,0,56.65224843453792,22,3
1,X,2295,0.08452610522571781,0.000187649283393793,-0.0036642820461911412,0.0003400657979882292,0.11953796438478548,0.00026537616154509447,0.04166263077484935,0.00015245332081176063,0.041641654937444976,0.00030677704305210555,1.0005037224729874,0.008229940425534894,0.012483675755623227,5.343022604935449e-05,0,37.38290727013467,22,3
1,X,2316,0.08523687442891494,0.00020855590203658767,-0.0037915640317142574,0.00036522685416886375,0.12054314383166398,0.0002949425851730969,0.04115838598238977,0.0001600061221095014,0.04184299246608659,0.0003522346776703564,0.983638682528462,0.00912062095402934,0.012436288368237179,5.71256775302113e-05,0,42.094153318108596,22,3
1,X,2337,0.08468418898465138,0.00019293309813758267,-0.003927989393870423,0.00034222855350524774,0.11976152858066025,0.00027284860401682876,0.04081101821230005,0.00016249227401003556,0.040773837953530914,0.00039697352006044643,1.000911865564667,0.010528260405507951,0.01225137109839578,5.620090390071132e-05,0,42.35733634713525,22,3
1,X,2358,0.0868756586416474,0.00020833151310127492,-0.004475638134115766,0.00040803449861114287,0.12286073469111314,0.00029462525129753114,0.03676117434766463,0.00014252841397871714,0.036999910417736266,0.00026032394795187235,0.99354765815981,0.007981517114862828,0.011321198855928426,5.1611336535966376e-05,0,26.096674748672356,22,3
1,X,2379,0.08420723154933506,0.00021385307757871522,-0.003919422532033431,0.0003732272800622353,0.11908700890696122,0.0003024339226670447,0.04141383293526517,0.00014708092562015998,0.040812271679881926,0.00036230477795067743,1.0147397150568263,0.00970233524152075,0.012362313381952622,5.397490258793453e-05,0,41.66825394756512,22,3
1,X,2400,0.0852789622587847,0.0002091341966861488,-0.004032866480698763,0.0003738743818900049,0.12060266501147665,0.00029576041730955405,0.04110196887658741,0.00013312742177933493,0.0410772341967348,0.0002614203271244656,1.0006021505667628,0.007145225243603059,0.01242537386297401,5.047955251125362e-05,0,44.39438255555789,22,3
1,X,2421,0.08433103087340889,0.00021585111382579805,-0.004494407016561661,0.00038194808661586645,0.11926208759007906,0.0003052595726257823,0.042336442167034236,0.00016916240969942805,0.042382713641012724,0.0003341389248599574,0.9989082465466838,0.008828927808559083,0.012656298221628705,6.005645630308743e-05,0,58.07712796622732,22,3
1,X,2453,0.0855884588539459,0.00019974859727849096,-0.003521215421025329,0.00034588070355467666,0.12104035929386192,0.00028248717533624346,0.04023367246715934,0.00014502282247102927,0.04043136106492922,0.0002826266977670051,0.9951105134093208,0.007826440735012844,0.012207024450344614,5.241813999103276e-05,0,63.17734863943927,22,3
1,X,2474,0.08441909994344599,0.0001898144618240429,-0.0041920794435817066,0.0003632171949781727,0.11938663606335109,0.0002684381862461116,0.042205009319712945,0.0001612559293521462,0.04207180132721721,0.000379633225348794,1.00316620606424,0.009830065076237255,0.01263018320001766,5.599316318768775e-05,0,68.09046382455755,22,3
1,X,2495,0.08532120083796055,0.00019373015118719889,-0.003966754107542997,0.0003412181960331585,0.1206623993830025,0.00027397580724952686,0.04048716770738247,0.000149942321247009,0.040408240913230656,0.000297832083578448,1.001953235091854,0.008264807358384809,0.012245577969021005,5.3195979306259696e-05,0,47.98480547018494,22,3
1,X,2516,0.08413185277519612,0.0001888395519818077,-0.003994768759151458,0.0003253903585322211,0.11898040722225889,0.00026705945552513155,0.04214356961604351,0.0001351709445859538,0.04234169918651591,0.00021437796701509297,0.9953206986427342,0.005965434229503862,0.01256888357300939,4.920431766636454e-05,0,58.11098732761323,22,3
1,X,2537,0.08574610934664623,0.00021123584824425928,-0.004140314662027016,0.00037517160131668665,0.12126331075875352,0.00029873260144641645,0.04044575203066316,0.0001601692779395714,0.040870313876037706,0.0003021769930046104,0.9896119749248252,0.008300189381085545,0.012293973435030726,5.733692635929871e-05,0,47.84178879118395,22,3
1,X,2558,0.08337232657322875,0.00018667422948811675,-0.003890713746888017,0.00034708060311689593,0.11790627496645889,0.0002639972270876423,0.04274826176318983,0.00014410695194483017,0.043049509413019396,0.00026700936276861654,0.993002297727963,0.007009889218225216,0.01263412917958224,5.112899372695904e-05,0,86.42645922441262,22,3
1,X,2579,0.08544072664073804,0.0002082042818105483,-0.003035522832000235,0.0003753695402038509,0.12083143439434396,0.0002944453190806273,0.04058244478533947,0.0001516828568801946,0.04054695419080051,0.000363274740525027,1.0008752961904845,0.009716232669527505,0.012291590176171817,5.484326869872791e-05,0,19.107588836524577,22,3
1,X,2600,0.08370170415071872,0.00019453432336848987,-0.003739622061181461,0.0003604057181494355,0.1183720852036868,0.0002751130784547917,0.04222030478056798,0.00015504990254847057,0.04279664482114704,0.00031455769464715374,0.9865330555003163,0.008105786902033075,0.012527389951704576,5.444466149573937e-05,0,55.01620945343013,22,3
1,X,2632,0.08640371832953804,0.00021423786791560661,-0.003891510481672114,0.00040547793248420997,0.12219331030109748,0.00030297809838014667,0.0399926234998028,0.0001418824607267021,0.0399927770618108,0.0002762724249531417,0.9999961602564443,0.007765763955850027,0.012249468890960942,5.301940135673742e-05,0,61.17983758376052,22,3
1,X,2653,0.08470339913571284,0.0001939273957607779,-0.004118090769751645,0.0003622264332922375,0.11978869583682661,0.0002742547532005868,0.04191468742319846,0.00015070431345139796,0.04233754312517463,0.0002566478994353096,0.9900122758487435,0.006977642672389094,0.01258554429924282,5.364658768584925e-05,0,53.99551514361315,22,3
1,X,2674,0.08853738221434733,0.00022529395318670865,-0.004049425697995482,0.0004027177141877473,0.12521076670454045,0.0003186137641172926,0.03733551718408959,0.00014571659120276754,0.03801479756176641,0.0002499258350199752,0.982131158884297,0.00750901986813468,0.01171800774594864,5.459595169796919e-05,0,58.64039372302486,22,3
1,X,2695,0.08234604159061958,0.0002035248310589059,-0.003029965098827687,0.0003568261976207656,0.11645488882519317,0.00028782757636319767,0.04329122330542555,0.00015525509154946249,0.043205747834228876,0.00036151233891857797,1.001978335649336,0.009121416298015954,0.012637102771024915,5.504066661510787e-05,0,45.32740567296917,22,3
1,X,2716,0.08951717206623595,0.00023581927002083405,-0.0035332793741452134,0.00043332466137391084,0.12659639880135687,0.00033349880993238656,0.036786953710652485,0.00017053827077306497,0.0375132146088165,0.0003612074578973351,0.9806398650252349,0.010479772661959784,0.01167360816696252,6.224425971223109e-05,0,57.38061481238747,22,3
1,X,2737,0.08263800821564973,0.00020367197425081037,-0.003097802577001109,0.00037248788795318696,0.11686779198607111,0.00028803566826079985,0.042662908424474615,0.00017930212882432856,0.04253108709386275,0.00036393804995643695,1.0030994112687726,0.009562925373904428,0.012497847814614323,6.089109546689222e-05,0,34.24206937133772,22,3
1,X,2758,0.08551892378577941,0.00019936091389708566,-0.004013299443427804,0.00036433189714493204,0.12094202185740033,0.0002819389082403534,0.04098878912428949,0.00014304282353560147,0.04086167769246296,0.00030720421629629196,1.0031107736883251,0.008314409157220195,0.012426025702740706,5.214961666417083e-05,0,38.751854546311385,22,3
1,X,2779,0.0845751530698698,0.00019942217064633342,-0.004689236815261562,0.0003751358555702945,0.11960732851119038,0.0002820255383659265,0.04234474002097157,0.00017011817696800386,0.0420156328524373,0.0002841893201296678,1.0078329694494934,0.007928656904191433,0.012695423571833347,5.913913243872025e-05,0,43.12733825825133,22,3
1,X,2818,0.08495365870633985,0.00020692378172857678,-0.003254370442122767,0.0003831401815156349,0.12014261631572098,0.00029263441849808336,0.04066360115382656,0.0001457390421800136,0.040930226280269724,0.0002929846700696296,0.9934858623888995,0.007953118354364436,0.012245960559817737,5.306605364883163e-05,0,64.73227258342021,22,3
1,X,2839,0.08324662536131308,0.00018586320238991744,-0.0037532726268514807,0.00033185858656131095,0.11772850660776102,0.00026285026156591673,0.042144209257735404,0.00015388225422567305,0.04218678989662463,0.00038794741254491536,0.9989906641630338,0.009884334551406622,0.01243682372569189,5.322764350841794e-05,0,27.494367999074946,22,3
1,X,2860,0.08492990755552723,0.0002111678890276043,-0.0036711886139459875,0.0003927142719395227,0.12010902711611982,0.0002986364926005347,0.041097980469818794,0.00016535481629925027,0.04098402132504723,0.00034216940517037736,1.0027805749920866,0.009293523584805155,0.012373314870763196,5.8522065227661624e-05,0,68.51410155812586,22,3
1,X,2881,0.08317101056897712,0.00021471999794047298,-0.0031404246219507922,0.0003858122428002603,0.11762157114292349,0.00030365993320013995,0.042350036404484544,0.00014508162153459037,0.04256466987293888,0.00042626393038140166,0.9949574736725306,0.010530869483465662,0.012486211827042008,5.3561243754502874e-05,0,39.457214504616175,22,3
1,X,2902,0.08438591708577516,0.00020380312720543365,-0.002631776640674629,0.0004060498200188526,0.11933970841599473,0.00028822114654797337,0.041538633398808075,0.0001507021983797361,0.04119275289622263,0.0002552934924090901,1.0083966348026514,0.00724165141710285,0.012425878733195441,5.415638293083002e-05,0,31.786971713243826,22,3
1,X,2923,0.08275648172442969,0.00021337556925740277,-0.0038942478015743425,0.00036825911575556313,0.11703533882896966,0.00030175862392289865,0.04292717817487467,0.00016078966052546684,0.043391821811219,0.0003282205099960491,0.9892919076233808,0.008350324694105984,0.012593292537488502,5.726517234507853e-05,0,60.07656626949086,22,3
1,X,2944,0.08653241361412149,0.00020877488050335318,-0.0038532234751277386,0.00039818264580329714,0.12237531291796888,0.00029525226749066436,0.04013032772346324,0.00015873835441702287,0.04031654851050733,0.0003245395919125903,0.9953810334980546,0.008927718761488094,0.012309954732593992,5.703583100416248e-05,0,89.33909862220246,22,3
1,X,2965,0.08515628990150304,0.00020657727339484477,-0.0036733656559740395,0.0003738783034526438,0.12042918010008064,0.00029214438171304424,0.041471990251089066,0.00015132077138963867,0.04175955416876425,0.00023373863424240669,0.9931138173431392,0.0066354979089225654,0.01251919896289653,5.485373625344115e-05,0,46.037438796715016,22,3
1,X,2997,0.08447445136427692,0.00020063782793007775,-0.0038311408520715186,0.0003866924596946153,0.11946491479338683,0.00028374473738379535,0.039876305628036415,0.00014952575281702504,0.039953040080617654,0.0002603301773270548,0.9980793838860221,0.007503376763202203,0.011941124538955522,5.3002708289704996e-05,0,28.70025302574866,22,3
1,X,3018,0.08300149720594228,0.00019568796606233793,-0.0030724190056717134,0.00033693561704043883,0.11738184304591615,0.00027674457559856425,0.04163373783853373,0.0001423928317582049,0.04149406947827585,0.0004130519439912325,1.003365983669811,0.010561064280998043,0.012250004876545133,5.088661382474626e-05,0,59.370443740529026,22,3
1,X,3039,0.08447869624434935,0.00021192339212267367,-0.0033842139458003097,0.00041384057401975405,0.11947091796035592,0.00029970493532399667,0.04122530018859057,0.00016772512163822976,0.04179432136188865,0.00028334116826087225,0.9863852036650855,0.007798882931035361,0.012345706882123846,5.900908477221796e-05,0,62.770679365483716,22,3
1,X,3060,0.08299875914277502,0.00018788394066136503,-0.003113032608207834,0.0003539751882864058,0.11737797083985035,0.00026570801703540425,0.04252806475120611,0.00014654400736338846,0.041918593565565515,0.0003235608758248235,1.0145393996744503,0.00857591342129016,0.012512732265979225,5.158826091354755e-05,0,60.73692816195796,22,3
1,X,3081,0.0843892117908037,0.0001975179591069112,-0.002379673133631609,0.0003707909005810416,0.11934436783253011,0.0002793325765812482,0.04122547828126051,0.00015391675358968006,0.040967061447485895,0.0003686942858952151,1.0063079172545941,0.00980493110480562,0.012332682911222127,5.4344327141054236e-05,0,49.723186649681885,22,3
1,X,3102,0.08208522447395043,0.00018181098119110357,-0.003479573881790116,0.0003198987326698287,0.11608603772150061,0.00025711955538881837,0.043280483119094264,0.00016039670795714927,0.04302111861438592,0.0004221650795654861,1.0060287717535457,0.010552697377226737,0.012593951663665037,5.437337077868775e-05,0,68.3771695582064,22,3
1,X,3123,0.0853640091519763,0.0002056938021887981,-0.004656134634118757,0.00037286810294583696,0.12072293948126589,0.0002908949647514869,0.040578535564983954,0.00015498386914381194,0.03999959306062287,0.0003183852352680984,1.014473709857089,0.008956400658621164,0.012279370560374328,5.54528684197819e-05,0,49.69333309089972,22,3
1,X,3144,0.08336253267353735,0.00020343531044373966,-0.003175506242677713,0.00036893886493220157,0.1178924243006868,0.0002877009750951176,0.042791290018572084,0.00017838097609357506,0.0432806680740022,0.0003887235460632998,0.9886929181732276,0.009789760819298323,0.01264536041195479,6.108227404081205e-05,0,50.37728636293194,22,3
2,Y,103,0.08411817801974263,0.0002407289875090577,0.001859218005031782,0.00038678715607493096,0.11896106819763441,0.00034044219899165284,0.03495296356999223,0.0001492597843688234,0.03555659577543476,0.0003504734241159256,0.9830233408941931,0.010559681561196122,0.010422665350925647,5.357834796854978e-05,0,111.66882678473092,22,3
2,Y,124,0.07509974286521609,0.0001998667503374065,0.002176854737933841,0.0003358933614008245,0.10620707489072068,0.00028265426899459767,0.04077428197888274,0.00015832556384286507,0.04163566917473631,0.0003040824580580132,0.9793113161640683,0.008100351206115896,0.01085499690679316,5.1099592126438444e-05,0,125.85172722752705,22,3
2,Y,145,0.07707854558749672,0.00021999565665175251,0.0026222453652537526,0.0004106211932585353,0.10900552453783074,0.0003111208413000832,0.03966354540221255,0.000182992934746596,0.04045968784329218,0.0002952803768584186,0.9803225757904204,0.008464243851428563,0.010837521576423807,5.87948274300771e-05,0,103.343210386009,22,3
2,Y,166,0.07475284033661503,0.00022214483510092368,0.001994101766201251,0.00037584011019577764,0.10571648062995154,0.00031416023861086106,0.041319975494545164,0.00018282917299737524,0.04215380533824035,0.0003582072765112733,0.9802193458691435,0.009391082721103528,0.010949459617575968,5.8360990280708886e-05,0,91.49953123609082,22,3
2,Y,187,0.07667835318252653,0.0002129024839536679,0.001700995448026519,0.00039304046877557667,0.1084395670111632,0.0003010895802701974,0.03974471360007448,0.00015143874626358546,0.040474370232987736,0.0003199055572434793,0.9819723783541772,0.008616212527455244,0.010803316032178793,5.093348235664925e-05,0,107.1044299565583,22,3
2,Y,208,0.08140471665696193,0.00022519917489281384,0.003034876602249575,0.00039829137904079755,0.11512365433741456,0.00031847972736864794,0.03774240092152022,0.00016127738892113706,0.03827475458499696,0.0003011504733802159,0.9860912586050802,0.008829059244569715,0.010891407932949706,5.544198205924217e-05,0,121.97047575363575,22,3
2,Y,229,0.07661115301866676,0.00019627409454279183,0.003007650269150927,0.000356880530749439,0.10834453162803903,0.0002775734864449153,0.03964734200991126,0.00018268716259600083,0.04073503132531152,0.0003691009555376177,0.973298429385903,0.009893900327293648,0.010767403986456696,5.6767252192674696e-05,0,130.61144766936178,22,3
2,Y,250,0.07445570026128148,0.00019108375390737187,0.002576076282653672,0.00031712931092155844,0.10529626110549029,0.0002702332363249682,0.041419573713576706,0.00015517646894718686,0.04254927385008545,0.00029154651486450493,0.9734496024423581,0.00760197787498282,0.01093222368968845,4.9645249230422816e-05,0,218.825155354149,22,3
2,Y,282,0.07628043634450966,0.00022033455059620907,0.0025362035534001676,0.0004032233556091145,0.10787682762214312,0.0003116001097125398,0.039501912835143496,0.00019645582430175953,0.04107540247822801,0.0003429663273182326,0.9616926542857726,0.009346299721362025,0.01068159794287473,6.143290956107643e-05,0,144.8084029516557,22,3
2,Y,303,0.07412964901314661,0.00020892172656958695,0.002201948191548655,0.0003614358922640457,0.10483515500834928,0.0002954599391891133,0.04132623678340063,0.00018106445813544897,0.0424573919909233,0.0003745675713993233,0.9733578735178908,0.009587815890014076,0.01085982271605823,5.657451958091229e-05,0,159.76909635754924,22,3
2,Y,324,0.07589722546315805,0.00020442879778048798,0.0022077858593946885,0.0003656659825922619,0.10733488559648674,0.000289105978360793,0.040246498476679646,0.00016729931753665123,0.04086735432342118,0.00030153976813561607,0.9848080244728316,0.008340213426799619,0.01082826644823599,5.363485732453206e-05,0,160.27734841625625,22,3
2,Y,345,0.07452584355150076,0.00020456658702469144,0.0022437448619706856,0.000364422303342437,0.10539545869782785,0.00028930084177869464,0.041645691864186034,0.00016342991950694827,0.042075886460911496,0.0002811091442286877,0.9897757449002266,0.007669062446798508,0.011002260257793727,5.268991502810619e-05,0,138.40106829441137,22,3
2,Y,366,0.07556916854534985,0.0001956633428067006,0.0018103912917941149,0.00032667381003794013,0.10687094305409206,0.00027670975305649215,0.04043505222944156,0.0001801661154942113,0.04112897917743443,0.0003320100996657997,0.9831280289014905,0.009064900797974729,0.010831973386860823,5.582105790311525e-05,0,149.93368288655006,22,3
2,Y,387,0.07466213545950325,0.00020876716053164026,0.002638841255165941,0.00036255990100626367,0.10558820456256668,0.0002952413498019668,0.04151640039393482,0.00018358112727197764,0.04243826328195732,0.0003252622903329851,0.9782775538693065,0.00865627060824335,0.010988161427977013,5.7487777391475256e-05,0,171.28361001057442,22,3
2,Y,408,0.07580518003693489,0.00022040391445702617,0.0019136219476527285,0.0003629063468342786,0.10720471370636753,0.0003116982050252459,0.04011627702887436,0.00018428649977673167,0.04070207156644754,0.00039753327693600087,0.9856077463620776,0.010637968821517142,0.010780140900378628,5.860735523534532e-05,0,138.122201263195,22,3
2,Y,429,0.07478599599532611,0.00021081474930710207,0.002668911643608138,0.0003767211674643163,0.10576336981217016,0.0002981370776183878,0.04142850913226702,0.0001808977817287721,0.042192176707684284,0.0003754874869014046,0.9819002565165551,0.009733534647852352,0.010983089402591907,5.708312027368673e-05,0,146.24197026390934,22,3
2,Y,464,0.07609613660311158,0.0002262078719169663,0.0023166047511715155,0.00035237466428166757,0.1076161884283161,0.00031990624038052973,0.03941857060743829,0.00016869251206131004,0.03996426623454468,0.00031896405562439515,0.9863454110753896,0.008932518254320633,0.010633308452030714,5.540656027423702e-05,0,105.87703258666117,22,3
2,Y,485,0.07535857245297303,0.0001892070975443752,0.0030065873929868803,0.0003485454003869526,0.10657311520406998,0.00026757924344450457,0.041095820430276445,0.00015403332593872984,0.04189555028462388,0.0002300135304019301,0.9809113414452288,0.006520704126764429,0.010978303930870835,4.9527284683074906e-05,0,156.81247744187618,22,3
2,Y,506,0.07570177374131658,0.0002406628502959908,0.0025776630708536285,0.00041608335003895077,0.10705847512066935,0.00034034866684795606,0.04026386195664013,0.00020469015469664037,0.041088530798298446,0.00042049067415441185,0.9799294638762682,0.01119756680892773,0.010805040917722547,6.478594682520449e-05,0,112.74545527427517,22,3
2,Y,527,0.07494710892557033,0.00020060742518274486,0.0019233033777229644,0.00037757450416072905,0.10599121790319521,0.00028370174140618376,0.041493159001169774,0.00016360738832211732,0.04198495347723104,0.00026294197896051106,0.98828641131333,0.007313951965919296,0.011023926701275048,5.2536495183077485e-05,0,100.65355680867269,22,3
2,Y,548,0.07586955141879399,0.00021570818980460086,0.002393735855269557,0.00037396260502293505,0.10729574858762136,0.00030505744753661634,0.04065574365148481,0.00018759921158593057,0.04147428893002783,0.00036424349216161673,0.9802637899368448,0.009725012577967108,0.010934384906716525,5.9263521822852085e-05,0,125.94859884343484,22,3
2,Y,569,0.07422352846154147,0.0002022098067820376,0.0037385050952444382,0.0003477164450314994,0.10496792059749738,0.00028596785119600066,0.04204630033686016,0.00019289673874756452,0.042411719086268555,0.0003458058980542827,0.9913840146713906,0.00927500568270446,0.011063035762308772,5.9028525622961054e-05,0,93.05075728316844,22,3
2,Y,590,0.0755534037340298,0.0001872285848833996,0.0031597003407119848,0.0003517139664750289,0.106848648244115,0.000264781204006026,0.0405063824628531,0.00016943551537284404,0.040962372493963776,0.0003223145215909543,0.9888680756668117,0.008812086981473913,0.010848818047212013,5.274567096038183e-05,0,86.99324737179349,22,3
2,Y,611,0.0744704744688073,0.00019156746462654998,0.0029032296298546274,0.00032946951501938476,0.1053171549901466,0.00027091730658429514,0.041297810671246535,0.0001844715830925431,0.042158176366788494,0.00035768016331590066,0.9795919612827527,0.009392606808448233,0.010902248623136365,5.619690203827036e-05,0,139.7792598519005,22,3
2,Y,643,0.07707172534247737,0.00021807716393089594,0.002671438038369041,0.00038426106610576696,0.10899587925482568,0.0003084076828749338,0.039152329531449766,0.00016959578262918485,0.04038231612965206,0.0003373491109281469,0.9695414548721455,0.009123528919706424,0.01069689223679416,5.53452431391985e-05,0,121.39286415490389,22,3
2,Y,664,0.07581689228816874,0.00019549831347026356,0.0023199285768347724,0.00035188366998454163,0.10722127733090836,0.0002764763663307135,0.040773577637412524,0.00016812123282688041,0.040877828838789036,0.00028234448332969134,0.997449688392511,0.008023650756463824,0.010958465147477588,5.32929384743442e-05,0,96.93810877779912,22,3
2,Y,685,0.07618826272830673,0.00022200639974561743,0.003394312824228317,0.0003939910770722441,0.10774647444401597,0.000313964461453875,0.0398024744500879,0.0001872062734711589,0.04020798467461567,0.0002890819580792664,0.9899146841651136,0.008504807457969117,0.010749866601829333,5.947769327861051e-05,0,92.81888655546814,22,3
2,Y,706,0.07929049546580852,0.00019219264506387888,0.00300559415719796,0.00035089756456519713,0.11213369405502882,0.000271801445237696,0.0389992166662929,0.00017868218955384332,0.03952320371185288,0.0003720914480443797,0.9867422932265271,0.01033137465019415,0.010961801856758433,5.681891023099519e-05,0,50.09974059880853,22,3
2,Y,727,0.07573315880557893,0.0002109027011280798,0.002179455285996901,0.0003714573790036235,0.10710286030420513,0.00029826146027644995,0.04048092938068485,0.0001883315438034178,0.041528536099020054,0.00040708601866454026,0.9747738105711864,0.010576838860462066,0.010867796013200691,5.892667550481188e-05,0,156.9250116052247,22,3
2,Y,748,0.0741913801388821,0.00020348226919645164,0.0023622110213823606,0.00035092061922830953,0.10492245600358496,0.000287767384800075,0.042006294400153465,0.00016966359562336914,0.042188144331652334,0.0002918268363218256,0.9956895489389318,0.007975603509751138,0.011047722421496218,5.393707843231836e-05,0,137.8317376134233,22,3
2,Y,769,0.07553249055345151,0.0002174529455335716,0.002689459573672101,0.0003870241790198413,0.10681907254050882,0.0003075249047515549,0.04020433980247593,0.00016891215205320188,0.04107166355416652,0.00026244753374588334,0.9788826729517119,0.00748594052954281,0.010764941448378303,5.4826768443944246e-05,0,159.0817163163575,22,3
2,Y,790,0.07441320573238953,0.00019086312128107968,0.002519671327031279,0.0003553933520203316,0.10523616476640463,0.0002699212146725638,0.041331011130058264,0.0001645541431643487,0.04201727186386708,0.00036882110201627577,0.9836671753455996,0.009481137660005126,0.010902622536945059,5.16352681120484e-05,0,94.79404297299054,22,3
2,Y,822,0.08185620756146453,0.00021236479966312076,0.002932708950140104,0.0003643561297646639,0.11576215889785024,0.0003003291798542307,0.036392853820030324,0.00014410039720514712,0.036847038829348054,0.0002758894465950069,0.9876737717942213,0.008365533038032965,0.010560212676433723,4.9990081871418764e-05,0,93.87678550137849,22,3
2,Y,843,0.07847549135149483,0.00020792164725774427,0.0030958937108166488,0.00036963642018528404,0.11098110418317653,0.0002940456134628566,0.03942055213855596,0.000158931969828137,0.0393522193308185,0.000309582885179667,1.0017364410165286,0.008855254434620185,0.010966339289596417,5.2905669220315166e-05,0,31.435309426991065,22,3
2,Y,864,0.07540193810399631,0.00023233388170615631,0.0019895661238630512,0.00041137719211821607,0.10663444349588824,0.0003285697265076326,0.040728845812587046,0.0001851292917547032,0.04120636854387675,0.0003605915904968577,0.9884114337622051,0.0097466831091542,0.010886531763654752,5.978181760970994e-05,0,60.91567624484936,22,3
2,Y,885,0.0742559513387397,0.00019551541547902412,0.002420201240647859,0.0003158145340593278,0.10501377347016227,0.0002765005522234465,0.041391940465629606,0.0001863415676152462,0.04201166443741497,0.00037879069721319267,0.9852487641210081,0.009929088101840417,0.010895620928356383,5.682416867143495e-05,0,140.41322418003224,22,3
2,Y,906,0.07607958762999134,0.00021372793103869916,0.0024250921718838962,0.0003815771674963315,0.10759278464608613,0.00030225693873286996,0.04031693812342706,0.00017385954884349065,0.04121670188146636,0.00033773231092455367,0.9781699234299023,0.009057388578997008,0.010873281309613451,5.5961063012246633e-05,0,126.14215170686956,22,3
2,Y,927,0.07438313879165705,0.0002052961232102029,0.0024381436542566773,0.00036448812753358476,0.10519364369104167,0.0002903325617464869,0.041686700284376335,0.0001742575794672631,0.042145117082501814,0.00036999448328159,0.9891228965569583,0.009617699295498624,0.010992005891071207,5.5060337749524445e-05,0,112.75881709634396,22,3
2,Y,948,0.07574432779431974,0.00021135781654129808,0.0021348541854378025,0.0003732278809755484,0.10711865563956036,0.00029890509066626825,0.04053410499072666,0.0001787781781431235,0.0412829071927065,0.0002873394986586904,0.9818616891856848,0.00809057515083009,0.010883676780987893,5.680346211911715e-05,0,110.43252611798168,22,3
2,Y,969,0.07427987969668699,0.00020857610656708396,0.0022496175225279174,0.0003710974772522179,0.10504761327849665,0.00029497115869414614,0.04187756646304041,0.0001640176634501525,0.042825575162478334,0.00024158469995980868,0.9778634917139765,0.006715446283423527,0.011027004714635434,5.3141103911227704e-05,0,165.63081305986276,22,3
2,Y,1018,0.07527864778506314,0.0002082856374183596,0.002981934572294768,0.00036351030281246797,0.10646008465474366,0.0002945603732845692,0.041106483078659474,0.00016921814024113682,0.04157932181354291,0.00030283672330479205,0.9886280315729098,0.008271066214136483,0.010969505824274521,5.440892537446408e-05,0,108.54007665829464,22,3
2,Y,1039,0.07390564155343375,0.00020865877647063827,0.0026536169872578845,0.0003596704310442483,0.1045183606207506,0.0002950880715929527,0.04235171920216297,0.00018977776068412715,0.043537529787638835,0.00037638364872248967,0.9727634849459801,0.00947213929717262,0.011095670922686538,5.8765586009162755e-05,0,132.8063740231802,22,3
2,Y,1060,0.07408980580622586,0.00018174502266613788,0.0014947688190045535,0.00032960733317129697,0.10477880820475349,0.0002570262759482578,0.04180889963296604,0.00017000901205885326,0.04228079343513827,0.00029874985887460713,0.98883905045689,0.008061395283063384,0.010980753084096033,5.2146987080783225e-05,0,88.41587304603952,22,3
2,Y,1081,0.07577251407605527,0.00020197294714734387,0.0031090563810203895,0.000382384941814669,0.10715851706146362,0.00028563288108823803,0.04122736487242397,0.00014972888378670177,0.041290453989388076,0.0002695004308583589,0.9984720653112624,0.00745791377366139,0.01107394101631792,4.988787375804658e-05,0,48.83986459131134,22,3
2,Y,1102,0.07432449693346548,0.00022309427287944494,0.0029325208372952562,0.00035829249969397724,0.1051107115798644,0.0003155029463938752,0.041374651439781286,0.00018225677665638528,0.041739013820744714,0.0004411014311571521,0.9912704602334822,0.011349451304098037,0.010901123465349936,5.8108289112959105e-05,0,75.10195816756277,22,3
2,Y,1123,0.0728023340870691,0.00019610375347699707,0.0026586659213291577,0.00035555369409190764,0.1029580482383502,0.00027733258779943926,0.042977874154212344,0.00017008199273001008,0.04282827005064749,0.00043864561450518983,1.0034931157244489,0.011018294892120537,0.011091624672868962,5.309749169006628e-05,0,96.08493993049342,22,3
2,Y,1144,0.07471220220720613,0.00020548805410397681,0.0021332288832631016,0.0003611859363681408,0.10565900963619201,0.00029060399301950035,0.04137097215474474,0.00018494178870447165,0.04236890417914635,0.0003397989503643858,0.9764465934690663,0.00896547904036912,0.01095701348365057,5.750970788837681e-05,0,124.23719894622403,22,3
2,Y,1165,0.07444349669771876,0.0001917549630207617,0.0028559689716423408,0.0003717518762873891,0.10527900266039059,0.0002711824693563125,0.04120945860691507,0.000177022441770693,0.04213440926596135,0.00035357078617213097,0.9780476177271694,0.009220144303572967,0.010874983463635626,5.447032148468985e-05,0,177.12012256812596,22,3
2,Y,1197,0.07525791028181486,0.00022778747503467194,0.002566168985324389,0.0004038433966437053,0.10643075739640018,0.00032214013653275586,0.04081982081982966,0.0001912550090761877,0.04096872351281359,0.00036819194989086917,0.9963654544194585,0.010098314446172088,0.010890007552641977,6.0744122698561875e-05,0,100.21242692678968,22,3
2,Y,1218,0.07308102567469459,0.00020212532109148006,0.00222769128939005,0.00037280413648801383,0.10335217766128946,0.0002858483703865877,0.04274525095087413,0.0001363339229658171,0.04311774933700054,0.00017957995565689023,0.9913609037611162,0.005200514491813908,0.011073819415695303,4.674947433309005e-05,0,61.822138567749825,22,3
2,Y,1239,0.07422325959891238,0.00020253540559668463,0.0025849589798423475,0.00035599042373194145,0.1049675403683209,0.00028642831745556707,0.041295298891060504,0.00019007283059531066,0.04157045704488149,0.00040663258571109793,0.993380920649395,0.010739017531165334,0.010865396239795756,5.813899479268148e-05,0,118.40040976174028,22,3
2,Y,1260,0.07452857800353192,0.0001811812395131075,0.0024624914027113597,0.00033594686522457064,0.10539932579697597,0.00025622896616700475,0.042642961199475145,0.0001581359924302646,0.04267542145198746,0.00026549202859018874,0.9992393689058505,0.007237092032241052,0.011266139442248862,4.9956070546263385e-05,0,73.75774747994,22,3
2,Y,1281,0.07491990284376462,0.00020060763255898672,0.002704510607049835,0.000369114039800915,0.10595274269332655,0.0002837020346804775,0.04120116372047759,0.00017675671216118693,0.04154624271246595,0.00029565011080962596,0.9916940986847694,0.008240300388418928,0.010942375658826524,5.5337019162413534e-05,0,138.5405542013032,22,3
2,Y,1302,0.0729959473790301,5.912002109070286e-05,0.0017595343872175136,0.00038398385484544146,0.10323185878169716,8.36083356342554e-05,0.0433439884757574,0.00013563141985900403,0.04379386175852234,0.0003079877368331831,0.9897274808683115,0.007618345992980719,0.011215859328979831,3.6253014683524206e-05,0,107.21748908664827,22,3
2,Y,1323,0.07525398399952972,0.000217381748258912,0.0028969049787315165,0.000396840701242852,0.10642520479474282,0.0003074242166001273,0.040821146154269794,0.00016522121569014932,0.04155054685980309,0.0002970484106441045,0.9824454607542378,0.008071087453046053,0.010889792967175032,5.414979833972955e-05,0,124.29081152098564,22,3
2,Y,1344,0.07436012478444741,0.0001892939265955722,0.0018147395303684379,0.0003254234466559109,0.10516109696992126,0.00026770203826631533,0.04107767964171702,0.00016286609645789114,0.04205014949060792,0.0002618986263776935,0.9768735697572704,0.007212405562066153,0.010828067277690456,5.1018657500969535e-05,0,169.79744963228387,22,3
2,Y,1376,0.07612933386309685,0.00022049537606504122,0.0019902248561720665,0.0003813753212556864,0.10766313644362091,0.0003118275512717372,0.04025864853416055,0.0001662362841152177,0.04073496918700313,0.0002737811534380152,0.9883068365497977,0.007795896882791964,0.010864660335845266,5.47982421087098e-05,0,97.36966412337286,22,3
2,Y,1397,0.07790271649752889,0.00019280161393368423,0.0034742492445610468,0.00034543798920053006,0.11017107821651162,0.00027266265727243777,0.03874256010905819,0.00016340994746106495,0.0395458967010658,0.0003616820104428084,0.9796859684816311,0.009867013354062404,0.010699065578579432,5.2321955132493505e-05,0,108.27068903036334,22,3
2,Y,1418,0.07537206516956389,0.00019181416885950163,0.002130520263062574,0.00037064569620728194,0.10659219678686604,0.00027126619905643024,0.04071282846720288,0.00014244308365354586,0.041129642962729605,0.00020111940611965148,0.9898658372526008,0.005951729267538291,0.010877939082714548,4.7062137315015184e-05,0,110.65681417667363,22,3
2,Y,1439,0.08734617490843827,0.00023790241555661024,0.0029745802322472953,0.0004447826843044775,0.12352614517692595,0.00033644482260147823,0.03434713529069664,0.00015423546575840164,0.03451181247676093,0.00029998599852444386,0.9952283819873217,0.009736979056381262,0.010635045290413578,5.585464067091023e-05,0,57.25334878290289,22,3
2,Y,1460,0.0757092852750821,0.00022952507774878387,0.0031224684316037642,0.00039124889582620675,0.10706909803359477,0.00032459747785706927,0.040447837678785,0.00017550422299740146,0.04111964354045281,0.0003717804415561895,0.9836621671827749,0.00986484335074388,0.01085548890260268,5.7460442878648165e-05,0,94.95176923958508,22,3
2,Y,1481,0.07452705736354727,0.00017555623137382003,0.0024783384097100715,0.00034558039597505186,0.1053971752872862,0.00024827400336796535,0.04169056852779839,0.0001533950797288204,0.04208178515324528,0.00022172033657796256,0.9907034213491126,0.006366607600058651,0.011014295487882323,4.8119543367135904e-05,0,84.80622472365094,22,3
2,Y,1502,0.07616855373892116,0.00022186282856528073,0.002362707138038417,0.0003857735092909837,0.10771860172392622,0.00031376142114347694,0.04008651035594898,0.00018645189392833903,0.04110841176626708,0.0003871114260923307,0.9751413064525967,0.01024181263944958,0.010823778415237144,5.940109495461714e-05,0,147.85886193834776,22,3
2,Y,1523,0.08680399868615374,0.00021508499494289613,0.002529474324058961,0.00037122678210005654,0.12275939221017496,0.0003041761169111923,0.03404662342122823,0.0001520444474288662,0.03479385936571236,0.0003111812980828856,0.9785239131816319,0.009781840696387272,0.010476560152493868,5.3505103123191684e-05,0,102.23073278558391,22,3
2,Y,1555,0.08736384296440851,0.0002224379597511449,0.0032886580525088114,0.0003738337027146473,0.12355113158129982,0.0003145747794666698,0.03402790702639739,0.00014223581072858588,0.03399218876625665,0.0003490839825755274,1.001050778471088,0.011099281085406403,0.01053833254831809,5.157851184032446e-05,0,68.86389673773962,22,3
2,Y,1576,0.08371168936709628,0.00021432073525495116,0.002088514053836714,0.000401830131820973,0.11838620643211117,0.00030309529049532546,0.03627943964069117,0.0001360804998328536,0.03699512585921116,0.00031405153016045707,0.980654580788734,0.009101209897353258,0.010765931418004592,4.889201807143656e-05,0,106.47159108965651,22,3
2,Y,1597,0.09013043287402252,0.00023615333734524095,0.0036119182138382457,0.00044201115042495057,0.1274636805530005,0.0003339712524733085,0.03304450547575771,0.00013318642948571265,0.03358648155637802,0.00028392809809504855,0.983863267138877,0.009214189728178925,0.010557853847317434,5.075477714028992e-05,0,66.13429290059975,22,3
2,Y,1618,0.08472617016974615,0.0002379194668392162,0.002295686688691434,0.00040243843053277563,0.11982089894198578,0.0003364689367565954,0.03599853015260575,0.00015457020066489855,0.036439684561500964,0.0003100007646147555,0.9878935722357679,0.0094140403427212,0.01081203085101709,5.5471165374184085e-05,0,51.3676240176384,22,3
2,Y,1639,0.07630365570930779,0.0001837524299480417,0.0021614046623427813,0.00033670991197731905,0.10790966476275032,0.0002598651785515327,0.04047529782401073,0.00014990690910141185,0.041376112766026735,0.00026572558530365143,0.9782286231887001,0.007252214801701749,0.010948139703233595,4.836603496758993e-05,0,113.93714039612225,22,3
2,Y,1660,0.07614226574734428,0.00018495188990382355,0.00320632142197748,0.00031449159879529055,0.10768142488971066,0.0002615614710885228,0.04112327385646749,0.00015971513482874143,0.04163504276031537,0.00037176828344350973,0.9877082171671101,0.009617605807444515,0.011099883222551267,5.0846914169085985e-05,0,112.84775523706506,22,3
2,Y,1681,0.07611134741463599,0.00019528549598801624,0.002514825220684826,0.00034766637248738013,0.10763769976426862,0.00027617539696100923,0.0401817461354669,0.000154085599078115,0.04072033067400766,0.0003198886090967,0.9867735715887851,0.008626106134601233,0.010841344572907582,5.002116002688145e-05,0,163.30518683776026,22,3
2,Y,1702,0.07433386960115242,0.0001837399778259947,0.002620190971596807,0.00034396383098564827,0.10512396653362288,0.0002598475685916535,0.04170539310386536,0.00016414911583519546,0.04227532980762278,0.00032125606781077074,0.9865184563585675,0.008442567672191013,0.010989650794873693,5.1076897853562396e-05,0,137.45867399473352,22,3
2,Y,1734,0.07570810079168364,0.00018119555826292915,0.002479846638689854,0.00033427710644276005,0.10706742292110827,0.00025624921593719874,0.040103860415434435,0.000134677109487759,0.04043211720434049,0.00020948706332460273,0.9918812861753671,0.006124209592142934,0.010763003057855361,4.438438414469449e-05,0,70.49617888964609,22,3
2,Y,1755,0.08823177337860395,0.00023875618044121724,0.002089778739771206,0.00044582746521355034,0.12477857054425112,0.00033765222848036736,0.03375268022627404,0.0001611096442893556,0.03428700048597205,0.000332110792476653,0.9844162437038895,0.010630160275736805,0.010556943692289978,5.792513118388249e-05,0,70.2287856836563,22,3
2,Y,1776,0.0755568034620758,0.00020972372447702808,0.002863879943610961,0.0004051251489737593,0.10685345618562603,0.00029659413550681135,0.04041983411733128,0.00017072465966124067,0.040738819882872715,0.0002809345833681063,0.9921699802189031,0.008023402134262878,0.010826124946046253,5.471737739862061e-05,0,89.24327569860299,22,3
2,Y,1797,0.07388681372572554,0.00019257947256825882,0.0024580346999644063,0.0003174959091705925,0.10449173405145562,0.00027234850194068905,0.04157076822403298,0.00016453116672833742,0.04218343639133216,0.00033541419863188744,0.9854760963138349,0.00875290294374393,0.010888296054279926,5.159951576543877e-05,0,126.45396051290079,22,3
2,Y,1818,0.08646729531605421,0.00023531130018441304,0.0031745481192197974,0.0003946806563012093,0.12228322173768347,0.0003327804321004435,0.034538910065021466,0.00014551143273396771,0.0349082027073704,0.00030467058413786584,0.989421035352503,0.00958886334650481,0.010586817706584102,5.3098029797807903e-05,0,76.31774818856529,22,3
2,Y,1839,0.09247722916314965,0.00023699936124715776,0.0026979189029013076,0.00042047712519300147,0.13078255169321096,0.00033516771094949105,0.03203999891235876,0.00012888902456097465,0.0321950235642909,0.00029599387810952377,0.9951848256416843,0.009987020086003417,0.010503456314005,5.009875634092564e-05,0,54.713888055783364,22,3
2,Y,1860,0.07691972102449528,0.000160388599211175,0.0026223353437988266,0.0003309669546573387,0.10878091268679613,0.0002268237322544664,0.03996959964665015,0.0001550049153344545,0.03998315736359771,0.00036729658518956394,0.9996609142988816,0.009967938639518658,0.010898643094217479,4.798776538559968e-05,0,126.15552631726894,22,3
2,Y,1881,0.0755983085132823,0.0001836929093236236,0.0023824970978557304,0.00032857344309401447,0.10691215319194924,0.00025978100367723966,0.04112716684666647,0.00014981297995789406,0.04140195470822096,0.0002860042867931193,0.9933629254103811,0.007757739613964582,0.011021629389186875,4.8260755100060226e-05,0,104.7209633227805,22,3
2,Y,1916,0.07650336305466335,0.00019829831256776309,0.0029722656497486255,0.0003642882070781091,0.10819209359905768,0.00028043616302902974,0.039604669703121494,0.000160940529060736,0.039549806164873774,0.000419954831657945,1.0013872011918088,0.011385179381093898,0.010740681903076865,5.176967599838151e-05,0,87.86698682477508,22,3
2,Y,1937,0.08716268674666512,0.00022010999166306058,0.0017108556439351266,0.0003865053418723736,0.12326665373001144,0.0003112825354237292,0.03416139011795907,0.00013839034182571892,0.03449313319679454,0.00024451775393699446,0.9903823443076984,0.008086243200611663,0.01055531201749047,5.038791709397066e-05,0,104.33294554605561,22,3
2,Y,1958,0.07539923554147562,0.00022107199572171508,0.003183818808118883,0.0003723521767497958,0.10663062149531832,0.00031264301461053634,0.0403259412017007,0.0001744542239987464,0.04158736003682259,0.0003259682475486896,0.9696682156788747,0.008681205056816993,0.010778451881295175,5.6329053083032526e-05,0,150.12106046897716,22,3
2,Y,1979,0.07391056995970621,0.00020823091145986196,0.002472340006280692,0.0003857450831381014,0.10452533043974199,0.00029448297909184795,0.04153912742949812,0.00019124939349454912,0.04232317978674939,0.0003419456062938256,0.981474634911606,0.009126876610307153,0.010883506797970486,5.87456562408084e-05,0,91.21803905489134,22,3
2,Y,2000,0.0752617115518704,0.00021210820260004467,0.0032267797252269787,0.00035399715607060343,0.10643613320406697,0.00029996629680756337,0.04017624342435572,0.00019179019866565004,0.04073069289429498,0.0003689354119500622,0.9863874284835228,0.010099487702556705,0.010718853846353028,5.9420642335050475e-05,0,145.10301729076266,22,3
2,Y,2021,0.07473963387108142,0.00020807842044865074,0.0025552939649209814,0.00035265778760932084,0.10569780386728289,0.00029426732423565305,0.04111993261993533,0.0001851632389782724,0.041693063385784886,0.00033353253948711675,0.9862535702750745,0.009053810803755611,0.010894524813776053,5.767717143880307e-05,0,114.75039811439852,22,3
2,Y,2042,0.07632867380664672,0.00018790975162207824,0.0032680889912419402,0.00032788096206504667,0.10794504569531183,0.00026574451924610276,0.03939100306625815,0.00016109511608047177,0.0403304639166562,0.00037341444929906884,0.976705925021357,0.00988606930301507,0.010658342910389937,5.08771292821372e-05,0,150.11137034510523,22,3
2,Y,2063,0.07405157860546843,0.00018377892855979392,0.002812367059258833,0.00032709627645677926,0.1047247467789908,0.0002599026532476567,0.041497041855756936,0.0001556596739446436,0.04278102473914063,0.0002748329609139139,0.9699870937825159,0.007215872715328888,0.010893222939540105,4.8995231251414605e-05,0,176.68123029758303,22,3
2,Y,2095,0.07533615186489812,0.00022018620974013225,0.003140438404129169,0.0003753942339847224,0.10654140770433806,0.00031139032406202194,0.04017091247211408,0.00018595748600778314,0.040629828573123895,0.00030608593252098566,0.9887049461657492,0.008742250656776699,0.010728032033205912,5.873180822338179e-05,0,121.0899970827554,22,3
2,Y,2116,0.07457733826341444,0.00020413471229903713,0.0017244010597072708,0.0003651400627443727,0.10546828321780666,0.0002886900786844282,0.040982658133112325,0.00016619495207952252,0.04220553055169881,0.0002945998498087002,0.9710257778399788,0.007838722100045045,0.010834576346864726,5.300914436010216e-05,0,152.44359114755727,22,3
2,Y,2137,0.07537246665220079,0.000216543071407609,0.003429545215623441,0.0003902951727308247,0.1065927645690562,0.00030623814842256625,0.040272798216733366,0.0001776054015241687,0.040544991401394885,0.000299763337242143,0.993286638490885,0.008550937539876806,0.010760426030887924,5.663562108768216e-05,0,90.01155885204777,22,3
2,Y,2158,0.07384780947287396,0.00019172516257718564,0.0021643517756524525,0.0003381200267266343,0.10443657370808268,0.00027114032516484254,0.04155627022931611,0.0001709408081896941,0.04222813244002939,0.00027796510875216523,0.9840897010620246,0.007638559667314075,0.010878752872395191,5.2917121968659214e-05,0,137.86216316086572,22,3
2,Y,2179,0.0757233770713007,0.00020360795230418228,0.0022413505689421634,0.0003705306668524872,0.10708902684292532,0.0002879451275555889,0.03993019864144325,0.00017765741590975592,0.04096037827946022,0.00032814433184429927,0.974849362205877,0.008933349454672699,0.01071855835850258,5.572127821322658e-05,0,150.4038481581111,22,3
2,Y,2200,0.07418476997153033,0.00021892288341367005,0.003051546589049118,0.00037778555051351347,0.10491310781526653,0.0003096037108374361,0.04158335235464412,0.0001877009550275026,0.042645309135904606,0.00032841160426693534,0.97509792277795,0.008704094502209948,0.010935513589868495,5.897428125710965e-05,0,122.14556942614203,22,3
2,Y,2221,0.0755491634723808,0.00021111730741372138,0.002743249711734284,0.00038208762405088484,0.10684265160858297,0.0002985649593961748,0.04017324242151967,0.00016789232612342424,0.04090242835804541,0.00033953166558984145,0.9821725514646049,0.009128004647011934,0.010758989344800862,5.4089635615530834e-05,0,116.71796330374802,22,3
2,Y,2242,0.07385083667270037,0.00018616238629915152,0.002770740274457357,0.0003483625974578948,0.10444085481513321,0.00026327337150799934,0.04159527630834013,0.00016737905297677734,0.04284472047272545,0.00032057360222943597,0.970837850017467,0.008247901430956679,0.010889410391757264,5.170680125704467e-05,0,175.9489205422131,22,3
2,Y,2274,0.07575488776499562,0.00021353933350067296,0.0017464889908063352,0.00037046916557678466,0.10713358969330844,0.00030199022153676314,0.04021172051957466,0.0001604078838686758,0.04120261238941831,0.0003348196448665784,0.9759507513630827,0.00883478059911708,0.010798619696742055,5.274606058845173e-05,0,129.87974497883886,22,3
2,Y,2295,0.07528979487025579,0.0002148745000597594,0.002010443126118061,0.0003814243045004187,0.10647584901380402,0.0003038784321926502,0.04121059172498418,0.0001785830317245343,0.04212820821544409,0.00031275694607804465,0.9782184780855808,0.008408886948556413,0.010998916278975526,5.70712324368581e-05,0,118.87146584066328,22,3
2,Y,2316,0.07449352826109766,0.00021486639161478907,0.0033632250596686572,0.00032011082387691116,0.10534975797586776,0.0003038669651198034,0.040646077513842756,0.00017153841257345074,0.04138350653562682,0.0003560215653036511,0.9821806056683665,0.009411636962899652,0.010733518704617894,5.486753425036562e-05,0,126.28748259425828,22,3
2,Y,2337,0.07869649378022246,0.0002047762173556494,0.0030889130827158454,0.00034879005656463625,0.11129364881520054,0.00028959730383582016,0.03880993283792393,0.00015790372842617182,0.03929046479707478,0.00030653106969203954,0.9877697563102734,0.008691242104751666,0.010826877089736295,5.228919623447727e-05,0,66.06179701056224,22,3
2,Y,2358,0.08560754239276995,0.00022082811707798382,0.002429283255140223,0.0004071919673641384,0.12106734749328496,0.0003122981181249984,0.03480398167506015,0.00013700509615428903,0.0351970088919871,0.00022201702572559597,0.9888335051954821,0.007352339516949135,0.010561993427631935,4.970861152997985e-05,0,81.5894869122913,22,3
2,Y,2379,0.0751729254362067,0.0001866682195618015,0.0026360380586279426,0.0003431403549660321,0.10631057067514493,0.00026398872776833837,0.04144008532357884,0.00015711112051917302,0.04244593153968521,0.00030351669561373375,0.9763028827588353,0.007901774909452262,0.011042998789557584,5.004810331095373e-05,0,121.99673954091426,22,3
2,Y,2400,0.07521120961060457,0.00020573125057845063,0.002790669516805364,0.00036886045806185927,0.10636471267380265,0.0002909479247720226,0.04033361468367459,0.00016410719997325958,0.040563443968215755,0.00026796891726091083,0.9943340786171596,0.007714657444336107,0.010753619126576559,5.27223438154387e-05,0,90.86558745471584,22,3
2,Y,2421,0.07297828775669886,0.00019481598943429346,0.0026484425951795016,0.00036043241533398313,0.10320688430428993,0.0002755114144251114,0.04212897779920073,0.00019494723306104497,0.042832209128786755,0.0002852396966745594,0.9835817170328159,0.007976189635476385,0.010898821085609089,5.822358560914575e-05,0,177.07410756723868,22,3
2,Y,2453,0.07639800999481701,0.00020432342105083367,0.002101216896233086,0.00039409236964460124,0.10804310187298549,0.00028895695316055736,0.039770415991061944,0.00014357408108960066,0.040137098331816674,0.00021520053953732974,0.9908642538699899,0.006404676347368778,0.010770778926038057,4.8391083970793966e-05,0,77.4582063372052,22,3
2,Y,2474,0.07414700444225224,0.00018670603977603983,0.0028172195145573227,0.00035546448053645047,0.10485969929157124,0.0002640422136282461,0.0415722982080531,0.00017516098174091125,0.04241880025543866,0.00036563069253906015,0.9800441775276983,0.009402772957991376,0.01092704108616791,5.363538986793336e-05,0,177.2475658988508,22,3
2,Y,2495,0.07586536428279185,0.00020796423643136804,0.002100031976371661,0.0003696569910892895,0.10728982708309964,0.00029410584364980563,0.03991545877674532,0.00018011039911409562,0.040684202951770075,0.00038969962660078127,0.981104602788063,0.010388193179997264,0.010734692411619898,5.6675874204328693e-05,0,95.87571968429694,22,3
2,Y,2516,0.0729713977831606,0.00016876979152121178,0.0016892622168711874,0.00031594911449810625,0.10319714041026773,0.00023867652808817752,0.04221628965882714,0.00015635845958202204,0.04311057854803915,0.0002761809000975459,0.9792559293024685,0.007246420953382249,0.010920377672526264,4.76845316432227e-05,0,186.47142601278225,22,3
2,Y,2537,0.07522702611632778,0.00020955796453947658,0.0024480712583260745,0.00038503062391890576,0.10638708059070578,0.00029635971555502794,0.04050048312124382,0.00016421827699896412,0.041123994646447865,0.00025264782771912414,0.9848382548785809,0.007249382622782044,0.010800379838022331,5.313168358445489e-05,0,115.85601108131337,22,3
2,Y,2558,0.07318804492097347,0.0001895969020527857,0.0018553449404108155,0.0003555276532235071,0.10350352573081201,0.0002681305102669729,0.04252379609630224,0.00017038443802729235,0.04330770950241134,0.0002812398078779277,0.9818989871522655,0.007492498095485165,0.011032580500107893,5.263984580883366e-05,0,158.24616338516023,22,3
2,Y,2579,0.07586312588303974,0.00019817448691473817,0.003771744414253914,0.00034159076901007075,0.10728666150781219,0.0002802610471111522,0.040401896603500236,0.00014302822418508829,0.04065248209778548,0.00026353071212327007,0.9938359115765063,0.007340653276194474,0.010865192330107786,4.78025086901482e-05,0,166.18170105059886,22,3
2,Y,2600,0.07364600759021035,0.00019175869564003097,0.002106532030393258,0.0003437263185437221,0.10415118274870738,0.00027118774807710633,0.04187447488341165,0.00015239148932783917,0.0429649508917879,0.0002757255645382198,0.9746194052188553,0.007190274950514681,0.010932097950861117,4.8918941245720425e-05,0,139.2915243560037,22,3
2,Y,2632,0.07657976053209298,0.00018987442652438401,0.0012245372634078994,0.00034705727662156106,0.10830013594776977,0.0002685229891385976,0.03948453558585244,0.00015820898162542796,0.0400499738692736,0.0003081637052187003,0.9858816815894362,0.008552768646751386,0.010718795128657452,5.050647211461205e-05,0,143.82682842200234,22,3
2,Y,2653,0.07428667132710767,0.00021448923660808498,0.0030208791461385463,0.00037288161704973345,0.1050572180943482,0.00030333358739420557,0.04112090159725174,0.00016551877882503864,0.04215714329313656,0.0002624623728917702,0.9754195466073357,0.00723145406019079,0.010828753279776945,5.364183304359134e-05,0,142.3819611655692,22,3
2,Y,2674,0.07968862416478828,0.00021586543747548572,0.002825035671230943,0.0003989652999343869,0.11269673306069594,0.0003052798293254333,0.03720234394850946,0.0001355341963167461,0.037597581004711146,0.0002288455810724997,0.9894876998562178,0.007019135670023977,0.010509246152046386,4.7710780046511666e-05,0,50.84579016435645,22,3
2,Y,2695,0.07372847451128679,0.00018533879464046273,0.0027368322164603716,0.0003245779827848856,0.10426780858694085,0.00026210863701442433,0.042790905198537614,0.0001828717530233915,0.044058713642787836,0.00034066757224632396,0.9712245696837825,0.00858034742371162,0.011183858246394654,5.545092482571358e-05,0,134.52425909277449,22,3
2,Y,2716,0.08000207882951638,0.00019687274288752066,0.0029979012052632494,0.0003212444670254841,0.11314002489874353,0.00027842010305312304,0.036818502484578505,0.00016515932137020945,0.03690461825663218,0.0003439629488276442,0.9976665312873627,0.010319486801188715,0.010441726767210564,5.342439804818653e-05,0,46.71795101193804,22,3
2,Y,2737,0.07446141921223255,0.00020029828260744695,0.0026337712064791277,0.00037187139094987937,0.10530434892348783,0.00028326454778349053,0.042087853158310456,0.00017228469717382307,0.042469538513076346,0.0003114686491918298,0.9910127265769942,0.008323498446086059,0.01110946167441451,5.4416242214498847e-05,0,110.77700285394215,22,3
2,Y,2758,0.07533520030264967,0.0001952436274986067,0.0022080809647548757,0.00035790611672206925,0.10654006199210087,0.0002761161859754502,0.04039873399618099,0.00016470255907893177,0.041307375823127206,0.00030159704188658276,0.9780029157301858,0.008178473698634316,0.010788737709185809,5.211980642291301e-05,0,151.29936003170064,22,3
2,Y,2779,0.07393838588558167,0.00019339202300745122,0.0021269857247352758,0.0003508698145126976,0.10456466809936504,0.0002734976217919072,0.04131122186974533,0.00018683579890662892,0.042186693269591305,0.0003582179270428522,0.9792476885009372,0.009420936341138556,0.010827867628476207,5.657035254328281e-05,0,154.6890528911063,22,3
2,Y,2818,0.07602365650471422,0.00020856603425419527,0.002327749161863537,0.0003823696092604372,0.10751368609016043,0.00029495691429265447,0.040569452852222535,0.00017097128434899215,0.04123311837188174,0.0003981728756862231,0.9839045518295851,0.010366575792836652,0.01093333956585002,5.4979207586476895e-05,0,111.36792625874854,22,3
2,Y,2839,0.07439869659411254,0.00017336135665816142,0.0019063679761039888,0.0003276528743032153,0.10521564574627496,0.00024516998177737115,0.04210545551520944,0.00016741628423669032,0.04236232847947181,0.00040744048989771003,0.9939362878887348,0.010344354276278764,0.01110474599738089,5.117733403594745e-05,0,76.18896905971273,22,3
2,Y,2860,0.07570229596559949,0.000196937623387593,0.0021817820101604846,0.0003459450550434107,0.10705921365733284,0.0002785118579362589,0.040713794530348464,0.00017686517924837535,0.0413657884599436,0.0003691331979039784,0.9842383294536622,0.00976841287635753,0.010925858304713475,5.532300400127169e-05,0,101.22549887749689,22,3
2,Y,2881,0.07392379036118972,0.00019868537191356558,0.0024134844189188753,0.00036646764130656323,0.10454402691081999,0.00028098354760530686,0.042688813808343454,0.00017326783975012155,0.04305613570657697,0.00033702408956921587,0.9914687676400693,0.008742083284376466,0.0111867323139571,5.445777800167846e-05,0,117.41138017176574,22,3
2,Y,2902,0.07578985035587402,0.00019592268939861557,0.00254085016456161,0.000356172593876662,0.1071830342635044,0.00027707652452413356,0.0409860266190504,0.000178921946068762,0.04140850815789838,0.0003570494441491379,0.9897972286942341,0.009566095068428539,0.01101163479341962,5.5866740592019944e-05,0,132.78488454091897,22,3
2,Y,2923,0.07377134260109407,0.00017721670712260697,0.0020666188870623247,0.0003273136653816975,0.10432843322093932,0.00025062227069189147,0.042829780713709714,0.00014582317107363318,0.04295181812534371,0.0002827358960475902,0.9971587369997269,0.007389954668750949,0.011200527335837858,4.667120450061028e-05,0,150.52795956431694,22,3
2,Y,2944,0.075527622257036,0.00019173511940898897,0.002102736302408854,0.0003379133343108212,0.10681218772969236,0.00027115440625141707,0.03995508248577496,0.00015881250950611962,0.040667068856425355,0.00023034924027526315,0.9824923115761292,0.006798590890407749,0.010697511847908441,5.0452557995423885e-05,0,170.68926817046093,22,3
2,Y,2965,0.07413798749045818,0.0001771088477005421,0.0030433807005517924,0.00031606015009002977,0.10484694739605283,0.0002504697344343776,0.04095451208246527,0.00013990342768168434,0.04110959802447242,0.0001932412631708068,0.9962275004023433,0.005788888121084054,0.010763350451650512,4.4867046670512984e-05,0,125.95002091772244,22,3
2,Y,2997,0.07771541906864621,0.0001959294117035522,0.0022553814725991346,0.00037548338073333616,0.10990619965238813,0.0002770860312989454,0.03977192608221916,0.00014414584533772385,0.03974580597584612,0.00023643511394355482,1.000657178933267,0.006970382596815924,0.010956926511158288,4.8374114202468244e-05,0,70.36185634544412,22,3
2,Y,3018,0.07640469020999544,0.00020701616612251854,0.0019546512326948377,0.00036473176119727527,0.1080525491238904,0.0002927650697609474,0.04094689720396744,0.00016506900785386814,0.04189948220660665,0.00027948456486397974,0.9772649934445012,0.0076167144808892626,0.0110903678024564,5.386832731684102e-05,0,113.8315134949802,22,3
2,Y,3039,0.07519484813720861,0.00017756783669710814,0.002088948355475011,0.0003142102534354598,0.10634157405622569,0.00025111884289830133,0.04090740745017044,0.00013608074560266239,0.04166581544914998,0.00023849643586315616,0.9817978361684744,0.0064999543247163324,0.010904229289593432,4.44838430040275e-05,0,122.63640683959986,22,3
2,Y,3060,0.07338525229480011,0.00018290894523850888,0.0018080473284591016,0.00030204250904065547,0.10378241907347763,0.000258672311035657,0.04254612514612008,0.00016253809657776412,0.04335859041420182,0.0003104673290922221,0.9812617232174682,0.007963752534113811,0.011068116885039496,5.04866726563831e-05,0,113.47392591780803,22,3
2,Y,3081,0.07528288993378625,0.0002062233391732127,0.002623299627355588,0.000382480477704658,0.10646608395900148,0.00029164384313662417,0.04094343864569478,0.00016068499236050282,0.04194997184844102,0.0002646017423900019,0.976006343785338,0.007250578931787372,0.010926612170654028,5.2295003985761326e-05,0,134.7015292622325,22,3
2,Y,3102,0.07315494850524186,0.00020788898798373536,0.0022827031496306187,0.0003686421314418294,0.10345672033081843,0.00029399942627461595,0.042786066170460844,0.0002111650927810404,0.04377287829431195,0.00045397352964320797,0.977456083257396,0.011226622358448854,0.011095605302599464,6.31899318931375e-05,0,123.5599751484234,22,3
2,Y,3123,0.07599652193339444,0.00021211616611076147,0.002403402501092144,0.0003782575188628575,0.10747531201139082,0.00029997755891242317,0.040182857274100474,0.00016203033011300013,0.04051768718390969,0.00028375042457091964,0.9917362037894852,0.008014271836950295,0.010825288106082687,5.308813243398199e-05,0,138.2848895817202,22,3
2,Y,3144,0.07329796683090592,0.00017389408208997667,0.0017962170569169155,0.0003233974935790885,0.10365897878664043,0.00024592336930806535,0.04220368795044566,0.0001679211715879746,0.04242777338691094,0.00028663180260675306,0.9947184257250131,0.007798956632312121,0.010965975302420035,5.07991917939467e-05,0,121.02333289150171,22,3
