XscanNumber_YscanNumber,Type,BCID,xsec,xsecErr,SBIL,SBILErr
1_2,XY,103,136.9935715278044,0.7765188223409617,0.06439851614786024,0.0004313028121461027
1_2,XY,124,136.71350819218065,0.747090299911718,0.07908835755685031,0.0005069823358559232
1_2,XY,145,136.2015725957569,0.8441541685808222,0.06388021759806807,0.00046986589993060695
1_2,XY,166,136.36125226419878,0.8174567143242276,0.07396253957267164,0.0005272109463061822
1_2,XY,187,135.2510048353589,0.8555202514274433,0.06546334785260974,0.0004912402320439592
1_2,XY,208,137.4248642791389,0.8062628882134536,0.06754581744931658,0.00047132087288397024
1_2,XY,229,135.82650712154575,0.8673208845829589,0.06850176818787321,0.0005181796681086252
1_2,XY,250,135.24520359127004,0.8239232507465006,0.07616123099648749,0.0005552168125747366
1_2,XY,282,136.5073317242468,0.7654200306870687,0.07557963203967541,0.0005024342191602741
1_2,XY,303,135.92986153134248,0.7818633761222341,0.07862090530387833,0.00052790440791297
1_2,XY,324,135.92979121070678,0.8276356297308066,0.06970745081871077,0.0005084503726758975
1_2,XY,345,136.24451153945736,0.7763935951567437,0.07837394958465753,0.0005309403962395598
1_2,XY,366,136.081675404386,0.8341869035825502,0.07175146855433652,0.0005114199854587087
1_2,XY,387,136.29796082905204,0.7323146518744722,0.07845465675551726,0.00049268717169262
1_2,XY,408,137.24188624430082,0.8636968151540868,0.06709910189816991,0.0004947400133348545
1_2,XY,429,136.2290863624355,0.725558655536039,0.07542811546075603,0.0004710081725355943
1_2,XY,464,135.55807594695165,0.7744811013682387,0.07454251114773937,0.0005074943544395242
1_2,XY,485,136.08239391577303,0.7582910530867817,0.0776912441274566,0.0005110423228863511
1_2,XY,506,135.15971638761116,0.7888865896351865,0.0672173436981981,0.0004696139033808874
1_2,XY,527,135.36544830151158,0.7631010898550482,0.07446874719397736,0.0005008576345686555
1_2,XY,548,136.65508113601794,0.776637410171996,0.07288403188791207,0.0004907960561884103
1_2,XY,569,134.93840185877025,0.7478022468889131,0.08197437081037272,0.0005394589259734722
1_2,XY,590,136.09502802322834,0.7945655181819786,0.07043838710832304,0.0004818071562246699
1_2,XY,611,134.8776796962266,0.7756246265449727,0.0779587693669572,0.0005450968263162699
1_2,XY,643,136.2015703469128,0.8214139674094983,0.0688788674681823,0.0004934587347216958
1_2,XY,664,136.04386667553268,0.7477558085263054,0.07755900706621248,0.0005055243796773074
1_2,XY,685,135.6672636728317,0.8121703902379184,0.06711003396219598,0.0004775581955450081
1_2,XY,706,136.24197820868994,0.7437866089296566,0.07093054455643283,0.00046266496902203536
1_2,XY,727,134.47297616883048,0.8218951094865299,0.07073245571170468,0.0005122869375833147
1_2,XY,748,136.10895929887292,0.7755110998082928,0.07909468585438564,0.0005353796425255415
1_2,XY,769,136.04643667907578,0.7832953073272837,0.06415835283283162,0.0004320681912077453
1_2,XY,790,135.4672087151133,0.8113422091169842,0.07252797667402605,0.0005173065742455809
1_2,XY,822,135.53184228568492,0.7654208136466187,0.06710054692703321,0.00045151167407347134
1_2,XY,843,136.5575326848728,0.6836649888593296,0.07830778104372882,0.0004605046284837308
1_2,XY,864,136.52473104759778,0.8029872389016431,0.07013699299349584,0.0004915914578117453
1_2,XY,885,135.8768601439879,0.7661172739922077,0.08091261232923465,0.0005462954267546057
1_2,XY,906,135.04518149280256,0.8279458058288259,0.0692023449618445,0.0005026372734231134
1_2,XY,927,136.2870694057671,0.7324360592295746,0.07871635591466336,0.0005050606802362245
1_2,XY,948,135.06890601243094,0.7844726728376626,0.0695494727449147,0.0004873925242257788
1_2,XY,969,135.78081734587948,0.7996605926348815,0.07694628125070171,0.0005304998239547389
1_2,XY,1018,135.86328569270387,0.7020735445457755,0.07507767430348941,0.0004490649024633857
1_2,XY,1039,134.7311202327845,0.7730147541924041,0.07832336243372424,0.0005351817869162619
1_2,XY,1060,135.02583938526337,0.761697234818059,0.0707710648787098,0.0004788733482628084
1_2,XY,1081,136.2569432474712,0.7364403170067653,0.0779602749685702,0.0004944800087437386
1_2,XY,1102,135.25207448005452,0.803079192730712,0.06875062497025708,0.0004835439182204797
1_2,XY,1123,135.81125390867453,0.7949135589254686,0.07501149224593208,0.0005192426022604165
1_2,XY,1144,135.65204286168802,0.8202684780558728,0.06977375921910137,0.0005016620155142267
1_2,XY,1165,136.7189640230455,0.7677096976125375,0.08032632325037664,0.0005266905648500632
1_2,XY,1197,135.65956143185863,0.7923505735739406,0.07229054999557084,0.0005031879236939066
1_2,XY,1218,135.55380631077938,0.74562188776815,0.0791140341224585,0.0005121062712312933
1_2,XY,1239,135.47195950900968,0.8346316895399526,0.06954777358325748,0.0005064321397559853
1_2,XY,1260,137.21245773835662,0.772989517154131,0.0783241177646358,0.0005220235122934583
1_2,XY,1281,135.87417368610866,0.827739110858314,0.07089392055282362,0.0005068171361401128
1_2,XY,1302,136.05060825890268,0.8165136464594952,0.07920533520534809,0.0005599024581552703
1_2,XY,1323,135.88771200159434,0.8892115284674581,0.0650274339420453,0.0004991491981759753
1_2,XY,1344,135.97752270914648,0.7955210061779575,0.07757655522035013,0.0005404501836438856
1_2,XY,1376,136.76740678055734,0.8272537706232969,0.07212405736239313,0.0005212244149202218
1_2,XY,1397,136.6859638816699,0.7716037471674956,0.06895469685980436,0.00046068727141381
1_2,XY,1418,137.63438978386787,0.7578430244864318,0.07256203579140669,0.00047833241951626877
1_2,XY,1439,135.92368436018157,0.7627062132065455,0.06683184314603398,0.0004465256937118397
1_2,XY,1460,135.47712086135098,0.7559241245746139,0.07084906881178839,0.00047421768796485205
1_2,XY,1481,137.31473999735266,0.7269147891371825,0.07724222156482188,0.00047644430651008334
1_2,XY,1502,135.5539094463539,0.8035665422452407,0.07002440305578896,0.0004857093061091853
1_2,XY,1523,138.78712101299058,0.7776409717754155,0.06262149227111899,0.0004162502237571484
1_2,XY,1555,137.56570859417667,0.8182575898722922,0.06512761437681795,0.0004636771864792665
1_2,XY,1576,136.85665411263574,0.7962814722300957,0.06832131735987818,0.00046711557858105794
1_2,XY,1597,137.3593192563257,0.8178659609727289,0.060427483260262,0.0004332829340057281
1_2,XY,1618,137.67829856856494,0.8030091519686665,0.06601393224708885,0.00045243255604958394
1_2,XY,1639,135.57876095185006,0.772315513851522,0.07889182954841219,0.0005285814420365989
1_2,XY,1660,137.2214984369728,0.7840513865645033,0.07520235713697614,0.0005089054290465651
1_2,XY,1681,136.5052587675048,0.7926813221918552,0.07512613562265112,0.0005204443923824523
1_2,XY,1702,135.92787980561744,0.7618382376723469,0.08152254112397755,0.000541118856990452
1_2,XY,1734,136.38106601662778,0.815011718363438,0.07357597589251366,0.0005158909288656588
1_2,XY,1755,137.97919728795665,0.809987500102005,0.06093262990070797,0.0004190419441837674
1_2,XY,1776,135.2002815545762,0.744172206610172,0.07525561255562309,0.0005001906180980839
1_2,XY,1797,136.13371324492988,0.7515684188971591,0.0803410997046834,0.0005225702202743712
1_2,XY,1818,137.38747464583085,0.8497652639411348,0.06792906942203075,0.0005025270664626698
1_2,XY,1839,137.82279830784046,0.8213207440646778,0.061831930243436445,0.0004393525456047659
1_2,XY,1860,136.555046566618,0.7529161860046149,0.07220706129509766,0.0004749564334124527
1_2,XY,1881,136.77718496194217,0.7504977885671994,0.0749110618059912,0.0004840347034860097
1_2,XY,1916,137.442705693676,0.7618639233871081,0.06803605246420635,0.0004433049377542646
1_2,XY,1937,138.1858169817213,0.853878032282565,0.06169591933067461,0.0004486860458616547
1_2,XY,1958,136.09434854519455,0.7537494544697075,0.07234386334690711,0.00047302486137590333
1_2,XY,1979,135.70801601684923,0.7411784542061758,0.07445026440399306,0.0004880412529753996
1_2,XY,2000,136.08044367497536,0.7388215484867814,0.07753704987608832,0.0005036924863968163
1_2,XY,2021,134.62865826508448,0.7316345302080639,0.08095416465322494,0.0005177208479817054
1_2,XY,2042,135.6885722133254,0.7966015855239501,0.07132583741133518,0.000504543423581113
1_2,XY,2063,135.40844915885495,0.785167531145763,0.0805509328349927,0.0005505787253714869
1_2,XY,2095,136.86637742315716,0.7264007596540255,0.0750495301016344,0.00046283262492812627
1_2,XY,2116,136.4481826155121,0.7995821989981955,0.07576457676904808,0.0005250374524220155
1_2,XY,2137,135.34518602800304,0.7903228190386093,0.07431880022731395,0.0005149341118620544
1_2,XY,2158,136.2795713759904,0.7954115314246296,0.07737091410319981,0.0005387343361851694
1_2,XY,2179,136.93467644146725,0.7094157447621273,0.07623688965878958,0.0004710933820160747
1_2,XY,2200,137.0072924241432,0.729976848327173,0.07836177096678137,0.0004931893762174549
1_2,XY,2221,135.63627159303005,0.7571462503200295,0.07710606148575151,0.0005160340932176005
1_2,XY,2242,135.52965832529705,0.7413336655431708,0.0800739152292503,0.000515077024554105
1_2,XY,2274,135.3293031850292,0.7525945566931057,0.07714483213525919,0.000505709262325414
1_2,XY,2295,137.10693162039306,0.8000298049481175,0.07140776554695467,0.0004927667777393913
1_2,XY,2316,134.982391221904,0.7011527253736363,0.07634773527670181,0.0004730936103248473
1_2,XY,2337,137.60814003396726,0.787610252943707,0.0682914991719309,0.0004619218998485244
1_2,XY,2358,138.76858736001424,0.7677690595591142,0.06401899995976339,0.0004182683865857462
1_2,XY,2379,135.33804752986472,0.7701923899720315,0.0714357177411457,0.0004884086375433657
1_2,XY,2400,135.17397636910857,0.7680466506079618,0.07298418216062419,0.0004955202943386392
1_2,XY,2421,135.439296341797,0.7074257624816367,0.07863847896989695,0.0004878089398686854
1_2,XY,2453,136.0185122433263,0.7471446699677506,0.07219234115643776,0.0004733384905739182
1_2,XY,2474,136.00645127342895,0.7343962477527435,0.08085127183515763,0.0005182973346058778
1_2,XY,2495,136.52415819958634,0.7949737245310183,0.07049998288653876,0.00047661877167895587
1_2,XY,2516,135.33145088545535,0.7046537632960944,0.07702839271959502,0.0004787641098323227
1_2,XY,2537,135.07106364057876,0.7878142454666407,0.0778718913905516,0.0005323211882813876
1_2,XY,2558,135.6108395990292,0.7512890383773098,0.08292039147028217,0.0005493701271160925
1_2,XY,2579,137.04883624092932,0.7405164649194395,0.0790696704468135,0.000500328947815959
1_2,XY,2600,135.56380348992414,0.7555543547732598,0.08225688485228703,0.000545252005338544
1_2,XY,2632,138.2507763191825,0.7994110112122041,0.06858566602000297,0.00046975832910488177
1_2,XY,2653,136.06793595027605,0.7613960440795462,0.07606566726498806,0.0005013115125985931
1_2,XY,2674,137.52046831130295,0.7889214430722604,0.0690685620634723,0.0004645066523790149
1_2,XY,2695,135.16141362983345,0.7352947925425686,0.0817193601651557,0.0005182186125588115
1_2,XY,2716,137.80781245853916,0.7943490761613743,0.06799811623681375,0.00046135120195838256
1_2,XY,2737,134.54263557519678,0.7640900918940807,0.0785193315804651,0.000527624536003608
1_2,XY,2758,135.8875293433014,0.7705033990452402,0.0747596857710984,0.0004917080412649137
1_2,XY,2779,136.71906929123867,0.7085331919988347,0.0778413319690597,0.0004763823887424449
1_2,XY,2818,134.9373267793658,0.7978262097230558,0.07838376900111693,0.000548742839182375
1_2,XY,2839,135.64912609818927,0.7683673805636267,0.08137402137632499,0.0005499391042914429
1_2,XY,2860,136.14892852176627,0.7909721783187725,0.07609487392963578,0.0005268601796025004
1_2,XY,2881,135.57161507608052,0.7654651465259089,0.08096683423587149,0.000543610769122017
1_2,XY,2902,134.8683235248543,0.7336995020276574,0.07718740073888068,0.0004940258594043346
1_2,XY,2923,134.3997714609364,0.7583080571115866,0.08089938955590506,0.0005380320476513147
1_2,XY,2944,136.7023630601832,0.7700103482025509,0.07396475835533352,0.0004914737754940595
1_2,XY,2965,135.4085970479932,0.7723389941903372,0.07331153444151564,0.0004939577483713602
1_2,XY,2997,135.31404286619193,0.7838636601908301,0.075561223959146,0.0005217916516709597
1_2,XY,3018,135.67553533047442,0.7218940961213957,0.07947076613534987,0.0004959621240933204
1_2,XY,3039,135.7419021981695,0.8354646383223151,0.07104446566256539,0.0005215895147651133
1_2,XY,3060,136.1445538912059,0.8093800271368525,0.07600110565581393,0.0005365038037128526
1_2,XY,3081,135.61853004758242,0.7502318737371703,0.07419196244876806,0.0004817068128737149
1_2,XY,3102,135.32790504645612,0.7869474692636421,0.07868638971818337,0.0005434911085296858
1_2,XY,3123,135.53076132024327,0.760694398695621,0.07840957316455116,0.0005149542201628119
1_2,XY,3144,135.1937761894523,0.7253955975857459,0.08226836595089285,0.0005215869892702882
