Scan,Type,BCID,sigma,sigmaErr,Mean,MeanErr,CapSigma,CapSigmaErr,peak,peakErr,rate0sep,rate0sepErr,peakRateRatio,peakRateRatioErr,area,areaErr,fitStatus,chi2,ndof,covStatus
1,Y,103,0.08716365985653039,0.00034584680091670847,0.003839859215839809,0.0006326524799842646,0.1232680299151806,0.0004891012363597569,0.003072252496249638,1.94313446711836e-05,0.0031285470351538293,3.7459472348605055e-05,0.9820061714682121,0.013297618958312888,0.0009492864788199786,7.087697920229884e-06,0,40.20496966133016,22,3
1,Y,124,0.0753336096563685,0.0002954762417834481,0.003706808201647015,0.0005579144739789692,0.10653781247855709,0.00041786650848918416,0.0037434724526508433,2.2742044774283107e-05,0.0038375583769633547,3.968395031460146e-05,0.9754828682536001,0.0116993734625463,0.0009996969129916456,7.229061606361333e-06,0,98.69107295388038,22,3
1,Y,145,0.07646430288182895,0.0003642125623234788,0.00346151143382609,0.0006299774243875395,0.10813685417288665,0.0005150743452245199,0.0036838380058875253,2.5817399015017516e-05,0.0037800417501188273,5.688498113493815e-05,0.9745495551131736,0.016178156709388124,0.000998537063653297,8.461321990438358e-06,0,49.55590690572077,22,3
1,Y,166,0.07505837471874398,0.00030180250226211704,0.0042209228475120295,0.0005691989250916595,0.10614857149692958,0.00042681319185722266,0.003792336728312768,2.405368433490915e-05,0.0038811113091213266,4.650098966807057e-05,0.9771265048235226,0.01324656777257967,0.0010090460352827875,7.5777685366962415e-06,0,81.15975854475165,22,3
1,Y,187,0.0767774404546631,0.00031419518346110614,0.0031044830094692053,0.000562936175813335,0.1085796975752773,0.00044433908968299907,0.003636754388483053,2.333920482320959e-05,0.0037141262710822047,4.315810405173706e-05,0.979168214284592,0.012997867504679099,0.0009898115869285894,7.533778542265859e-06,0,41.00103192448098,22,3
1,Y,208,0.08181705080618873,0.0003356307943192229,0.005040719509914049,0.0006493395622692004,0.11570678288348069,0.00047465362127629973,0.0034370661261965865,2.3254204475636575e-05,0.003539025906283389,5.0122082968629456e-05,0.9711898746189517,0.015243545658897274,0.000996865670943225,7.887407076334361e-06,0,55.03407247613349,22,3
1,Y,229,0.07638214266293211,0.00031608364203954473,0.004875338463859214,0.0005700559587416297,0.1080206620770352,0.00044700977341660675,0.003683950157093509,2.3960329256306367e-05,0.0037474878404954105,5.064952250213026e-05,0.9830452596229099,0.01474479391700595,0.0009974945113052738,7.689532551620013e-06,0,77.40850390356117,22,3
1,Y,250,0.07466919585846052,0.0003189972087507473,0.0028105886337197526,0.0005391931965435951,0.10559818947452781,0.00045113017897446817,0.003809632910530335,2.6572544166026756e-05,0.0038461410915430617,5.328170584078814e-05,0.9905078414588062,0.0153629507207508,0.0010083923356275437,8.24807593350015e-06,0,93.95678275644818,22,3
1,Y,282,0.07693005514922634,0.00031202268782455986,0.004161966779087395,0.0005492900046161235,0.10879552734614606,0.00044126671688959895,0.003615451497151171,2.23631606837789e-05,0.0036359879374184205,4.413942496527303e-05,0.9943518953800956,0.013547637503107364,0.0009859695789355154,7.292857805011476e-06,0,57.76519417952867,22,3
1,Y,303,0.07421355320959241,0.0003321381620485573,0.004763418557697943,0.0005961630632376525,0.10495381346090293,0.00046971429335074255,0.0038509574238430734,2.4567797498037684e-05,0.0038259670600648867,6.163476760191538e-05,1.0065317770346311,0.017440004029665838,0.0010131106352056982,7.895090163044768e-06,0,69.58619955580231,22,3
1,Y,324,0.07533029470165419,0.0003331531483793145,0.004491355874391254,0.0005995843379233308,0.10653312442464147,0.0004711497007853227,0.003759538696183489,2.4561748934230263e-05,0.0038766859591569205,4.2311931329244575e-05,0.9697815958765698,0.01233598344512597,0.001003943235339093,7.920440602836292e-06,0,116.77534294439077,22,3
1,Y,345,0.07500425820054836,0.0002794968927101363,0.004521183381616417,0.0005423236022519252,0.10607203918294894,0.0003952682963118126,0.003844356659839698,2.41485828662666e-05,0.00387499734559874,4.8575976476084183e-05,0.9920927208391912,0.013910646029067391,0.001022149745184749,7.465489481519078e-06,0,83.50181512702606,22,3
1,Y,366,0.0764684967340217,0.00031015167654019474,0.004343345937980369,0.0005605942526087562,0.10814278517553622,0.00043862070735589676,0.0036628026681696066,2.540987163433683e-05,0.0037220856876303164,4.796166449553489e-05,0.9840726344216829,0.014401355929793023,0.0009928897024543708,7.978809180639248e-06,0,102.08038261302895,22,3
1,Y,387,0.07609650341932812,0.0003091771483055952,0.005298210081437145,0.0005604374600721642,0.10761670718478444,0.00043724251630961053,0.0037717395175748962,2.548984566104373e-05,0.003888906007473603,5.2411171410902145e-05,0.9698716066488778,0.014622380283192871,0.0010174458992706955,8.022982491692304e-06,0,86.40247651246375,22,3
1,Y,408,0.07654751219460171,0.00035432032387838476,0.004773298529322237,0.0006126326872883358,0.10825452991152562,0.0005010846074532394,0.0036887712153252645,2.6717421574870917e-05,0.0037740914576428167,5.8977750398564184e-05,0.9773931704424459,0.016834529914645995,0.0010009623283458063,8.603917930075933e-06,0,99.61739434698863,22,3
1,Y,429,0.026945172699165763,0.001336479179921319,0.6221495161021314,0.0021286644171486023,0.03810622867164548,0.0018900669820740013,-7.663558501934622e-06,4.9239552125435e-07,0.0036596312701769065,5.5500958682783794e-05,-0.0020940794129688826,-0.0001382451059622424,-7.320089322680996e-07,5.941647885742574e-08,0,28132.822331587435,22,2
1,Y,464,0.07703940561807743,0.0003342325882910139,0.004782456389568632,0.0006221013707896644,0.10895017226224712,0.0004726762593482148,0.0035920802239683696,2.7192341527423702e-05,0.00367725516611925,4.9564159098487885e-05,0.9768373587626858,0.01510084784265579,0.0009809884246597383,8.559279939253575e-06,0,90.67806175410533,22,3
1,Y,485,0.07525322836469035,0.00031476603590302986,0.003653700694443338,0.000596034864622191,0.10642413616570479,0.00044514639694848146,0.003786167163849028,2.6442125690138363e-05,0.003916355564719284,4.5081445309984644e-05,0.9667577678484901,0.013016426136485728,0.0010100197186072488,8.222205788951858e-06,0,57.75629421821414,22,3
1,Y,506,0.07618729039039468,0.0003309064764622102,0.0040931627355000845,0.0005937202274742586,0.10774509935055354,0.000467972426889951,0.003695582232785923,2.6311758373221906e-05,0.003765605193611376,5.104255609937691e-05,0.9814045930932292,0.01502632003781865,0.0009980914392653324,8.324099049895343e-06,0,45.51885861358414,22,3
1,Y,527,0.07529120569783099,0.000294454148439186,0.005642737226482162,0.0005541108757387128,0.10647784422529505,0.0004164210502197174,0.00376158311603584,2.6795900258704708e-05,0.003840569039418798,5.08152737334517e-05,0.9794337967701497,0.01471791047511122,0.0010039679441014337,8.158754962108216e-06,0,70.22825515451329,22,3
1,Y,548,0.07533428024636518,0.0002932287452047191,0.003932133317579151,0.0005957873786930433,0.1065387608360252,0.00041468806834615846,0.0038003070512243184,2.559309196130744e-05,0.0039037379780266835,4.885268514981329e-05,0.9735046441680881,0.013834792454427904,0.0010148836659439565,7.894187010756769e-06,0,61.147593533518084,22,3
1,Y,569,0.07505657314387734,0.0002775919706410728,0.003827090259943621,0.0004992476245873487,0.10614602368531956,0.0003925743296864792,0.003843300426846096,2.2047518668693353e-05,0.0039206139700527385,6.0839719307567114e-05,0.9802802459519873,0.016218057863171556,0.0010225816569938556,6.979607552760368e-06,0,55.71348600001761,22,3
1,Y,590,0.07557689180097199,0.00031182129757276883,0.004265867256139467,0.000598911716888682,0.10688186538693856,0.00044098190806418636,0.0037177996125853834,2.7087153139916723e-05,0.0037952253616559597,4.685688288150001e-05,0.9795991695637296,0.01404327542838066,0.0009960472410397746,8.339825317934541e-06,0,46.726173666408776,22,3
1,Y,611,0.07486854642164475,0.00028108471975036496,0.004388174253032169,0.0005772306040965157,0.10588011374464967,0.0003975138228468067,0.003812302690631465,2.219525417381627e-05,0.0038270223136090747,3.161285034920537e-05,0.9961537660950484,0.010067092445993747,0.0010117930897345015,7.0092591947537144e-06,0,53.108200326809964,22,3
1,Y,643,0.07756267572814993,0.0002900963665743086,0.0042735321443649965,0.0005246701350797301,0.10969018794869612,0.00041025821600454426,0.0035854572168355276,2.0778753468011063e-05,0.003612216861668477,4.769708228259055e-05,0.9925919052322375,0.014313333213365219,0.0009858305206481332,6.799665831910099e-06,0,73.99425404859896,22,3
1,Y,664,0.07646947436457882,0.00031493852925627727,0.004516012526872347,0.0006213989824856699,0.1081441677539291,0.00044539033938806316,0.003742984127354615,2.716271718462241e-05,0.003838437644471761,4.9664548556985986e-05,0.9751321954507659,0.014465999661858886,0.0010146377640435167,8.46633129870018e-06,0,92.96977621583962,22,3
1,Y,685,0.07648715958551736,0.0003298437067532284,0.005161340464523516,0.0005635806207862259,0.10816917843323393,0.0004664694435538297,0.0036705927797698033,2.609207928188706e-05,0.0037015390248720088,6.382086404608495e-05,0.9916396274916282,0.018493642378594313,0.000995244236712981,8.27468490705736e-06,0,57.05730822335574,22,3
1,Y,706,0.08240054988697947,0.0003356393065089549,0.0031360245348324035,0.0005758714845866002,0.11653197519716718,0.00047466565933046434,0.0034461788818609387,2.2652401943366102e-05,0.003532708156715235,4.6101072889263755e-05,0.9755062487429609,0.014253868839712924,0.001006636928986126,7.784263465874162e-06,0,50.11542468365429,22,3
1,Y,727,0.07586833277757328,0.00028740615249107834,0.005007350549120556,0.0005206783176537129,0.10729402516867936,0.00040645367876235294,0.003723962349359628,2.1629551490580978e-05,0.0038413648777943796,5.967752651949648e-05,0.9694372880031742,0.016078843576931564,0.00100154566128552,6.945119707620862e-06,0,50.5755376554475,22,3
1,Y,748,0.07465587355596476,0.00028093043080802693,0.0040012495704819925,0.0004859226688628637,0.10557934889365628,0.0003972956253320281,0.0038139056617996527,2.4660126057308744e-05,0.003804444373977362,4.362812528499684e-05,1.002486903971315,0.013197643726883628,0.0010093431964881066,7.551031952365985e-06,0,46.77367524094006,22,3
1,Y,769,0.07684775065284209,0.00032219198975131193,0.003535584527683556,0.0005714975858414506,0.10867913121111517,0.0004556482815942786,0.003665760115483324,2.7574402845414196e-05,0.00367946116324451,5.612256089589719e-05,0.9962763439663256,0.0169435711769524,0.0009986197105461127,8.599772349736968e-06,0,74.86449503901999,22,3
1,Y,790,0.07456362843971859,0.0002866867321849886,0.004058681111223153,0.0005323142910140783,0.10544889459919826,0.0004054362648084342,0.0038010119577963127,2.4840805388750214e-05,0.003952306476268206,4.906519752028932e-05,0.9617199426764225,0.013492408692026068,0.0010046879686571226,7.6179782116029295e-06,0,105.50779637337459,22,3
1,Y,822,0.08619571694034305,0.000345120587046447,0.004307006267703597,0.0006414552200557524,0.12189915191550549,0.0004880742148552497,0.003164757100293328,2.1027551195483083e-05,0.0032181259153625137,5.394334664284728e-05,0.9834161818173688,0.017732137712507784,0.0009670100801452821,7.501523950383612e-06,0,63.59678275626634,22,3
1,Y,843,0.07842065896633356,0.000306019749150632,0.004255705167810413,0.0006168896778458182,0.11090355948042419,0.0004327772796028362,0.003694716455957702,2.6070756922059972e-05,0.0037750208009807895,5.318451550559787e-05,0.9787274430376056,0.01542162588558927,0.0010271089988864853,8.281974318723543e-06,0,43.74171407527329,22,3
1,Y,864,0.07576580145838027,0.00033699111048624713,0.005299771310038001,0.0005990365167303969,0.1071490239865086,0.0004765773988488209,0.0037504140225101575,2.6651898421195803e-05,0.00385567763314035,6.179925389461254e-05,0.972699063395386,0.017054199933116045,0.0010072965985277803,8.444707386544468e-06,0,76.57470170025601,22,3
1,Y,885,0.07431582388973892,0.00026972431294272853,0.0043432279752511375,0.0005216903743789469,0.10509844604379925,0.0003814477814653716,0.0038637586811865955,2.239356240554129e-05,0.003906161476079048,3.713224234232383e-05,0.9891446385019864,0.011012721864509144,0.0010178791600437547,6.960689959468093e-06,0,71.39261093485221,22,3
1,Y,906,0.07611148283442441,0.00033652866035352875,0.00453265102937339,0.0006117685330019832,0.10763789127677004,0.00047592339559920926,0.003692863130800011,2.722263653532557e-05,0.00375405100868256,4.8666217774671354e-05,0.9837008400415895,0.014669948525699198,0.000996364686573383,8.564776293029353e-06,0,44.37083346831102,22,3
1,Y,927,0.07488533925866339,0.0002876497164674772,0.004374047329723944,0.00054978247786286,0.10590386240251215,0.0004067981302410817,0.003859733087872473,2.488445370046171e-05,0.0039353000701377655,5.0023038494512806e-05,0.9807976568702557,0.013979210583159957,0.00102461098241369,7.689441754258355e-06,0,65.70885013126114,22,3
1,Y,948,0.02501715390323052,0.00015982464660689732,0.6915649458456333,0.0006989039206061451,0.03537959834192361,0.00022602618283296128,-0.000719997314452765,4.573763285085399e-05,0.0029621847192332668,3.603962602453494e-05,-0.24306293587225358,-0.0157211490131584,-6.385188295151435e-05,4.076634046299508e-06,0,30011.355682019504,22,2
1,Y,969,0.07464418170771304,0.0002785385599543228,0.004623293345345334,0.0005403878882829093,0.1055628141232895,0.0003939130091312748,0.0038213761090645287,2.2343995585782946e-05,0.0039350892061950065,3.979802189204056e-05,0.9711027905157882,0.011344629621909463,0.0010111618540166879,7.013785829768326e-06,0,115.11744368330812,22,3
1,Y,1018,0.0758946178194249,0.00031034095886011223,0.004513512229831208,0.0005683929489363527,0.10733119783135348,0.0004388883929798415,0.003758550768230384,2.690031250897232e-05,0.003827100791638002,5.305495082547599e-05,0.9820882628549016,0.015322016554219386,0.0010111983008123202,8.335170041671303e-06,0,44.938955290964934,22,3
1,Y,1039,0.07425225696435206,0.0003130843008132591,0.0047268205227079235,0.0005899829027948512,0.1050085488357988,0.00044276806437620886,0.0038624721511736474,2.6543047002648525e-05,0.003903626786874918,4.353778222962292e-05,0.9894573334111643,0.012962189436558455,0.0010166698678949402,8.196888434108224e-06,0,67.19353877975665,22,3
1,Y,1060,0.07438879660431705,0.00031893432875238306,0.004949951884106012,0.0006144899278177607,0.10520164504643881,0.0004510412532279795,0.003852243227669753,2.5465331030946528e-05,0.003922833848820558,3.94756094192235e-05,0.98200519729582,0.011823425090652923,0.0010158420016601621,8.003955156161466e-06,0,61.882974107288085,22,3
1,Y,1081,0.07630270796394586,0.00029635475405932375,0.005178055075420642,0.0005305743813509558,0.10790832444840581,0.0004191089124644387,0.0037803933351383545,2.660098865335575e-05,0.0038507009358714622,5.1240636815963e-05,0.9817416096695143,0.01477790468401686,0.0010225436876237285,8.218492024143657e-06,0,26.270770587849096,22,3
1,Y,1102,0.07519876136716991,0.00031731603753534657,0.004076971240852164,0.0006102926228604481,0.10634710819910964,0.00044875264384097724,0.003808828674943483,2.5029365521156793e-05,0.003908396328611934,4.627278133112234e-05,0.9745246783342945,0.013195836252659241,0.0010153296231186614,7.92927879389049e-06,0,47.20893086629164,22,3
1,Y,1123,0.0734692655121313,0.000283454235634904,0.004537716437478678,0.0005496112045606103,0.103901231704846,0.00040086482434698034,0.003931786421110627,2.770768056976561e-05,0.003983362415536946,4.888027312861522e-05,0.9870521461403691,0.013967457005317723,0.0010240013957475622,8.226930157424097e-06,0,72.15347810150443,22,3
1,Y,1144,0.0757115945940449,0.00031314659869160127,0.0031853024371751876,0.0005781865715804931,0.10707236390379182,0.0004428561668806674,0.0037998559410118015,2.609646339529011e-05,0.0037941645821697794,5.3097350423544345e-05,1.001500029510783,0.015612206522931046,0.0010198456721323232,8.176139851025879e-06,0,93.96915445790854,22,3
1,Y,1165,0.07462836022481714,0.00029960473788156854,0.00443109178496506,0.0005306033748324595,0.10554043916760125,0.00042370508366335047,0.003758462519031497,2.4656721331595714e-05,0.0037748778641907782,5.1905708712519204e-05,0.995651423502996,0.015168859890082327,0.000994303698405712,7.64741803499856e-06,0,49.92446769357459,22,3
1,Y,1197,0.07581653958211759,0.00032939828561270954,0.003749156070030202,0.0006127355178300093,0.10722077852922729,0.0004658395229359402,0.00370709028828299,2.8658942339530622e-05,0.003808254937540324,6.089341990383543e-05,0.973435431472801,0.01728886086108582,0.0009963273543929247,8.835473465580223e-06,0,47.75564627470962,22,3
1,Y,1218,0.07286106047140681,0.00029148926166625277,0.0048827382936367176,0.0005462658814749047,0.10304109988754973,0.00041222806713453464,0.003983486656046561,2.6144686967694704e-05,0.0040531465391167075,4.530159026393752e-05,0.9828133815548334,0.012738696144492526,0.0010288777765379742,7.908411231882807e-06,0,56.515385268907984,22,3
1,Y,1239,0.07416677535262312,0.00032215038006240125,0.00485591827231893,0.000533148987021984,0.1048876595811582,0.00045558943660789497,0.0038343231117952663,2.7190385341544615e-05,0.003810464318794843,5.6196805176223196e-05,1.0062613873282429,0.016466778863369867,0.0010080986574535677,8.383207526365917e-06,0,76.69840315102083,22,3
1,Y,1260,0.07422532129942293,0.00026240058013667924,0.00488361275894544,0.0005205378573344506,0.10497045605314448,0.00037109045920385997,0.0039021934368148694,2.5195789498261514e-05,0.003936127477753882,4.220161852086901e-05,0.9913788257288921,0.01240783031477902,0.001026752602551607,7.558195402891645e-06,0,75.46614120548159,22,3
1,Y,1281,0.07498541436619854,0.00031908581249354373,0.0034806820310094204,0.0005728239040341281,0.10604538997684432,0.000451255483589208,0.0038587287384222917,2.4836105934344115e-05,0.00391226712048024,4.665952069665748e-05,0.9863152539412042,0.013366923207974188,0.0010257132772918767,7.914236841162956e-06,0,83.86734802813669,22,3
1,Y,1302,0.07265616206325926,0.00030891869042526415,0.0033245159118405034,0.0006038212637895456,0.10275132977983881,0.00043687700166994414,0.004031997234378694,2.630122043339643e-05,0.004128566058531665,4.5443702843775095e-05,0.9766095969438562,0.012495576732065904,0.0010384787420480073,8.086067018241505e-06,0,60.015828249527125,22,3
1,Y,1323,0.07556640279981336,0.00029305973232292016,0.004320900211588936,0.0005820325713998481,0.10686703169924427,0.0004144490480365026,0.0037450978058094784,2.6525132342451387e-05,0.003830466868862125,5.507678497493524e-05,0.9777131441217749,0.015671128498444077,0.0010032215325171496,8.100903740804811e-06,0,56.92658387994456,22,3
1,Y,1344,0.07478986299794264,0.0002774069962007127,0.004218211075736635,0.0005628577181009207,0.1057688385797162,0.0003923127363242296,0.003774212889394311,2.3179296217289785e-05,0.0038157324498598083,3.376205577129542e-05,0.9891188491302574,0.010653463506700836,0.001000631252877346,7.1791877951803135e-06,0,115.14875679207107,22,3
1,Y,1376,0.07662660938743744,0.00030252209422425644,0.003208403263837784,0.0005791974791561932,0.10836639023437955,0.00042783084856945486,0.0036497002709311318,2.526820858179148e-05,0.0036497543334713524,5.053274695685075e-05,0.9999851873481662,0.015479803487608431,0.0009913836242181951,7.901253923986217e-06,0,89.3055059298299,22,3
1,Y,1397,0.08199779431078626,0.00030438785758291477,0.0033344417869065526,0.0005593716974791812,0.11596239279899334,0.0004304694364154482,0.0033784416968414646,2.146019686659893e-05,0.0034431677178137494,3.472399891205966e-05,0.9812016066956556,0.011694604123988792,0.0009820272313664264,7.2250246203736485e-06,0,51.740342438378775,22,3
1,Y,1418,0.07536936572359391,0.0003155653765355547,0.0037422690772015684,0.000563311674402217,0.1065883791937644,0.00044627683531195395,0.003769982264639175,2.516244144485517e-05,0.0037888595498670728,5.674059778314608e-05,0.9950176867261917,0.016313971847835472,0.0010072542292904683,7.936124975120945e-06,0,38.45305272654877,22,3
1,Y,1439,0.08885432030423207,0.0003463706520838912,0.004471022523993032,0.0005910240009697999,0.12565898484968807,0.0004898420737850517,0.0031099106434365094,1.8453822097119164e-05,0.0031834077903103676,3.9534023598271135e-05,0.976912431044,0.013445837351529693,0.0009795607876764635,6.954655970537891e-06,0,61.88844528385824,22,3
1,Y,1460,0.07582836981560824,0.0003309839257441618,0.0037127532756218613,0.0005641904154639102,0.10723750900587581,0.00046808195671488306,0.0037128084159736693,2.561846625950702e-05,0.003829419527155606,5.256169088312028e-05,0.9695486194826628,0.014894703014383302,0.000998019877824005,8.148559259152556e-06,0,65.39733693640422,22,3
1,Y,1481,0.07393639628851188,0.00027378599182799985,0.003877710638372768,0.0005246398998437866,0.10456185438420529,0.00038719186283092677,0.0038328773326540173,2.3487817825378356e-05,0.00383687434377893,4.414389814475392e-05,0.9989582637410597,0.013021802645016999,0.0010045883357517682,7.192766222594106e-06,0,93.69841022186814,22,3
1,Y,1502,0.07606416266937063,0.000344847808768286,0.004029984025941353,0.0006482267947368086,0.10757097045757724,0.00048768844811475365,0.0037039409188171736,2.5458749194454307e-05,0.003722314810629044,4.161649526417446e-05,0.995063853342172,0.013059333864193265,0.0009987322445587114,8.223506691835852e-06,0,78.08040408348509,22,3
1,Y,1523,0.08907807162682808,0.00037825697474473604,0.004479789628694566,0.0006872648106709976,0.12597541700470227,0.000534936143746223,0.003059162348162477,2.1800680059620523e-05,0.0031416627533822064,4.503668126867701e-05,0.9737398913581948,0.01558853272117556,0.0009660025307597561,8.013540806600192e-06,0,53.099176250301205,22,3
1,Y,1555,0.08895348971058413,0.00034589759473467125,0.005450442419600123,0.0006517772319918142,0.12579923156912365,0.0004891730696660046,0.003081933229736602,1.950675181683787e-05,0.003103631716491496,4.179471052690477e-05,0.9930086786265275,0.014775647969534485,0.0009718318942231112,7.2191973290213565e-06,0,43.102459092853074,22,3
1,Y,1576,0.08444097585362167,0.00030228551941336275,0.004068008078008634,0.0005617347220892502,0.11941757327221081,0.00042749628126337313,0.0032854353121602115,1.8499429402014655e-05,0.0033294240113137747,3.151388232183609e-05,0.9867878951421974,0.010867956819315136,0.000983447309034813,6.561923250883291e-06,0,66.2476041261033,22,3
1,Y,1597,0.09103227013163925,0.0003389372204647888,0.0037424946630221587,0.0006554019154932705,0.12873907103377547,0.00047932961397434415,0.0030006680064947463,2.0206848376370287e-05,0.00306176290859686,5.1923702502935744e-05,0.980045841586698,0.01788275845033575,0.0009683185528698282,7.4510854648937836e-06,0,44.95703581404409,22,3
1,Y,1618,0.08672807475690994,0.0003390910358120918,0.004023169446802856,0.0006269499690061296,0.12265201955972971,0.0004795471417246011,0.003207695128943818,1.938284581919122e-05,0.003270332812154623,4.0694726777839544e-05,0.9808466945694322,0.013568212263730704,0.0009861834782239189,7.097767309952122e-06,0,65.17089696150609,22,3
1,Y,1639,0.07659642302914263,0.00030994048636634165,0.003810836032737317,0.0006169158383236165,0.10832370027708038,0.0004383220393477938,0.003737397905262021,2.3233417427670076e-05,0.0036982812404137894,4.3972416597266814e-05,1.0105769849033588,0.013558901905777947,0.0010148053750994133,7.5272235795204854e-06,0,52.03681108126857,22,3
1,Y,1660,0.07810197379833742,0.00028175790424202093,0.004931445477725001,0.0005068610298078191,0.11045287059371689,0.00039846584948488584,0.0036965717957986367,2.3122237950441645e-05,0.003775563965661989,4.353118660119366e-05,0.9790780475230269,0.012842728703983168,0.0010234487199273154,7.390133216262581e-06,0,48.92449313577982,22,3
1,Y,1681,0.07633089581443339,0.0002894715080135879,0.004222515118949151,0.0005556963234740669,0.10794818808885942,0.00040937453255340817,0.0036827658203088544,2.371125245622583e-05,0.0037724206750659444,5.700389952373231e-05,0.976234131217213,0.016034822375993192,0.000996504800288135,7.44617719124734e-06,0,44.11054366405502,22,3
1,Y,1702,0.07420448814249592,0.00029373850906195165,0.005054266626330667,0.0005412413089060043,0.10494099352007125,0.0004154089833066643,0.00381627007260514,2.3100789780607577e-05,0.003825716498134084,4.5783414624786035e-05,0.9975308087952801,0.01337797935914075,0.0010038624448557183,7.260598698623083e-06,0,110.2124987915105,22,3
1,Y,1734,0.07596744163100595,0.00031264023749910034,0.005775494390391648,0.0005633392022863202,0.1074341862533551,0.00044214006401477324,0.0036748587915417788,2.410036318244767e-05,0.00379290717497717,3.8450543808680425e-05,0.968876542981545,0.011698086753528068,0.0009896305387035158,7.662231777582233e-06,0,72.2506931481124,22,3
1,Y,1755,0.08935712180245968,0.00039281095455834144,0.003470055994166552,0.0007160579652086802,0.12637005354766306,0.000555518579385128,0.00307356132945772,2.215463307780765e-05,0.0030583561724639233,4.914403654932824e-05,1.0049716763308005,0.017698994342832994,0.0009735897368280137,8.21987001244498e-06,0,40.55272971491655,22,3
1,Y,1776,0.07594333582841688,0.0003119437363433026,0.004169943691103033,0.0006089239857052828,0.10740009550040175,0.0004411550626340355,0.003703521557164125,2.4089416813044148e-05,0.003698193494726853,4.8591346204797926e-05,1.001440720298943,0.014682190270516093,0.0009970328753497425,7.67004690811653e-06,0,70.37264763432982,22,3
1,Y,1797,0.07419706485549285,0.0002968763254477425,0.004275853717570424,0.0005624834749380709,0.10493049540691413,0.00041984652579568627,0.003821492773750166,2.6798274797598362e-05,0.0039192952241970565,5.6016782783167354e-05,0.9750459088044516,0.015522926435424383,0.0010051357041927292,8.115178421000979e-06,0,75.7034853458838,22,3
1,Y,1818,0.08767569919306936,0.000342260273918539,0.0039897057380353625,0.0006394250413752934,0.12399216288938253,0.0004840291212371284,0.003151464131211698,2.196097448366239e-05,0.0031268800721619217,5.819158143712642e-05,1.0078621688336062,0.020028231437982283,0.0009794821784846947,7.823537420573356e-06,0,62.154605071623415,22,3
1,Y,1839,0.09361819941993368,0.00037967616237301213,0.003722777738792034,0.0006897260817447935,0.13239612730461925,0.0005369431781376832,0.0028848435469299317,1.8718446925509987e-05,0.002943588306836734,3.984521365932976e-05,0.9800431467368033,0.01471148689918704,0.0009573869009544892,7.325667503066768e-06,0,21.571895741336075,22,3
1,Y,1860,0.07824364861353085,0.0003536498470810429,0.004314968085518571,0.0005688977317223086,0.11065322903881014,0.000500136410073182,0.0036031980245664276,2.1581766206458044e-05,0.003718107205468078,4.672777578522755e-05,0.9690947101437372,0.013491687279866627,0.000999406470237606,7.49918258842444e-06,0,74.98242276845204,22,3
1,Y,1881,0.0754334353800834,0.0003071067265253193,0.003973563995360362,0.0005645792487809364,0.10667898737090842,0.0004343144977481117,0.0037960200771327167,2.544598280435167e-05,0.00381429127744723,5.335529189080549e-05,0.9952098046568846,0.015437177628160536,0.001015073101453855,7.961018337896664e-06,0,66.15598323984034,22,3
1,Y,1916,0.07807277521948544,0.000308826933068942,0.003532288744768652,0.000607626502125839,0.11041157756750242,0.0004367472371721859,0.0035345469039796047,2.202098113845517e-05,0.0035935041983714,3.5458052942974425e-05,0.9835933698314544,0.011478094127768049,0.000978223965787804,7.21917082083184e-06,0,81.0748384191086,22,3
1,Y,1937,0.08942682546805876,0.0003916609024398531,0.002025548436140894,0.0006779765579520212,0.1264686294169004,0.0005538921600817259,0.0030654582768838584,2.3871851289952544e-05,0.003191312154222016,6.284621374987975e-05,0.9605635953939333,0.020341591247110713,0.000971780445086167,8.682340152470958e-06,0,38.71010803592799,22,3
1,Y,1958,0.07531733530635347,0.0003210158204634548,0.0034751733700846416,0.0005777985589557291,0.10651479707204703,0.00045398492703574433,0.0037220477748930235,2.4902715494086406e-05,0.0037388599025027936,4.269585284963341e-05,0.9955034079777859,0.013175618035692655,0.0009937607090335638,7.883361552542155e-06,0,85.6286277585318,22,3
1,Y,1979,0.07419228362383024,0.00028486686496185875,0.004689191937837711,0.0005482074653038058,0.10492373372425201,0.0004028625838997657,0.0037944580828122246,2.2700067656417337e-05,0.00384724045999549,4.035901305700894e-05,0.9862804579718609,0.011910638044637208,0.0009979606801971742,7.094073477841419e-06,0,62.039490766851536,22,3
1,Y,2000,0.07582211489928344,0.0003094928633203083,0.004702492083849816,0.0006029834805166204,0.10722866321837776,0.0004376890047652626,0.003736828678503669,2.4890409216274907e-05,0.00388669735147133,4.905007882288973e-05,0.9614406115487928,0.01371968972332171,0.001004393777137006,7.8463716075008e-06,0,76.12662691683789,22,3
1,Y,2021,0.07493862752169422,0.0003171695612304008,0.004532375578085711,0.0005697377159675941,0.10597922338680565,0.0004485454950639567,0.003773820007728829,2.628291915064339e-05,0.003861710102446601,4.472288746269913e-05,0.9772406285334342,0.013206383339099369,0.0010025172393817146,8.170235350823314e-06,0,150.1936848429538,22,3
1,Y,2042,0.07587618450140654,0.0003137351088914272,0.0038491214079486107,0.0005551351428670818,0.10730512918301238,0.0004436884459868562,0.003703567418635574,2.805357581729903e-05,0.0037841886949900676,5.3311364100190934e-05,0.9786952282635301,0.015654424061516133,0.0009961636051581029,8.59669955474646e-06,0,103.50913740889149,22,3
1,Y,2063,0.07450855846273748,0.0002914009493375232,0.003999054100367395,0.0005591975285459119,0.105371013890872,0.00041210317464152046,0.0037654972014867978,2.5299020018745013e-05,0.0038674329848972983,4.539639352249338e-05,0.9736425210705474,0.013168441871706028,0.0009945655735577935,7.73180111141612e-06,0,104.47700523425465,22,3
1,Y,2095,0.07550815410360355,0.000328245669483582,0.003464163829597015,0.0005889252456621308,0.10678465560307382,0.00046420947757391806,0.003708126455503167,2.7590674762060515e-05,0.0037527936362715003,5.602743648204603e-05,0.9880976187082028,0.016482382934762924,0.0009925521207857677,8.553256687384141e-06,0,54.43595902903594,22,3
1,Y,2116,0.07389221059534991,0.0002645978242286243,0.0042288689682469065,0.0005081325122220756,0.10449936637767276,0.0003741978315985328,0.0038244192196101017,2.4892032055967217e-05,0.003839064344465662,5.7431020023182154e-05,0.9961852358956493,0.016251995617386886,0.001001772448910918,7.441886152554663e-06,0,85.62707666956814,22,3
1,Y,2137,0.07602558899080247,0.00032210654181506776,0.004070867815904889,0.0005525427025739947,0.10751641903819553,0.0004555274399639653,0.003632733115822145,2.387009790773883e-05,0.0036808781583738486,4.956151954281501e-05,0.9869202292278608,0.014786394353781875,0.0009790350011075455,7.654433724446888e-06,0,95.75504184292755,22,3
1,Y,2158,0.07468232993014554,0.00030606465499548227,0.004611158008122863,0.0005968604593501603,0.10561676385683394,0.0004328407860576533,0.0037991535356153333,2.3613286582327844e-05,0.003869584946584622,4.165907153710309e-05,0.9817987169317854,0.012204873568595282,0.0010057953782767301,7.48805702124855e-06,0,59.82641026393079,22,3
1,Y,2179,0.07495225379523418,0.000304765579373174,0.004470028801029959,0.0005169798386443213,0.10599849384765048,0.00043100361569403667,0.003734881295902567,2.458629668470386e-05,0.0037719398193062424,4.859670096943231e-05,0.9901752082008319,0.014325929453493659,0.0009923535596855514,7.678264361141842e-06,0,86.76337105424456,22,3
1,Y,2200,0.07382702241751435,0.00029994397577499314,0.004363337969211648,0.0005530097549660665,0.10440717637247132,0.0004241848384931024,0.0038503428749587063,2.838540214746539e-05,0.003873090723132297,6.690348483057782e-05,0.9941266936925263,0.01867099900175615,0.0010076731582217583,8.482145955488202e-06,0,100.027615206421,22,3
1,Y,2221,0.07558175528190567,0.0002944632347159546,0.00431687492092105,0.000530124295524843,0.10688874338763532,0.00041643390015555504,0.0036891519002472317,2.4999116819527565e-05,0.0038208794912131033,3.65812024646329e-05,0.9655242749035121,0.011325126181003727,0.0009884357466116228,7.72612133565999e-06,0,78.54125719831488,22,3
1,Y,2242,0.07371432448001664,0.00029067817515025953,0.0048635053656615555,0.00054489800029658,0.10424779742081058,0.000411081017583359,0.003795578080911193,2.5763314189788475e-05,0.0038482588314988145,4.7023359234560705e-05,0.9863104970600163,0.013786719477036899,0.0009918243172309246,7.785838814156127e-06,0,64.24378445597556,22,3
1,Y,2274,0.07547112981935654,0.0003140801625321411,0.004162116170730014,0.0006054906706240838,0.10673229535815454,0.0004441764255253,0.003684909410553636,2.791836514172742e-05,0.003811148743923239,5.029630724927298e-05,0.9668763037467673,0.014713262550105013,0.0009858539916588929,8.521837848732802e-06,0,61.0587019849639,22,3
1,Y,2295,0.07634597188069521,0.00029869128213605363,0.0047397764928088304,0.0005339418745364018,0.10796950886623413,0.00042241326215941566,0.0037178928879119276,2.3577171811080165e-05,0.0037693966665782322,5.117977292271528e-05,0.9863363335774745,0.014780879134764838,0.001006208388645071,7.497538173940934e-06,0,60.341064966305666,22,3
1,Y,2316,0.07520773603408172,0.0003132494045079011,0.0037152987886506193,0.0005060860229410819,0.1063598002947741,0.0004430015562603695,0.003735730689522931,2.3588717795265387e-05,0.003875666477252804,4.5989528105596623e-05,0.9638937487136241,0.012956335506360897,0.0009959625479979352,7.533802053652114e-06,0,102.77532838644399,22,3
1,Y,2337,0.08348447599629728,0.0003368818018817962,0.003879279581407024,0.0005691542042892612,0.11806487820157474,0.00047642281313792223,0.0033002050678746946,2.440442597793145e-05,0.003302159627161949,5.4242045680582486e-05,0.9994080966676544,0.018003346761696452,0.0009766784031684356,8.227709802566549e-06,0,70.15795877043463,22,3
1,Y,2358,0.08766491750186936,0.0003575308966532074,0.005240693754625642,0.0007006500899800758,0.12397691527546217,0.0005056250430143794,0.0030906847340216857,2.3166045101259375e-05,0.0031693962708133224,5.47740278970173e-05,0.9751651323892553,0.018369762257757247,0.0009604736781155543,8.195875821515452e-06,0,55.95695219212703,22,3
1,Y,2379,0.07699084176874343,0.0003076199044910986,0.003258710816471523,0.0005877913625420327,0.10888149260787794,0.0004350402409872278,0.0036821470655461113,2.5705718108795866e-05,0.0038059696894518196,4.822610006009373e-05,0.9674662086119916,0.013996379038900438,0.0010049515636571735,8.08353171253335e-06,0,95.12374024755005,22,3
1,Y,2400,0.07580415602360169,0.00029567251106485344,0.0037098024670832487,0.0005288149172945999,0.10720326553282367,0.0004181440751688248,0.003708316297508908,2.4598084508243855e-05,0.0037307319533042365,6.279558850914869e-05,0.9939916198547913,0.017983147049370294,0.000996494070073294,7.668044020083116e-06,0,63.616107816213855,22,3
1,Y,2421,0.07288790812097803,0.0003075301383356494,0.0032392967314134806,0.0005656063575070097,0.10307906819769119,0.00043491329247274946,0.0038553143356388573,2.660265439431807e-05,0.00397162658325609,5.449474080981937e-05,0.9707142035689882,0.014908594285765965,0.0009961396142995204,8.056752760387664e-06,0,85.26635254709119,22,3
1,Y,2453,0.07737231901790256,0.000293825712355088,0.003352265661315667,0.0005499068261603188,0.10942098290737556,0.0004155323073865014,0.0035883828417511,2.3329818664211583e-05,0.0036685152783834697,4.4519109933248206e-05,0.9781567117616912,0.01346657985272828,0.0009842134987479176,7.410463880764333e-06,0,90.1691227285848,22,3
1,Y,2474,0.0748919520253468,0.00031638733011069725,0.00441055010202272,0.0005528112497965024,0.10591321426684064,0.00044743925320556155,0.003759852644998937,2.8067816069788382e-05,0.0038972632685952318,4.981997470050123e-05,0.9647417651500293,0.014281489740617947,0.0009981846957931254,8.562038422861716e-06,0,70.64781443111639,22,3
1,Y,2495,0.07606951705288735,0.0003305162193528634,0.004273129625270398,0.0006442363447406447,0.10757854269936473,0.0004674205199931003,0.003684407973504101,2.546398941344389e-05,0.0036469127535974435,4.658254252813855e-05,1.0102813591769286,0.014672369355383155,0.0009935353056603907,8.110814998321697e-06,0,58.661536010920564,22,3
1,Y,2516,0.0735147970109816,0.00028214037131957785,0.0032299619436361136,0.0005141905787901146,0.10396562296803524,0.00039900673961312805,0.0038366238085612223,2.7609884730653237e-05,0.0039630276941401196,5.920960556346105e-05,0.9681042134109225,0.016054386552323458,0.0009998363270739227,8.154488355580245e-06,0,67.27029449442433,22,3
1,Y,2537,0.07544144821356968,0.0002916747982109,0.0031635282029084597,0.0005782588026448049,0.10669031922869776,0.00041249045543229057,0.0037520599815874613,2.315000072026908e-05,0.0038189348492081265,3.751715107139508e-05,0.9824886073574856,0.011397666241401603,0.0010034245475259746,7.3061455098840365e-06,0,89.57935592723234,22,3
1,Y,2558,0.07328265739277158,0.00030400934815518485,0.0033593276856146398,0.0005210665754860381,0.10363732797159853,0.0004299341432492665,0.0039069538798409565,2.5587444029978856e-05,0.004013361418171264,4.32884062397912e-05,0.9734866793086396,0.01228413089489894,0.0010149494814326338,7.868426232643578e-06,0,119.00600796111364,22,3
1,Y,2579,0.07627758012751844,0.00031301563922889224,0.003908085930502659,0.0006059082311977609,0.10787278832133707,0.0004426709622323832,0.003716235918832736,2.593506154376658e-05,0.0038095804028142645,5.762643053413816e-05,0.9754974369585239,0.01625079872697794,0.0010048589741378376,8.135277117182846e-06,0,52.40929005399332,22,3
1,Y,2600,0.07407440106972274,0.00031685477759649684,0.0043285722167682025,0.0005594197453218875,0.104757022617466,0.00044810032377967657,0.003842085800634444,2.803975185260099e-05,0.003879538893569963,5.346446840064614e-05,0.9903459936959017,0.015443727957607376,0.0010088814570125518,8.53437286918647e-06,0,54.9939424685454,22,3
1,Y,2632,0.07825777775933612,0.0003167987750737369,0.0045788364367097744,0.0005808613198789574,0.11067321066843272,0.0004480211242524623,0.0035114806157399594,2.316370810574189e-05,0.003525202391772442,4.705907815453904e-05,0.996107521070419,0.014832277925284318,0.0009741430102441223,7.53952293835992e-06,0,54.6771858036219,22,3
1,Y,2653,0.07362759264542808,0.00025044504132001064,0.0033436367694038246,0.00047821573557542304,0.10412514008404594,0.00035418277406384924,0.003803293105657638,2.2508413821377395e-05,0.0038512193916208325,3.576243388717564e-05,0.9875555555034158,0.0108745161362423,0.0009926709874140116,6.7759981407535345e-06,0,89.48270420330356,22,3
1,Y,2674,0.07945315762352488,0.00031951907698065,0.004400302099756226,0.0005809674682299201,0.11236373308455616,0.00045186821210296824,0.0034221055769643035,2.4079249178239932e-05,0.0034486787868045978,5.0983913671789285e-05,0.9922946695001085,0.0162465564825751,0.0009638501019502548,7.811526777121278e-06,0,43.41945204688645,22,3
1,Y,2695,0.07382552061504488,0.00027690693159082124,0.005023457416853802,0.0005295287457335993,0.10440505250305099,0.0003916055381708583,0.003945329230575077,2.6362897360933983e-05,0.004036943729162101,5.5552161532551555e-05,0.9773059758239339,0.01495033605373623,0.0010325110315345092,7.911928487106435e-06,0,59.2914067553097,22,3
1,Y,2716,0.07800356932017961,0.00027296799412200324,-0.0011603330624380703,0.0006240358795244375,0.11031370564610787,0.0003860350393811163,0.002680625883911953,1.679456462070389e-05,0.002678557328895154,2.9638264894511562e-05,1.0007722646047126,0.012725430482620797,0.0007412344823608196,5.319270571032567e-06,0,52259.36997104844,22,3
1,Y,2737,0.0751800959582217,0.0003043930556120645,0.0033403797424887568,0.0005299225102761868,0.10632071132462784,0.0004304767875387694,0.003854776991055896,2.3929032139113257e-05,0.003963484105947322,5.386238735857112e-05,0.9725728394549866,0.01453055856501622,0.001027323128735491,7.61383534672528e-06,0,61.48240707132303,22,3
1,Y,2758,0.07603378141286117,0.0003352730507687067,0.0032164867426075355,0.0006009053041404588,0.10752800487257963,0.00047414769549530833,0.0036948595275023517,2.7108913010056476e-05,0.0037141388380914028,4.918032538338038e-05,0.9948092111174395,0.015059605956117422,0.00099588560249114,8.524828703383949e-06,0,59.709665665260005,22,3
1,Y,2779,0.07373212266881553,0.0003136191977598792,0.003948103640773343,0.0006098714790556636,0.10427296786079565,0.00044352452289259103,0.003884672958605265,2.4264227309389885e-05,0.003943860199205257,3.498788267892267e-05,0.9849925611937465,0.010686942344794587,0.0010153508376067677,7.672891104130227e-06,0,59.310419369596985,22,3
1,Y,2818,0.07657699258376112,0.0002857108446273383,0.0036207498720958855,0.0005663160020821869,0.1082962214776989,0.00040405615138905393,0.0036906737170159347,2.488709227267911e-05,0.003728850927925197,4.883847546441448e-05,0.9897616687694982,0.014580594264771176,0.0010018642743448972,7.72097651742275e-06,0,78.02322688596885,22,3
1,Y,2839,0.07549234039966793,0.0003089466817111598,0.0042418437094879306,0.000576462751477681,0.10676229164849671,0.00043691658732608607,0.0038035046309819274,2.7750743230811057e-05,0.003980744488222729,5.725688527985691e-05,0.9554757011495773,0.015410049280046722,0.0010178687259988954,8.514943983911645e-06,0,87.60613958284817,22,3
1,Y,2860,0.07536575346019107,0.0002844022796519665,0.004513807793296987,0.0004689151574038683,0.10658327068186924,0.0004022055610536368,0.0037534461289218594,2.337495858153294e-05,0.0038118717156517337,4.8385796897233686e-05,0.9846727300685446,0.01392212422416575,0.0010027880833942716,7.30200907660288e-06,0,64.58708119347064,22,3
1,Y,2881,0.07459420296486337,0.0002786208850049284,0.003969007710633939,0.0004919490675901865,0.10549213350732112,0.0003940294343343642,0.003825187505925017,2.6364251288945327e-05,0.003927063634512682,6.236294067334175e-05,0.9740579379227944,0.01686238462559156,0.0010114926667074053,7.929409688890898e-06,0,48.29784396659611,22,3
1,Y,2902,0.0755416264357707,0.0003047584838882692,0.003510247125437864,0.0005921178678372665,0.10683199262918885,0.00043099358116305275,0.0038346509848105267,2.5158495883241606e-05,0.003886656072362947,4.5565113064958764e-05,0.9866195807953744,0.013254687946259064,0.0010268738759215221,7.908940465158644e-06,0,62.879187996096555,22,3
1,Y,2923,0.0733845250809835,0.00029211544512672835,0.004449955944774865,0.0005263136729209257,0.10378139063783542,0.0004131136242768729,0.003941263316226775,2.419820439172604e-05,0.003962196825583373,3.7023242635183885e-05,0.9947166911998332,0.01112165274485334,0.001025285631335737,7.50221155069127e-06,0,77.21647447036189,22,3
1,Y,2944,0.07610469381073051,0.00030296618164168954,0.003184452539929844,0.0006107574694626548,0.10762829014738684,0.000428458883018068,0.003674039879567609,2.6009655010421347e-05,0.0037241277692007745,5.06950715278774e-05,0.9865504373809616,0.015137025446941108,0.000991197598242216,8.050346345274335e-06,0,78.03826084798241,22,3
1,Y,2965,0.0749965210166117,0.000310651297732817,0.004775630574731329,0.0005757806758413305,0.10606109715249112,0.00043932727842255215,0.003752745649737324,2.514785729879369e-05,0.0038223232999637937,4.486544347316148e-05,0.9817970263721206,0.013269905247912479,0.0009976889903593915,7.859853835550307e-06,0,115.20007264635753,22,3
1,Y,2997,0.07769422270108887,0.0003073637895025381,0.0037247032814458816,0.0005589916879878054,0.1098762234619155,0.00043467803969687857,0.003671955823571911,2.3955812731053006e-05,0.0037631701378736384,5.200351656559443e-05,0.9757613100232381,0.014911255132785507,0.0010113258444481993,7.71615575468095e-06,0,64.50746585705002,22,3
1,Y,3018,0.07570240452096033,0.00031884995769250956,0.0040244950325382485,0.0005668296724702361,0.1070593671777964,0.0004509219345308346,0.003779359575033636,2.591399301030854e-05,0.003794364893040785,6.249953130718301e-05,0.9960453676886295,0.01777126106200988,0.001014221516038122,8.1614611754863e-06,0,31.42581166774065,22,3
1,Y,3039,0.07519985757240014,0.00034703119426427543,0.0046953504327253495,0.0006471677441778276,0.10634865846741337,0.0004907762214950706,0.0037613147878701432,2.6902907522579232e-05,0.0038242826058240485,4.272829361447672e-05,0.9835347372450951,0.013047771720826204,0.0010026783357259736,8.534842101304065e-06,0,51.062457169411275,22,3
1,Y,3060,0.07446503400172576,0.00029262232721094446,0.0042539921606907,0.0005638480466855022,0.10530946100781424,0.0004138304637948953,0.0038855283794560183,2.5228708505439057e-05,0.003949067047483363,4.530167518188634e-05,0.983910461062484,0.01296949233354168,0.0010256694250590384,7.784364175891073e-06,0,98.4336079229512,22,3
1,Y,3081,0.0761618622007831,0.0003048651380626152,0.004321940406286756,0.0006011341586623926,0.10770913845993824,0.0004311444129428965,0.0037574992966864997,2.056237836821118e-05,0.003808048275481754,3.458503530884883e-05,0.9867257515823222,0.010462599062899322,0.0010144751055282564,6.8782285648528024e-06,0,75.18582834432644,22,3
1,Y,3102,0.07355858857622993,0.00030075691396264906,0.004397970855614908,0.0005343070997205053,0.104027553593527,0.0004253345067034564,0.003970438689267592,2.9089784546306032e-05,0.004078032125871662,6.526562239776005e-05,0.9736163342310424,0.01713711937389711,0.0010353252684122227,8.686631151937288e-06,0,65.36114352351254,22,3
1,Y,3123,0.07611661339838278,0.00033229863555643584,0.003449888750854233,0.0005453115230122557,0.10764514698990257,0.000469941237161986,0.003623928442699914,2.52230897520079e-05,0.003714623546364595,5.492500974592501e-05,0.9755843081990254,0.01594339280304694,0.0009778314534693777,8.033861103479895e-06,0,119.16807743364167,22,3
1,Y,3144,0.07378629626599773,0.00032415275138049143,0.004136322446250399,0.0005750174275098928,0.10434958089665325,0.000458421217282845,0.0038463508760773883,2.856507069801928e-05,0.003949210749535858,4.797617855332973e-05,0.9739543215133407,0.013867637087434433,0.00100607311287307,8.681020776574238e-06,0,79.85880722933386,22,3
2,X,103,0.08920069143381425,0.0003251521252696148,0.002318805163893979,0.0006562661055318702,0.12614882759875767,0.0004598345453907249,0.003220120705868179,2.0853505433746985e-05,0.0032244014863884855,3.961140364355976e-05,0.9986723798080427,0.013868859556977947,0.0010182286303748113,7.566876948996102e-06,0,32.842550539772795,22,3
2,X,124,0.08533139752304596,0.0003248643472705516,0.004052948061075862,0.0006272984199159865,0.12067681967334154,0.000459427565841497,0.0037900302192422322,2.392264527486287e-05,0.0038887402094440007,5.105625411266972e-05,0.97461646063112,0.014197942310206647,0.0011464535492798256,8.45078562968911e-06,0,86.84463003111635,22,3
2,X,145,0.0864809203981931,0.0003439515951450126,0.004344921882778662,0.0005994950916691598,0.12230249051363273,0.00048642101065393684,0.0036780628765107955,2.438881215791896e-05,0.003758755256608836,5.4238064264001874e-05,0.9785321537080226,0.015539497078902773,0.0011275722633619127,8.718600404021145e-06,0,75.85428365967473,22,3
2,X,166,0.08499798883319616,0.00031432758373878603,0.0018360981497582615,0.0006245371979242282,0.1202053085823429,0.00044452633195135594,0.00382689325263138,2.6949485321223292e-05,0.0038654883513999367,6.285928717392562e-05,0.9900154662852421,0.017544053228619676,0.0011530813025918346,9.171691329223857e-06,0,90.60851418673151,22,3
2,X,187,0.08694515971133168,0.00035760195356827413,0.001972945856556775,0.0006513599329231269,0.12295902404646009,0.0005057255326673671,0.0036184858458694893,2.3728271863601117e-05,0.003695483453615683,5.515948088632125e-05,0.9791644019753738,0.015963445501264918,0.0011152628086607893,8.632842302383526e-06,0,65.16814060712798,22,3
2,X,208,0.08625894184606796,0.0003162122365679551,0.002239491391979682,0.0005909599348003086,0.12198856543466141,0.0004471916335427317,0.003510187871463691,2.2242011081798268e-05,0.003561286733457226,5.155968305785352e-05,0.9856515732042925,0.015576961344425416,0.0010733452027574702,7.857342658375742e-06,0,41.93150024619795,22,3
2,X,229,0.08605697547489548,0.0003710909093306129,0.0027668101912403376,0.0006992776627510104,0.12170294185340602,0.0005248017968487173,0.0037216618246748833,2.718798100948325e-05,0.0037997671620097232,5.935391710725357e-05,0.9794447043714306,0.016889815387072828,0.0011353451737195757,9.63121871762459e-06,0,65.51857666535346,22,3
2,X,250,0.08508182592460466,0.00034061635371116883,0.0025654887329304324,0.0005916615534184741,0.12032387213404272,0.00048170426698440627,0.0038020839071462986,2.571020176654982e-05,0.0038616310342150717,4.917837219919961e-05,0.9845797989136793,0.014196739008293052,0.0011467359574573932,9.011451403969519e-06,0,92.5472591961391,22,3
2,X,282,0.08588078575597144,0.0002995021422343125,0.0032897201833607488,0.000616304379605604,0.12145377196335294,0.0004235599915075605,0.0037204302336774227,2.3580798755882608e-05,0.003658845178450746,4.2357151840123944e-05,1.0168318286844686,0.013420307334111358,0.0011326457670817454,8.193872106414314e-06,0,26.56528196638453,22,3
2,X,303,0.08560082919741044,0.00033190189352011354,0.003933710633370018,0.0006332964534742698,0.12105785360136068,0.00046938015919345544,0.003778645473017379,2.7435886188616688e-05,0.0038507451455747866,6.568329578777204e-05,0.981276436161904,0.01819123840276638,0.0011466187790967952,9.43803359688074e-06,0,62.702829361799026,22,3
2,X,324,0.08569094460919668,0.00032798527136443904,0.0017845772048196294,0.0006053705854108155,0.12118529603888761,0.00046384121902220965,0.0037322048312336425,2.459051892478564e-05,0.0038337211137885,5.1381810741454096e-05,0.9735201702101542,0.01453909314032059,0.0011337187597556815,8.638721641721007e-06,0,53.16113318356766,22,3
2,X,345,0.08504157252361744,0.00034578554688627204,0.0014045053816377647,0.0006163218082904709,0.12026694522843495,0.0004890146100791637,0.003841062142584743,2.5438322134393754e-05,0.003933239937497471,6.085090189128565e-05,0.9765644109239427,0.01643446253371791,0.0011579439758965075,8.99876308388041e-06,0,56.85892216516468,22,3
2,X,366,0.08485137748886636,0.0003340118557960469,0.0018378923697272486,0.0006399920589765263,0.11999796883079394,0.0004723640964601761,0.00379413830221526,2.2097785531231383e-05,0.003887033880781862,3.5131029446816926e-05,0.9761011657176715,0.010495095067523072,0.0011412400041199372,8.022577310998688e-06,0,76.10129416712603,22,3
2,X,387,0.0848017339019484,0.00032869692881703946,0.0032657087519973238,0.0006051312467841148,0.11992776219688972,0.000464847654643441,0.003839634517811932,2.4056511422308936e-05,0.0038405537003340334,4.520999048963539e-05,0.999760664062054,0.013332023122301835,0.0011542491182227298,8.50377050109437e-06,0,69.91917305714315,22,3
2,X,408,0.085536730482213,0.0003531121585722461,0.0027304204963790202,0.0005888590300025971,0.12096720432899777,0.0004993760036917094,0.0037603546616583492,2.4966972682304006e-05,0.0037441276755529125,5.2441172442111603e-05,1.0043339831094409,0.01556744326471031,0.0011402140436170504,8.914496890459918e-06,0,72.91159950412393,22,3
2,X,429,0.08528378688961791,0.000353100613691818,0.001164486353607293,0.0006497304632224173,0.1206094880698344,0.000499359676765232,0.003812915002062496,2.2606813646520974e-05,0.003889837519040046,5.009218911787263e-05,0.9802247480515502,0.013896687193693929,0.001152732485485882,8.336038667732463e-06,0,58.7004503918649,22,3
2,X,464,0.08599653475838104,0.00030280292696407637,0.003133510622761098,0.0005998548331876659,0.12161746577239174,0.00042822800603886657,0.0037235305557537283,2.2612896458562395e-05,0.0037999776493795245,4.287140408683743e-05,0.979882225455121,0.01255492033623624,0.0011351174647649795,7.968425664196408e-06,0,27.854280793355862,22,3
2,X,485,0.08331532694785618,0.00029868900607075456,0.004480348502645974,0.0005699341302080718,0.11782566532320682,0.00042241004331700083,0.0039461635261237886,2.2321958095988514e-05,0.003919903548612204,3.546774679274283e-05,1.0066991386869408,0.010742277276875094,0.0011654802355665218,7.805230048893913e-06,0,34.666542223942315,22,3
2,X,506,0.08443863923022463,0.00034165335402528004,0.005260412148316445,0.0006602751155069364,0.11941426878771255,0.00048317080689280756,0.003827824322106197,2.6813540943589654e-05,0.003826239181909065,6.066150297230038e-05,1.000414281523389,0.017339824261247833,0.0011457718695852008,9.268734524126166e-06,0,33.64701449376346,22,3
2,X,527,0.08426414278459377,0.00031335130241254516,0.004804665050042725,0.0005880721366134259,0.1191674935477155,0.0004431456616590945,0.003853697753244399,2.376705389437591e-05,0.003819876565447181,4.368327741408206e-05,1.0088540001797828,0.013107850596446419,0.0011511326943900136,8.290123542054454e-06,0,26.084682325807734,22,3
2,X,548,0.08354988396827324,0.0003195181647724362,0.005614621183211504,0.0006176814444150693,0.11815737904263046,0.0004518669220457405,0.003867511865979691,2.3952998638127074e-05,0.0038279117663121863,5.200254378637393e-05,1.0103450920723953,0.01508472098421682,0.0011454666199847397,8.337798285173426e-06,0,45.73893484024491,22,3
2,X,569,0.08272443152335218,0.000302317041587357,0.005116789352624723,0.0005975234854718055,0.11699001299992906,0.00042754086034935135,0.0039479420934824235,2.311176147487853e-05,0.003898214690895596,5.390244417513746e-05,1.012756455590547,0.01520719605846708,0.0011577358919559059,7.98974062511017e-06,0,29.612302935522308,22,3
2,X,590,0.08457090359696919,0.00028466557164482845,0.003793066080471912,0.0005744656097600015,0.1196013188489814,0.0004025779121608064,0.0038128165778341223,2.0944084576823055e-05,0.003813588347029318,3.359445042954012e-05,0.9997976265068574,0.01037936764252261,0.001143067339915329,7.364034561331489e-06,0,41.50655657764675,22,3
2,X,611,0.08376175051342523,0.000287257485647695,0.00543331889845787,0.0005613525222405103,0.11845700358419753,0.000406243432096165,0.003940974382840086,2.504956136302423e-05,0.003901194497756927,4.691528352516391e-05,1.010196847428661,0.013741009006153488,0.0011701843588089193,8.451475664521686e-06,0,30.809507464903454,22,3
2,X,643,0.08641782355351392,0.00029618090109295096,0.0034892308837392006,0.000598691417546093,0.1222132581001445,0.00041886304724153556,0.003653078286641975,2.155071926996129e-05,0.0036875676527705287,5.2215255337858476e-05,0.9906471231510448,0.015196097874790131,0.0011190957224593186,7.635200848990548e-06,0,47.714967874851865,22,3
2,X,664,0.08416600599459115,0.00029460580829938416,0.0042201255190511275,0.000605333983859322,0.11902870716832603,0.00041663552965087725,0.0038085172424892977,2.2826528226037236e-05,0.003773955697078462,3.5032682806285883e-05,1.0091579096801775,0.011150717022283596,0.0011363119575734774,7.886911267469133e-06,0,83.32689756050675,22,3
2,X,685,0.08557960322936749,0.00032882890863180936,0.004387161512869707,0.0005675235961359875,0.12102783554947982,0.00046503430228744813,0.003689039860886719,2.2461455018414166e-05,0.0037202270229549778,5.6360962483135003e-05,0.9916168658859192,0.016190734322272433,0.0011191506429692286,8.057581912933114e-06,0,37.558539345558906,22,3
2,X,706,0.08510864946921601,0.00031639732943783796,0.004754362214480142,0.0006086905886226932,0.12036180635462301,0.0004474533943896186,0.00349371564957823,2.0706352692508487e-05,0.003457375738066673,6.258650271142322e-05,1.010510836618492,0.01924804487677257,0.0010540620714593496,7.374412865041848e-06,0,26.97082860026926,22,3
2,X,727,0.08531683870391478,0.00035828626170103755,0.004660771545837834,0.0006610075696512052,0.12065623039387408,0.0005066932905095634,0.00378527228044774,2.5543424321869067e-05,0.003766842692400659,5.592060203101368e-05,1.0048925823433672,0.016387001923634455,0.0011448189545457048,9.099156002642291e-06,0,36.18495092341329,22,3
2,X,748,0.08315870667028244,0.00032331028626623494,0.0043844387125324775,0.0005957606106130729,0.11760417080251939,0.00045722979169243727,0.003921831878141975,2.411044595346795e-05,0.0038560147249898603,4.934001471062078e-05,1.0170686986036568,0.014438155270426443,0.0011561165830597628,8.409536719177654e-06,0,32.72431291181551,22,3
2,X,769,0.08565783416231458,0.00032474550892829646,0.004402751017728069,0.0006162549592255332,0.12113847079585072,0.00045925950304614993,0.003657183347849692,2.525059765962089e-05,0.0036669159325944454,4.5478395162104265e-05,0.9973458391401224,0.014157005009781556,0.0011105004907796944,8.747168683455219e-06,0,44.7199507928879,22,3
2,X,790,0.08402011543267465,0.0003038571350805631,0.005684657034530596,0.0005941714530082615,0.11882238675704149,0.0004297188814547659,0.0038988535606622114,2.2837004067129176e-05,0.0039157401370974515,4.3885031921995725e-05,0.9956875135111092,0.012591144253331453,0.001161248402219766,7.993881270246165e-06,0,29.60206821984338,22,3
2,X,822,0.08853163726763841,0.0003088448875283937,0.00318996245260925,0.0006484637903830877,0.1252026421229896,0.0004367726286122475,0.0032722780548391558,2.1027942615358134e-05,0.0031986617215649096,4.222352071863868e-05,1.0230147291843759,0.01501931887826409,0.0010269602354874092,7.509067090138638e-06,0,49.432608094480806,22,3
2,X,843,0.0834958441935993,0.00028886777673219684,0.004109678255472738,0.0005786118709469622,0.11808095526037898,0.000408520727587236,0.0037332186710754825,2.068567172123769e-05,0.003743646505699683,4.914407370548323e-05,0.9972145247666081,0.014209139394079069,0.0011049769566487202,7.218104767811264e-06,0,16.89345709258057,22,3
2,X,864,0.0840555007214347,0.0003239233914594452,0.004580148695408533,0.0006243070437508215,0.11887242911231444,0.0004580968533718366,0.0038323532703613615,2.429631056730474e-05,0.003868384886842234,4.6563127361817634e-05,0.9906856175032043,0.013477636974921294,0.0011419224405244093,8.472095514288884e-06,0,28.86600864567895,22,3
2,X,885,0.08333075579607253,0.0002913507918417255,0.0035022085787778635,0.0005514853652327626,0.11784748500960618,0.0004120322412307087,0.003929788694066639,2.1661435402052426e-05,0.003966777549979286,3.913138596691545e-05,0.990675339000837,0.011194949297494244,0.0011608589436770938,7.5774497990878165e-06,0,30.730976997895205,22,3
2,X,906,0.08466351641119936,0.00033576248641435343,0.004187758941583132,0.0006649441562834427,0.11973229314691525,0.00047483986202329076,0.0037874013084938226,2.5204219799323783e-05,0.003682741470259609,5.190731177210623e-05,1.02841900227844,0.01602973866587613,0.0011366913611595333,8.805776540953107e-06,0,40.92665448327436,22,3
2,X,927,0.08357375378718457,0.0003155230084313416,0.0049021200742924535,0.0005916723350914945,0.11819113606426623,0.0004462169177643638,0.0038972862656850337,2.2852247036788592e-05,0.0038651322246108753,3.747611377777607e-05,1.008319001577597,0.011425350436391857,0.0011546148752282553,8.052202341007725e-06,0,29.336650444869417,22,3
2,X,948,0.08376895561590116,0.0003025070165172543,0.004670381240423809,0.0006088668079182782,0.11846719313783727,0.0004278095254717229,0.0038282126137927242,2.205529910156959e-05,0.003822620507856462,3.2757965589358164e-05,1.0014628985338119,0.010341211083706232,0.0011368000469504983,7.729642076920839e-06,0,28.146638195801227,22,3
2,X,969,0.08374795031169989,0.0003074858012242128,0.005082611017886162,0.0005730856559504148,0.11843748715175406,0.0004348505903284394,0.0038887718003820177,2.384998687289184e-05,0.0038866918574936445,5.4198364112771264e-05,1.0005351447875557,0.015241866020565525,0.0011544937269632016,8.252371603926289e-06,0,30.189934226617776,22,3
2,X,1018,0.08377184872032625,0.0003080127046110979,0.003267951386174311,0.0006323525305360048,0.11847128460535261,0.00043559574424423264,0.003870718598978181,2.5115032252319792e-05,0.003883037335958302,5.255868289611952e-05,0.9968275512403537,0.014962670236379351,0.0011494620332177983,8.57248275820019e-06,0,31.742341155999615,22,3
2,X,1039,0.0827374010834256,0.00030406049077625274,0.003871218049827921,0.0005817044610066547,0.1170083547276829,0.00043000646983759605,0.003980356094693777,2.2893032031644694e-05,0.003922514290552397,3.7407990914343136e-05,1.0147461041201802,0.011301063098477938,0.0011674243136169514,7.968084933744419e-06,0,41.56115198966812,22,3
2,X,1060,0.08384591851756742,0.00029418798131165857,0.003759567317082861,0.0006105889975217353,0.1185760351171733,0.00041604463305811024,0.003927334453936529,2.53583222546733e-05,0.003933764236516474,5.7622630372607633e-05,0.9983654885770077,0.015982005210878884,0.0011673060766040331,8.578077584077976e-06,0,26.11388800901406,22,3
2,X,1081,0.08324527049574813,0.0002990508256246672,0.004221616211818795,0.0005778928626410551,0.11772659053850387,0.0004229217334372759,0.0039009148292931625,2.522801527958864e-05,0.0038701867908588483,5.50035316444521e-05,1.0079396783914647,0.015738354091529495,0.0011511474852243428,8.516167060721979e-06,0,30.908329147995552,22,3
2,X,1102,0.08400684729842053,0.00032451367747800074,0.0038049149290470007,0.0006157198879783542,0.11880362278163192,0.0004589316438649571,0.0038715453131924565,2.8006867730250713e-05,0.003925179984039626,6.869221674050255e-05,0.9863357422932818,0.018677853659478483,0.0011529327212640554,9.454996839973074e-06,0,33.853475303678586,22,3
2,X,1123,0.08284794242966276,0.00031353681186092923,0.004030162517765044,0.0006284203253499912,0.11716468379873446,0.00044340801163694765,0.004020155997677293,2.2442947679441184e-05,0.004020130771634775,5.029149258396404e-05,1.0000062749308296,0.013699117117606146,0.001180672817670479,7.963007522683976e-06,0,40.58670780530213,22,3
2,X,1144,0.08405558712315678,0.00033464788000177353,0.0036995903518420663,0.000648409668697345,0.11887255130280161,0.00047326357051791224,0.003922000735989093,2.3020045738102108e-05,0.003921162253833938,3.432064131226957e-05,1.0002138351082859,0.010540747695307374,0.0011686358067371561,8.288348671243497e-06,0,50.89342335777338,22,3
2,X,1165,0.08539363703560597,0.0003093708548414633,0.00448986016243148,0.0006396141456407637,0.12076483963611939,0.00043751645871975553,0.0038846267265943792,2.322447071901962e-05,0.003919400546242035,4.690911507845622e-05,0.9911277708829741,0.013259895220919082,0.0011759253073183888,8.220418155754886e-06,0,22.418073860843702,22,3
2,X,1197,0.08392869413203632,0.0003204208621160691,0.0045018383106592294,0.0006460432449138553,0.11869309751378898,0.0004531435288718244,0.0039033914323481807,2.1554157636095912e-05,0.0039049273339703187,3.6478714911450425e-05,0.999606676004243,0.010847416467926783,0.0011613349666723548,7.796255607869573e-06,0,19.9458820298812,22,3
2,X,1218,0.08298857176354124,0.00024883876602684084,0.003176156749310483,0.0005132062124658463,0.11736356370997292,0.0003519111577593437,0.004022373808712286,2.0863287255893964e-05,0.0039696592054978,4.163512262783128e-05,1.0132793775197324,0.01185615690797494,0.0011833293886251003,7.089497937701511e-06,0,48.217139537239824,22,3
2,X,1239,0.08373975590347854,0.00029756886717185457,0.0028254921524006878,0.0006058570741498306,0.11842589850851182,0.00042082592769443483,0.003908851359109629,2.5398540842432695e-05,0.0038825365533343447,5.5162791300866735e-05,1.00677773548653,0.015729118080758327,0.001160341375381362,8.59337797403186e-06,0,22.893383144308835,22,3
2,X,1260,0.08261449083340959,0.0002857114150784331,0.0032176972977362,0.000590406171647643,0.11683453338515559,0.000404056958128729,0.004008521263027697,2.418271268351745e-05,0.003905076956843453,4.115440667965012e-05,1.0264896972140236,0.012464943017287003,0.0011739385227834418,8.163331773503386e-06,0,25.68297558297072,22,3
2,X,1281,0.08365856935265882,0.0003397309751589622,0.00425333444924249,0.0006368699649828898,0.11831108338726026,0.0004804521526280414,0.0039157529893849045,2.401523487470216e-05,0.003928414502674409,5.741173293319692e-05,0.9967769406001111,0.015798095462319178,0.001161263173170971,8.54176253393909e-06,0,30.660656827379338,22,3
2,X,1302,0.08183857337320705,0.00029821463778539697,0.0030063866411411564,0.0005842982542089359,0.11573722038965506,0.00042173918525428844,0.004106783930186071,2.1279376638178698e-05,0.004088048505093624,3.85321837236819e-05,1.004582975243347,0.010805198767211316,0.0011914198623980494,7.5470982798427515e-06,0,28.194584330521717,22,3
2,X,1323,0.08480736806196429,0.00033506974119389425,0.0032544803213011343,0.0006394003257084672,0.11993573010239678,0.0004738601723372482,0.0038691900737878792,2.6632759355353555e-05,0.003923535038265567,5.188275326469086e-05,0.9861489794413277,0.014701225189489724,0.0011632112192714813,9.2319481192827e-06,0,33.57652392201132,22,3
2,X,1344,0.08471310347007185,0.0003249967182756239,0.0037777200909084236,0.0006131055810766671,0.11980241983809092,0.0004596147667121353,0.0038784187472218888,2.406030000680363e-05,0.003813270691356488,5.6382048697373374e-05,1.0170845610339365,0.016308384526579876,0.0011646896653697743,8.495321430990683e-06,0,16.770844038468056,22,3
2,X,1376,0.08575781107286223,0.0002990417182772578,0.0032112087624588466,0.0005813200978589334,0.12127985949867137,0.0004229088537030523,0.0037247352681696318,2.4986568111986942e-05,0.0037328523398107148,5.517044873437468e-05,0.9978255042251432,0.016195560748923518,0.00113233265107625,8.560954356455839e-06,0,40.60751824632458,22,3
2,X,1397,0.08711136067444582,0.0003262283922792027,0.0018863281159303231,0.0006358357559451228,0.12319406770257557,0.0004613566167924188,0.0034648068517561326,2.0849967644338663e-05,0.003478993631478349,3.765636424478775e-05,0.9959221599045619,0.012333737316071817,0.0010699383616148293,7.583495435408404e-06,0,35.96373981626141,22,3
2,X,1418,0.08523148850696788,0.00032655856451078015,0.0026690393080591266,0.0006387701169397222,0.12053552698780057,0.00046182355084023463,0.003832442308012861,2.3890472151305934e-05,0.003862513356251989,4.429994969868751e-05,0.9922146422638374,0.012952190976849567,0.001157925534445343,8.472617431905622e-06,0,29.0719281599957,22,3
2,X,1439,0.08800541581140302,0.00036506588314648994,0.002539055037713854,0.0006965132790530563,0.12445845260276978,0.0005162811231054776,0.003163809745397303,2.20507893302739e-05,0.0031510825903044394,5.14179763732925e-05,1.0040389785821622,0.017815380431001924,0.00098701713151459,8.005456440409136e-06,0,25.389834521931796,22,3
2,X,1460,0.08557629600161631,0.0003066369460893783,0.0023086595369983635,0.0005914973944628279,0.12102315842314026,0.0004336501278842664,0.00378688607684072,2.186195918090591e-05,0.0037368003792588745,4.2117537671102767e-05,1.0134033645093397,0.012833230060935591,0.0011487900283387279,7.805659139522566e-06,0,46.57561543876696,22,3
2,X,1481,0.08421117456236059,0.0003094144661476328,0.0015094496007169098,0.0006280090149617865,0.11909258516945853,0.00043757813442041327,0.0038896016446229235,2.1608726688781046e-05,0.0039032723102268656,3.5254692786400694e-05,0.9964976397961977,0.010566742423851807,0.001161127155215053,7.733835322782272e-06,0,27.585855397276138,22,3
2,X,1502,0.08481047417707485,0.00030039524860594666,0.0024996346241252312,0.0005549418625304352,0.11994012281251243,0.0004248230346509674,0.003798215481882769,2.3576009323083442e-05,0.0038040611720435505,4.845971835153184e-05,0.9984633027976149,0.014148936838890827,0.001141915644807071,8.160816031042779e-06,0,53.61301697489396,22,3
2,X,1523,0.08849081880517658,0.0003452797907014235,0.00341428420148121,0.0006487999930260813,0.12514491609978085,0.0004882993628232968,0.00315104425921635,2.0395719982644393e-05,0.003206901403581314,4.5700959521687575e-05,0.9825822071415774,0.015379260438622722,0.000988456698672117,7.47055299713955e-06,0,22.60229838755898,22,3
2,X,1555,0.08786090068046988,0.00032286615411412,0.002508031404152212,0.0006619966753214453,0.124254077344636,0.0004566016939794304,0.003172508257138933,2.193616727335403e-05,0.0031972948104413033,3.972165869293507e-05,0.9922476484741334,0.01410784829366598,0.0009881055624447212,7.73715207160056e-06,0,17.638177114022074,22,3
2,X,1576,0.08798190127668884,0.0003383875210695708,0.0011961143309646854,0.0006399742446917764,0.12442519802886409,0.0004785522216343985,0.0033529161794227666,2.2611038951204273e-05,0.003355462834713725,4.57241390465889e-05,0.9992410420212043,0.015192618489542486,0.001045733380726326,8.118415290518146e-06,0,26.40562745240742,22,3
2,X,1597,0.088947477432405,0.00032983618092619565,0.0024566092979247042,0.0006528220461439559,0.12579072892378196,0.0004664588004271719,0.0030767289992945468,1.8250179012111737e-05,0.0030187449878783775,4.089032565505521e-05,1.019207985983911,0.015071348900796899,0.0009701252600570671,6.7864195638567356e-06,0,27.756849145512195,22,3
2,X,1618,0.08719522741868643,0.00032458321199746627,0.002829693167729643,0.0006508597210709425,0.12331267318971273,0.0004590299805254383,0.003273658509654019,2.0165650824765446e-05,0.0032445940003423862,3.4726030370735e-05,1.0089578262514711,0.012459457496099845,0.0010118846804843158,7.2829127969938776e-06,0,25.787005906728055,22,3
2,X,1639,0.0844328341555658,0.0003202450065262045,0.0018973847311484157,0.0005918711323274723,0.11940605917239944,0.0004528948315116188,0.0037985099454348483,2.3063927820781145e-05,0.0038686869462128807,4.945139866111012e-05,0.9818602534261063,0.013894584862363573,0.00113691911234664,8.139360398963632e-06,0,39.95951546129932,22,3
2,X,1660,0.08406107217604239,0.0002624061854529156,0.002828175636639547,0.0005559827811458323,0.11888030833898278,0.00037109838631810277,0.0037255506482113745,1.9703775282022548e-05,0.003703180190720384,3.429854162756362e-05,1.0060408773915586,0.01073001517840316,0.0011101721515859536,6.817949662763961e-06,0,55.28374920281868,22,3
2,X,1681,0.08525480194119123,0.0003081209509606642,0.0021463209879150355,0.000556099532940481,0.12056849716266471,0.00043574882769986667,0.0038027385801972873,2.24451290557625e-05,0.0038564230064138333,5.004777823003687e-05,0.9860792174179906,0.014058474664954978,0.0011492651900809302,7.954019146262399e-06,0,15.922013763447792,22,3
2,X,1702,0.08483375034993541,0.0003024486194101772,0.0030550919096253666,0.0005846034663526505,0.11997304029185196,0.00042772693949089113,0.003893071039083282,2.3863017949642544e-05,0.0038753664266570416,6.0859852775486485e-05,1.0045685002337992,0.01693515005869344,0.0011707547471804724,8.30186043434997e-06,0,31.070559765194744,22,3
2,X,1734,0.08541367957749814,0.0002773447871829308,0.0032101058301727526,0.0005168299313991528,0.12079318407068773,0.0003922247594875805,0.003804913360646627,2.0887075334981697e-05,0.003793901451310169,3.968966377864498e-05,1.0029025290924876,0.011848532564857522,0.0011520654052589521,7.3478049366403886e-06,0,29.278444128579736,22,3
2,X,1755,0.08808885412814017,0.00031115639416913216,0.0025903338438595645,0.0006432322151364939,0.12457645220192104,0.0004400415926530954,0.0031558535652105807,2.0077042870022258e-05,0.003172440979910905,4.2087179914069074e-05,0.9947714032174714,0.014636092668186215,0.0009854684753571837,7.170946897590165e-06,0,27.38766067807816,22,3
2,X,1776,0.08509889500906961,0.00031392577663973397,0.002522476102086476,0.0005884257155176677,0.12034801146479035,0.0004439580909024188,0.003795913886629587,2.2834162871889568e-05,0.0037325221786492758,4.93404704198612e-05,1.0169836118705264,0.014770073636229477,0.0011451047191282206,8.080424972808018e-06,0,27.629348743729295,22,3
2,X,1797,0.08455778325151055,0.0002875257226496995,0.001614926136609952,0.0006045838927963114,0.11958276387849076,0.00040662277650233003,0.0039032715159460266,1.989814804778351e-05,0.003912862159197167,2.9771697296962372e-05,0.9975489442610194,0.009136134400388114,0.0011700038300661805,7.169560646602199e-06,0,29.179835956283213,22,3
2,X,1818,0.08805704324635436,0.0003224145647705829,0.002146421758528181,0.0006521806727914737,0.12453146482146848,0.000455963050205177,0.0031840533157362788,2.065589702781305e-05,0.003208569238309849,4.2146848199809325e-05,0.9923592353000042,0.014538384454841083,0.0009939152678410078,7.403906300438104e-06,0,25.480850606930982,22,3
2,X,1839,0.08827605194757153,0.00033721846735163365,0.0021134861739662216,0.0006776527016758559,0.12484118989700754,0.0004768989300113491,0.003013217864579921,2.0307013198222267e-05,0.0030229126310401836,4.885419825700918e-05,0.9967929055042102,0.017454009951411543,0.0009429276416993342,7.304559160869869e-06,0,49.26233687564889,22,3
2,X,1860,0.08537809059656983,0.0002924881643009565,0.002781109456856319,0.0005319991315687003,0.12074285365118786,0.0004136407287880228,0.0036810680527737177,2.1860154888750135e-05,0.003686667230054512,4.947940181050109e-05,0.9984812360510467,0.014654021550803975,0.001114102673521801,7.638090547564704e-06,0,29.584049598068876,22,3
2,X,1881,0.08372387531419925,0.0003013744446035475,0.004629785354786325,0.0005608133699311138,0.11840343996377456,0.0004262078269109959,0.003885485026812509,2.0255299304636466e-05,0.003944743154535738,3.3944796329057185e-05,0.9849779502994782,0.009909844285036055,0.00115318635226984,7.305540034614813e-06,0,31.79293509173676,22,3
2,X,1916,0.08670716941252611,0.0003650218897816757,0.0033767547475075663,0.0006781356946916517,0.12262245493817603,0.0005162189070923029,0.0036269190595666044,2.2610173568228606e-05,0.003598865999184793,4.1481892523475684e-05,1.0077949721907307,0.013206345648643683,0.0011148021676183322,8.385893879834598e-06,0,14.414883958945236,22,3
2,X,1937,0.0884952525140385,0.0003265258279493625,0.0037306517385966255,0.0006611934444442024,0.12515118631098499,0.0004617772543510923,0.003131482510315666,1.985084533058041e-05,0.0031285313113609665,3.8599236921730004e-05,1.0009433176979827,0.013884137421701935,0.0009823695565277053,7.205447616703599e-06,0,44.39056450298818,22,3
2,X,1958,0.08609106383936724,0.0003285533601853553,0.004397766070415434,0.0006164743149923172,0.1217511500807611,0.000464644617937382,0.003768274066588839,2.2298547816826853e-05,0.0037447190669117753,4.871707430951118e-05,1.0062901914018585,0.014382005518025374,0.0011500202509622242,8.097697354423551e-06,0,67.3833483257154,22,3
2,X,1979,0.08525916877666494,0.0003311130462871066,0.0033361757088898364,0.0006533193099176226,0.12057467280061629,0.0004682645607378966,0.0038454393869976062,2.173039905267545e-05,0.0038698762351194694,4.345006280885548e-05,0.9936853670150749,0.01249027299315528,0.0011622297726760918,7.969174300576503e-06,0,54.21957227283967,22,3
2,X,2000,0.08607221129994673,0.0002988386584262397,0.00477748157244689,0.0005823534040090465,0.12172448856382745,0.000422621683707769,0.0037704112171140355,2.301707235805336e-05,0.0037394571681923124,4.85442633315362e-05,1.0082776851102928,0.014464117430233079,0.0011504204984658626,8.079303337003998e-06,0,33.85361332611041,22,3
2,X,2021,0.08412650933556495,0.0003319661066839844,0.0031468370481567767,0.0006226405424830826,0.11897285045746275,0.0004694709703206845,0.003865374528148123,2.316195778247619e-05,0.003907173371412631,4.2344601699138566e-05,0.9893020249445968,0.012251410998092198,0.0011527347395635951,8.270597952794172e-06,0,27.278317632352962,22,3
2,X,2042,0.08596956184883886,0.0003436647798828787,0.0034454991914558575,0.0006657050653689109,0.12157932031790053,0.00048601539262033144,0.0036879960086803414,2.369329610000894e-05,0.0036292578839262923,5.052873944350826e-05,1.0161846103618581,0.015581541157314143,0.0011239321327869854,8.504351577299502e-06,0,22.735829564802117,22,3
2,X,2063,0.0843420898172959,0.00030950107257306497,0.003183285512166328,0.0005819261109939363,0.1192777272985096,0.00043770061440184804,0.0038600347941351457,2.370588516000694e-05,0.003845341330259353,3.9266811164313446e-05,1.0038211078325268,0.011961558562807796,0.001154092208713301,8.256582389420144e-06,0,22.220297165457286,22,3
2,X,2095,0.0857485833135133,0.00028361514718307386,0.004378806019088194,0.0005776861001705222,0.12126680947624979,0.0004010923876407446,0.0037347774808303056,2.203833768698473e-05,0.003763116284643862,3.411792582620185e-05,0.9924693255084361,0.010736096461155082,0.0011352633487438457,7.67958815804982e-06,0,17.20425122858493,22,3
2,X,2116,0.08524494735993296,0.0003107572868827264,0.0036529934686970766,0.0006071677446200697,0.12055456068019776,0.0004394771697158184,0.003855217816653048,2.355299729981274e-05,0.003875863985879121,5.651337770895946e-05,0.9946731440263917,0.01572482384461479,0.001164990809561258,8.288149782728275e-06,0,25.380834044823583,22,3
2,X,2137,0.086165139367891,0.00031118751500433517,0.0038187831439752333,0.0005711026611683392,0.12185590869783935,0.00044008560416031184,0.003790667194576214,2.4225418494399327e-05,0.00377166270809688,5.305321084711268e-05,1.0050387555701987,0.015527840300083348,0.0011578496896878796,8.499398335694571e-06,0,42.427262902964266,22,3
2,X,2158,0.08474220868456629,0.0003087865756716455,0.003187853189063231,0.0005916018968873289,0.11984358082716473,0.0004366901631935871,0.0039052116755824307,2.366912318345509e-05,0.0038889988520565103,4.7917513916811154e-05,1.0041688938831512,0.013788558018804645,0.001173138506700554,8.296347092639137e-06,0,25.70015394314009,22,3
2,X,2179,0.08519013093683915,0.00031569985664425674,0.003300420765680115,0.0005734200518027226,0.12047703855121772,0.00044646701890554974,0.00381428373574821,2.406962106087189e-05,0.003765269651340932,4.862235074344487e-05,1.0130174167977113,0.014559861028478078,0.0011518799366530355,8.429540748755932e-06,0,29.188604217146754,22,3
2,X,2200,0.08469547397683594,0.00029166537813482985,0.003619731611209826,0.0005700001029222291,0.11977748796965892,0.00041247713343295356,0.00391294426317951,1.8517564530828547e-05,0.0038567020539025474,4.4638220543939944e-05,1.01458298009307,0.012686647795611294,0.0011748131432379673,6.875870995800726e-06,0,32.249285684147935,22,3
2,X,2221,0.0852965790940306,0.0002844262152681443,0.002902015260094562,0.0005216873331287796,0.12062757897880749,0.0004022394111266592,0.003785772236521174,2.139288798390436e-05,0.0037848358838220297,5.03717653233108e-05,1.0002473958522604,0.014462395411670072,0.0011446982731366936,7.510785664445486e-06,0,37.99239260804708,22,3
2,X,2242,0.08442298388861033,0.00030891524390628004,0.0031565362653187367,0.0005607484177401666,0.11939212879127803,0.00043687212755605387,0.003910917320400596,2.4673317995408755e-05,0.0039103275433652555,5.688782684229293e-05,1.000150825481702,0.01585951933430433,0.0011704268194874213,8.536146387743623e-06,0,30.75702555663112,22,3
2,X,2274,0.08551619090668415,0.00031658255831501747,0.0038200366434939697,0.0006071737447508743,0.12093815698271948,0.00044771534757986897,0.0037737029823359004,2.4368919902304387e-05,0.0038012974191331183,4.942849240033625e-05,0.9927407845915117,0.01441286055164073,0.0011439867522305787,8.51521584646972e-06,0,26.383594013961325,22,3
2,X,2295,0.08454085206010017,0.00028440899448345933,0.00353061886549036,0.0005789266385327739,0.1195588195579711,0.000402215057259403,0.0038247932227300965,2.3169278505287674e-05,0.0037584421071057334,5.002147725110049e-05,1.017653887896509,0.01488098465266468,0.0011462504357843343,7.942511634236493e-06,0,51.956758056441046,22,3
2,X,2316,0.08590485348501559,0.0003399309965919795,0.004403870352064389,0.0006503127886694158,0.12148780887218269,0.0004807350256513798,0.0037426073794140447,2.380052995606131e-05,0.0037899805881750318,5.719207752128443e-05,0.9875004086013542,0.016170887718668838,0.0011397166766489487,8.536441266074403e-06,0,19.352076610877265,22,3
2,X,2337,0.0876906807617661,0.0003344942838749012,0.0028905135469947884,0.0006452280049362189,0.12401335002701908,0.00047304635279216134,0.003354903380338501,2.164653882753944e-05,0.0032998392756884427,5.0675576975593156e-05,1.0166869050428433,0.01693532899887923,0.0010428897302990749,7.816892097553082e-06,0,19.345524133957525,22,3
2,X,2358,0.08873863153945356,0.0003556517199091045,0.00506653424905659,0.0006698075714921197,0.1254953762295241,0.000502967485776773,0.003191383658059495,2.1836276591090698e-05,0.0031741938556259066,4.7254154140928515e-05,1.0054154860148574,0.0164728248824833,0.001003914381944995,7.96069521920526e-06,0,15.381065040343975,22,3
2,X,2379,0.08433927892118524,0.0002799841338999647,0.005152518029130539,0.000583311487170476,0.11927375209110747,0.0003959573594106147,0.0037817016867535175,2.4486599705714263e-05,0.003764140806880917,4.7752360899214145e-05,1.0046653089705089,0.014309469953084271,0.0011306341083088224,8.226988987804046e-06,0,16.14625529402706,22,3
2,X,2400,0.08555638748443714,0.00030081445169041326,0.0033406350135082585,0.0005721444692546156,0.12099500352813874,0.0004254158773384087,0.003775122540695647,2.139332759514443e-05,0.0037204551265749342,4.314487459392239e-05,1.0146937437116839,0.013096888807293313,0.0011449550162269176,7.635753015510151e-06,0,37.68806448516227,22,3
2,X,2421,0.08408187387107362,0.00028113487967372183,0.0031273702037078127,0.0005825899491110752,0.11890972637821628,0.0003975847596907056,0.003933823027343063,2.5611569887180794e-05,0.003934578178474131,4.681066994826532e-05,0.9998080731664708,0.013559572412979946,0.0011725250563339642,8.581693488627636e-06,0,22.874785309075605,22,3
2,X,2453,0.08578565810443486,0.0003366909749007963,0.004146355369787168,0.0005935359356775451,0.12131924114839321,0.00047615294303332556,0.0037180012404241583,2.3530548847899546e-05,0.003665556877995098,6.237540019265317e-05,1.0143073383321077,0.01841517886879121,0.0011306525059794682,8.41997800885197e-06,0,25.569750942218256,22,3
2,X,2474,0.08420667410882193,0.00028250346393389524,0.003292298245245752,0.0004997865809035398,0.11908622056702733,0.0003995202301126932,0.003867437627951884,2.2030413094439512e-05,0.0039176792375332755,3.84924058272234e-05,0.9871756704581498,0.011211529322303695,0.0011544490344018324,7.631950214461494e-06,0,51.02236891651399,22,3
2,X,2495,0.08596286844198342,0.0003045892415074294,0.0030122908694279315,0.0005588812546480506,0.1215698544111471,0.0004307542362927408,0.0037439018317226005,2.3294762571328495e-05,0.003677538752530168,4.532205063207981e-05,1.0180455145841154,0.014054757687458761,0.0011408808315683074,8.16895333107402e-06,0,20.340585835240145,22,3
2,X,2516,0.08466871799188883,0.0002927018111042741,0.004122700535944143,0.0005762889526329066,0.11973964929287206,0.0004139428709948323,0.003914528295770363,2.2048342684956566e-05,0.003987025014680295,4.416577610880712e-05,0.9818168387098154,0.012201128971458574,0.0011749174462303597,7.76471892626575e-06,0,27.33494722424904,22,3
2,X,2537,0.08559271757189633,0.0003068123432677869,0.003840382216998508,0.0006246141084380098,0.12104638203054574,0.0004338981769527739,0.003769037952805835,2.0123498899874328e-05,0.003725146953246326,2.8660670521619666e-05,1.0117823538535198,0.00947526214348806,0.0011435950269895801,7.3542777493527915e-06,0,41.61603190843578,22,3
2,X,2558,0.08353419418934767,0.0002792968314793966,0.004474004243097017,0.000521957492194702,0.11813519034448328,0.0003949853670059955,0.0039898025298876726,2.3670041723760137e-05,0.004020232305085414,4.361377716265221e-05,0.9924308415811571,0.012271183947410998,0.001181464348253343,8.045691482051745e-06,0,46.41125298226391,22,3
2,X,2579,0.08491045191611242,0.0002668579571081149,0.0028957267744516256,0.0005232374201700456,0.12008151268699474,0.00037739414216947376,0.00379987865113053,2.208952703692636e-05,0.0038128941421245984,4.3095576322819464e-05,0.9965864536205519,0.012666533047289942,0.001143762390879271,7.558427272032035e-06,0,33.87988959263105,22,3
2,X,2600,0.08440693810562182,0.00028818057510175156,0.004360345566494818,0.0005535961786414135,0.11936943662735677,0.0004075488777213754,0.003942885623638627,2.1058590972220417e-05,0.003918151239506732,3.8575225279887785e-05,1.0063127691148055,0.011271353742884056,0.0011797697529232775,7.478468744426692e-06,0,31.1892250715106,22,3
2,X,2632,0.08726836335546559,0.00030010655257009386,0.0043975772208421395,0.0005802038868250623,0.12341610302340267,0.00042441475680166096,0.0035709718495155894,2.0627824514181933e-05,0.0035300207228772785,4.397993457447132e-05,1.0116008176305924,0.013892148132075479,0.001104709757085712,7.426598010660769e-06,0,17.631118148628012,22,3
2,X,2653,0.08486615668845089,0.00031469776063696857,0.0037462824926837728,0.0005378639656300081,0.12001886977528742,0.0004450498411412429,0.003877801248034499,2.503227226352242e-05,0.003919721811657503,5.520271148607706e-05,0.9893052196973955,0.015326588394709753,0.001166608168314436,8.684852357339915e-06,0,36.6181290870461,22,3
2,X,2674,0.08889667184326748,0.00033826385432874376,0.0027043679804094377,0.0006377472698596178,0.12571887897057932,0.00047837733045230646,0.003411648730904103,2.0439916878879154e-05,0.003426530889205146,3.473564694161079e-05,0.9956567855997075,0.0117242024245785,0.0010751145590762587,7.630564240900039e-06,0,28.8120694062836,22,3
2,X,2695,0.08302986862950672,0.0002700949847996054,0.004262582216572732,0.0005355296688214538,0.1174219662979048,0.00038197199063255693,0.003984709625634942,2.429554066803259e-05,0.003922192125070495,4.323617197061885e-05,1.0159394284040388,0.012798122134029985,0.0011728324180065087,8.105084133122887e-06,0,18.213961499242675,22,3
2,X,2716,0.08778441353272087,0.0003095788077311711,0.0039005986355842215,0.0006035215257251911,0.12414590818294213,0.00043781054851671497,0.0035460811203255256,2.236857943114786e-05,0.0035685071905530393,4.995665519655313e-05,0.9937155597480979,0.015258350159237759,0.0011034966279588557,7.974798260575283e-06,0,69.73166620186147,22,3
2,X,2737,0.0820813838301819,0.00031309665507968615,0.004582418148875662,0.0005843688934588125,0.11608060623099492,0.00044278553594734316,0.004024489884296854,2.5158555657313895e-05,0.0040600592952582445,5.147505897742302e-05,0.9912391892889514,0.014011978942288063,0.0011710095632621435,8.57557393666815e-06,0,32.83483046005224,22,3
2,X,2758,0.08521192412209996,0.00032294980483794727,0.003663502151002401,0.0006530903337208944,0.12050785876938086,0.00045671999396756924,0.0037679725355600894,2.400378329224907e-05,0.00376268186020786,5.5021483094977196e-05,1.0014060915987026,0.01597277083533398,0.001138185458069965,8.436924291007828e-06,0,14.126226438014118,22,3
2,X,2779,0.08385479430572892,0.00028558535798645454,0.0037515942407982082,0.0005633055442089628,0.11858858737716804,0.00040387868647961955,0.003964871018855628,2.3140420734840504e-05,0.003959137782576356,4.182612447028122e-05,1.0014481022369324,0.012086892823280862,0.0011785876713434292,7.964148382171342e-06,0,18.488809755849037,22,3
2,X,2818,0.08429035128835659,0.0003247809536489719,0.004284053978571701,0.0006231978735746841,0.11920455796918639,0.00045930962945084364,0.0038157260766130243,2.3421780557729303e-05,0.003901047810018225,5.2894305909793176e-05,0.978128508657062,0.014558162648196121,0.0011401447343120964,8.263047878651637e-06,0,53.98756272333598,22,3
2,X,2839,0.08296116430956572,0.0002854000618045142,0.0058611890356038065,0.0005407400255885726,0.11732480371685061,0.0004036166381060635,0.0039206156614029555,2.0412943478909708e-05,0.0039009251227981275,4.3349776354595446e-05,1.0050476586924857,0.012333873194618636,0.001153012567282804,7.1953028603889696e-06,0,26.46489649564931,22,3
2,X,2860,0.08402326984367263,0.000303353918334603,0.0045377415099997495,0.0006104266846909435,0.11882684776785613,0.0004290072255078159,0.003830967456796974,2.3279311734959e-05,0.003902212407008705,4.2706334235653525e-05,0.9817424212777939,0.012289411620956201,0.0011410718020019373,8.065360926395247e-06,0,23.486645388040554,22,3
2,X,2881,0.08248561508026792,0.000291965315186407,0.004227312826976848,0.0005413371617736302,0.11665227554720159,0.0004129013084791522,0.003972412118397982,2.325391174243246e-05,0.00399258576001764,4.118661928587075e-05,0.9949472239715726,0.011801047572927662,0.0011615487647890328,7.945900568029933e-06,0,39.800861995831575,22,3
2,X,2902,0.0839253872482881,0.00031053523999054926,0.004867993867108086,0.0006292180501088295,0.11868842087394305,0.0004391631479894187,0.0038397662853442397,2.2073207169365305e-05,0.0038607421895776066,3.186740539713245e-05,0.9945668725847603,0.010004091420670406,0.0011423602343525313,7.809699560370575e-06,0,26.651763463267315,22,3
2,X,2923,0.0820716468000935,0.00029248267400066566,0.004461769659584347,0.0005761112053302684,0.11606683599098666,0.00041363296433089003,0.004013565316032376,2.3271415320149062e-05,0.003997517311946762,3.769734824571983e-05,1.004014492704673,0.011114558154348404,0.0011676922957533917,7.947114287518556e-06,0,31.711803197006454,22,3
2,X,2944,0.08570992293793657,0.00029772428266534477,0.004049347419066029,0.0005981422934111012,0.12121213544878273,0.00042104571839313154,0.0037634817449361158,2.1494398636598684e-05,0.0038036657900308644,4.205697438162354e-05,0.9894354427247346,0.012313417886982323,0.0011434728316266458,7.643763725209262e-06,0,36.62698280344113,22,3
2,X,2965,0.08497376505459023,0.00028499501215522677,0.0046997325843305526,0.0005855313427234549,0.12017105098610648,0.0004030438113986068,0.0038599985209262695,2.3099057491455732e-05,0.0038256106530147643,4.4915953054458946e-05,1.0089888572127448,0.013296412689783285,0.001162724789655713,7.976290521186184e-06,0,38.92443075043325,22,3
2,X,2997,0.08420745269628635,0.00029237733799253687,0.0048680995703008784,0.0005590850198333656,0.11908732165597902,0.000413483996719588,0.003736249402786027,2.4210970874127092e-05,0.0037508751202241846,5.051168956062126e-05,0.9961007186404852,0.014886327341469155,0.0011152990201209597,8.199245021103632e-06,0,27.816235161600044,22,3
2,X,3018,0.0833483349696798,0.0003156300707891007,0.004595949942030917,0.000592574322848714,0.11787234571533689,0.0004463683268027263,0.0038599522384864674,2.5642723210643952e-05,0.0038713079759998825,5.364665192681571e-05,0.9970666922952618,0.015322531430211624,0.001140469804909481,8.720944702004481e-06,0,11.275372645582392,22,3
2,X,3039,0.08441889962626054,0.0003376882222663105,0.004100754957977159,0.0006504068393948909,0.11938635277207066,0.00047756326378267655,0.00381075116257735,2.3886522984626347e-05,0.0038055709523424886,4.192234903998124e-05,1.0013612176200979,0.012691775880419797,0.0011403947512513494,8.479771492953248e-06,0,21.785833419767403,22,3
2,X,3060,0.08282777120669613,0.0002999476437751447,0.0037647265872911566,0.0005698676730693432,0.1171361573816454,0.0004241900258286635,0.003980086979377771,2.4977811745626397e-05,0.00396086951946334,6.493484491415857e-05,1.004851828574508,0.017639385505724605,0.0011686204188232688,8.467335287883553e-06,0,27.90993579007537,22,3
2,X,3081,0.08379152621090356,0.0003408205026605499,0.0038449524923481926,0.0006639517311701322,0.1184991127794005,0.0004819929771973652,0.0038636505253120445,2.76305360615093e-05,0.0038922635665521806,5.80545384854205e-05,0.9926487400580938,0.016419585861687222,0.001147632582032781,9.441817071854487e-06,0,40.33310340948363,22,3
2,X,3102,0.08238118443523419,0.0002906999007920214,0.0047705706844628154,0.0005846681197910012,0.11650458831266752,0.0004111117422805899,0.004015181230801861,2.0674485255313117e-05,0.004090073847368137,4.1148605558180666e-05,0.9816891774180391,0.011094769871181418,0.001172568211683688,7.319386354421018e-06,0,41.14150746980633,22,3
2,X,3123,0.0848336100480324,0.00027741697405801665,0.0036746118830994386,0.0005848420439772673,0.1199728418749979,0.00039232684714535226,0.0038145924589334146,2.2665917321233412e-05,0.003752894672067164,4.787867050591164e-05,1.0164400528811715,0.014305018662611435,0.001147152158033171,7.780355938080046e-06,0,30.447784279515805,22,3
2,X,3144,0.08366408433879663,0.00028504564445051665,0.004718863035465433,0.0005249304415454756,0.11831888275545266,0.00040311541627729985,0.003911845206624881,2.579342041588871e-05,0.0038592816991172094,4.9035073448720014e-05,1.0136200235188053,0.014509736565687154,0.0011601807506950487,8.610723537416662e-06,0,39.32358339607884,22,3
