XscanNumber_YscanNumber,Type,BCID,xsec,xsecErr,SBIL,SBILErr
1_2,XY,103,304.5542551559437,1.8467891547047954,0.06879498026813607,0.0004909380045438801
1_2,XY,124,303.6486395255927,1.8174084148019412,0.07595615844701609,0.0005411465881903702
1_2,XY,145,302.97825484494274,2.0204020444901407,0.06148029698365072,0.0004888608645341781
1_2,XY,166,301.0210211974837,1.9590696393270257,0.07238570737876049,0.000541426122405214
1_2,XY,187,306.17940404355886,1.9442982620642475,0.06133122548458519,0.0004548231960093693
1_2,XY,208,302.9656160227141,1.7965553631899023,0.07095375072330182,0.0004988938721143655
1_2,XY,229,306.53561413526967,1.8953762635956164,0.06580779992018079,0.000482011625629823
1_2,XY,250,302.11412071989196,1.856041967527654,0.07440030781679746,0.0005368093889145474
1_2,XY,282,304.4053189752217,1.7706373853550186,0.07024477266176252,0.00048064102773556365
1_2,XY,303,303.75416876648575,1.853261557084809,0.07479867540460014,0.0005387149107651933
1_2,XY,324,304.8588236050929,1.7776888591315214,0.06723161986119504,0.0004628056561398123
1_2,XY,345,303.71340284126984,1.8035768639010141,0.07753318724890586,0.00054053086684818
1_2,XY,366,304.4587602904882,1.927483603902806,0.06872173202934433,0.0005112340604484269
1_2,XY,387,303.4183764722169,1.8606369281989723,0.07720877537575635,0.0005583638688642054
1_2,XY,408,306.30389138883896,1.951714718144884,0.064695838212022,0.0004813884825089694
1_2,XY,429,302.3059249340437,1.812674915768047,0.07425309875971996,0.0005234087512647354
1_2,XY,464,304.6717221558216,1.850257248775189,0.06929802474107367,0.0004994070539315229
1_2,XY,485,303.11311438022136,1.7922270954333739,0.07403765067625408,0.0005134301632265716
1_2,XY,506,303.52024860937325,1.9510766878129309,0.06350101461559673,0.0004817495820099524
1_2,XY,527,305.12529267225676,1.8784752069103952,0.0703771001283296,0.0005134236455803404
1_2,XY,548,299.65672670143545,1.8540432291194007,0.06900857454305188,0.0005038563849276739
1_2,XY,569,306.3320022979113,1.6744359056478724,0.07633639460246588,0.00048633971364767293
1_2,XY,590,303.4922592837436,1.9349383708356538,0.06599699926485765,0.0004999471428254733
1_2,XY,611,303.3352303886448,1.7858980054779066,0.07512914721729104,0.0005218762851678003
1_2,XY,643,305.6283308171968,1.8459423460910158,0.06896041535731215,0.0004896898200593005
1_2,XY,664,307.17053806302596,1.7386298340370816,0.07233859112531928,0.00047979803671410206
1_2,XY,685,303.0929769254643,1.8644638934097786,0.062342191329055205,0.0004540276893598587
1_2,XY,706,306.04796401683143,1.8285083736725907,0.06914581137812321,0.000485147805245531
1_2,XY,727,303.1399960223578,1.904609790690375,0.06538409753441499,0.00048191789100628145
1_2,XY,748,307.07913006163983,1.6980845658736654,0.07447058635806734,0.0004866271895912547
1_2,XY,769,306.0892710620495,2.059561840330702,0.059369219260966936,0.00047186805939740764
1_2,XY,790,301.0429915406543,1.9712391252213464,0.06879404907640507,0.0005291174005732587
1_2,XY,822,305.4411567928136,1.827179239784858,0.07029882245418424,0.0004959225239844364
1_2,XY,843,303.1948119186142,1.6890596987977236,0.0722209251091431,0.0004746386518570577
1_2,XY,864,305.1908181067091,1.7975883814806575,0.06628766310759361,0.00046166508888059184
1_2,XY,885,304.4646559795743,1.7323132256072717,0.07750822634984073,0.00051783882762194
1_2,XY,906,301.49932948732044,1.9421118262030652,0.06458048449641167,0.0004961216972266101
1_2,XY,927,302.71486786120045,1.797004635210034,0.07466994624739688,0.0005179502686804549
1_2,XY,948,303.4418830328202,2.0049707638155674,0.06473615663411954,0.0005059923092188199
1_2,XY,969,304.11138882930874,1.7758008530076153,0.0726916660507237,0.000498731377772845
1_2,XY,1018,302.1226477488814,1.8559352880716091,0.07116878598306942,0.0005120088773961623
1_2,XY,1039,304.4187711494986,1.682959416472997,0.07611739298970104,0.00049411728813139
1_2,XY,1060,303.5378366340501,1.8738414099651561,0.06726661041935825,0.0004914502712738273
1_2,XY,1081,303.02217426497083,1.7271350991095655,0.07439350101900764,0.0004980641254316072
1_2,XY,1102,305.81062351433695,1.800533916716691,0.06532862916485489,0.0004540063335375532
1_2,XY,1123,304.6937260374237,1.8271335080531121,0.07138321969844008,0.0005057540297883792
1_2,XY,1144,302.0107224712615,1.8321764838476022,0.06675375265474207,0.0004813356811506315
1_2,XY,1165,304.60112310272257,1.7484347444614903,0.07583980820371355,0.0005182117812408894
1_2,XY,1197,305.1427410594788,1.7759457913528218,0.06889398018694229,0.00047448768876118583
1_2,XY,1218,300.8126192782654,1.8398104037558656,0.07602214072902068,0.0005503046406408306
1_2,XY,1239,303.57642154319984,1.8653338562134538,0.06735980152670672,0.00047987338425499633
1_2,XY,1260,304.6220038990394,1.7351519211310196,0.07541335300520283,0.0005039801905049606
1_2,XY,1281,303.8951840697623,1.7723036003795731,0.0677489856219614,0.00046736771761449913
1_2,XY,1302,303.54104777249916,1.7311836262552909,0.07688506089115688,0.0005197052634272475
1_2,XY,1323,303.12729721693023,1.8148294835006298,0.062080073999336086,0.0004388949276852501
1_2,XY,1344,306.2416723185326,1.9006190211926919,0.07167308527316368,0.0005233704932425235
1_2,XY,1376,303.611645181982,1.874622052919012,0.06774894087420262,0.0004968645258964271
1_2,XY,1397,306.6227002456068,1.7424393472923665,0.07394721463217921,0.000504064056058578
1_2,XY,1418,302.7684042729939,1.856436457747181,0.06874170225238478,0.0005004955105551463
1_2,XY,1439,303.3235606477496,1.8188728674465915,0.07320326966371923,0.0005179193760453585
1_2,XY,1460,302.1165451212187,1.7892899621483191,0.06637019658454084,0.00046677022819962156
1_2,XY,1481,303.9696434787665,1.83863031091165,0.07377389238353653,0.0005261314841169308
1_2,XY,1502,302.7585517771291,1.86655937656912,0.06505810421352375,0.0004721122124586196
1_2,XY,1523,303.9104682044756,1.8470449686501988,0.0693077216575197,0.0004989818854375934
1_2,XY,1555,307.50225854777307,1.8024982167023968,0.06885326412208322,0.00047447608505045907
1_2,XY,1576,306.17680090702737,1.8347890385772678,0.06574947651954335,0.0004692412942082892
1_2,XY,1597,305.454213461059,1.7754033252677381,0.06644037289665687,0.00045924450829907523
1_2,XY,1618,305.6812871258619,1.753558719687436,0.07159947042923322,0.0004830927716423521
1_2,XY,1639,305.07930324276816,1.8038152990082816,0.07500909998677835,0.0005178048837263416
1_2,XY,1660,306.65854188999697,1.7638344051453976,0.07823568386904475,0.000531281728465405
1_2,XY,1681,305.7913836647465,1.8451765129570012,0.07056326110877634,0.0005032902442104147
1_2,XY,1702,302.23970389856026,1.7962952675590136,0.0772422068362732,0.0005394572669852094
1_2,XY,1734,305.03239395384264,1.8148516194330098,0.0688861710579694,0.00048649132374490055
1_2,XY,1755,306.0166855411038,1.7334526325003459,0.06991430375841279,0.000469451323084462
1_2,XY,1776,307.0799287883578,1.8419772267422012,0.06930852227668785,0.0004928089915472024
1_2,XY,1797,304.3832768331023,1.765869442367203,0.07679263725166191,0.0005322417095437457
1_2,XY,1818,303.0532111760057,1.7621919540063151,0.07195987716750098,0.0004940072935486554
1_2,XY,1839,307.23788066247727,1.7258623452436073,0.06322056413516206,0.00041863136601188723
1_2,XY,1860,303.1238153804391,1.8185217652033665,0.07248837982871496,0.0005139449518569829
1_2,XY,1881,302.02149404084514,1.7441404430480962,0.07619642583412878,0.0005182642967917154
1_2,XY,1916,302.66046569811385,1.7365575788703769,0.07136583334434787,0.0004845985200874652
1_2,XY,1937,305.39904820082614,1.3693612132354704,0.06949737694898843,0.0003875131125708066
1_2,XY,1958,304.25991091233345,1.7789918821612933,0.06786493876542372,0.00046216020426025653
1_2,XY,1979,303.7192493385206,1.7685910055025846,0.07388488838052283,0.0005050173518565944
1_2,XY,2000,305.1304316047617,1.7877044824006147,0.07172227222090646,0.0004970333224627925
1_2,XY,2021,303.1649968169153,1.757227113279236,0.07583003415162273,0.0005203348255972933
1_2,XY,2042,305.32004876070386,1.8671870562146902,0.07073565986010028,0.0005070616404887441
1_2,XY,2063,303.73922086198365,1.746602314426978,0.07552348716024986,0.0005083386624535809
1_2,XY,2095,303.9328325515594,1.6887010414743822,0.06930738169054512,0.00045786559187331995
1_2,XY,2116,304.79238932086474,1.7308522098314336,0.07214046306212687,0.00048148048796765555
1_2,XY,2137,303.86404669946916,1.7973405770644295,0.06810852465335328,0.0004757619497058286
1_2,XY,2158,304.5699853127823,1.7794290419537517,0.07500342134936745,0.0005133217516318803
1_2,XY,2179,304.33826104273834,1.8812979322966226,0.07064755588067177,0.0005206898850915983
1_2,XY,2200,302.49155392197633,1.7911293065565788,0.07675637447672304,0.0005352406985073093
1_2,XY,2221,304.20361253458805,1.7352445802647525,0.07150533369854124,0.00048394689235131466
1_2,XY,2242,303.5895863429126,1.8799931378092423,0.07550444263266673,0.0005489102246457278
1_2,XY,2274,305.0056048860329,1.7302429189201585,0.07164215623411962,0.00047841585872451933
1_2,XY,2295,305.5859105505135,1.7011868755179778,0.07615415034058104,0.0004998279500792751
1_2,XY,2316,305.93676681059037,1.7396311034092935,0.0701871293492645,0.0004690102176083786
1_2,XY,2337,303.57218513412954,1.7098640816961688,0.07486964437964129,0.0004954768373477126
1_2,XY,2358,303.76746419956095,1.8163543251180434,0.07009555184875763,0.0005014689973001536
1_2,XY,2379,303.05306516543305,1.7460271765184283,0.07582178706947039,0.0005154640887562854
1_2,XY,2400,303.494264648608,1.8807467262445643,0.06762938087951399,0.0004940483446286283
1_2,XY,2421,305.6050041555458,1.7757393587506303,0.07427621051935862,0.0005071422382130298
1_2,XY,2453,303.5603240648141,1.7758060842181493,0.07313352993952525,0.0005086496517967803
1_2,XY,2474,304.5114267306962,1.6686375312630262,0.07775817875340973,0.0005010184228815499
1_2,XY,2495,302.8488684673927,1.7911627060151152,0.07019823840617592,0.000492256352669088
1_2,XY,2516,306.0591766894653,1.8177710273977281,0.07556590350168997,0.0005276804874943568
1_2,XY,2537,304.06258284047226,1.7582710480756647,0.07150773472417078,0.0004857457906431683
1_2,XY,2558,303.35163113491393,1.6725881899267327,0.07952525114784481,0.0005223032447285347
1_2,XY,2579,303.69172826409533,1.8141106869368635,0.07387655048296425,0.0005140690088115211
1_2,XY,2600,306.10218884428076,1.6918945813826762,0.07731150434178305,0.0004960017177751563
1_2,XY,2632,303.20910219435524,1.7655216116047123,0.07209055698076741,0.0005006631362809026
1_2,XY,2653,306.22042623273427,1.8062730917122636,0.07381930586004821,0.0005169191442496865
1_2,XY,2674,304.5894548738811,1.8079286637028853,0.06926320223916223,0.00048025992982961947
1_2,XY,2695,302.0105492493925,1.769154618627434,0.07936331343415585,0.0005525494283448622
1_2,XY,2716,303.9513382388051,1.84908087792714,0.06664982863832664,0.0004810689660275514
1_2,XY,2737,300.6741214958187,1.724689840484951,0.07528169419233043,0.0005193637675934169
1_2,XY,2758,304.9738968090618,1.820763691434923,0.06812094339326018,0.0004815210246805439
1_2,XY,2779,303.2791839370477,1.75269545907862,0.07482391474984461,0.0005069325763725745
1_2,XY,2818,301.2676036970831,1.680688842363322,0.07370144469514095,0.0004762343061883641
1_2,XY,2839,305.28183207048653,1.7209153108229815,0.07735581670063973,0.0005104336405026611
1_2,XY,2860,304.70208902140564,1.8482110475340823,0.07159946081525115,0.0005189144416999344
1_2,XY,2881,303.1263062800679,1.6548815968358983,0.07744260541845145,0.000499605481233445
1_2,XY,2902,306.43346913519207,1.8105367441887934,0.07162311544579829,0.0004975372432552908
1_2,XY,2923,301.3040964024038,1.7468034507679966,0.07789907587599841,0.0005330608105284067
1_2,XY,2944,306.1468521000497,1.7956694894741605,0.06890568649058235,0.0004761312899950015
1_2,XY,2965,305.6600926728626,1.831915566454472,0.07284989751228035,0.0005153610481273696
1_2,XY,2997,303.74934970576857,1.7605038994796718,0.07009949466193613,0.00047961818915065376
1_2,XY,3018,301.06323175875275,1.699015599554605,0.075577543003434,0.0005046779223603438
1_2,XY,3039,305.51990834097364,1.8534164771083341,0.06694661970454474,0.00048484516731823774
1_2,XY,3060,302.37636113846577,1.7792028324554343,0.07359801554087024,0.0005132118950340297
1_2,XY,3081,304.1889952546709,1.8345497565564393,0.07030339440195467,0.0004995778491282413
1_2,XY,3102,302.93829090495444,1.8365492498659455,0.07571302834564847,0.0005503784403887102
1_2,XY,3123,304.5018017685256,1.7750984074229665,0.07205564486035085,0.0004927373192800234
1_2,XY,3144,303.69900935945657,1.7250628653742952,0.07739975876677133,0.000520592693550744
