Scan,Type,BCID,sigma,sigmaErr,Mean,MeanErr,CapSigma,CapSigmaErr,peak,peakErr,rate0sep,rate0sepErr,peakRateRatio,peakRateRatioErr,area,areaErr,fitStatus,chi2,ndof,covStatus
1,X,103,0.08916933243180983,0.00031525127209283525,0.0013290929993939459,0.0006433007654543349,0.12610447927282054,0.0004458326245490585,0.0013819865010013556,8.69769395409165e-06,0.0013653053104482867,2.023227455667148e-05,1.0122179196297068,0.0162966571238755,0.0004368418606708735,3.1534061368880797e-06,0,20.282015456592607,22,3
1,X,124,0.08558242955071492,0.0002901698944504475,0.0026879310096600746,0.0005348975678056203,0.121031832571461,0.00041036220012419244,0.001628811980841118,8.573948075064867e-06,0.0016601633774117426,1.98202883039423e-05,0.9811154751410656,0.012801315129410027,0.0004941519328489905,3.0940633269938046e-06,0,43.29867068972565,22,3
1,X,145,0.08607676825747429,0.0003214950381879971,0.0017099597361222058,0.0005685491870912995,0.12173093307496607,0.0004546626432411216,0.001600923329532782,1.0709486581961498e-05,0.0016247199134727533,2.2047388645324772e-05,0.9853534238470018,0.014907658670329484,0.0004884964574058394,3.7426737968443707e-06,0,63.59508791673877,22,3
1,X,166,0.08523431961623103,0.0003236204301232507,0.0009305953982052633,0.0005888103625602529,0.12053953078091706,0.0004576684013413157,0.0016453554340335017,9.657934139776432e-06,0.0016503600227585759,2.2957193522679737e-05,0.9969675775854598,0.015052374857226287,0.0004971405181387693,3.4753884338417564e-06,0,67.62443169755915,22,3
1,X,187,0.0862636243062949,0.00035825246649830297,0.0004653762180599755,0.0006615659280885004,0.12199518743341964,0.000506645496875513,0.0015950274547122713,9.680702714431324e-06,0.0016012754128118167,1.9700930650657606e-05,0.9960981364919766,0.013665325842310639,0.0004877539505295688,3.5870247936837735e-06,0,81.76718994979127,22,3
1,X,208,0.08581552195282346,0.00033036486686181544,-0.00015766799093366564,0.0005465948294690131,0.12136147500780903,0.0004672064752475613,0.0015103031923648608,9.243913248992826e-06,0.0015340454313432432,2.7105217609951176e-05,0.9845231187464942,0.018409761064853168,0.00045944647167997683,3.3220749822088334e-06,0,62.08629955055471,22,3
1,X,229,0.08642597548172663,0.00033872890690246946,0.00032897514459954226,0.0006159527878296026,0.12222478666758241,0.00047903501410928584,0.0015860063926693042,9.820562831378418e-06,0.0016068344864992009,1.7194655114187245e-05,0.9870378100514418,0.01220304817852697,0.00048590811884458127,3.5608090369056777e-06,0,86.48627365905071,22,3
1,X,250,0.08472983181743157,0.00029511564696897095,0.001080732759474629,0.0005269313455763915,0.11982607729380312,0.0004173565504120291,0.0016512229749634016,9.20366213427274e-06,0.0016895521133924176,1.6423936688735384e-05,0.9773140241575291,0.010951295456200383,0.0004959603971486135,3.259753439930844e-06,0,108.64080512943883,22,3
1,X,282,0.08613888545648041,0.00029805952720621736,0.0022244861912669727,0.0005620363782615189,0.12181878006025715,0.00042151982576954516,0.0016051929724044962,1.0205801274610254e-05,0.001597347583867033,2.3647750688633518e-05,1.0049115099410426,0.01619105160169509,0.0004901527345330518,3.5480140048957006e-06,0,28.27854597768496,22,3
1,X,303,0.08444852460525802,0.00029702893502252313,0.003645965716731071,0.0005553084182417894,0.11942824881915393,0.000420062348326089,0.0016720569146581072,9.358759292986408e-06,0.001675334966782323,1.4145335358704649e-05,0.9980433452478392,0.010110195710790155,0.0005005506787664567,3.308915321540816e-06,0,84.11120963013117,22,3
1,X,324,0.08487104094170153,0.0003202288399783346,0.0015158221989673643,0.0006062151798050594,0.12002577715247653,0.0004528719685603644,0.001606727873662742,9.292683262126868e-06,0.0015996290093035054,1.4774393476142967e-05,1.0044378192180494,0.010945900054149957,0.0004834001588271469,3.3381421458615813e-06,0,65.59283526066838,22,3
1,X,345,0.0842015093195234,0.00031351743691508254,0.0022505876304671265,0.0005634315207447658,0.11907891645195456,0.000443380611325761,0.0016582338985429153,1.076024930508905e-05,0.0017024685005130867,2.2744712055077794e-05,0.9740173742087798,0.014466446613671458,0.0004949605633769812,3.7029774539030436e-06,0,76.91887799362266,22,3
1,X,366,0.08471352580913005,0.0003428320184475492,4.178679779477914e-05,0.0005714655169702456,0.11980301711571495,0.00048483769010426725,0.0016234785945577646,1.0629382429165597e-05,0.0016501022664050966,2.3064849736940467e-05,0.9838654413187771,0.015186202243184658,0.00048753326835924467,3.7525764509214336e-06,0,86.44548095082729,22,3
1,X,387,0.08425235070398089,0.00029963892131871025,0.0016010524574446774,0.0005448328184814962,0.11915081702738417,0.0004237534263437648,0.0016488653634546067,9.720636649586184e-06,0.0016573682985652617,2.033180618321375e-05,0.9948696164165709,0.013540730868004098,0.0004924613531212612,3.3906043163671653e-06,0,86.01039523853653,22,3
1,X,408,0.08578877394180012,0.00034308991839199237,0.0016757253150824377,0.0006291348526586155,0.1213236476078533,0.00048520241570343403,0.0016015279304703034,1.0095558872094613e-05,0.0016550730515593776,1.9615500702904242e-05,0.9676478805339589,0.012989587310419645,0.0004870459207156422,3.635940955301135e-06,0,82.74633355903232,22,3
1,X,429,0.08410169836986237,0.00029484600238987164,0.0021327989614163246,0.0005089217936204643,0.11893776245327059,0.0004169752153912465,0.0016699329391523423,1.0457747357751423e-05,0.0016698252456848525,2.3245014108865316e-05,1.0000644938551313,0.015265361283756626,0.0004978617133033262,3.5731133651922153e-06,0,91.18702408974491,22,3
1,X,464,0.08635963063245689,0.0003069928761823196,0.003385687004263972,0.0005461925937595062,0.12213096088195152,0.00043415348904896067,0.0016019969225656635,9.639269638400605e-06,0.0016041223652162107,2.5182224894211e-05,0.9986750121458092,0.01678979830236048,0.0004904304033305243,3.427453693893665e-06,0,25.67180416466826,22,3
1,X,485,0.083634312055177,0.00031717040126401575,0.003239608970201242,0.0005928750148800128,0.11827677838817496,0.00044854668305088774,0.001655994408734764,1.108589667982968e-05,0.0016571635896429889,2.405311764743826e-05,0.9992944686236579,0.015972763561113424,0.0004909624607772585,3.7774434680599434e-06,0,26.88800946920684,22,3
1,X,506,0.08451616613457014,0.00029951644152872596,0.0026847630521633255,0.000586312472744296,0.11952390838728677,0.0004235802137636524,0.0016413269472454381,9.727831587809168e-06,0.0016233214064318782,1.6671528917844737e-05,1.0110917904132963,0.011989016184045813,0.0004917448496026701,3.395755818669795e-06,0,24.76629813931889,22,3
1,X,527,0.0838314688901269,0.00029473213666232097,0.0029431750389900704,0.0005634529405391973,0.11855560025807566,0.00041681418493505484,0.0016573365413048125,1.0139330682536884e-05,0.001640864791932189,2.2944945497906445e-05,1.0100384562174847,0.015416404288598171,0.0004925186878821716,3.475265858415619e-06,0,30.289128927850523,22,3
1,X,548,0.08415685510447019,0.0002796963957482779,0.004455592075941616,0.0005350454540247092,0.11901576585540918,0.00039555043621408714,0.0016385002708533107,1.0159602588517623e-05,0.001641954080859076,1.7968319945642403e-05,0.9978965246068524,0.012551365333111195,0.0004888109738423248,3.438831457366603e-06,0,40.280320636496796,22,3
1,X,569,0.08301802454557576,0.00029689708176191567,0.003745432987213027,0.0005990878498794032,0.11740521623377576,0.0004198758796566948,0.001690074327374774,1.0945766128791771e-05,0.0017023968926558344,2.412916790689836e-05,0.9927616378212272,0.015470438799761803,0.0004973740603701524,3.679726041694727e-06,0,47.93309303404879,22,3
1,X,590,0.08391008163213914,0.00031122278533425243,0.00440948914596648,0.0006021888644862938,0.11866677546400473,0.0004401354839392302,0.001655135307482518,1.1247463865278182e-05,0.0016345665884417919,2.4066850425123337e-05,1.012583591996906,0.016420277864537505,0.0004923257813083605,3.811487518275423e-06,0,45.05538436490072,22,3
1,X,611,0.0835337218958604,0.00030839411864020354,0.002516652014879178,0.0005514617753330715,0.11813452242062816,0.0004361351451370732,0.001679722910720232,1.0456531966325168e-05,0.0016861330206106217,2.4268564055868343e-05,0.996198336778869,0.015621960912863254,0.0004973984298110745,3.59995178583242e-06,0,38.35865672962629,22,3
1,X,643,0.08668677457171091,0.00030129566555533934,0.002960445225729269,0.000553015656726525,0.12259361227769272,0.0004260964165125891,0.001555616069719029,8.72447316881156e-06,0.0015617741173087072,1.8405108399741166e-05,0.9960570177713728,0.01299974723683832,0.0004780355521911184,3.1541001265906257e-06,0,32.77372202677223,22,3
1,X,664,0.0836770609781669,0.00029912576824301794,0.0038787328939149015,0.0005810159694724923,0.11833723449484412,0.0004230277183045472,0.0016418227849028006,8.725965663630455e-06,0.0015963535954100624,1.582986691431319e-05,1.0284831566286279,0.01157121115397962,0.0004870097190513854,3.1193752635987476e-06,0,46.34111709869819,22,3
1,X,685,0.0857319134828707,0.00031598456145601417,0.004516729128054542,0.0006820381577343034,0.12124323477567256,0.00044686965231161,0.0015967199884668027,8.980679076346477e-06,0.0016134294266428996,1.2594049932077748e-05,0.9896435270733442,0.00952140182215908,0.0004852619186863065,3.2631504188736754e-06,0,39.400683754363385,22,3
1,X,706,0.08534375284592424,0.00031924950193034756,0.0043731873253529665,0.0006275708599969192,0.1206942927385235,0.0004514869754107531,0.001509896017473415,9.785031285825366e-06,0.0015015235559652778,2.0519067164281293e-05,1.005575977462941,0.015208617944066175,0.0004567974889858595,3.4180959073251137e-06,0,41.25990653415342,22,3
1,X,727,0.0846048132343292,0.00033933318533183943,0.0041990297123987155,0.0006193870837132488,0.11964927431803107,0.00047988959285955035,0.0016279826335243676,9.99164571203571e-06,0.0016237508711521842,2.0368015560211352e-05,1.0026061648048143,0.014001179994084385,0.0004882584530963847,3.5797938137112857e-06,0,36.5564517157243,22,3
1,X,748,0.08308831570161257,0.00029229496178282365,0.0023264139408071286,0.0005216005441626117,0.11750462293995789,0.00041336749916659477,0.001685835119143348,9.452334318322536e-06,0.0016820821085464508,1.8554137215305276e-05,1.002231169678239,0.01240131040652668,0.0004965465676251414,3.2867105716255823e-06,0,41.23000245625712,22,3
1,X,769,0.08474179959940197,0.0003154518817448988,0.003252122295966686,0.0006232801239803928,0.11984300229337719,0.00044611632943974966,0.0016167258042986785,1.029067486803488e-05,0.0016060083103428273,1.8235985522748093e-05,1.0066733739089826,0.013104071376643883,0.000485667435593354,3.581183102945396e-06,0,24.980904145917403,22,3
1,X,790,0.08397471263449986,0.00029085064193283224,0.0027761316144071903,0.0005676179869369001,0.11875817750409301,0.00041132492244633223,0.001654733716903239,1.027790322615845e-05,0.0016491691610724766,1.797651435272319e-05,1.003374157098077,0.012588115827568115,0.0004925854443812337,3.5030876337036505e-06,0,37.82368967554958,22,3
1,X,822,0.08851223746185956,0.0002967275339462796,0.00229349666629171,0.0005685164317903748,0.12517520665454973,0.00041963610283635155,0.0014138217617662315,7.171050075430902e-06,0.001426285436664422,1.5069251938376058e-05,0.9912614441837542,0.011617379049613802,0.0004436116197654142,2.6970984728843845e-06,0,42.18015035085506,22,3
1,X,843,0.08369532621666298,0.0002810723576640924,0.003316157361068185,0.0005302769688287178,0.11836306544284525,0.00039749634021674085,0.001618069110145823,8.972735437107243e-06,0.001621157252813483,2.1087399630327382e-05,0.9980950998662834,0.014113394827421105,0.0004800684945765117,3.112265477744447e-06,0,23.287779806602767,22,3
1,X,864,0.08449870370608532,0.0003116189984452852,0.0040515021827703486,0.0005600213288530872,0.11949921278409159,0.0004406958138944428,0.0016426963716539593,9.721796165330953e-06,0.001646942604273616,1.5654710607055068e-05,0.9974217482694064,0.011168276261890108,0.0004920534445694884,3.4311793807506114e-06,0,37.89340110409376,22,3
1,X,885,0.08295182230229418,0.00023890353177753132,0.0024291533439022885,0.0005123434433253841,0.11731159212346742,0.0003378606147386165,0.001698897349414048,9.705875368015964e-06,0.0016690362347216864,2.0568532917528297e-05,1.017891232120159,0.013826468860752937,0.0004995718997584217,3.196223015981673e-06,0,26.888786299866016,22,3
1,X,906,0.08357683441483156,0.00032626818616226903,0.00464301800534325,0.0005883974298534129,0.11819549272966523,0.0004614128938415507,0.0016646752161119727,1.0654934529842764e-05,0.0016445285600779572,2.0500544304973964e-05,1.012250718244176,0.014184760437174726,0.0004931969286515112,3.697580391573929e-06,0,33.261570489294265,22,3
1,X,927,0.08315432982038298,0.0003093958278881864,0.003032124935095966,0.000578232777417797,0.11759798100203112,0.00043755177594112515,0.001684859274112247,9.252169825654072e-06,0.001684723265886782,1.9922758788855215e-05,1.0000807303064063,0.013039395551787843,0.0004966534224168344,3.2943873229786984e-06,0,43.94567313581608,22,3
1,X,948,0.08547763374898526,0.00035240665244475885,0.003907517084676236,0.0006751400561704619,0.12088362892737514,0.0004983782673578796,0.001603007054499767,1.092672149501413e-05,0.0015950559629491073,1.903019335405243e-05,1.0049848354762165,0.013809152193337474,0.00048572768408785215,3.869411814514433e-06,0,42.03690646144383,22,3
1,X,969,0.08355143732283271,0.00026055817715922835,0.003391739957111382,0.0005009737490165008,0.11815957581771563,0.00036848490792579236,0.0016819527963111648,9.556066450538568e-06,0.0016746575994165552,1.843867939456925e-05,1.0043562319229622,0.012443851526961909,0.0004981643679320438,3.2286685185698618e-06,0,27.893849609268674,22,3
1,X,1018,0.0841367396443994,0.0003091113446996898,0.00358240138436754,0.0005850739747538181,0.1189873182989637,0.00043714945595768606,0.0016541409760635496,8.940882517235652e-06,0.0016755508079367284,1.650230921601751e-05,0.9872222126767121,0.011091045985161219,0.0004933590860115944,3.2243695775003026e-06,0,18.933527013461454,22,3
1,X,1039,0.08308611531236892,0.0003082269724144409,0.002815893169585447,0.0005884860354620794,0.11750151111964702,0.00043589876467770017,0.0016966338134778048,9.354792041820246e-06,0.0017035518376821964,2.303829113296647e-05,0.9959390585884348,0.014545185559820513,0.0004997139854410264,3.3208760204401586e-06,0,25.931596972620028,22,3
1,X,1060,0.08416720276559128,0.00028574818244421073,0.002011799254835833,0.0005684966912424962,0.11903039965810547,0.00040410895503606437,0.0016703157587246939,9.528343124882644e-06,0.0016640272095890766,1.4354467437267936e-05,1.003779114367469,0.010381001698257297,0.0004983637034314149,3.3083082164926736e-06,0,31.061351746012164,22,3
1,X,1081,0.083195931128904,0.00031610823457161284,0.003011162193697422,0.0005803417061704119,0.117656814136754,0.00044704455250899056,0.0016624146320323495,1.0018155303963176e-05,0.0016514577678802382,1.910579058610161e-05,1.0066346620332745,0.013131035862004871,0.00049028247690978,3.4928139354022344e-06,0,18.41343292424263,22,3
1,X,1102,0.08472306098235285,0.000312148556376107,0.004105317310043,0.000579045505304171,0.11981650188700621,0.00044144472190227324,0.0016656686330083377,1.0501807601840562e-05,0.0016543644184336002,2.2486414648443105e-05,1.0068329652456143,0.015085655757454509,0.0005002593074595906,3.653113263957492e-06,0,40.42662644017663,22,3
1,X,1123,0.08285385266835847,0.00028292265332892195,0.0023419333922355956,0.0005376213715593125,0.11717304213845481,0.000400113053440343,0.0017348836801597991,1.0662374872769683e-05,0.0017322289962319918,2.0791382460919517e-05,1.0015325248183593,0.013505322549962704,0.0005095514026643932,3.582550929816642e-06,0,47.78271032874715,22,3
1,X,1144,0.08390584636367543,0.00030175513798278466,0.0024440936983291697,0.0005112530242674012,0.11866078588990303,0.00042674620865101875,0.0016782207413128859,1.00365229065914e-05,0.0016574294554263173,2.070405822336479e-05,1.0125442961198132,0.014023193920659713,0.0004991674280814271,3.483444823500672e-06,0,22.10322051716517,22,3
1,X,1165,0.08533415397898558,0.00026231867279170504,0.0025877640283599214,0.0005208004152217048,0.12068071789071544,0.0003709746247257395,0.001660498567865923,8.724842149780385e-06,0.001647475165108977,1.3694357519592552e-05,1.007905067725913,0.009911506815623503,0.0005023036390751147,3.0577787679880384e-06,0,26.239811621495,22,3
1,X,1197,0.0839928066797499,0.000303443363823789,0.0016841897513582998,0.0005505658534730744,0.1187837663482838,0.00042913372053171583,0.00165245046386195,1.0634177343213077e-05,0.0016526837414034866,2.3141569659227363e-05,0.9998588492548861,0.01540827849542642,0.0004920117506822827,3.631105902128253e-06,0,19.54119462709765,22,3
1,X,1218,0.08279249286123823,0.0003231495069375136,0.0029304173367358526,0.0005858078794289334,0.11708626626704077,0.00045700241538521036,0.0017232189191785444,1.0764002385534101e-05,0.001715750937235605,1.711444393135644e-05,1.0043526025723593,0.01182054225034901,0.000505750528633657,3.7251724310539255e-06,0,22.241545026443212,22,3
1,X,1239,0.08402110955445809,0.00033856057360967724,0.0026623595832038893,0.0006247341009248336,0.11882379265755028,0.0004787969548836202,0.0016830733947732128,1.1620410257327622e-05,0.0016589475178758074,2.1924300084839785e-05,1.0145428813373778,0.015127448760630498,0.000501298493322728,4.007432840023421e-06,0,39.678282759310534,22,3
1,X,1260,0.08229594359554773,0.000269772722230265,0.0035635579945108467,0.0005398504804095492,0.11638403956111487,0.0003815162425363505,0.0017222639726086066,8.759860773587647e-06,0.0017276529119253782,1.3060037218913312e-05,0.9968807743270807,0.009082814684618131,0.0005024386939410574,3.0403031867505418e-06,0,45.66521420179144,22,3
1,X,1281,0.08452945202568128,0.00032113209054973694,0.003116390838485821,0.0006209210978812755,0.11954269747468438,0.00045414935776866283,0.0016849246911444695,9.812252586673913e-06,0.0016713389752914722,1.8726306770782625e-05,1.0081286417978903,0.012730066086491472,0.0005048861765627636,3.5105612394363245e-06,0,25.363142008803422,22,3
1,X,1302,0.08219117870530775,0.00028119573198206815,0.0026426570546810913,0.0005056732911304456,0.11623587963247695,0.00039767081785047065,0.0017688068931362036,1.0356663183895468e-05,0.0017428384671317,2.0991124370934286e-05,1.0149000762229223,0.013591560691305772,0.0005153598282859189,3.4948801064409347e-06,0,28.54721650832718,22,3
1,X,1323,0.08439820922265329,0.0003337869953009315,0.003022944144880948,0.0006171050277552625,0.11935709212267831,0.0004720460956983419,0.0016476108531049455,6.96642427930463e-06,0.0016586577599807376,1.725615677378083e-05,0.9933398515701513,0.01115527135992371,0.0004929385779278393,2.853894603939646e-06,0,24.03264096877396,22,3
1,X,1344,0.08505896276067743,0.00027532990030654426,0.002298502445111627,0.0005184148433932349,0.12029153873753806,0.0003893752791403471,0.0016576151427617801,7.523469326189349e-06,0.0016466050863545023,2.0173582165846625e-05,1.0066865191286718,0.01315267074818944,0.000499814348975036,2.7863381252718345e-06,0,49.26916592752256,22,3
1,X,1376,0.08656822839963878,0.0003222627360663707,0.0025935571742330093,0.0006001891938627117,0.1224259626733809,0.0004557483319925226,0.0015809897597070066,9.200345290955869e-06,0.0015944560351208745,1.6671875268604434e-05,0.9915543137488598,0.011865390242909253,0.00048516841362145156,3.351632753045889e-06,0,26.86650252637568,22,3
1,X,1397,0.08632039699361856,0.0002922549675182774,0.002644868411092524,0.0005549879235363328,0.12207547613780512,0.00041331093873525626,0.001510170941153143,1.014588435929277e-05,0.0015033540241551884,1.701738667494259e-05,1.0045344721791565,0.013222899181606794,0.0004621090462140075,3.476566321192782e-06,0,24.139651002325845,22,3
1,X,1418,0.0851233537393751,0.00028155108808237473,0.0013017624095411416,0.0005373333879063487,0.12038260133290679,0.00039817336726699626,0.0016379679232959219,8.98306047397909e-06,0.0016240398248173202,1.781607614207799e-05,1.0085762050078841,0.012369889480493567,0.0004942640807783232,3.165498968677796e-06,0,35.813699846800645,22,3
1,X,1439,0.08724308528165642,0.00032584467343306863,0.0008897844828266283,0.00063911369834203,0.12338035442859108,0.0004608139563960778,0.0013919145942955674,8.346638359176354e-06,0.001393461179883467,1.8108570931987922e-05,0.9988901121823652,0.014296290224675386,0.0004304755961331265,3.041112045602111e-06,0,44.39075794219042,22,3
1,X,1460,0.08507535748151875,0.00030130140523773315,0.0012321419383228387,0.00058863480522685,0.12031472437410318,0.00042610453364927414,0.0016355878536104267,8.41326747506982e-06,0.0016382502804242888,1.341162055796772e-05,0.9983748351239882,0.009652747660604609,0.000493267601515577,3.080546318229419e-06,0,64.89022975147834,22,3
1,X,1481,0.08416849871136223,0.0003135407355667311,0.001805354106533141,0.0005671999167763158,0.11903223240219085,0.00044341356059490744,0.0016678287306687643,9.954772515121925e-06,0.001640450999108563,1.715864012208916e-05,1.0166891492492485,0.012243863589577367,0.0004976293234105211,3.5012099020380917e-06,0,25.781752149021827,22,3
1,X,1502,0.08485498688238002,0.0003038672211767047,0.001642424738781333,0.0005597068591459255,0.12000307328405291,0.00042973314534872076,0.0016274777714791588,1.0585106889566762e-05,0.0016079248873170228,1.6715278440912466e-05,1.012160321863518,0.012411644576664483,0.0004895503532051281,3.6347469157594423e-06,0,38.84017991126539,22,3
1,X,1523,0.0888243543772828,0.00032313438471839027,0.002889117370346347,0.0006384037684709977,0.12561660662938734,0.0004569810293378329,0.0013605509304558535,9.395611194573812e-06,0.0013610712769225794,2.1532781960185568e-05,0.9996176934481327,0.01725539338236278,0.00042840230135132625,3.3438325557791434e-06,0,20.43747869633463,22,3
1,X,1555,0.08799082579984277,0.00032190122057832994,0.0013718324720758315,0.0005550127343749372,0.12443781921054609,0.00045523707188632745,0.0013503415378131258,7.681360554739012e-06,0.0013222455227390394,1.6796380960153797e-05,1.021248712580917,0.014214181224766673,0.00042119766294461945,2.8486813598908586e-06,0,36.883367386780805,22,3
1,X,1576,0.08744409201914216,0.00010218930357522017,0.0013581601817285187,0.0006184443865515193,0.12366462088287178,0.0001445174990455378,0.0014404743211843933,6.651994163950219e-06,0.0014221063569516716,1.721043018917818e-05,1.0129160270910356,0.013120499125038949,0.00044652000946485875,2.126994759634832e-06,0,44.2230657277878,22,3
1,X,1597,0.08883346593535672,0.0003551817792208917,0.0014489439147702436,0.0006106514612555827,0.12562949231838982,0.0005023028892819914,0.0013236503533109586,9.04454407966198e-06,0.0013439398655677543,2.0025023858837932e-05,0.9849029612286824,0.016144822041178505,0.00041682601735315057,3.2999518825859464e-06,0,22.024312306945916,22,3
1,X,1618,0.0863916554574159,0.0002983461031118775,0.002460981961859882,0.0005867465478540831,0.12217625082374117,0.000421925105301979,0.0014373077393552841,7.688275209182661e-06,0.001431301410265958,1.2145220075017935e-05,1.0041964110747366,0.010072812416476187,0.0004401761344966357,2.8026028498505843e-06,0,37.986760090497505,22,3
1,X,1639,0.0846174171977852,0.0002914775719243841,0.0017769162604033331,0.0005701349644257423,0.11966709901409023,0.00041221153534304333,0.0016240077261064389,1.0100118096303144e-05,0.0016143202058403797,1.904397155936906e-05,1.0060009905290233,0.013415917927350352,0.0004871388742353236,3.4633059700477674e-06,0,32.974731971880594,22,3
1,X,1660,0.08461909411944273,0.00031293000351881426,0.0011033813947440132,0.0005448497914748261,0.11966947053944132,0.0004425498550497675,0.0015660251997135957,8.829747239277376e-06,0.0015655660411574446,1.8483346510478106e-05,1.000293285970748,0.013087276714450011,0.000469755690754496,3.167511417426735e-06,0,23.23099468396508,22,3
1,X,1681,0.08487359070877362,0.00032276140581711247,0.0015328793622180151,0.0005997133159505547,0.12002938306765076,0.0004564535575171669,0.0016257564512926247,1.0571028170670147e-05,0.0016423767839224917,2.3655004393591458e-05,0.9898803168721293,0.015642698993654423,0.0004891397915271108,3.684509823400278e-06,0,21.7751565292263,22,3
1,X,1702,0.08387954540003666,0.00027566878950205994,0.0029837502732160902,0.0005520546854415009,0.11862359071042161,0.00038985454083678706,0.0016861810567315983,9.15427898058627e-06,0.0016632410246940875,1.5028175988362984e-05,1.0137923678510334,0.010686443885031713,0.0005013779219794046,3.1818752660098877e-06,0,49.35910083545661,22,3
1,X,1734,0.08582688130003753,0.0002943633040197969,0.0011058849312144997,0.000565249774638384,0.12137753955069885,0.0004162925768097514,0.0015923732637243217,1.0443477819141997e-05,0.0016207892425252359,2.368066656612812e-05,0.9824678137938272,0.015734278019762325,0.0004844769739689897,3.585658235646648e-06,0,38.67728337625859,22,3
1,X,1755,0.08798894482567958,0.00033797902738557804,0.0016357492369240556,0.0006468164550267918,0.12443515911137404,0.00047797452432635223,0.0013753958843694943,8.904084827097466e-06,0.0014009948844150887,1.71607540509006e-05,0.9817279846412273,0.013601378514970081,0.00042900342761471915,3.229372626783641e-06,0,34.95845647406631,22,3
1,X,1776,0.08501047309240904,0.000298778868808675,0.0012885376234367054,0.0005620351414416767,0.12022296399103793,0.0004225371284197199,0.001636793910039483,9.749213072896181e-06,0.0016335761470772894,2.0794806977082387e-05,1.0019697661281053,0.014081886567776335,0.0004932548515775724,3.411307432542966e-06,0,29.95659973664882,22,3
1,X,1797,0.08375848084509378,0.0002967025282459511,0.0007178806483485915,0.0005626990314297065,0.11845237957489874,0.00041960073943581033,0.0016736393972995789,1.0702825197267704e-05,0.0016780934388651927,2.1623705021531254e-05,0.9973457726116693,0.01434726480171058,0.0004969304556061351,3.632815554628858e-06,0,33.85226312334346,22,3
1,X,1818,0.08691908150736939,0.0003185771530061785,0.0016260278096839522,0.0005468773474646966,0.12292214389673428,0.00045053613044354623,0.0014032780839456887,7.915735404520794e-06,0.0014069019419245166,1.298966605842712e-05,0.9974242284619561,0.01079176633253181,0.0004323782136812743,2.9086371456281575e-06,0,32.80459375151456,22,3
1,X,1839,0.08895309717086455,0.00034002476880301,0.0019676451296573366,0.0006486954836841367,0.12579867643412845,0.0004808676395839928,0.0012982087044960079,8.946176092665635e-06,0.0013003063236054393,1.6644458606279483e-05,0.998386826956578,0.0145140448880576,0.00040936482489780214,3.225936523595224e-06,0,15.809463177363904,22,3
1,X,1860,0.08499353742228796,0.00029506539409928067,0.0023015213479800956,0.0005961018503992523,0.12019901333666483,0.000417285482122165,0.0016007359236086503,1.0347183826568323e-05,0.0016060702496348345,2.2340078670997793e-05,0.9966786471342726,0.015287419638608466,0.00048229252220824187,3.538714974959969e-06,0,15.947673832097303,22,3
1,X,1881,0.08388404563099115,0.00028222337606890037,0.002832107603183585,0.0005241513541791463,0.11862995499807127,0.0003991241260553613,0.001645808350765582,9.964054143092445e-06,0.0016349432154575039,2.0570821517033692e-05,1.0066455735008741,0.014055582277923251,0.000489399545193129,3.389700322510047e-06,0,34.641755589394414,22,3
1,X,1916,0.08675281673875235,0.0003020468322927106,0.0030539143480348713,0.0005789040208566645,0.12268701000601123,0.00042715872670018307,0.0015474855840976107,8.770711786892643e-06,0.0015416174078541462,1.7162321156508616e-05,1.003806506214556,0.012539926587370468,0.0004758993685735694,3.1655438508373506e-06,0,25.49876522005152,22,3
1,X,1937,0.08808816359875156,0.0003086638588010364,0.00214739255819907,0.0006083053137088065,0.12457547564589444,0.00043651661533083974,0.0013582915008501356,8.983606659631468e-06,0.0013401556451025816,1.884344906246502e-05,1.0135326488485341,0.0157487893051458,0.00042414609354996256,3.174640631976288e-06,0,53.82755705397695,22,3
1,X,1958,0.08609969569116821,0.0002894513870175058,0.0037791405834078557,0.0005346666153236967,0.12176335736264643,0.0004093460771678603,0.0016252448129191505,8.67230954135751e-06,0.0016308474007932872,2.0036881062601202e-05,0.9965646155051592,0.013348873511750839,0.0004960498665574661,3.128448042942038e-06,0,58.23772373880997,22,3
1,X,1979,0.08528644133151432,0.00028016896891768455,0.0010612152029504612,0.0005040377750789193,0.12061324201756485,0.0003962187555994756,0.0016568716404397803,8.423637301419007e-06,0.0016364075637536858,1.4922569620731463e-05,1.0125054889377025,0.010571145312305802,0.0005009262491789908,3.032120201614401e-06,0,34.261479878433825,22,3
1,X,2000,0.08561519983425617,0.0002805467094320814,0.0015302827509268146,0.0005475570102394686,0.12107817675088783,0.00039675296135799343,0.0016235508190839934,9.478610858323012e-06,0.0016421578089978487,1.786724525520697e-05,0.9886691828203706,0.012207822057133718,0.000492744396104862,3.2988929354599145e-06,0,38.18658403324918,22,3
1,X,2021,0.0852358181907219,0.0002843227487066949,0.003072439679373904,0.0005812286099811663,0.12054165008528628,0.0004020930873122053,0.0016414541454783966,9.357272115809253e-06,0.0016158171763421029,1.5102141060673957e-05,1.0158662561035097,0.011121430012746866,0.0004959704723104323,3.2758034132382755e-06,0,29.554822586924868,22,3
1,X,2042,0.08547818577199132,0.00029542751940181183,0.0014975875567286247,0.0005820581417995418,0.12088440960579705,0.000417797604636283,0.0016052298821602788,9.25532302578754e-06,0.0016012140283318045,1.6950936507119204e-05,1.0025080056491,0.012084836098278845,0.00048640436504065153,3.2697370158251697e-06,0,27.51670514282645,22,3
1,X,2063,0.0845771683227363,0.00027925433321275236,0.002148136585151746,0.0005166622487128442,0.11961017850912581,0.00039492526538092987,0.0016698766138504772,9.809225252620093e-06,0.00162227281801782,2.0641479316175466e-05,1.0293438904381214,0.014425571938156452,0.0005006594930722535,3.373722980485197e-06,0,29.55910197352083,22,3
1,X,2095,0.08605345844883623,0.0002911791450263972,0.002313168214168875,0.0005721879428004961,0.1216979680274538,0.00041178949597653336,0.0016118175317148076,7.5853465574224766e-06,0.0015915359135987262,1.3835521163907607e-05,1.0127434247275144,0.01001125098296035,0.0004916874647714419,2.8499489935992015e-06,0,38.40537897028948,22,3
1,X,2116,0.08498209718284355,0.0002993064034386724,0.002218807176104422,0.0005370035723684141,0.12018283439488575,0.00042328317504808366,0.0016525764434592595,8.539115894403262e-06,0.0016391530958990033,1.5516398108886286e-05,1.0081891969663115,0.010872872931433065,0.0004978447529534906,3.1131786356912354e-06,0,36.421452393886085,22,3
1,X,2137,0.08582422058498859,0.00028459897130551426,0.0033251039035964987,0.0005403327469907655,0.12137377673139105,0.0004024837250576896,0.001625085580083719,8.296049546592222e-06,0.001627229611323306,1.4581885305288163e-05,0.9986824039922408,0.010299682372188522,0.0004944143151936924,3.0097308892725573e-06,0,22.230295368014744,22,3
1,X,2158,0.08551993720993883,0.0003175653111109714,0.0028132839911698213,0.0005484331531028527,0.12094345505559101,0.00044910516991236715,0.0016555126020415037,1.0330934036284473e-05,0.0016538865282853233,2.1881344250047135e-05,1.0009831833855412,0.01464248326047834,0.000501885670722837,3.6444845897686467e-06,0,35.151916548122635,22,3
1,X,2179,0.08543502733763118,0.00030852242694802043,0.003938220857166126,0.0005708538566213501,0.12082337436259416,0.00043631660048615295,0.0016052478201680068,8.037139982764403e-06,0.0015821899924938986,1.6946975740329778e-05,1.0145733621015791,0.011995816770433688,0.00048616420933307716,3.001199730750435e-06,0,59.80620646177622,22,3
1,X,2200,0.08425810501663557,0.0002918013582142875,0.002373712174860638,0.0005699495969890781,0.11915895485438255,0.00041266943830553515,0.0016741034939463835,9.831668317264866e-06,0.0016926500747577542,2.0803265244033027e-05,0.9890428736051513,0.013472146691194758,0.0005000332941797783,3.409163025307086e-06,0,19.049636075594588,22,3
1,X,2221,0.08571001378863849,0.00030162150763599044,0.002255820653800578,0.0005712485848246217,0.12121226393107754,0.00042655722680223773,0.0016298123790537467,8.606137286708408e-06,0.001624334311603171,1.6157756059287823e-05,1.003372499990577,0.011299956062302795,0.0004951925578036343,3.142313117309369e-06,0,46.325865918538476,22,3
1,X,2242,0.0848386444025833,0.00029696444046687807,0.0023157123012232175,0.0005462634728177068,0.11997996152748158,0.00041997113925079654,0.001661081379488369,9.40528447173523e-06,0.0016903064802885049,2.3494936394615827e-05,0.9827101764437727,0.01474931656573583,0.0004995621918150413,3.325459845859317e-06,0,34.210678036360605,22,3
1,X,2274,0.08606666103308873,0.0003193252579957413,0.00215082847890253,0.0005644760482387472,0.12171663930116206,0.00045159411066586497,0.001612459921044048,8.359655690376502e-06,0.0015910348695841179,1.6478152654473898e-05,1.013466110560814,0.011737977708218359,0.0004919588929000211,3.13635926419025e-06,0,41.97048455373147,22,3
1,X,2295,0.08533547320852862,0.00030015571610551476,0.00268304532799326,0.0005626923383847766,0.12068258356302708,0.00042448428454022746,0.001597542645537501,9.918896546939255e-06,0.001624461739568022,1.9235757682095807e-05,0.9834289147138181,0.01314879514256427,0.000483266836549838,3.448561922091946e-06,0,46.33597473328454,22,3
1,X,2316,0.08518242163008172,0.00029717020425242766,0.0028646231344238372,0.0005750223511303041,0.12046613594504485,0.00042026213318696604,0.0016373602810692914,8.037900314073211e-06,0.001637093440381618,1.1029290264812917e-05,1.0001629966140548,0.008337282194800434,0.0004944235692738115,2.97762188146297e-06,0,54.013985479376394,22,3
1,X,2337,0.08777270985624906,0.0003320338897737515,0.0017311942299644838,0.0006319255367921696,0.12412935668494607,0.0004695668300855327,0.0014499447682956193,9.235492022561154e-06,0.001450690253559555,1.8898423580060927e-05,0.9994861168591251,0.014493545466370023,0.00045114473987598947,3.342167760027685e-06,0,38.80008275242179,22,3
1,X,2358,0.08831490138206229,0.0003274248305573095,0.002658066371552446,0.0005695788121559979,0.12489613129415489,0.00046304863603185975,0.0013915937247913593,8.826048338606858e-06,0.001405346069702269,1.810356345239207e-05,0.9902142645093652,0.014218114297904575,0.00043566370650103566,3.200613710997773e-06,0,34.72214821519405,22,3
1,X,2379,0.08475244752230979,0.0002930699584304867,0.002985397979414707,0.0005573738707906703,0.11985806073036454,0.0004144635099365135,0.0016216233631029856,8.740604776992814e-06,0.0016274333459953387,1.398484325062526e-05,0.9964299718285545,0.010107522160700802,0.00048719988099781665,3.1199780470611184e-06,0,41.78420210564599,22,3
1,X,2400,0.08525925018993596,0.00031504282661743165,0.0030401763711710734,0.0005984248532102397,0.12057478793636833,0.00044553783813072734,0.0016438841674035148,1.0735143279910507e-05,0.0016063146672230244,2.4336933381239668e-05,1.0233886304763935,0.016884110207735885,0.0004968412590342239,3.7279449572770207e-06,0,19.7128998740734,22,3
1,X,2421,0.08410263359762449,0.00027859643923627153,0.003173272967255197,0.000504354354605258,0.11893908506505568,0.0003939948627967871,0.0016923939497060906,1.0511490370707881e-05,0.0016738846719953414,2.027468581839564e-05,1.0110576779992169,0.013762493292736797,0.0005045636871206779,3.5517097069351215e-06,0,40.47271155180822,22,3
1,X,2453,0.08525488530137847,0.00028053923202944774,0.0020265995193587175,0.0005229864785091447,0.12056861505177208,0.0003967423867137776,0.0015974583948935898,9.074579124912578e-06,0.001564163640220992,1.9222929496853628e-05,1.021285979175359,0.013827157592011835,0.0004827849935618286,3.1694248998800083e-06,0,40.55972427423126,22,3
1,X,2474,0.08414195602615264,0.00023727539529082612,0.0032788725368803036,0.00044646211944565455,0.11899469537678564,0.0003355580820377235,0.0016837310103356314,7.875924662014025e-06,0.001666264851591365,2.0182882145644076e-05,1.0104822223955485,0.013120589308826695,0.0005022156550309238,2.7430627607252517e-06,0,31.344710216475455,22,3
1,X,2495,0.08615110621669314,0.00028689276174283636,0.002624834388071413,0.0005165697439947814,0.12183606282509252,0.00040572763460339223,0.0015869288893090128,1.115142692663786e-05,0.001579741705885085,2.6785272815119608e-05,1.004549594023601,0.018437455956231138,0.00048464446451314963,3.7686851313361916e-06,0,17.97565700302565,22,3
1,X,2516,0.08435068547009358,0.0002809310725631045,0.002950283894936573,0.0005408445237618433,0.11928988338727353,0.0003972965329107625,0.0016825849620589048,8.449257872262453e-06,0.0016544762419049008,1.627012111183613e-05,1.016989497607799,0.011229515833463422,0.0005031188063376448,3.031628798497698e-06,0,48.42014746736134,22,3
1,X,2537,0.08525859316668939,0.0002935063325856045,0.0031132040946698194,0.0005333491603464371,0.12057385876518223,0.00041508063618495017,0.0016372682083563496,9.532216753485258e-06,0.0016272361708767862,1.9396103570114597e-05,1.0061650777306395,0.013347313409556758,0.0004948378635536884,3.3469143239779877e-06,0,37.284357612735405,22,3
1,X,2558,0.08320658137278411,0.00028145433856938866,0.0028405030676046396,0.0005712393257727628,0.11767187585609185,0.00039803654279357836,0.0017163603090368917,9.622897773375187e-06,0.0017075258821823837,1.55164150595174e-05,1.0051738172444078,0.010732723136577112,0.0005062570380007965,3.314944385958735e-06,0,39.440049419253825,22,3
1,X,2579,0.08581797062521489,0.0002742867254491851,0.002531386614286889,0.0005358600741012224,0.12136493795351477,0.0003879000071091432,0.0016045278986754632,8.967440954221127e-06,0.0015921127273221141,1.549101748102487e-05,1.007797922308071,0.011308240250537858,0.0004881243188149473,3.142641943408569e-06,0,28.80157022665469,22,3
1,X,2600,0.08439559939290905,0.0002877697858106965,0.0030828516059369657,0.000574271854523686,0.11935340126605853,0.00040696793393468766,0.0016857435816956749,9.067280709537102e-06,0.0017014300742553242,1.7921149539166813e-05,0.9907804071427885,0.011717855289161463,0.0005043316790974157,3.211846792171647e-06,0,29.73485207668294,22,3
1,X,2632,0.08740438075887229,0.0003153796677199704,0.004012477674248965,0.000574729786100916,0.12360846068001918,0.0004460142033863024,0.0015185793253357596,9.602582720104241e-06,0.0015319248957803976,2.2345937442466373e-05,0.991288365061892,0.015759962506342273,0.0004705173205416439,3.4255817242020716e-06,0,22.51651582620726,22,3
1,X,2653,0.08570786930862015,0.00031039629477048336,0.0029028318135566663,0.0005987900640461237,0.12120923117835136,0.0004389666497747746,0.0016341699952896274,9.055384171026543e-06,0.0016307002464454967,1.871612623352705e-05,1.0021277661861485,0.0127721333992434,0.0004965041272248026,3.286745804986796e-06,0,32.63771548744333,22,3
1,X,2674,0.08905703883009158,0.0003771409824062438,0.0028764552246655804,0.0006146287593557442,0.12594567213830288,0.0005333578922456228,0.0014675886911272478,9.545682736341304e-06,0.0015243346196595782,1.889628891006482e-05,0.9627733124994542,0.013478052649594965,0.0004633162570299721,3.596004776147439e-06,0,52.64796255092806,22,3
1,X,2695,0.08258139918613945,0.0002620122270868964,0.003111660697476197,0.0005096957201350755,0.1167877347287849,0.0003705412450538681,0.0017249079682335091,1.0209092829124682e-05,0.0017073095319747329,2.141799843884874e-05,1.0103077010519712,0.014013964887623274,0.000504955488856475,3.390981573256278e-06,0,22.94237183081726,22,3
1,X,2716,0.08838417719883196,0.00029988929008289045,0.0028458067880856907,0.0005927675567804837,0.12499410209377504,0.000424107501245663,0.0014858563333213805,7.70777836783818e-06,0.00149276377293447,1.7969443112873258e-05,0.9953727175469225,0.013047194321974152,0.0004655392204530745,2.8856685788272237e-06,0,69.91224766903179,22,3
1,X,2737,0.08318065645965422,0.00031457381076215355,0.004407443703396437,0.0006291634178195385,0.11763521249234021,0.00044487454954722505,0.00169743773331445,1.1339894491581944e-05,0.001727689383844203,2.09795292985394e-05,0.982490110309967,0.013616815753478688,0.0005005196447216291,3.842363639111129e-06,0,32.79641945965127,22,3
1,X,2758,0.08542060397543681,0.00030353491288968295,0.0019237963324820208,0.0005156213487229397,0.12080297664816386,0.00042926319046232564,0.0016314186701075432,1.017655311577328e-05,0.0016150982766177573,2.2298280826106227e-05,1.010104891897949,0.015303021502072914,0.0004940068806697288,3.5464601541362545e-06,0,28.584466168386307,22,3
1,X,2779,0.08420969883556118,0.0002721006298317149,0.0024076945712771065,0.000508518296163915,0.11909049817660444,0.0003848084010382724,0.001683438444768536,1.0460169512259093e-05,0.0016640466933024822,1.9157900890073387e-05,1.011653369790705,0.013235038255801126,0.0005025326541859643,3.5194988158248606e-06,0,53.36593846773933,22,3
1,X,2818,0.08493232359034115,0.00028934595130399184,0.003254623045881399,0.0005392664695481299,0.12011244390532083,0.0004091969685518504,0.0016276208243686944,7.784051312293546e-06,0.0016001897678438026,1.7732736302868627e-05,1.017142377158088,0.012276487763039749,0.0004900395986341656,2.8774216809958965e-06,0,42.24393160269252,22,3
1,X,2839,0.08279988653015376,0.0002589615647251331,0.0041713910019212114,0.00046288949286758346,0.1170967224938968,0.0003662269569676413,0.0016878036249389342,9.353563617106088e-06,0.0016644904116994046,1.8287932251551485e-05,1.0140062166027903,0.012477990480417932,0.0004954006692266295,3.152468800175988e-06,0,45.66488990862306,22,3
1,X,2860,0.08417098584530729,0.0003014264910094795,0.003930799854425648,0.0005510874742671747,0.11903574974074738,0.0004262814316441377,0.0016344480471496478,8.849626078869833e-06,0.0016475525569953685,1.8120288058152942e-05,0.9920460747731051,0.012161325342005215,0.00048768395395190113,3.1658398585775886e-06,0,37.922187032097966,22,3
1,X,2881,0.08333748783099736,0.0002858495173201757,0.003928414771094806,0.0005413943268225486,0.11785700554469924,0.00040425226419199545,0.0016841614059640091,8.836931961622366e-06,0.0016875221461790004,2.834098880743008e-05,0.9980084763790502,0.017559988651704325,0.0004975411980929656,3.118949309480632e-06,0,40.641082440803274,22,3
1,X,2902,0.08396758260910794,0.00033312293369471235,0.0037760418633595886,0.0006067633445607112,0.1187480941254837,0.00047110697076857555,0.0016520281173931406,1.0356261134668287e-05,0.0016433494804710654,1.9178621497788565e-05,1.0052810659115476,0.013317503256846103,0.0004917382789930074,3.6480675017775496e-06,0,32.27793344671698,22,3
1,X,2923,0.08248419809465192,0.000308029836239849,0.004195844522122224,0.0005495394222153247,0.11665027162692576,0.0004356199720259579,0.0017072727144226715,1.0305689909287514e-05,0.0017118394836075504,2.296186792096837e-05,0.9973322445073793,0.014669980017356544,0.0004992046109483468,3.5434139953120587e-06,0,34.69132074357111,22,3
1,X,2944,0.08559040409219086,0.0003510164770814949,0.0027382941503432236,0.0006070253018047934,0.12104311027616999,0.0004964122625050749,0.001628153940536846,1.0632789741715687e-05,0.0016276085927915298,2.2722921089925967e-05,1.0003350607435544,0.015418012663815987,0.0004939983216937424,3.809481691800947e-06,0,32.1013419871037,22,3
1,X,2965,0.08549931987507893,0.00028391391369735866,0.0024190145356959504,0.0005415153000013176,0.12091429774101214,0.00040151490729722905,0.0016417691866963272,9.33981035712005e-06,0.0016532391619294826,2.339004445107955e-05,0.9930621198086254,0.015143120401793388,0.0004975992217783145,3.277740008961791e-06,0,39.883707667311505,22,3
1,X,2997,0.08408244355235571,0.0003074014667005871,0.004139455050967079,0.0005960055029954087,0.11891053202921165,0.00043473132330135167,0.0015999563730358627,9.836994847115299e-06,0.0016020678238654173,1.5727059199742453e-05,0.998682046541288,0.011567892048782663,0.0004768901991280115,3.4112638173513507e-06,0,35.640743544187515,22,3
1,X,3018,0.0824027308814162,0.00029463674804385193,0.0032860386240233744,0.0005146054208651397,0.11653505958907906,0.00041667928505711993,0.0016583886414272074,1.0688650853043127e-05,0.0016282545738328274,2.1437301311302858e-05,1.0185069755544711,0.014930053570956092,0.0004844320310098609,3.570541415576971e-06,0,33.89526907387432,22,3
1,X,3039,0.08366320109108617,0.0002957667809427915,0.0049307090578034115,0.0005662003273015115,0.1183176336545616,0.000418277392908728,0.001661587051833681,8.868056296321241e-06,0.0016785474193488177,1.4557026555643075e-05,0.9898958067435971,0.010080186083272121,0.0004927907061798469,3.1547200591743356e-06,0,45.829198217857765,22,3
1,X,3060,0.082801640392219,0.00026210306828111933,0.002984054267452657,0.0005301385912749355,0.117099202829416,0.0003706697139027604,0.0017218086908141438,1.0441628069642334e-05,0.0017118519378845766,1.8449710768614835e-05,1.0058163633835477,0.012438558956024292,0.0005053924716031993,3.4572742618386164e-06,0,63.26929516949176,22,3
1,X,3081,0.08420150826495942,0.0002942562707183651,0.003614405095072045,0.0005134310559648483,0.11907891496057588,0.000416141208863241,0.0016420024548260595,8.834068629830386e-06,0.0016385687118672483,1.4585899078928481e-05,1.002095574591375,0.010422934755675137,0.0004901156891331265,3.144302278760906e-06,0,42.32133428622323,22,3
1,X,3102,0.08225366141952274,0.0002841786845190925,0.004078213941258267,0.0005345842427571005,0.11632424353433368,0.00040188934978424573,0.0017296727385519262,9.561551155990661e-06,0.0017053945897526205,1.9235627591045584e-05,1.0142360887885937,0.012739890977105494,0.0005043408100829855,3.2876929145116416e-06,0,23.89811277822763,22,3
1,X,3123,0.08537309981096046,0.000283152946098225,0.0018324934360937023,0.0005136558460442811,0.12073579561449221,0.00040043873659800777,0.001617505560003149,1.0158966619882085e-05,0.001597856232579675,2.110118638508933e-05,1.0122973062424714,0.014803204792988259,0.0004895214929371112,3.4768640481358058e-06,0,53.88469270052244,22,3
1,X,3144,0.08385644674307614,0.00028623853697331934,0.004307993495672924,0.000548602668921909,0.11859092427647544,0.0004048024210615009,0.0016819944961910219,8.088858866807207e-06,0.001671397883323375,1.3854443387078929e-05,1.0063399702568587,0.009643923976692368,0.0004999953420091835,2.948652851141188e-06,0,40.243401310856804,22,3
2,Y,103,0.08354022109197441,0.00030592136181807145,0.0007094081024800155,0.000558012003494488,0.11814371367191712,0.00043263813890276337,0.0013725453650384864,7.436657576264915e-06,0.0013949887228888005,1.482408904062121e-05,0.9839114413743522,0.01173631641955582,0.0004064688416721687,2.658142883026794e-06,0,60.50427665528913,22,3
2,Y,124,0.0738112695753459,0.0002672766624245992,0.0018108585556483967,0.0005087999673240801,0.10438489848943078,0.0003779862809066836,0.001612797536276416,1.0189535495294554e-05,0.0016430557816572977,2.2784494495188958e-05,0.9815841642635157,0.014957936195249507,0.00042199514911985534,3.0729947571725148e-06,0,68.40281686700604,22,3
2,Y,145,0.07456851827664233,0.0002889035569111728,0.0022567240945331937,0.0005076608531059671,0.1054558098728936,0.0004085713284016079,0.001590638746825571,1.0198569414910539e-05,0.0016154377060234822,2.0343683852193004e-05,0.9846487678816438,0.013914586620518378,0.0004204670838420684,3.1498385213003996e-06,0,55.14923450411644,22,3
2,Y,166,0.07302934721031153,0.00025503375505895253,0.0018112428916043856,0.0003895991940835368,0.10327909327607632,0.00036067219526730865,0.0016445384577337472,9.959220793923018e-06,0.0016741011429006513,2.2340076076595493e-05,0.9823411594381437,0.01439559153704805,0.0004257418907854831,2.976234066439769e-06,0,114.1397234760432,22,3
2,Y,187,0.07490850057688465,0.0002790285739723771,0.001809269968797126,0.000517603114039163,0.10593661745286309,0.00039460599360136017,0.0015977935905553268,7.801421024997413e-06,0.001603282027392123,1.6860276360786033e-05,0.996576748979265,0.011554635019884844,0.0004242840548286201,2.6056381902029588e-06,0,77.1945880119907,22,3
2,Y,208,0.07862921933603154,0.0002877087706931828,0.0009878718466903294,0.00047785005469442557,0.11119850838382461,0.00040688164552799,0.0015054379077295381,7.523400176598123e-06,0.0015342224589754698,1.9979850312739094e-05,0.9812383457968973,0.013687053870909864,0.00041961571392117915,2.5990284289902177e-06,0,79.22673822627289,22,3
2,Y,229,0.07464720715924701,0.00026125100036618,0.0010049789345273124,0.00047792743289189166,0.10556709275788112,0.0003694647079013902,0.0015924896596962261,9.643447329044643e-06,0.0016157670877069734,2.239590209900442e-05,0.9855935746012864,0.01490799956008605,0.0004214005681522502,2.947356011639158e-06,0,83.26135540925094,22,3
2,Y,250,0.07315412134568368,0.00028307970628714573,0.0007497558777025656,0.0004774135860472136,0.103455550550553,0.0004003351598638738,0.001653571670692087,9.534537943550369e-06,0.001684640637601841,2.1092940562802238e-05,0.9815575107139871,0.013530402292675275,0.0004288118255956939,2.9777309234098004e-06,0,88.48135743707475,22,3
2,Y,282,0.07472701657063711,0.0002568291609288841,0.001686817049246165,0.00045902330769633453,0.10567996030987403,0.0003632112825985301,0.0015704592442108238,8.935951925698876e-06,0.0015401989263592016,1.937475160227497e-05,1.0196470191828746,0.014077675558979715,0.000416015245186528,2.7654424254029017e-06,0,87.93250258920509,22,3
2,Y,303,0.07273435557964268,0.00025075644860923167,0.0019255032169356026,0.0004415824894517669,0.10286191211119788,0.0003546231704756875,0.0016532241147148147,1.0193746660738277e-05,0.0016534123076528398,2.0858431712528437e-05,0.999886179063048,0.014040026669614045,0.00042626164721571455,3.011260697374799e-06,0,90.61214302766237,22,3
2,Y,324,0.07378146699992147,0.00027753231662944986,0.00141328278482537,0.0004986213381319081,0.10434275128307191,0.0003924899661741921,0.001621760221077081,1.0368075162469417e-05,0.0016327394337399474,1.9851968878380517e-05,0.9932755879866774,0.013644635590688542,0.00042416893796854593,3.146320050257811e-06,0,86.45395709545804,22,3
2,Y,345,0.07279903954162201,0.0002962377963950119,0.0014133074374597192,0.0005156949311850296,0.10295338904749707,0.00041894350934934543,0.001645300753932412,1.1469222845606556e-05,0.0016911650123618005,2.6157358546647976e-05,0.9728800808353192,0.01650526252102209,0.0004245959802738811,3.4272087472620073e-06,0,76.4699687218382,22,3
2,Y,366,0.0742020285832879,0.0002871435347180957,0.0011717481339431238,0.0004910583703494246,0.10493751517808181,0.0004060822811460807,0.0016280989107027766,1.0138891746196437e-05,0.001656881595109714,2.117875042278557e-05,0.9826283999460858,0.01397158399096995,0.00042825406718329244,3.139894599317754e-06,0,102.46067853641958,22,3
2,Y,387,0.07352896108521641,0.00023215010611558464,0.0008102028554273103,0.0004324371676296249,0.10398565399391657,0.000328309828575013,0.0016393193666934492,8.947801415787483e-06,0.0016603759165087887,1.3916413961175889e-05,0.9873182033020484,0.00987523913802291,0.00042729413457751736,2.6943495343960473e-06,0,62.406528246112025,22,3
2,Y,408,0.07422914260969271,0.00026070479260164627,0.0024617490201793994,0.0004699647142324718,0.10497586020195404,0.0003686922534729131,0.0016111665017436224,9.047954319061729e-06,0.0016392762391101766,1.801085401090196e-05,0.9828523486793095,0.012127491024884144,0.0004239550375029702,2.8081142095794345e-06,0,70.73273833953593,22,3
2,Y,429,0.07298206385418543,0.00028083549070648744,0.0007575513117906698,0.0004984057532659885,0.10321222451256828,0.00039716135975281786,0.0016427020395893691,9.894276664706377e-06,0.0016709699552750915,2.017772934049257e-05,0.9830829300093139,0.013265986070124098,0.00042499113291964556,3.0375944050058143e-06,0,109.28916302430729,22,3
2,Y,464,0.07499420985008419,0.0002754536539735776,0.0007987438924577976,0.0005170889513462797,0.10605782866944302,0.00038955029325465906,0.001563023402267969,9.723721252546563e-06,0.0015831584690479945,1.733048937275398e-05,0.9872817111024056,0.012430895154344116,0.0004155259453504413,3.001955036175054e-06,0,83.09244750130549,22,3
2,Y,485,0.07352644640479952,0.00028095180870315966,0.0009717756728508396,0.0005112322117896707,0.10398209769876599,0.00039732585824125977,0.0016601485551863229,8.340923554970015e-06,0.0016629696142847125,1.5324319811637545e-05,0.9983036015365783,0.010477882319096497,0.00043270853389153457,2.731327158907119e-06,0,65.97705310466674,22,3
2,Y,506,0.07404490243095278,0.00028746484145538093,0.0014585775870687608,0.000530002714757772,0.10471530524244599,0.00040653667749163125,0.0016256002403425458,9.670611211875309e-06,0.0016383144631452375,1.502234501838265e-05,0.9922394490870312,0.010845304416224319,0.0004266913629670322,3.0310788602841563e-06,0,44.512224234561046,22,3
2,Y,527,0.073476246002487,0.0002530706379113189,0.0022000096955289154,0.0004833669192272127,0.10391110360897904,0.000357895928372598,0.001644261684395974,1.1180358752289704e-05,0.0016560235856894628,2.422734160364991e-05,0.9928975037583225,0.016018202141555898,0.00042827510304403136,3.2643928351413003e-06,0,52.57285173007948,22,3
2,Y,548,0.07370354234591082,0.0002635293561393159,0.0006716896630492344,0.0005206614039432446,0.10423254918052682,0.00037268678953567,0.0016485832794688124,9.514126021193735e-06,0.0016695964410741646,1.7370557260146032e-05,0.9874142271219547,0.01174772591483167,0.00043072907083831387,2.9242009749289243e-06,0,45.46160834195671,22,3
2,Y,569,0.07327624937701374,0.0002365308482137933,0.0009468334967379429,0.0004716126166697711,0.1036282656688059,0.0003345051334635585,0.0016805653155425179,7.626119261433669e-06,0.0017148014871252756,1.5068767565581599e-05,0.9800349067575443,0.009692517350775443,0.0004365395134794422,2.4309980639617737e-06,0,93.37585765650628,22,3
2,Y,590,0.07361608656230645,0.00027964475428803216,0.0018583221780138102,0.0005227537895026835,0.10410886802524555,0.0003954774041606268,0.0016278823352158162,1.0039045508013719e-05,0.0016598889735086968,1.7732403995721126e-05,0.9807176029218241,0.012097267476421402,0.0004248158080088102,3.076943763121141e-06,0,73.25915157670569,22,3
2,Y,611,0.07341939421267943,0.00022556365093777414,0.0023928126116317984,0.00043103660700585057,0.10383070303678799,0.0003189951743345909,0.0016464161534068674,9.496859876918257e-06,0.0016454682947899329,2.092462592461741e-05,1.0005760418598983,0.013971637611222162,0.00042850446066369183,2.8004313475463106e-06,0,69.65268225330553,22,3
2,Y,643,0.07597941189239375,0.0002767523292325145,0.0018281592559240317,0.0005079479378083911,0.10745111475935487,0.00039138689741896604,0.0015449617837182215,8.453806642695963e-06,0.0015601289225985347,1.5347589061112535e-05,0.9902782785059513,0.011147355530970102,0.000416120010529042,2.7352966091496294e-06,0,72.90536004439359,22,3
2,Y,664,0.07403556093982598,0.0002453823319699132,0.0009962968061934092,0.00045061435080968307,0.10470209437900169,0.00034702302183858835,0.001631968489165787,8.963098170979672e-06,0.0016427751201039305,1.931644429811593e-05,0.9934217223003354,0.012892485015873966,0.0004283088736652727,2.7475075333725053e-06,0,61.19528961130141,22,3
2,Y,685,0.07465071206213134,0.00028450818813425437,0.0020930542286942493,0.0005511700984401826,0.10557204943907494,0.0004023553382656586,0.0015993611726170455,8.29223108184395e-06,0.0016184414112226393,1.2416314489472314e-05,0.9882107325768563,0.009150284946133794,0.00042323876179923,2.7234501126397696e-06,0,56.229306431757,22,3
2,Y,706,0.0807357831486826,0.0002899799891351135,0.0006905025949832448,0.0005179817172891061,0.11417763949768012,0.00041009363345168026,0.0014904353521027229,8.48156211742913e-06,0.0014964556437729514,2.0788143332748134e-05,0.9959769661765251,0.014951594881075964,0.0004265639384117068,2.8704946176848907e-06,0,69.07051697157524,22,3
2,Y,727,0.07396721334409949,0.00025284458926993163,0.0008658232914466333,0.0004914005244591922,0.10460543628216967,0.00035757624731819204,0.0016388744176378447,9.210855898900761e-06,0.0016240563364070192,1.768365289555852e-05,1.0091241177406494,0.012365291511424771,0.00042972425308289745,2.8267893835875197e-06,0,53.57306917613958,22,3
2,Y,748,0.0730355503220531,0.0002870946698415408,0.0017216865369377823,0.0005241390025611279,0.10328786580083016,0.000406013175774933,0.001676536513450352,9.147573214211388e-06,0.0016690175353880428,2.110308363956974e-05,1.0045050323935398,0.013833081187289934,0.0004340624870274586,2.9189650416178577e-06,0,62.26929871837287,22,3
2,Y,769,0.07456011503198294,0.00027746070267953206,0.0013438159804987063,0.0005494993264447822,0.10544392589032836,0.00039238868875496324,0.001600319148523844,9.892457643842813e-06,0.0015927708824673625,1.9750381947413176e-05,1.004739078381938,0.01392105626480638,0.00042297831537941845,3.0518899910459136e-06,0,67.19482815547492,22,3
2,Y,790,0.07340228697105702,0.00029098369096879084,0.001666926196184767,0.0005217440264044393,0.10380650974367078,0.00041151308219744553,0.0016501547548800155,1.0590130432885687e-05,0.0016773900235519442,1.9549921224175877e-05,0.9837633059160226,0.0130890269626981,0.00042937741637374423,3.2389256944716977e-06,0,48.36744420047692,22,3
2,Y,822,0.08273899536684558,0.000289312326159149,0.0008299570181951675,0.0004756224381275123,0.1170106093849177,0.00040914941541597694,0.001391111056184637,9.107919979261666e-06,0.0014251657710812916,2.0301333830219765e-05,0.9761047342086971,0.015302855542272427,0.00040801579677759395,3.028483303128221e-06,0,71.78694137064359,22,3
2,Y,843,0.07616424710696944,0.00026162949104975363,0.0005846556426469321,0.0004961016446622784,0.10771251122661196,0.00036999997455933187,0.0015838933400650968,8.803976457306385e-06,0.001584785928228219,1.5355709898260115e-05,0.9994367768244131,0.011164284600947783,0.00042764364058341353,2.7943153391442183e-06,0,45.287998806011515,22,3
2,Y,864,0.0738523157088127,0.0002801178913433883,0.0016077746703323864,0.000510940332624415,0.10444294648806252,0.00039614652100117276,0.001629253502061196,9.105740349774618e-06,0.001667355250599885,1.6629021985787376e-05,0.9771483920268458,0.011171264038331937,0.000426537984793288,2.881019699609334e-06,0,64.2904039505029,22,3
2,Y,885,0.073189071261756,0.00026509225456113896,0.0011001544144090619,0.00044248107738511215,0.10350497719586627,0.0003748970616804237,0.0016502850047005124,1.0574694786387478e-05,0.001661242190726395,2.5581538743434024e-05,0.9934042211984205,0.01656902926196,0.0004281639730096483,3.1515578011574234e-06,0,58.56617103378575,22,3
2,Y,906,0.07411246747159005,0.0002969755159261657,0.0016025211956004998,0.0005246025120251436,0.10481085663925749,0.00041998680231553065,0.0016108238514330616,1.0006891310477278e-05,0.0016460508439829235,1.950502147138341e-05,0.9785990860011203,0.013092951307865983,0.00042319863312998925,3.128500950666327e-06,0,53.16518164134941,22,3
2,Y,927,0.07342125393898706,0.0002604296519109514,0.001747505101524405,0.0004725475130340039,0.10383333308695453,0.00036830314577657175,0.00165265678070758,9.538957117799192e-06,0.0016961118963455442,2.1957060334199137e-05,0.9743795702797716,0.013810825247698052,0.00043013957261424385,2.914060916905681e-06,0,59.818765397488484,22,3
2,Y,948,0.07451098587736213,0.00028598244634356584,0.0017757668905159288,0.0005170999258381236,0.10537444677355567,0.00040444025421970675,0.0016068505122863528,9.170872348044609e-06,0.001646137183936151,1.8168107085811128e-05,0.9761340233164176,0.012128643743998494,0.00042442476543123225,2.919139860073201e-06,0,73.53001746688575,22,3
2,Y,969,0.07345485260667303,0.0002619686092304974,0.0024753760758760733,0.0004877191873020257,0.1038808487784737,0.000370479560089787,0.0016615008189344628,9.402678482552412e-06,0.0016730230564989627,1.8140215521245204e-05,0.9931129236266404,0.01214653678637061,0.00043263931600171727,2.8940008608300558e-06,0,51.180883669951086,22,3
2,Y,1018,0.07340827113434728,0.0002746308701174495,0.0002715693714426037,0.0005206594437831913,0.10381497262855532,0.00038838670116642104,0.001658296806547488,9.557474107275764e-06,0.0016929702160141708,1.7417962287561425e-05,0.9795191851937503,0.011551200563383967,0.00043153119145084706,2.9651329132044213e-06,0,69.7148936303266,22,3
2,Y,1039,0.07242393225020242,0.0002629463872611128,0.0019776514182040243,0.0004813521583234799,0.10242290722862646,0.00037186234704167376,0.0016927839404924823,8.974425895113187e-06,0.0017018906072837387,1.3473081614124809e-05,0.9946490880481497,0.009476782536828189,0.0004345988405157459,2.792560202120525e-06,0,55.26904598985327,22,3
2,Y,1060,0.07244431138620706,0.0003041180387011787,0.0012227758021155716,0.0005284876951681985,0.10245172767915367,0.00043008785489351276,0.00165687237613297,1.113221498211423e-05,0.0017097674147017606,2.059139885991672e-05,0.9690630210203081,0.013364138991942255,0.00042549873958678484,3.3709942087116065e-06,0,56.130999786067825,22,3
2,Y,1081,0.07361510098556007,0.00024861520652976653,0.0009518250399680568,0.00048632132681354883,0.10410747420924404,0.0003515949968865839,0.0016614529599640008,9.665595462645022e-06,0.0016959026956578397,2.0623547776515237e-05,0.9796864903970944,0.013206857689845556,0.0004335706684317213,2.916536987484971e-06,0,60.865722900212404,22,3
2,Y,1102,0.07287197165708689,0.00028650493866637974,0.001459703760272376,0.00048314829408685597,0.10305653063432008,0.00040517916994886605,0.001657782818145129,9.766410631812813e-06,0.0016834688353737242,2.3465116624729584e-05,0.9847422080594126,0.014901528948185581,0.0004282457743293368,3.0331306051980585e-06,0,91.23674309452794,22,3
2,Y,1123,0.07173261481974241,0.0002732160288332483,0.0023597169377361483,0.0005271669554934133,0.101445236742565,0.0003863858134336984,0.0017016037012653324,1.0234323319617595e-05,0.0017202190145740738,1.786531119721915e-05,0.9891785213679024,0.01187149138416661,0.0004326931458435273,3.0803818119285145e-06,0,53.9553467374235,22,3
2,Y,1144,0.07244778477863618,0.00026160584528775585,0.002350111662453104,0.0004766101048039668,0.10245663979783437,0.000369966534402022,0.0016626130813444382,1.0142258306441283e-05,0.0016604779107919855,2.1166461523128837e-05,1.001285877119217,0.01414982801319852,0.0004269934724067488,3.026879254090234e-06,0,51.704088871178406,22,3
2,Y,1165,0.07246453395845877,0.00023820151066161112,0.0015170077070615726,0.0004383041045546982,0.1024803267150981,0.00033686780695540985,0.0016556078839536008,9.389958858692024e-06,0.0016567064817372054,1.7410223290194143e-05,0.9993368784418272,0.011933809876005898,0.0004252926931909318,2.7879376810884732e-06,0,127.2100264056893,22,3
2,Y,1197,0.07356405854516743,0.00027596611571577533,0.0013516875592612468,0.0005416996389140229,0.10403528929778416,0.00039027502360067245,0.0016340105966291532,1.0911802200352576e-05,0.001659312438209438,2.4344397572178686e-05,0.9847516109699099,0.015873877937692103,0.00042611368482905066,3.2638051610086977e-06,0,47.36213627443364,22,3
2,Y,1218,0.07156025557718589,0.0002744014733700809,0.0015263753255478263,0.0004967607192922149,0.10120148396414119,0.0003880622851751281,0.001707816146545609,9.488302109739546e-06,0.0017341970342954864,1.8993802910302842e-05,0.9847878371210601,0.012094237383634233,0.0004332294090123123,2.924565150650122e-06,0,68.86634847572817,22,3
2,Y,1239,0.0723879141055433,0.00026614965258069833,0.0011157880834882442,0.0004993188199772285,0.102371969879958,0.000376392448300511,0.0016603877812059865,8.283515388672378e-06,0.0016493155568025216,1.6631970137980126e-05,1.0067132237720053,0.011326286465236033,0.00042606957516669146,2.6405106120871236e-06,0,78.31746964828498,22,3
2,Y,1260,0.07216046312932432,0.00026264171311851306,0.0019529470082493706,0.000478677099508425,0.10205030562461415,0.00037143147273710486,0.0016990453812084111,1.0142828509836516e-05,0.0016967336879225106,2.1191151663219114e-05,1.0013624373125585,0.013861626646462817,0.00043461951500336566,3.038762031562807e-06,0,55.48915517752728,22,3
2,Y,1281,0.07257770920685319,0.00029723096952897885,0.0027231266108404743,0.0005115012048498349,0.10264038068630243,0.0004203480682651861,0.0016493426283227628,9.985236759486135e-06,0.0016692024325674836,1.8751407394526138e-05,0.9881022194449037,0.012609398934139994,0.0004243449831460557,3.1016003182634884e-06,0,57.74669665342843,22,3
2,Y,1302,0.07053680125766118,0.00025421466632200544,0.0004109442750735083,0.00043242394299448304,0.09975410098500004,0.000359513828866731,0.0017328260555318587,9.947426575052233e-06,0.0017642948755839682,1.688223668415044e-05,0.9821635144512373,0.010959675449398111,0.0004332870037215126,2.936876655664552e-06,0,67.86201520369772,22,3
2,Y,1323,0.07305009478832537,0.00028099773813936783,0.0010307732828018072,0.0005114420977540419,0.1033084347822899,0.00039739081227285755,0.0016460210747668872,1.0308769796613364e-05,0.0016775725011844275,2.179317909495245e-05,0.9811922129176153,0.014150503261264552,0.00042624677605422096,3.1328373143670773e-06,0,59.83878582022917,22,3
2,Y,1344,0.07343131070321207,0.0002895394208748332,0.0016117818329175364,0.0005389746417287546,0.10384755549931513,0.00040947057584284074,0.0016133001881599384,9.727109693878911e-06,0.001607588816297419,1.8263014472360394e-05,1.003552756653081,0.012907020221502542,0.0004199536851757392,3.025415033994171e-06,0,71.85935567309208,22,3
2,Y,1376,0.07421852838598825,0.0002959344954949214,0.0013526076777719063,0.0005315235691091124,0.10496084942283712,0.0004185145771029575,0.0015883113428104528,9.073416630066643e-06,0.0016314510276661156,1.7451273662513717e-05,0.9735574748343034,0.011805970024987658,0.0004178812722521187,2.9111928564459837e-06,0,73.8380477409902,22,3
2,Y,1397,0.08030103294453848,0.0002907239297238968,-9.453913139107514e-05,0.0005266003068408329,0.11356280986273504,0.0004111457243219374,0.0014678701661986278,8.462077200556238e-06,0.001475413069127228,1.6449630340598407e-05,0.9948875992178501,0.012487233662472444,0.00041784355476050315,2.844443154905929e-06,0,84.87841688868339,22,3
2,Y,1418,0.07364345758207451,0.00027395737522499107,0.0025761234163405723,0.0004761044783784845,0.10414757649261752,0.0003874342355553173,0.0016213279037715102,1.0089535114093052e-05,0.0016572052487859978,1.8963335163685926e-05,0.9783506931077065,0.012743639366034554,0.0004232626627284205,3.068715397815625e-06,0,67.68423602925206,22,3
2,Y,1439,0.08578537697429225,0.0002953921770019031,0.002693794827984763,0.0005545826288819865,0.12131884357033274,0.0004177476229350052,0.0013567568918291814,6.662628070520825e-06,0.0013629178715755484,1.5718939013976064e-05,0.9954795663958498,0.012478564466680912,0.00041259145798526947,2.4745823045503196e-06,0,52.17538936252135,22,3
2,Y,1460,0.07396679357462752,0.0002726666758752023,0.00029413506985784374,0.0005152650152961128,0.10460484263848935,0.0003856089110298999,0.0016018168014568165,9.849865146132331e-06,0.0016388499515907914,1.6243783221195755e-05,0.9774029647448641,0.011400649636973513,0.0004200051052083896,3.0112213408827913e-06,0,96.07426438154418,22,3
2,Y,1481,0.07315939549659416,0.0002865538033482432,0.0012202739959271622,0.00048001392425274877,0.10346300932630059,0.0004052482750446784,0.0016431031892182515,1.0476916996704165e-05,0.0017182771286718774,2.5167648295642048e-05,0.9562503986119335,0.01527585791202803,0.00042612781081789714,3.1888155017710025e-06,0,134.7360463419807,22,3
2,Y,1502,0.0743971385608687,0.00028853724870294865,0.0015591315512741963,0.000518960222479826,0.1052134423545309,0.00040805329036552873,0.0016108692270864824,1.1258101906554275e-05,0.0016565612548557623,2.1673824492882903e-05,0.9724175440930144,0.014424104265765517,0.0004248361351777712,3.395643324821916e-06,0,80.53799290635105,22,3
2,Y,1523,0.08622020301097272,0.0003108099745670166,0.0019359665046476114,0.0005463961476981543,0.1219337804486792,0.00043955168135351164,0.0013512407484011497,7.772435418180345e-06,0.0013876287391298803,1.4471915714583383e-05,0.9737768542099036,0.011597981953979654,0.0004129968189459997,2.803552179571334e-06,0,68.58994137419933,22,3
2,Y,1555,0.08615387768273473,0.00031806790285474046,0.0006311489762782386,0.0005819244624052442,0.12183998226995618,0.0004498159419727421,0.0013506084861171074,8.260776787937037e-06,0.001348551276482102,1.7335518793206202e-05,1.0015254960422209,0.014257535876987863,0.0004124860213777676,2.946876949209772e-06,0,38.471791352421015,22,3
2,Y,1576,0.08216299238067454,0.00031993105460501416,0.0017407614261609773,0.0005216136655170642,0.11619601814990721,0.00045245083644673834,0.0014270562021331693,8.791243541239478e-06,0.0014211057081500774,1.9451070404174824e-05,1.0041872282610405,0.015072585783876668,0.0004156447097989965,3.0291551487295047e-06,0,68.57635506773397,22,3
2,Y,1597,0.08832464174534001,0.0003445693662332066,0.0010911119762481826,0.0006045956185586083,0.12490990624800469,0.00048729467090530276,0.001305367770363755,7.259866390999065e-06,0.0013298472286647279,1.1948195055441923e-05,0.9815922778396491,0.010372162451357216,0.0004087141770263916,2.7765486835079607e-06,0,52.269931844966614,22,3
2,Y,1618,0.0840539769540037,0.00030440990789977837,0.0010797485791065957,0.0005286942081049013,0.1188702741797476,0.0004305006202726114,0.0014009447212560034,8.301391486909609e-06,0.0014175160414095075,1.8916195900444263e-05,0.9883096066150854,0.014430366205923674,0.0004174305189181777,2.8989138612556656e-06,0,81.64527960926826,22,3
2,Y,1639,0.07446818395933703,0.0002534065848303053,0.001980939499894987,0.00044459879338481817,0.10531391572058901,0.00035837102906166596,0.0016082842252544245,7.944669963189815e-06,0.0015931729998717805,2.08798663194413e-05,1.0094849871193274,0.01413873780483301,0.00042455943547213196,2.5467075864605525e-06,0,83.03772917980967,22,3
2,Y,1660,0.07773962567779495,0.00026811172300087664,0.0015525869618390228,0.00048030441106544294,0.10994043296734535,0.00037916723489905824,0.0015299879462514507,9.241033258174057e-06,0.0015364896612310185,2.0624018442162474e-05,0.9957684616150565,0.014656847713285055,0.0004216337688661287,2.932564335888994e-06,0,63.84056714586088,22,3
2,Y,1681,0.07437141266097583,0.00027885552235018595,0.0021004352289628703,0.0004845469413115437,0.10517706043799813,0.00039436126165026675,0.0015892668804807573,8.832347373231331e-06,0.0016239187974271332,1.6073594482206663e-05,0.9786615457612309,0.011109285085474409,0.0004189939922442802,2.8089641077901035e-06,0,122.00085816225612,22,3
2,Y,1702,0.07174711363622138,0.0002445985663325133,0.0017736980739789918,0.0004640988214237626,0.10146574116546792,0.00034591460984445543,0.0016675339450156425,9.187510549171283e-06,0.001698916461997079,1.3788697048685539e-05,0.9815279222472503,0.009628401796785167,0.0004241154070692507,2.7478819463272143e-06,0,72.74263850519169,22,3
2,Y,1734,0.07443778319404372,0.00030469650270326755,0.0016298138173389278,0.0005582706050634975,0.10527092254600467,0.00043090592653061144,0.0016006709124856714,9.757625549479051e-06,0.0016279929742929362,1.7296062731659214e-05,0.9832173343259475,0.01204325111262603,0.0004223771506002466,3.1014066309945033e-06,0,68.17176070690901,22,3
2,Y,1755,0.08661287329675928,0.00030287547994704134,0.002564254104653483,0.0005401000623032133,0.12248910009237945,0.0004283306114513663,0.0013427182932306298,7.927515977399679e-06,0.001364953492758157,1.5756779475278698e-05,0.9837099215134453,0.012754813846505588,0.000412261029966291,2.828915276739729e-06,0,71.96175946516408,22,3
2,Y,1776,0.0741104993636264,0.0002727648777341145,0.001084675810146967,0.00045259923414288204,0.1048080733142831,0.0003857477894306238,0.0015918703711191536,8.456370593985804e-06,0.0015879621383572589,1.9864449026662368e-05,1.002461162434224,0.013624060581795158,0.0004182080334909825,2.7027343289623696e-06,0,80.41183556415947,22,3
2,Y,1797,0.07276769648705846,0.0002581161282701695,0.0007046418023170911,0.0004923677315645303,0.1029090632746471,0.0003650313292669072,0.001655150246673031,9.764434031928038e-06,0.0016678092195752674,1.7882176709856887e-05,0.9924098195682955,0.012144904669717448,0.0004269538974222774,2.9390219725981787e-06,0,75.60085601783078,22,3
2,Y,1818,0.08526828654908827,0.0002890984175853064,0.0011768782974822243,0.0005369151439664602,0.12058756727803599,0.0004088469030097408,0.0013806358290686298,7.246017975206734e-06,0.0013900016926687454,1.7579313426531435e-05,0.9932619768382199,0.013600465196304683,0.0004173223147888801,2.6075149552062336e-06,0,67.48072518184372,22,3
2,Y,1839,0.09070997931950514,0.0003341104131876768,0.0014926601913536968,0.0005902476665621616,0.12828328299622715,0.00047250347766009115,0.0012723694627532127,6.8617132163348655e-06,0.001307789754328566,1.8260031013316625e-05,0.9729159129301036,0.014562400603272331,0.00040914122138642516,2.6719624462086284e-06,0,57.17265221647455,22,3
2,Y,1860,0.07586452275779833,0.0002564256417841366,0.002401401070502164,0.00045420612526048777,0.10728863698704072,0.00036264062035135103,0.0015678925746702036,8.374487456196408e-06,0.0015885050753269437,2.0528364597450413e-05,0.9870239629845075,0.013801919969914665,0.0004216576320494306,2.665247845129339e-06,0,95.99845690936698,22,3
2,Y,1881,0.07455475888132362,0.00024682615429489415,0.0010352632977746106,0.000470246828160611,0.10543635114942385,0.0003490648949522335,0.0016023175219715723,8.797043762594133e-06,0.0015965247113700072,1.8020681471824738e-05,1.00362838768502,0.012597381979412913,0.00042347607962102234,2.7149681360636523e-06,0,44.10576851545351,22,3
2,Y,1916,0.07745273264713042,0.00024981664657840966,0.0008623010995290678,0.0005047167192064577,0.10953470495242923,0.0003532940896977532,0.0015122697724040872,7.654423062336736e-06,0.0015156915891338684,1.677396933556934e-05,0.9977424056751963,0.012141954054322836,0.0004152130056560536,2.4920565601216706e-06,0,71.93908851010845,22,3
2,Y,1937,0.08651333342060867,0.0003284796265664595,0.0019295852901466902,0.0005675208916796753,0.12234832944953034,0.0004645403428535366,0.001349504054026561,7.547917618875684e-06,0.0013690448101660291,1.6394797401664778e-05,0.9857267227527065,0.013028456599475022,0.0004138683080403967,2.7977932601403866e-06,0,53.030158703735424,22,3
2,Y,1958,0.07423432157338047,0.00025490305961533714,0.0015012799761189857,0.0004826685672595359,0.10498318436264031,0.0003604873639984074,0.001568997220191982,9.21259643790377e-06,0.001590857223394223,1.760627902543413e-05,0.9862589785677932,0.012356150857357862,0.0004128876093708053,2.808453986594404e-06,0,52.01374853650378,22,3
2,Y,1979,0.07213962228625423,0.0002465463972723242,0.0016181576722726155,0.0004058551813553606,0.10202083222169311,0.00034866925877674593,0.0016331239639928424,9.516948579671683e-06,0.0016415324830572676,1.815853690134168e-05,0.9948776407709187,0.01243898397831013,0.00041763601932612255,2.821419790665548e-06,0,91.73288369238746,22,3
2,Y,2000,0.07358018815700088,0.00026301127961400936,0.0012004894962605714,0.000494590407900705,0.10405810001359483,0.0003719541186872344,0.001608891599123319,8.700628337317362e-06,0.0016299804429521837,1.308369199837409e-05,0.9870619037669747,0.009553406844217509,0.000419655201158783,2.7203782731398397e-06,0,74.56377804850037,22,3
2,Y,2021,0.07308365547591245,0.00026059044711998036,0.0013999323861157206,0.00045889561703742405,0.1033558967618381,0.0003685305445419451,0.0016253547810656413,9.766587153011227e-06,0.001641198950845488,1.6931669299119834e-05,0.9903459786080875,0.011823753024218207,0.0004210884862445306,2.94222024802812e-06,0,72.03475120709051,22,3
2,Y,2042,0.07515594538950579,0.0002714365400170184,0.0004471300028877743,0.0004900543427962166,0.10628655726281078,0.0003838692362156948,0.0015693354243152074,9.127952662250968e-06,0.0015982599278033757,2.119061579634243e-05,0.9819025034758134,0.014216249033522355,0.000418103739902412,2.8625607120645707e-06,0,81.69796094841676,22,3
2,Y,2063,0.07290460460435227,0.00028541250124021413,0.0013260263019336902,0.000521199193441913,0.10310268059092298,0.00040363423012473865,0.0016464359210879922,1.064739512912599e-05,0.0016627194224834835,2.2290714157927346e-05,0.9902067052472571,0.014738683502310876,0.0004255050548027792,3.2166468862676195e-06,0,57.89974681869582,22,3
2,Y,2095,0.07349100484488705,0.00027052701998713885,-5.742745772832142e-05,0.00045124914349896393,0.1039319757640661,0.00038258298065418916,0.0016044111242799037,8.727637020058584e-06,0.0016269995571641077,1.722102876472547e-05,0.9861165095068766,0.011735344906651015,0.0004179793074739193,2.7453823861305988e-06,0,87.80485976987322,22,3
2,Y,2116,0.07266416090697288,0.00025665403425581724,0.0014074363994588195,0.0004896184714548494,0.10276264185310191,0.00036296361608234573,0.001632911213960062,1.063468223762908e-05,0.0016504831606020537,1.7838851556958917e-05,0.9893534529394521,0.012484445834250945,0.00042061791517620525,3.116289576918679e-06,0,51.66971465844733,22,3
2,Y,2137,0.07327451868543998,0.0002432323180651242,0.001840782303619389,0.0004625939169056904,0.10362581810131,0.000343982443015145,0.0016208955421375694,8.553119261123158e-06,0.001658858892750164,1.4330616854506892e-05,0.9771147800584434,0.009891279996924556,0.00042102989545694894,2.624719798179965e-06,0,70.96099306970669,22,3
2,Y,2158,0.07231961728673211,0.0002404462133108566,0.0012484573376136477,0.000449407938101937,0.1022753835925283,0.00034004229588546764,0.0016573718375163635,9.304228842144271e-06,0.0016547073654248482,1.5808304687908162e-05,1.0016102376451508,0.011098695110695363,0.0004248943989262634,2.77223208829838e-06,0,77.04495785207288,22,3
2,Y,2179,0.07390774084528362,0.0002291247780007071,0.00237022576235839,0.00042960707472458636,0.10452132946775605,0.00032403136852432457,0.0015993159475945823,7.940438029282232e-06,0.001635742352330128,1.4144252118810957e-05,0.9777309643638827,0.00974894748402836,0.00041901457251751717,2.4526172838240544e-06,0,56.02061444731876,22,3
2,Y,2200,0.07279247164061164,0.0002612329507608917,0.0016282328955502597,0.0004338416681465189,0.1029441006328119,0.00036943918190479597,0.0016305043072697934,9.696309164580025e-06,0.0016462398224255466,2.0358660045703444e-05,0.9904415414197861,0.013591134724678267,0.0004207395599205886,2.9223579390814127e-06,0,57.84189158289489,22,3
2,Y,2221,0.07359713189114547,0.00024095532963193115,0.0010388056084885537,0.0004699427035858847,0.10408206207221937,0.00034076229509155676,0.0015948809622643937,8.124395201109392e-06,0.0015986530027827857,1.1928822359621202e-05,0.9976404882661678,0.009013486682608615,0.0004160965319222842,2.5196429850988775e-06,0,79.49817211491519,22,3
2,Y,2242,0.07235804167356755,0.000263231036471186,0.001054848729379331,0.0004873143639995634,0.10232972388151684,0.0003722649018150781,0.0016535155036668356,1.0292872448248612e-05,0.001694171555746111,1.749083699745631e-05,0.9760023995554745,0.01176624182103328,0.0004241309914651675,3.0579504335688816e-06,0,123.42713883870695,22,3
2,Y,2274,0.07377523526623046,0.00025501614804349467,0.0011683055120250434,0.0004667591582566898,0.10433393828076898,0.00036064729518725525,0.0016139282426929098,1.0219720608047773e-05,0.0016430694984869935,2.3220250288172113e-05,0.9822641368360144,0.015211366629795345,0.0004220848426826891,3.0450228794107197e-06,0,80.41749861679172,22,3
2,Y,2295,0.07606744967065064,0.00025035153339773717,0.002036172593344482,0.00044578642897339705,0.10757561897936696,0.0003540505338919808,0.0015644107581230025,8.423156808913765e-06,0.0015762747546981695,1.591486432434093e-05,0.9924733955550543,0.011356315425521884,0.00042184662772198444,2.662044483619973e-06,0,92.36231716031627,22,3
2,Y,2316,0.07403721234418385,0.0002931627426433702,0.0018616260761878344,0.0005223229388352073,0.10470442981744155,0.0004145947266287475,0.0016088054223907158,1.0114856621319282e-05,0.0016257638261809346,1.9938722285374534e-05,0.9895689622827594,0.013638103499702793,0.00042223916269072177,3.137315299046665e-06,0,54.48481114051735,22,3
2,Y,2337,0.08082788393449587,0.00030162364632703117,0.0015050358017619871,0.0005353220744349722,0.11430788967808247,0.00042656025136811326,0.0014409101661475637,7.646569177378634e-06,0.0014407920908543178,2.0641698842518018e-05,1.0000819516528412,0.015279149037213051,0.0004128602266530577,2.6784148746939106e-06,0,89.03023812897831,22,3
2,Y,2358,0.08512656074903528,0.00031610522867493707,0.0007481743798674899,0.0005636976674964692,0.12038713672946288,0.00044704030152914465,0.0013614773685841977,7.096883771370459e-06,0.0013857351151939832,1.4285685158789176e-05,0.9824946727958253,0.011349797387110826,0.0004108473084399267,2.6294410861873657e-06,0,55.24263214280674,22,3
2,Y,2379,0.07602943716818157,0.00025895105792899753,0.0012264501391697827,0.0004761767897535947,0.10752186118283547,0.0003662120981140493,0.0015729891909403095,9.015463855707492e-06,0.0016262357741030152,1.943509808806176e-05,0.9672577715909152,0.012820268214042288,0.0004239478584726545,2.826481722650875e-06,0,99.17948929327642,22,3
2,Y,2400,0.07364572450097075,0.0002825104114648661,0.002280329662303792,0.0005248136285079438,0.10415078240006537,0.00039953005540521724,0.0016219791546512022,7.68921643647905e-06,0.0016562336644106823,1.2717778177443301e-05,0.9793178278551242,0.00883758301723913,0.0004234457120552236,2.5822937101200352e-06,0,89.24534852446423,22,3
2,Y,2421,0.07220759914167528,0.0002658124183741107,0.001277612266500077,0.0004767829492804608,0.10211696601255704,0.0003759155271118586,0.001639194095126283,1.0323804289599748e-05,0.0016544028717356588,1.8671167218444134e-05,0.9908070900569581,0.012805354635513348,0.00041958332300993603,3.060872563014113e-06,0,76.23796410981073,22,3
2,Y,2453,0.07646253825974934,0.00024365627316394963,0.0017185670449401432,0.0004888631856818037,0.10813435862040921,0.0003445820060657412,0.0015481366245958836,8.906810597713309e-06,0.0015709249517569586,1.9007611523265832e-05,0.9854936882022352,0.013203441896045458,0.0004196265203803149,2.759800383299311e-06,0,108.95570465082378,22,3
2,Y,2474,0.07272927682493661,0.00025927013924490464,0.0022695848607494117,0.0004484346680428424,0.1028547296674126,0.000366663347238505,0.0016454440629861222,9.509979203271366e-06,0.0016683092912105435,2.0033860832439774e-05,0.986294370986911,0.013144280810044533,0.0004242260411982115,2.88073663677539e-06,0,86.20958883009916,22,3
2,Y,2495,0.07455970360806935,0.0002713203213628437,0.0013446037598286074,0.0005227101434024544,0.10544334404904987,0.0003837048782187602,0.0015835163159397439,1.0630829724926183e-05,0.0015933213238964964,2.006307616780218e-05,0.993846182932659,0.014182022350774441,0.0004185348706106176,3.1960353492965896e-06,0,66.86862965565521,22,3
2,Y,2516,0.07257854035640295,0.0002718044851382849,0.0016052175839246946,0.0004867739707644853,0.10264155610926806,0.0003843895891963989,0.0016448204126361182,8.70881519094487e-06,0.001671213655837059,1.8823905116129974e-05,0.9842071400573128,0.012249435240183551,0.000423186347918247,2.7444720150108394e-06,0,113.74636475180449,22,3
2,Y,2537,0.07398578377563174,0.00025485917223627794,0.001334015546741278,0.0004716710210267896,0.1046316988383017,0.00036042529787172484,0.0016031493043376765,9.513819683563375e-06,0.0016454520666088833,2.2689484696858756e-05,0.9742911002212367,0.014626056425566338,0.00042046241635633426,2.8851125802800774e-06,0,107.31388328579466,22,3
2,Y,2558,0.07150737998615712,0.0002610767176121181,0.00017651461454082004,0.0004558811379323899,0.10112670658618983,0.0003692182348669082,0.0016975724448246635,9.965864308271407e-06,0.0017131829719844677,2.2234540539296812e-05,0.9908879977123974,0.014114711607871044,0.0004303126516543774,2.974912303132955e-06,0,100.39245379084514,22,3
2,Y,2579,0.07409700075823852,0.00026342710928260423,0.0008695633787916822,0.0004950936935397906,0.10478898340347043,0.00037254219064419836,0.0016039182312092785,1.020317980687016e-05,0.0016130086033522275,1.8706236806109373e-05,0.9943643374721889,0.013152717772639802,0.00042129643601974335,3.070170902728533e-06,0,69.80387626709341,22,3
2,Y,2600,0.07267937165318379,0.00023683796161455087,0.0017960774654679984,0.0003994892764576223,0.1027841530966872,0.00033493945740009634,0.0016478790473791413,8.623867682154667e-06,0.0016662407862536067,2.166967274005834e-05,0.9889801407900054,0.013864108111830179,0.00042456230039144394,2.617401243426792e-06,0,92.61077061879304,22,3
2,Y,2632,0.07828297467924215,0.00032354550050173284,0.0011304491052076435,0.0006050826164541408,0.11070884449429386,0.00045756243485434167,0.0014917228869585721,9.491321051728342e-06,0.001509569333684606,2.0197308527683073e-05,0.9881777893020165,0.014640209244194402,0.0004139619319233293,3.14080369640871e-06,0,100.92484065240527,22,3
2,Y,2653,0.07253060904028262,0.00026569370369665537,0.0026006756283957814,0.0004558197570571792,0.10257377099194831,0.0003757476392049486,0.0016362614967738126,9.153488855143474e-06,0.001646193840729668,2.0982360236960528e-05,0.9939664796999527,0.013835592001252006,0.0004207062532558203,2.813184495677592e-06,0,75.71855543507107,22,3
2,Y,2674,0.07799706080297739,0.00029583670396809384,0.0017891986401606889,0.0005496801056018929,0.11030450121280955,0.00041837627899943275,0.0014813223330694,7.818968718006419e-06,0.0014879997162679697,1.4711689690734748e-05,0.9955125104356087,0.01115737253984485,0.0004095743397270376,2.662152886227197e-06,0,32.4882191512372,22,3
2,Y,2695,0.0722976589014252,0.00023996813207222654,0.0010189064234869794,0.0004719614479580885,0.10224432974621944,0.0003393661869138809,0.0016996208660901748,9.438234975219725e-06,0.0017255891478805236,1.7981139857355104e-05,0.9849510633384287,0.011629925335321489,0.0004355933296947556,2.818065336639043e-06,0,51.83648215153444,22,3
2,Y,2716,0.07747115038160861,0.0002728121183906471,0.0008968096928722047,0.00047800236313145616,0.10956075156231648,0.0003858145978077876,0.0014875729356745035,7.90578353534921e-06,0.0015020137070835954,1.3064735997586716e-05,0.9903857259484462,0.010095243327912508,0.0004085292956972699,2.604520627542513e-06,0,53.103239698746854,22,3
2,Y,2737,0.0727783112507236,0.0002629512967767452,0.0012299286360378432,0.0004741533114974578,0.10292407481738375,0.0003718692901452658,0.0016922370892272012,9.934082614312244e-06,0.0017331730735259429,1.608457290917115e-05,0.9763809022168444,0.010721871550642303,0.0004365843013809239,3.0094408044918197e-06,0,108.64200340006532,22,3
2,Y,2758,0.07428875612776406,0.00023366991520199943,0.0013176405661673286,0.0004572160351473841,0.10506016644771132,0.00033045916319723867,0.0015948325726296835,8.891822398729493e-06,0.0016240626617225083,1.7592385659254894e-05,0.9820018711212639,0.01196368684677929,0.00041999402863017395,2.68857697375755e-06,0,71.69966685632835,22,3
2,Y,2779,0.07207717709756183,0.0002533165405836125,0.0020749677616564936,0.0004618966732354105,0.10193252138893938,0.00035824368726677935,0.0016584049083521787,1.0291566509879474e-05,0.0016826670279350903,2.5233788075634322e-05,0.9855811523134882,0.01599558743512613,0.0004237339637754861,3.0219859471757856e-06,0,74.77564318985533,22,3
2,Y,2818,0.07402088606977104,0.00025107443691469426,0.0016817881075312025,0.0004554484214783477,0.10468134097874393,0.0003550728738499487,0.0016132749569444918,9.076579553113441e-06,0.0016281184925027647,1.7241006593900088e-05,0.9908830127373253,0.011882006939246407,0.00042331884625124405,2.7810208933302298e-06,0,55.00117602710364,22,3
2,Y,2839,0.07333784067285919,0.00026204050511269365,0.002139539712964913,0.0005134951685999186,0.10371536891471467,0.00037058123622146777,0.001664164851735403,1.070047106264874e-05,0.0016929250383196136,1.744858480886526e-05,0.9830115416021268,0.011941608470139801,0.0004326427155300807,3.1825221674761952e-06,0,62.50670576329641,22,3
2,Y,2860,0.07405921066517282,0.00028035724883346426,-8.360623077487273e-05,0.0005204359524172952,0.10473554014133357,0.0003964850236098938,0.001636745251997741,9.401164077993819e-06,0.0016520917037651925,1.815180185627848e-05,0.9907108959312149,0.012282785188373972,0.00042969974972131554,2.9559489093470906e-06,0,91.8092510396799,22,3
2,Y,2881,0.07279822341604165,0.00024801073507695867,0.0008368871890011697,0.000463214522073027,0.10295223487163274,0.00035074014515995566,0.0016823735624696733,9.811700440650188e-06,0.0016755661266720334,1.6680391149413423e-05,1.004062767615839,0.0115844860080438,0.0004341583398252949,2.93239657807754e-06,0,95.45296569225442,22,3
2,Y,2902,0.07324155997509649,0.0002742059527796103,0.0013398598244338512,0.00046108016290991315,0.1035792074461439,0.00038778577730436137,0.00165493805524474,9.482235540730426e-06,0.0016952046772477237,1.9797265906855756e-05,0.9762467491132935,0.012699236007153171,0.00042967913043016057,2.940885862634269e-06,0,96.36505590287784,22,3
2,Y,2923,0.07245858653838312,0.00026038433862102397,0.0009482706036897051,0.0004994313269364669,0.102471915792966,0.0003682390631074006,0.0017083222165740126,1.0183767175238015e-05,0.0017192110445460296,2.148735413454287e-05,0.9936663808631521,0.0137595434894089,0.00043879793875915434,3.0543110390387747e-06,0,80.1206639134242,22,3
2,Y,2944,0.07420901440001701,0.0002652956454422081,0.001640913912019014,0.00048059107577993267,0.10494739461484437,0.0003751846998228947,0.0015924065818012604,9.93412366814863e-06,0.0016076818516613323,2.1890625468437082e-05,0.9904985741772933,0.014835036455572322,0.0004189050149295034,3.011997956953588e-06,0,81.366804773452,22,3
2,Y,2965,0.07321850620853719,0.0002719075971410628,0.0006524986989041297,0.0004444872112729089,0.10354660449681197,0.0003845354115891708,0.0016137220605617405,9.641468246946413e-06,0.0016413104645544624,2.1424532647579736e-05,0.983191233719325,0.014114381945673953,0.0004188461543976448,2.946484652035251e-06,0,99.345335830607,22,3
2,Y,2997,0.07556487990777994,0.0002688172344533325,0.00228730918059708,0.0004801166982875582,0.10686487800467659,0.00038016497876353084,0.0016005970974247595,1.0300124368036863e-05,0.0015783259134962767,2.668646233875616e-05,1.0141106369337547,0.018346567411739987,0.0004287527844349337,3.1526260975202186e-06,0,60.28634219860738,22,3
2,Y,3018,0.07440595914397527,0.0002476075252198181,0.0018412972300258152,0.00046248212580431543,0.10522591654278823,0.00035016992031150496,0.00163735071746518,8.872177778312143e-06,0.0016672351977974136,2.0939908806830593e-05,0.9820754262075837,0.01343350323469226,0.00043187132177090426,2.7462267778378127e-06,0,50.644557755723355,22,3
2,Y,3039,0.073527620518613,0.0002880041851507411,0.0011972168853134327,0.0005055798335402065,0.10398375814644478,0.00040729942466039004,0.0016551547805998747,9.203175242409576e-06,0.001692627043323313,2.2510480476310542e-05,0.9778614770033066,0.014095598515674391,0.00043141382314164747,2.9342348322788707e-06,0,63.372968525213324,22,3
2,Y,3060,0.07284748066966362,0.0002519571932472426,0.0006765517717346614,0.0004425002848097097,0.10302189514775018,0.00035632127982770934,0.0016814593394376572,8.637124551883158e-06,0.0016741126985132856,1.7227049945742305e-05,1.0043883789489776,0.011551553995626285,0.00043421601638322986,2.688918814440958e-06,0,49.597712750253514,22,3
2,Y,3081,0.07396416927037167,0.00025956866327254,0.0007688464915840702,0.0004947806789721322,0.10460113131181892,0.00036708552396708116,0.0016355396615592751,1.095998129488243e-05,0.0016662730622481285,2.192774936936686e-05,0.9815556037091615,0.014495303372511887,0.0004288322078379417,3.243884252990869e-06,0,95.2722429272687,22,3
2,Y,3102,0.07224430675511496,0.0002578650850087924,0.0019076787324372804,0.0004725751760748597,0.1021688784173258,0.00036467630048192534,0.001717865111749347,9.7008627859046e-06,0.0017359196827744113,2.1660675874366645e-05,0.9895994202933348,0.013553818298797352,0.0004399442234176754,2.9390569760476597e-06,0,50.44277134542592,22,3
2,Y,3123,0.07412280097516388,0.0002562098916376623,0.0007579299411141333,0.0004394387314920161,0.10482547042015844,0.00036233550356812305,0.0016029009474456703,8.560409757868848e-06,0.0016434521426301025,1.7964040207380637e-05,0.9753256002212903,0.011865402694012104,0.0004211758294554197,2.679338001882329e-06,0,100.83105670167502,22,3
2,Y,3144,0.07249384140024091,0.00025990004159438725,0.0010047766895661377,0.00047323345503452524,0.10252177369674487,0.000367554163684114,0.0016570362267889175,1.0295875822549993e-05,0.0016774383562023281,2.077205077605645e-05,0.9878373298559833,0.013686103025930419,0.00042583175911868403,3.0547268525847616e-06,0,104.86785937727095,22,3
